a:22:{i:0;a:3:{i:0;s:14:"document_start";i:1;a:0:{}i:2;i:0;}i:1;a:3:{i:0;s:6:"p_open";i:1;a:0:{}i:2;i:0;}i:2;a:3:{i:0;s:12:"internallink";i:1;a:2:{i:0;s:33:"Installing And Activating PolicyD";i:1;N;}i:2;i:1;}i:3;a:3:{i:0;s:9:"linebreak";i:1;a:0:{}i:2;i:38;}i:4;a:3:{i:0;s:5:"cdata";i:1;a:1:{i:0;s:1:"
";}i:2;i:40;}i:5;a:3:{i:0;s:12:"internallink";i:1;a:2:{i:0;s:32:"Limit Per user Per mail Per Hour";i:1;N;}i:2;i:41;}i:6;a:3:{i:0;s:9:"linebreak";i:1;a:0:{}i:2;i:77;}i:7;a:3:{i:0;s:5:"cdata";i:1;a:1:{i:0;s:1:"
";}i:2;i:79;}i:8;a:3:{i:0;s:12:"internallink";i:1;a:2:{i:0;s:30:"Group Wise Hourly Restrictions";i:1;N;}i:2;i:80;}i:9;a:3:{i:0;s:9:"linebreak";i:1;a:0:{}i:2;i:114;}i:10;a:3:{i:0;s:5:"cdata";i:1;a:1:{i:0;s:1:"
";}i:2;i:116;}i:11;a:3:{i:0;s:12:"internallink";i:1;a:2:{i:0;s:31:"Domain Wise Hourly Restrictions";i:1;N;}i:2;i:117;}i:12;a:3:{i:0;s:9:"linebreak";i:1;a:0:{}i:2;i:152;}i:13;a:3:{i:0;s:5:"cdata";i:1;a:1:{i:0;s:1:"
";}i:2;i:154;}i:14;a:3:{i:0;s:12:"internallink";i:1;a:2:{i:0;s:29:"User Wise Hourly Restrictions";i:1;N;}i:2;i:155;}i:15;a:3:{i:0;s:9:"linebreak";i:1;a:0:{}i:2;i:188;}i:16;a:3:{i:0;s:5:"cdata";i:1;a:1:{i:0;s:1:"
";}i:2;i:190;}i:17;a:3:{i:0;s:12:"internallink";i:1;a:2:{i:0;s:51:"Outgoing Email Restrictions To Specific Domain only";i:1;N;}i:2;i:191;}i:18;a:3:{i:0;s:9:"linebreak";i:1;a:0:{}i:2;i:247;}i:19;a:3:{i:0;s:5:"cdata";i:1;a:1:{i:0;s:0:"";}i:2;i:249;}i:20;a:3:{i:0;s:7:"p_close";i:1;a:0:{}i:2;i:249;}i:21;a:3:{i:0;s:12:"document_end";i:1;a:0:{}i:2;i:249;}}