a:66:{i:0;a:3:{i:0;s:14:"document_start";i:1;a:0:{}i:2;i:0;}i:1;a:3:{i:0;s:6:"header";i:1;a:3:{i:0;s:27:"Setup Hetzner Node with KVM";i:1;i:1;i:2;i:1;}i:2;i:1;}i:2;a:3:{i:0;s:12:"section_open";i:1;a:1:{i:0;i:1;}i:2;i:1;}i:3;a:3:{i:0;s:6:"p_open";i:1;a:0:{}i:2;i:1;}i:4;a:3:{i:0;s:5:"cdata";i:1;a:1:{i:0;s:101:"* While setting up bridge mode, make sure if route-eth0 file exists, then it is renamed to route-br0.";}i:2;i:44;}i:5;a:3:{i:0;s:7:"p_close";i:1;a:0:{}i:2;i:145;}i:6;a:3:{i:0;s:6:"p_open";i:1;a:0:{}i:2;i:145;}i:7;a:3:{i:0;s:5:"cdata";i:1;a:1:{i:0;s:48:"1) Add the following lines to /etc/sysctl.conf:
";}i:2;i:148;}i:8;a:3:{i:0;s:6:"plugin";i:1;a:4:{i:0;s:9:"code_code";i:1;a:4:{i:0;s:4:"code";i:1;N;i:2;s:0:"";i:3;s:177:"
net.ipv4.ip_forward = 1
net.ipv4.conf.all.send_redirects = 0
net.ipv4.conf.default.send_redirects = 0
net.ipv4.conf.lo.send_redirects = 0
net.ipv4.conf.eth0.send_redirects = 0
";}i:2;i:3;i:3;s:178:">
net.ipv4.ip_forward = 1
net.ipv4.conf.all.send_redirects = 0
net.ipv4.conf.default.send_redirects = 0
net.ipv4.conf.lo.send_redirects = 0
net.ipv4.conf.eth0.send_redirects = 0
";}i:2;i:201;}i:9;a:3:{i:0;s:7:"p_close";i:1;a:0:{}i:2;i:386;}i:10;a:3:{i:0;s:6:"p_open";i:1;a:0:{}i:2;i:386;}i:11;a:3:{i:0;s:5:"cdata";i:1;a:1:{i:0;s:62:"2) Create the file /etc/sysconfig/static-routes and add this:
";}i:2;i:389;}i:12;a:3:{i:0;s:6:"plugin";i:1;a:4:{i:0;s:9:"code_code";i:1;a:4:{i:0;s:4:"code";i:1;N;i:2;s:0:"";i:3;s:64:"
any net <178.63.169.72/29> dev br0
any net <x.x.x.x/y> dev br0
";}i:2;i:3;i:3;s:65:">
any net <178.63.169.72/29> dev br0
any net <x.x.x.x/y> dev br0
";}i:2;i:456;}i:13;a:3:{i:0;s:7:"p_close";i:1;a:0:{}i:2;i:528;}i:14;a:3:{i:0;s:6:"p_open";i:1;a:0:{}i:2;i:528;}i:15;a:3:{i:0;s:5:"cdata";i:1;a:1:{i:0;s:100:"3) Create the VM. If it's Windows it will work Out of the box! But if it's linux then do following: ";}i:2;i:532;}i:16;a:3:{i:0;s:9:"linebreak";i:1;a:0:{}i:2;i:632;}i:17;a:3:{i:0;s:5:"cdata";i:1;a:1:{i:0;s:13:"
For CentOS: ";}i:2;i:634;}i:18;a:3:{i:0;s:9:"linebreak";i:1;a:0:{}i:2;i:647;}i:19;a:3:{i:0;s:5:"cdata";i:1;a:1:{i:0;s:29:"
Add this to ifcfg-eth0 file:";}i:2;i:649;}i:20;a:3:{i:0;s:7:"p_close";i:1;a:0:{}i:2;i:678;}i:21;a:3:{i:0;s:6:"p_open";i:1;a:0:{}i:2;i:678;}i:22;a:3:{i:0;s:5:"cdata";i:1;a:1:{i:0;s:6:"SCOPE=";}i:2;i:680;}i:23;a:3:{i:0;s:18:"doublequoteopening";i:1;a:0:{}i:2;i:686;}i:24;a:3:{i:0;s:5:"cdata";i:1;a:1:{i:0;s:25:"peer <IP Address of Host>";}i:2;i:687;}i:25;a:3:{i:0;s:18:"doublequoteclosing";i:1;a:0:{}i:2;i:712;}i:26;a:3:{i:0;s:7:"p_close";i:1;a:0:{}i:2;i:713;}i:27;a:3:{i:0;s:6:"p_open";i:1;a:0:{}i:2;i:713;}i:28;a:3:{i:0;s:5:"cdata";i:1;a:1:{i:0;s:22:"And create a new file ";}i:2;i:715;}i:29;a:3:{i:0;s:18:"doublequoteopening";i:1;a:0:{}i:2;i:737;}i:30;a:3:{i:0;s:5:"cdata";i:1;a:1:{i:0;s:10:"route-eth0";}i:2;i:738;}i:31;a:3:{i:0;s:18:"doublequoteclosing";i:1;a:0:{}i:2;i:748;}i:32;a:3:{i:0;s:5:"cdata";i:1;a:1:{i:0;s:51:" in /etc/sysconfig/network-scripts/ with following:";}i:2;i:749;}i:33;a:3:{i:0;s:7:"p_close";i:1;a:0:{}i:2;i:800;}i:34;a:3:{i:0;s:6:"p_open";i:1;a:0:{}i:2;i:800;}i:35;a:3:{i:0;s:5:"cdata";i:1;a:1:{i:0;s:17:"ADDRESS0=0.0.0.0 ";}i:2;i:802;}i:36;a:3:{i:0;s:9:"linebreak";i:1;a:0:{}i:2;i:819;}i:37;a:3:{i:0;s:5:"cdata";i:1;a:1:{i:0;s:18:"
NETMASK0=0.0.0.0 ";}i:2;i:821;}i:38;a:3:{i:0;s:9:"linebreak";i:1;a:0:{}i:2;i:839;}i:39;a:3:{i:0;s:5:"cdata";i:1;a:1:{i:0;s:30:"
GATEWAY0=<IP Address of Host>";}i:2;i:841;}i:40;a:3:{i:0;s:7:"p_close";i:1;a:0:{}i:2;i:871;}i:41;a:3:{i:0;s:6:"p_open";i:1;a:0:{}i:2;i:871;}i:42;a:3:{i:0;s:9:"linebreak";i:1;a:0:{}i:2;i:873;}i:43;a:3:{i:0;s:5:"cdata";i:1;a:1:{i:0;s:13:"
For Ubuntu: ";}i:2;i:875;}i:44;a:3:{i:0;s:9:"linebreak";i:1;a:0:{}i:2;i:888;}i:45;a:3:{i:0;s:5:"cdata";i:1;a:1:{i:0;s:37:"
Add this to /etc/network/interfaces:";}i:2;i:890;}i:46;a:3:{i:0;s:7:"p_close";i:1;a:0:{}i:2;i:927;}i:47;a:3:{i:0;s:6:"p_open";i:1;a:0:{}i:2;i:927;}i:48;a:3:{i:0;s:5:"cdata";i:1;a:1:{i:0;s:32:"pointopoint <IP Address of host>";}i:2;i:929;}i:49;a:3:{i:0;s:7:"p_close";i:1;a:0:{}i:2;i:961;}i:50;a:3:{i:0;s:6:"p_open";i:1;a:0:{}i:2;i:961;}i:51;a:3:{i:0;s:5:"cdata";i:1;a:1:{i:0;s:114:"NOTE: When you add IP's in SolusVM, make sure you use Gateway as the host node IP and Netmask as 255.255.255.255. ";}i:2;i:966;}i:52;a:3:{i:0;s:7:"p_close";i:1;a:0:{}i:2;i:1080;}i:53;a:3:{i:0;s:6:"p_open";i:1;a:0:{}i:2;i:1080;}i:54;a:3:{i:0;s:5:"cdata";i:1;a:1:{i:0;s:95:"NOTE: Run following command after making changes on guest VM to make the files write protected.";}i:2;i:1082;}i:55;a:3:{i:0;s:7:"p_close";i:1;a:0:{}i:2;i:1177;}i:56;a:3:{i:0;s:6:"p_open";i:1;a:0:{}i:2;i:1177;}i:57;a:3:{i:0;s:5:"cdata";i:1;a:1:{i:0;s:8:"CentOS: ";}i:2;i:1179;}i:58;a:3:{i:0;s:7:"p_close";i:1;a:0:{}i:2;i:1187;}i:59;a:3:{i:0;s:12:"preformatted";i:1;a:1:{i:0;s:54:" chattr +aui /etc/sysconfig/network-scripts/ifcfg-eth0";}i:2;i:1187;}i:60;a:3:{i:0;s:6:"p_open";i:1;a:0:{}i:2;i:1187;}i:61;a:3:{i:0;s:5:"cdata";i:1;a:1:{i:0;s:7:"Ubuntu:";}i:2;i:1246;}i:62;a:3:{i:0;s:7:"p_close";i:1;a:0:{}i:2;i:1253;}i:63;a:3:{i:0;s:12:"preformatted";i:1;a:1:{i:0;s:35:"chattr +aui /etc/network/interfaces";}i:2;i:1253;}i:64;a:3:{i:0;s:13:"section_close";i:1;a:0:{}i:2;i:1253;}i:65;a:3:{i:0;s:12:"document_end";i:1;a:0:{}i:2;i:1253;}}