a:297:{i:0;a:3:{i:0;s:14:"document_start";i:1;a:0:{}i:2;i:0;}i:1;a:3:{i:0;s:6:"header";i:1;a:3:{i:0;s:37:"Soft ether VPN client setup on Ubuntu";i:1;i:2;i:2;i:1;}i:2;i:1;}i:2;a:3:{i:0;s:12:"section_open";i:1;a:1:{i:0;i:2;}i:2;i:1;}i:3;a:3:{i:0;s:2:"hr";i:1;a:0:{}i:2;i:51;}i:4;a:3:{i:0;s:6:"p_open";i:1;a:0:{}i:2;i:51;}i:5;a:3:{i:0;s:5:"cdata";i:1;a:1:{i:0;s:37:"Soft ether VPN client setup on Ubuntu";}i:2;i:58;}i:6;a:3:{i:0;s:7:"p_close";i:1;a:0:{}i:2;i:95;}i:7;a:3:{i:0;s:6:"p_open";i:1;a:0:{}i:2;i:95;}i:8;a:3:{i:0;s:5:"cdata";i:1;a:1:{i:0;s:67:"Follow the undermentioned procedure to setup VPN client on ubuntu :";}i:2;i:97;}i:9;a:3:{i:0;s:7:"p_close";i:1;a:0:{}i:2;i:164;}i:10;a:3:{i:0;s:6:"p_open";i:1;a:0:{}i:2;i:164;}i:11;a:3:{i:0;s:5:"cdata";i:1;a:1:{i:0;s:70:"1. Download the soft ether VPN client. (Run the commands as root user)";}i:2;i:166;}i:12;a:3:{i:0;s:7:"p_close";i:1;a:0:{}i:2;i:236;}i:13;a:3:{i:0;s:6:"p_open";i:1;a:0:{}i:2;i:236;}i:14;a:3:{i:0;s:5:"cdata";i:1;a:1:{i:0;s:9:"Download ";}i:2;i:238;}i:15;a:3:{i:0;s:7:"acronym";i:1;a:1:{i:0;s:3:"URL";}i:2;i:247;}i:16;a:3:{i:0;s:5:"cdata";i:1;a:1:{i:0;s:3:" : ";}i:2;i:250;}i:17;a:3:{i:0;s:12:"externallink";i:1;a:2:{i:0;s:203:"http://www.softether-download.com/files/softether/v4.20-9608-rtm-2016.04.17-tree/Linux/SoftEther_VPN_Client/64bit_-_Intel_x64_or_AMD64/softether-vpnclient-v4.20-9608-rtm-2016.04.17-linux-x64-64bit.tar.gz";i:1;s:203:"http://www.softether-download.com/files/softether/v4.20-9608-rtm-2016.04.17-tree/Linux/SoftEther_VPN_Client/64bit_-_Intel_x64_or_AMD64/softether-vpnclient-v4.20-9608-rtm-2016.04.17-linux-x64-64bit.tar.gz";}i:2;i:253;}i:18;a:3:{i:0;s:7:"p_close";i:1;a:0:{}i:2;i:664;}i:19;a:3:{i:0;s:6:"p_open";i:1;a:0:{}i:2;i:664;}i:20;a:3:{i:0;s:5:"cdata";i:1;a:1:{i:0;s:116:"2. Move the downloaded file to /root : mv softether-vpnclient-v4.20-9608-rtm-2016.04.17-linux-x64-64bit.tar.gz /root";}i:2;i:666;}i:21;a:3:{i:0;s:7:"p_close";i:1;a:0:{}i:2;i:782;}i:22;a:3:{i:0;s:6:"p_open";i:1;a:0:{}i:2;i:782;}i:23;a:3:{i:0;s:5:"cdata";i:1;a:1:{i:0;s:31:"3. Follow the below procedure :";}i:2;i:784;}i:24;a:3:{i:0;s:7:"p_close";i:1;a:0:{}i:2;i:815;}i:25;a:3:{i:0;s:6:"p_open";i:1;a:0:{}i:2;i:815;}i:26;a:3:{i:0;s:5:"cdata";i:1;a:1:{i:0;s:76:"tar -xf softether-vpnclient-v4.20-9608-rtm-2016.04.17-linux-x64-64bit.tar.gz";}i:2;i:817;}i:27;a:3:{i:0;s:7:"p_close";i:1;a:0:{}i:2;i:893;}i:28;a:3:{i:0;s:6:"p_open";i:1;a:0:{}i:2;i:893;}i:29;a:3:{i:0;s:5:"cdata";i:1;a:1:{i:0;s:12:"cd vpnclient";}i:2;i:895;}i:30;a:3:{i:0;s:7:"p_close";i:1;a:0:{}i:2;i:907;}i:31;a:3:{i:0;s:6:"p_open";i:1;a:0:{}i:2;i:907;}i:32;a:3:{i:0;s:5:"cdata";i:1;a:1:{i:0;s:16:"make (press 1 ; ";}i:2;i:909;}i:33;a:3:{i:0;s:18:"doublequoteopening";i:1;a:0:{}i:2;i:925;}i:34;a:3:{i:0;s:5:"cdata";i:1;a:1:{i:0;s:5:"Agree";}i:2;i:926;}i:35;a:3:{i:0;s:18:"doublequoteclosing";i:1;a:0:{}i:2;i:931;}i:36;a:3:{i:0;s:5:"cdata";i:1;a:1:{i:0;s:40:", every time it prompts for user input )";}i:2;i:932;}i:37;a:3:{i:0;s:7:"p_close";i:1;a:0:{}i:2;i:972;}i:38;a:3:{i:0;s:6:"p_open";i:1;a:0:{}i:2;i:972;}i:39;a:3:{i:0;s:5:"cdata";i:1;a:1:{i:0;s:29:"cd && mv vpnclient /usr/local";}i:2;i:974;}i:40;a:3:{i:0;s:7:"p_close";i:1;a:0:{}i:2;i:1003;}i:41;a:3:{i:0;s:6:"p_open";i:1;a:0:{}i:2;i:1003;}i:42;a:3:{i:0;s:5:"cdata";i:1;a:1:{i:0;s:23:"cd /usr/local/vpnclient";}i:2;i:1005;}i:43;a:3:{i:0;s:7:"p_close";i:1;a:0:{}i:2;i:1028;}i:44;a:3:{i:0;s:6:"p_open";i:1;a:0:{}i:2;i:1028;}i:45;a:3:{i:0;s:5:"cdata";i:1;a:1:{i:0;s:69:"chmod 644 * && find . -type d -exec chmod 755 {} \; && chmod +x vpnc*";}i:2;i:1030;}i:46;a:3:{i:0;s:7:"p_close";i:1;a:0:{}i:2;i:1099;}i:47;a:3:{i:0;s:6:"p_open";i:1;a:0:{}i:2;i:1099;}i:48;a:3:{i:0;s:5:"cdata";i:1;a:1:{i:0;s:81:"4. Create a init script file /etc/init.d/vpnclient and paste below content in it.";}i:2;i:1101;}i:49;a:3:{i:0;s:7:"p_close";i:1;a:0:{}i:2;i:1182;}i:50;a:3:{i:0;s:6:"p_open";i:1;a:0:{}i:2;i:1182;}i:51;a:3:{i:0;s:13:"emphasis_open";i:1;a:0:{}i:2;i:1184;}i:52;a:3:{i:0;s:5:"cdata";i:1;a:1:{i:0;s:9:"#!/bin/sh";}i:2;i:1186;}i:53;a:3:{i:0;s:14:"emphasis_close";i:1;a:0:{}i:2;i:1195;}i:54;a:3:{i:0;s:7:"p_close";i:1;a:0:{}i:2;i:1197;}i:55;a:3:{i:0;s:6:"p_open";i:1;a:0:{}i:2;i:1197;}i:56;a:3:{i:0;s:13:"emphasis_open";i:1;a:0:{}i:2;i:1199;}i:57;a:3:{i:0;s:5:"cdata";i:1;a:1:{i:0;s:19:"### BEGIN INIT INFO";}i:2;i:1201;}i:58;a:3:{i:0;s:9:"linebreak";i:1;a:0:{}i:2;i:1220;}i:59;a:3:{i:0;s:5:"cdata";i:1;a:1:{i:0;s:22:"
# Provides: vpnclient";}i:2;i:1222;}i:60;a:3:{i:0;s:9:"linebreak";i:1;a:0:{}i:2;i:1244;}i:61;a:3:{i:0;s:5:"cdata";i:1;a:1:{i:0;s:46:"
# Required-Start: $network $remote_fs $syslog";}i:2;i:1246;}i:62;a:3:{i:0;s:9:"linebreak";i:1;a:0:{}i:2;i:1292;}i:63;a:3:{i:0;s:5:"cdata";i:1;a:1:{i:0;s:45:"
# Required-Stop: $network $remote_fs $syslog";}i:2;i:1294;}i:64;a:3:{i:0;s:9:"linebreak";i:1;a:0:{}i:2;i:1339;}i:65;a:3:{i:0;s:5:"cdata";i:1;a:1:{i:0;s:25:"
# Default-Start: 2 3 4 5";}i:2;i:1341;}i:66;a:3:{i:0;s:9:"linebreak";i:1;a:0:{}i:2;i:1366;}i:67;a:3:{i:0;s:5:"cdata";i:1;a:1:{i:0;s:22:"
# Default-Stop: 0 1 6";}i:2;i:1368;}i:68;a:3:{i:0;s:9:"linebreak";i:1;a:0:{}i:2;i:1390;}i:69;a:3:{i:0;s:5:"cdata";i:1;a:1:{i:0;s:43:"
# Short-Description: Soft Ether VPN client";}i:2;i:1392;}i:70;a:3:{i:0;s:9:"linebreak";i:1;a:0:{}i:2;i:1435;}i:71;a:3:{i:0;s:5:"cdata";i:1;a:1:{i:0;s:44:"
# Description: Soft Ether VPN client daemon";}i:2;i:1437;}i:72;a:3:{i:0;s:9:"linebreak";i:1;a:0:{}i:2;i:1481;}i:73;a:3:{i:0;s:5:"cdata";i:1;a:1:{i:0;s:18:"
### END INIT INFO";}i:2;i:1483;}i:74;a:3:{i:0;s:14:"emphasis_close";i:1;a:0:{}i:2;i:1501;}i:75;a:3:{i:0;s:7:"p_close";i:1;a:0:{}i:2;i:1503;}i:76;a:3:{i:0;s:6:"p_open";i:1;a:0:{}i:2;i:1503;}i:77;a:3:{i:0;s:13:"emphasis_open";i:1;a:0:{}i:2;i:1505;}i:78;a:3:{i:0;s:5:"cdata";i:1;a:1:{i:0;s:37:"DAEMON=/usr/local/vpnclient/vpnclient";}i:2;i:1507;}i:79;a:3:{i:0;s:9:"linebreak";i:1;a:0:{}i:2;i:1544;}i:80;a:3:{i:0;s:5:"cdata";i:1;a:1:{i:0;s:32:"
LOCK=/var/lock/subsys/vpnclient";}i:2;i:1546;}i:81;a:3:{i:0;s:14:"emphasis_close";i:1;a:0:{}i:2;i:1578;}i:82;a:3:{i:0;s:7:"p_close";i:1;a:0:{}i:2;i:1580;}i:83;a:3:{i:0;s:6:"p_open";i:1;a:0:{}i:2;i:1580;}i:84;a:3:{i:0;s:13:"emphasis_open";i:1;a:0:{}i:2;i:1582;}i:85;a:3:{i:0;s:5:"cdata";i:1;a:1:{i:0;s:25:"test -x $DAEMON || exit 0";}i:2;i:1584;}i:86;a:3:{i:0;s:9:"linebreak";i:1;a:0:{}i:2;i:1609;}i:87;a:3:{i:0;s:5:"cdata";i:1;a:1:{i:0;s:6:"
case ";}i:2;i:1611;}i:88;a:3:{i:0;s:18:"doublequoteopening";i:1;a:0:{}i:2;i:1617;}i:89;a:3:{i:0;s:5:"cdata";i:1;a:1:{i:0;s:2:"$1";}i:2;i:1618;}i:90;a:3:{i:0;s:18:"doublequoteclosing";i:1;a:0:{}i:2;i:1620;}i:91;a:3:{i:0;s:5:"cdata";i:1;a:1:{i:0;s:3:" in";}i:2;i:1621;}i:92;a:3:{i:0;s:14:"emphasis_close";i:1;a:0:{}i:2;i:1624;}i:93;a:3:{i:0;s:7:"p_close";i:1;a:0:{}i:2;i:1626;}i:94;a:3:{i:0;s:6:"p_open";i:1;a:0:{}i:2;i:1626;}i:95;a:3:{i:0;s:13:"emphasis_open";i:1;a:0:{}i:2;i:1628;}i:96;a:3:{i:0;s:5:"cdata";i:1;a:1:{i:0;s:6:"start)";}i:2;i:1630;}i:97;a:3:{i:0;s:9:"linebreak";i:1;a:0:{}i:2;i:1636;}i:98;a:3:{i:0;s:5:"cdata";i:1;a:1:{i:0;s:14:"
$DAEMON start";}i:2;i:1638;}i:99;a:3:{i:0;s:9:"linebreak";i:1;a:0:{}i:2;i:1652;}i:100;a:3:{i:0;s:5:"cdata";i:1;a:1:{i:0;s:6:"
if [ ";}i:2;i:1654;}i:101;a:3:{i:0;s:18:"doublequoteopening";i:1;a:0:{}i:2;i:1660;}i:102;a:3:{i:0;s:5:"cdata";i:1;a:1:{i:0;s:2:"$?";}i:2;i:1661;}i:103;a:3:{i:0;s:18:"doublequoteclosing";i:1;a:0:{}i:2;i:1663;}i:104;a:3:{i:0;s:5:"cdata";i:1;a:1:{i:0;s:5:" -eq ";}i:2;i:1664;}i:105;a:3:{i:0;s:18:"doublequoteopening";i:1;a:0:{}i:2;i:1669;}i:106;a:3:{i:0;s:5:"cdata";i:1;a:1:{i:0;s:1:"0";}i:2;i:1670;}i:107;a:3:{i:0;s:18:"doublequoteclosing";i:1;a:0:{}i:2;i:1671;}i:108;a:3:{i:0;s:5:"cdata";i:1;a:1:{i:0;s:25:" ]; then touch $LOCK ; fi";}i:2;i:1672;}i:109;a:3:{i:0;s:9:"linebreak";i:1;a:0:{}i:2;i:1697;}i:110;a:3:{i:0;s:5:"cdata";i:1;a:1:{i:0;s:3:"
;;";}i:2;i:1699;}i:111;a:3:{i:0;s:9:"linebreak";i:1;a:0:{}i:2;i:1702;}i:112;a:3:{i:0;s:5:"cdata";i:1;a:1:{i:0;s:6:"
stop)";}i:2;i:1704;}i:113;a:3:{i:0;s:9:"linebreak";i:1;a:0:{}i:2;i:1710;}i:114;a:3:{i:0;s:5:"cdata";i:1;a:1:{i:0;s:13:"
$DAEMON stop";}i:2;i:1712;}i:115;a:3:{i:0;s:9:"linebreak";i:1;a:0:{}i:2;i:1725;}i:116;a:3:{i:0;s:5:"cdata";i:1;a:1:{i:0;s:9:"
rm $LOCK";}i:2;i:1727;}i:117;a:3:{i:0;s:9:"linebreak";i:1;a:0:{}i:2;i:1736;}i:118;a:3:{i:0;s:5:"cdata";i:1;a:1:{i:0;s:3:"
;;";}i:2;i:1738;}i:119;a:3:{i:0;s:9:"linebreak";i:1;a:0:{}i:2;i:1741;}i:120;a:3:{i:0;s:5:"cdata";i:1;a:1:{i:0;s:9:"
restart)";}i:2;i:1743;}i:121;a:3:{i:0;s:9:"linebreak";i:1;a:0:{}i:2;i:1752;}i:122;a:3:{i:0;s:5:"cdata";i:1;a:1:{i:0;s:13:"
$DAEMON stop";}i:2;i:1754;}i:123;a:3:{i:0;s:9:"linebreak";i:1;a:0:{}i:2;i:1767;}i:124;a:3:{i:0;s:5:"cdata";i:1;a:1:{i:0;s:6:"
if [ ";}i:2;i:1769;}i:125;a:3:{i:0;s:18:"doublequoteopening";i:1;a:0:{}i:2;i:1775;}i:126;a:3:{i:0;s:5:"cdata";i:1;a:1:{i:0;s:2:"$?";}i:2;i:1776;}i:127;a:3:{i:0;s:18:"doublequoteclosing";i:1;a:0:{}i:2;i:1778;}i:128;a:3:{i:0;s:5:"cdata";i:1;a:1:{i:0;s:5:" -eq ";}i:2;i:1779;}i:129;a:3:{i:0;s:18:"doublequoteopening";i:1;a:0:{}i:2;i:1784;}i:130;a:3:{i:0;s:5:"cdata";i:1;a:1:{i:0;s:1:"0";}i:2;i:1785;}i:131;a:3:{i:0;s:18:"doublequoteclosing";i:1;a:0:{}i:2;i:1786;}i:132;a:3:{i:0;s:5:"cdata";i:1;a:1:{i:0;s:12:" ]; then rm ";}i:2;i:1787;}i:133;a:3:{i:0;s:18:"doublequoteopening";i:1;a:0:{}i:2;i:1799;}i:134;a:3:{i:0;s:5:"cdata";i:1;a:1:{i:0;s:5:"$LOCK";}i:2;i:1800;}i:135;a:3:{i:0;s:18:"doublequoteclosing";i:1;a:0:{}i:2;i:1805;}i:136;a:3:{i:0;s:5:"cdata";i:1;a:1:{i:0;s:5:" ; fi";}i:2;i:1806;}i:137;a:3:{i:0;s:9:"linebreak";i:1;a:0:{}i:2;i:1811;}i:138;a:3:{i:0;s:5:"cdata";i:1;a:1:{i:0;s:8:"
sleep 1";}i:2;i:1813;}i:139;a:3:{i:0;s:9:"linebreak";i:1;a:0:{}i:2;i:1821;}i:140;a:3:{i:0;s:5:"cdata";i:1;a:1:{i:0;s:14:"
$DAEMON start";}i:2;i:1823;}i:141;a:3:{i:0;s:9:"linebreak";i:1;a:0:{}i:2;i:1837;}i:142;a:3:{i:0;s:5:"cdata";i:1;a:1:{i:0;s:6:"
if [ ";}i:2;i:1839;}i:143;a:3:{i:0;s:18:"doublequoteopening";i:1;a:0:{}i:2;i:1845;}i:144;a:3:{i:0;s:5:"cdata";i:1;a:1:{i:0;s:2:"$?";}i:2;i:1846;}i:145;a:3:{i:0;s:18:"doublequoteclosing";i:1;a:0:{}i:2;i:1848;}i:146;a:3:{i:0;s:5:"cdata";i:1;a:1:{i:0;s:5:" -eq ";}i:2;i:1849;}i:147;a:3:{i:0;s:18:"doublequoteopening";i:1;a:0:{}i:2;i:1854;}i:148;a:3:{i:0;s:5:"cdata";i:1;a:1:{i:0;s:1:"0";}i:2;i:1855;}i:149;a:3:{i:0;s:18:"doublequoteclosing";i:1;a:0:{}i:2;i:1856;}i:150;a:3:{i:0;s:5:"cdata";i:1;a:1:{i:0;s:15:" ]; then touch ";}i:2;i:1857;}i:151;a:3:{i:0;s:18:"doublequoteopening";i:1;a:0:{}i:2;i:1872;}i:152;a:3:{i:0;s:5:"cdata";i:1;a:1:{i:0;s:5:"$LOCK";}i:2;i:1873;}i:153;a:3:{i:0;s:18:"doublequoteclosing";i:1;a:0:{}i:2;i:1878;}i:154;a:3:{i:0;s:5:"cdata";i:1;a:1:{i:0;s:5:" ; fi";}i:2;i:1879;}i:155;a:3:{i:0;s:9:"linebreak";i:1;a:0:{}i:2;i:1884;}i:156;a:3:{i:0;s:5:"cdata";i:1;a:1:{i:0;s:3:"
;;";}i:2;i:1886;}i:157;a:3:{i:0;s:9:"linebreak";i:1;a:0:{}i:2;i:1889;}i:158;a:3:{i:0;s:5:"cdata";i:1;a:1:{i:0;s:8:"
status)";}i:2;i:1891;}i:159;a:3:{i:0;s:9:"linebreak";i:1;a:0:{}i:2;i:1899;}i:160;a:3:{i:0;s:5:"cdata";i:1;a:1:{i:0;s:9:"
if [ -f ";}i:2;i:1901;}i:161;a:3:{i:0;s:18:"doublequoteopening";i:1;a:0:{}i:2;i:1910;}i:162;a:3:{i:0;s:5:"cdata";i:1;a:1:{i:0;s:5:"$LOCK";}i:2;i:1911;}i:163;a:3:{i:0;s:18:"doublequoteclosing";i:1;a:0:{}i:2;i:1916;}i:164;a:3:{i:0;s:5:"cdata";i:1;a:1:{i:0;s:8:" ]; then";}i:2;i:1917;}i:165;a:3:{i:0;s:9:"linebreak";i:1;a:0:{}i:2;i:1925;}i:166;a:3:{i:0;s:5:"cdata";i:1;a:1:{i:0;s:6:"
echo ";}i:2;i:1927;}i:167;a:3:{i:0;s:18:"doublequoteopening";i:1;a:0:{}i:2;i:1933;}i:168;a:3:{i:0;s:5:"cdata";i:1;a:1:{i:0;s:21:"vpnclient [ running ]";}i:2;i:1934;}i:169;a:3:{i:0;s:18:"doublequoteclosing";i:1;a:0:{}i:2;i:1955;}i:170;a:3:{i:0;s:5:"cdata";i:1;a:1:{i:0;s:1:";";}i:2;i:1956;}i:171;a:3:{i:0;s:9:"linebreak";i:1;a:0:{}i:2;i:1957;}i:172;a:3:{i:0;s:5:"cdata";i:1;a:1:{i:0;s:5:"
else";}i:2;i:1959;}i:173;a:3:{i:0;s:9:"linebreak";i:1;a:0:{}i:2;i:1964;}i:174;a:3:{i:0;s:5:"cdata";i:1;a:1:{i:0;s:6:"
echo ";}i:2;i:1966;}i:175;a:3:{i:0;s:18:"doublequoteopening";i:1;a:0:{}i:2;i:1972;}i:176;a:3:{i:0;s:5:"cdata";i:1;a:1:{i:0;s:21:"vpnclient [ stopped ]";}i:2;i:1973;}i:177;a:3:{i:0;s:18:"doublequoteclosing";i:1;a:0:{}i:2;i:1994;}i:178;a:3:{i:0;s:5:"cdata";i:1;a:1:{i:0;s:1:";";}i:2;i:1995;}i:179;a:3:{i:0;s:9:"linebreak";i:1;a:0:{}i:2;i:1996;}i:180;a:3:{i:0;s:5:"cdata";i:1;a:1:{i:0;s:3:"
fi";}i:2;i:1998;}i:181;a:3:{i:0;s:9:"linebreak";i:1;a:0:{}i:2;i:2001;}i:182;a:3:{i:0;s:5:"cdata";i:1;a:1:{i:0;s:3:"
;;";}i:2;i:2003;}i:183;a:3:{i:0;s:9:"linebreak";i:1;a:0:{}i:2;i:2006;}i:184;a:3:{i:0;s:5:"cdata";i:1;a:1:{i:0;s:3:"
*)";}i:2;i:2008;}i:185;a:3:{i:0;s:9:"linebreak";i:1;a:0:{}i:2;i:2011;}i:186;a:3:{i:0;s:5:"cdata";i:1;a:1:{i:0;s:6:"
echo ";}i:2;i:2013;}i:187;a:3:{i:0;s:18:"doublequoteopening";i:1;a:0:{}i:2;i:2019;}i:188;a:3:{i:0;s:5:"cdata";i:1;a:1:{i:0;s:37:"Usage: $0 {start|stop|restart|status}";}i:2;i:2020;}i:189;a:3:{i:0;s:18:"doublequoteopening";i:1;a:0:{}i:2;i:2057;}i:190;a:3:{i:0;s:9:"linebreak";i:1;a:0:{}i:2;i:2058;}i:191;a:3:{i:0;s:5:"cdata";i:1;a:1:{i:0;s:7:"
exit 1";}i:2;i:2060;}i:192;a:3:{i:0;s:9:"linebreak";i:1;a:0:{}i:2;i:2067;}i:193;a:3:{i:0;s:5:"cdata";i:1;a:1:{i:0;s:5:"
esac";}i:2;i:2069;}i:194;a:3:{i:0;s:9:"linebreak";i:1;a:0:{}i:2;i:2074;}i:195;a:3:{i:0;s:5:"cdata";i:1;a:1:{i:0;s:7:"
exit 0";}i:2;i:2076;}i:196;a:3:{i:0;s:14:"emphasis_close";i:1;a:0:{}i:2;i:2083;}i:197;a:3:{i:0;s:7:"p_close";i:1;a:0:{}i:2;i:2085;}i:198;a:3:{i:0;s:6:"p_open";i:1;a:0:{}i:2;i:2085;}i:199;a:3:{i:0;s:5:"cdata";i:1;a:1:{i:0;s:79:"5. Set execution permission on the init script and start the vpnclient process.";}i:2;i:2087;}i:200;a:3:{i:0;s:7:"p_close";i:1;a:0:{}i:2;i:2166;}i:201;a:3:{i:0;s:6:"p_open";i:1;a:0:{}i:2;i:2166;}i:202;a:3:{i:0;s:5:"cdata";i:1;a:1:{i:0;s:30:"chmod +x /etc/init.d/vpnclient";}i:2;i:2168;}i:203;a:3:{i:0;s:7:"p_close";i:1;a:0:{}i:2;i:2198;}i:204;a:3:{i:0;s:6:"p_open";i:1;a:0:{}i:2;i:2198;}i:205;a:3:{i:0;s:5:"cdata";i:1;a:1:{i:0;s:23:"service vpnclient start";}i:2;i:2200;}i:206;a:3:{i:0;s:7:"p_close";i:1;a:0:{}i:2;i:2223;}i:207;a:3:{i:0;s:6:"p_open";i:1;a:0:{}i:2;i:2223;}i:208;a:3:{i:0;s:5:"cdata";i:1;a:1:{i:0;s:30:"update-rc.d vpnclient defaults";}i:2;i:2225;}i:209;a:3:{i:0;s:7:"p_close";i:1;a:0:{}i:2;i:2255;}i:210;a:3:{i:0;s:6:"p_open";i:1;a:0:{}i:2;i:2255;}i:211;a:3:{i:0;s:5:"cdata";i:1;a:1:{i:0;s:55:"6. To configure the vpn client follow below procedure :";}i:2;i:2257;}i:212;a:3:{i:0;s:7:"p_close";i:1;a:0:{}i:2;i:2312;}i:213;a:3:{i:0;s:6:"p_open";i:1;a:0:{}i:2;i:2312;}i:214;a:3:{i:0;s:5:"cdata";i:1;a:1:{i:0;s:23:"cd /usr/lcoal/vpnclient";}i:2;i:2314;}i:215;a:3:{i:0;s:7:"p_close";i:1;a:0:{}i:2;i:2337;}i:216;a:3:{i:0;s:6:"p_open";i:1;a:0:{}i:2;i:2337;}i:217;a:3:{i:0;s:5:"cdata";i:1;a:1:{i:0;s:8:"./vpncmd";}i:2;i:2339;}i:218;a:3:{i:0;s:7:"p_close";i:1;a:0:{}i:2;i:2347;}i:219;a:3:{i:0;s:6:"p_open";i:1;a:0:{}i:2;i:2347;}i:220;a:3:{i:0;s:5:"cdata";i:1;a:1:{i:0;s:86:"VPN Client> Select/Press 2 & then press enter (to enter into Management of VPN Client)";}i:2;i:2349;}i:221;a:3:{i:0;s:7:"p_close";i:1;a:0:{}i:2;i:2435;}i:222;a:3:{i:0;s:6:"p_open";i:1;a:0:{}i:2;i:2435;}i:223;a:3:{i:0;s:5:"cdata";i:1;a:1:{i:0;s:155:"VPN Client> Press enter as input to Hostname of IP Address of Destination: (connection will be made to localhost to operate VPN client from your computer.)";}i:2;i:2437;}i:224;a:3:{i:0;s:7:"p_close";i:1;a:0:{}i:2;i:2592;}i:225;a:3:{i:0;s:6:"p_open";i:1;a:0:{}i:2;i:2592;}i:226;a:3:{i:0;s:5:"cdata";i:1;a:1:{i:0;s:30:"VPN Client> NicCreate ethervpn";}i:2;i:2594;}i:227;a:3:{i:0;s:7:"p_close";i:1;a:0:{}i:2;i:2624;}i:228;a:3:{i:0;s:6:"p_open";i:1;a:0:{}i:2;i:2624;}i:229;a:3:{i:0;s:5:"cdata";i:1;a:1:{i:0;s:16:"VPN Client> exit";}i:2;i:2626;}i:230;a:3:{i:0;s:7:"p_close";i:1;a:0:{}i:2;i:2642;}i:231;a:3:{i:0;s:6:"p_open";i:1;a:0:{}i:2;i:2642;}i:232;a:3:{i:0;s:5:"cdata";i:1;a:1:{i:0;s:31:"7. Install wine and winetricks.";}i:2;i:2644;}i:233;a:3:{i:0;s:7:"p_close";i:1;a:0:{}i:2;i:2675;}i:234;a:3:{i:0;s:6:"p_open";i:1;a:0:{}i:2;i:2675;}i:235;a:3:{i:0;s:5:"cdata";i:1;a:1:{i:0;s:6:"IMAGE ";}i:2;i:2677;}i:236;a:3:{i:0;s:12:"externallink";i:1;a:2:{i:0;s:65:"http://wiki.mantraventures.com/_media/softether/selection_052.png";i:1;s:65:"http://wiki.mantraventures.com/_media/softether/selection_052.png";}i:2;i:2683;}i:237;a:3:{i:0;s:7:"p_close";i:1;a:0:{}i:2;i:2818;}i:238;a:3:{i:0;s:6:"p_open";i:1;a:0:{}i:2;i:2818;}i:239;a:3:{i:0;s:5:"cdata";i:1;a:1:{i:0;s:69:"8. Download the windows vpn client manager and install it using wine.";}i:2;i:2820;}i:240;a:3:{i:0;s:7:"p_close";i:1;a:0:{}i:2;i:2889;}i:241;a:3:{i:0;s:6:"p_open";i:1;a:0:{}i:2;i:2889;}i:242;a:3:{i:0;s:5:"cdata";i:1;a:1:{i:0;s:16:"Download link : ";}i:2;i:2891;}i:243;a:3:{i:0;s:12:"externallink";i:1;a:2:{i:0;s:181:"http://www.softether-download.com/files/softether/v4.20-9608-rtm-2016.04.17-tree/Windows/SoftEther_VPN_Client/softether-vpnclient-v4.20-9608-rtm-2016.04.17-windows-x86_x64-intel.exe";i:1;s:181:"http://www.softether-download.com/files/softether/v4.20-9608-rtm-2016.04.17-tree/Windows/SoftEther_VPN_Client/softether-vpnclient-v4.20-9608-rtm-2016.04.17-windows-x86_x64-intel.exe";}i:2;i:2907;}i:244;a:3:{i:0;s:7:"p_close";i:1;a:0:{}i:2;i:3274;}i:245;a:3:{i:0;s:6:"p_open";i:1;a:0:{}i:2;i:3274;}i:246;a:3:{i:0;s:5:"cdata";i:1;a:1:{i:0;s:80:"(Install wine with the default installtion option only, simply press NEXT only.)";}i:2;i:3276;}i:247;a:3:{i:0;s:7:"p_close";i:1;a:0:{}i:2;i:3356;}i:248;a:3:{i:0;s:6:"p_open";i:1;a:0:{}i:2;i:3356;}i:249;a:3:{i:0;s:5:"cdata";i:1;a:1:{i:0;s:111:"9. Run the vpn client via the icon on your desktop using wine. Then click on to create Virtual Adapter & enter ";}i:2;i:3358;}i:250;a:3:{i:0;s:18:"doublequoteopening";i:1;a:0:{}i:2;i:3469;}i:251;a:3:{i:0;s:5:"cdata";i:1;a:1:{i:0;s:8:"ethervpn";}i:2;i:3470;}i:252;a:3:{i:0;s:18:"doublequoteclosing";i:1;a:0:{}i:2;i:3478;}i:253;a:3:{i:0;s:5:"cdata";i:1;a:1:{i:0;s:17:" in popup window.";}i:2;i:3479;}i:254;a:3:{i:0;s:7:"p_close";i:1;a:0:{}i:2;i:3496;}i:255;a:3:{i:0;s:6:"p_open";i:1;a:0:{}i:2;i:3496;}i:256;a:3:{i:0;s:5:"cdata";i:1;a:1:{i:0;s:196:"Note : First time this aplication will give you the error, then close the application and restart it. Next time a virtual adapter is already detected by application which we have create in step 6.";}i:2;i:3498;}i:257;a:3:{i:0;s:7:"p_close";i:1;a:0:{}i:2;i:3694;}i:258;a:3:{i:0;s:6:"p_open";i:1;a:0:{}i:2;i:3694;}i:259;a:3:{i:0;s:5:"cdata";i:1;a:1:{i:0;s:115:"10. Then Click on Add VPN connection. Then fill the required details in the blanks highlighted in the image below :";}i:2;i:3696;}i:260;a:3:{i:0;s:7:"p_close";i:1;a:0:{}i:2;i:3811;}i:261;a:3:{i:0;s:6:"p_open";i:1;a:0:{}i:2;i:3811;}i:262;a:3:{i:0;s:5:"cdata";i:1;a:1:{i:0;s:6:"IMAGE ";}i:2;i:3813;}i:263;a:3:{i:0;s:12:"externallink";i:1;a:2:{i:0;s:65:"http://wiki.mantraventures.com/_media/softether/selection_054.png";i:1;N;}i:2;i:3819;}i:264;a:3:{i:0;s:7:"p_close";i:1;a:0:{}i:2;i:3884;}i:265;a:3:{i:0;s:6:"p_open";i:1;a:0:{}i:2;i:3884;}i:266;a:3:{i:0;s:5:"cdata";i:1;a:1:{i:0;s:91:"11. After adding a vpn connection, right click on the connection name and click on connect.";}i:2;i:3886;}i:267;a:3:{i:0;s:7:"p_close";i:1;a:0:{}i:2;i:3977;}i:268;a:3:{i:0;s:6:"p_open";i:1;a:0:{}i:2;i:3977;}i:269;a:3:{i:0;s:5:"cdata";i:1;a:1:{i:0;s:5:"IMAGE";}i:2;i:3979;}i:270;a:3:{i:0;s:7:"p_close";i:1;a:0:{}i:2;i:3984;}i:271;a:3:{i:0;s:6:"p_open";i:1;a:0:{}i:2;i:3984;}i:272;a:3:{i:0;s:5:"cdata";i:1;a:1:{i:0;s:81:"12. After it gets connected, return to shell and run the below commands as root :";}i:2;i:3986;}i:273;a:3:{i:0;s:7:"p_close";i:1;a:0:{}i:2;i:4067;}i:274;a:3:{i:0;s:6:"p_open";i:1;a:0:{}i:2;i:4067;}i:275;a:3:{i:0;s:5:"cdata";i:1;a:1:{i:0;s:21:"dhclient vpn_ethervpn";}i:2;i:4069;}i:276;a:3:{i:0;s:7:"p_close";i:1;a:0:{}i:2;i:4090;}i:277;a:3:{i:0;s:6:"p_open";i:1;a:0:{}i:2;i:4090;}i:278;a:3:{i:0;s:5:"cdata";i:1;a:1:{i:0;s:76:"ip route add 146.88.26.95 via <YOUR IP> dev <Wireless NIC name> proto static";}i:2;i:4092;}i:279;a:3:{i:0;s:7:"p_close";i:1;a:0:{}i:2;i:4168;}i:280;a:3:{i:0;s:6:"p_open";i:1;a:0:{}i:2;i:4168;}i:281;a:3:{i:0;s:5:"cdata";i:1;a:1:{i:0;s:20:"ip route del default";}i:2;i:4170;}i:282;a:3:{i:0;s:7:"p_close";i:1;a:0:{}i:2;i:4190;}i:283;a:3:{i:0;s:6:"p_open";i:1;a:0:{}i:2;i:4190;}i:284;a:3:{i:0;s:5:"cdata";i:1;a:1:{i:0;s:54:"ip route add default via 192.168.30.1 dev vpn_ethervpn";}i:2;i:4192;}i:285;a:3:{i:0;s:7:"p_close";i:1;a:0:{}i:2;i:4246;}i:286;a:3:{i:0;s:6:"p_open";i:1;a:0:{}i:2;i:4246;}i:287;a:3:{i:0;s:5:"cdata";i:1;a:1:{i:0;s:45:"13. Add nameservers in your /etc/resolve.conf";}i:2;i:4248;}i:288;a:3:{i:0;s:7:"p_close";i:1;a:0:{}i:2;i:4293;}i:289;a:3:{i:0;s:6:"p_open";i:1;a:0:{}i:2;i:4293;}i:290;a:3:{i:0;s:5:"cdata";i:1;a:1:{i:0;s:18:"nameserver 8.8.8.8";}i:2;i:4295;}i:291;a:3:{i:0;s:7:"p_close";i:1;a:0:{}i:2;i:4313;}i:292;a:3:{i:0;s:6:"p_open";i:1;a:0:{}i:2;i:4313;}i:293;a:3:{i:0;s:5:"cdata";i:1;a:1:{i:0;s:18:"nameserver 8.8.4.4";}i:2;i:4315;}i:294;a:3:{i:0;s:7:"p_close";i:1;a:0:{}i:2;i:4333;}i:295;a:3:{i:0;s:13:"section_close";i:1;a:0:{}i:2;i:4334;}i:296;a:3:{i:0;s:12:"document_end";i:1;a:0:{}i:2;i:4334;}}