a:30:{i:0;a:3:{i:0;s:14:"document_start";i:1;a:0:{}i:2;i:0;}i:1;a:3:{i:0;s:6:"header";i:1;a:3:{i:0;s:33:"Install Interspire in Vesta Panel";i:1;i:1;i:2;i:1;}i:2;i:1;}i:2;a:3:{i:0;s:12:"section_open";i:1;a:1:{i:0;i:1;}i:2;i:1;}i:3;a:3:{i:0;s:6:"p_open";i:1;a:0:{}i:2;i:1;}i:4;a:3:{i:0;s:5:"cdata";i:1;a:1:{i:0;s:63:"1. Login to Ansible master and add the VM IP to ansible hosts. ";}i:2;i:50;}i:5;a:3:{i:0;s:9:"linebreak";i:1;a:0:{}i:2;i:113;}i:6;a:3:{i:0;s:7:"p_close";i:1;a:0:{}i:2;i:115;}i:7;a:3:{i:0;s:6:"p_open";i:1;a:0:{}i:2;i:115;}i:8;a:3:{i:0;s:5:"cdata";i:1;a:1:{i:0;s:67:"2. Run screen on ansible master and then run the following command:";}i:2;i:117;}i:9;a:3:{i:0;s:9:"linebreak";i:1;a:0:{}i:2;i:184;}i:10;a:3:{i:0;s:7:"p_close";i:1;a:0:{}i:2;i:186;}i:11;a:3:{i:0;s:6:"p_open";i:1;a:0:{}i:2;i:186;}i:12;a:3:{i:0;s:6:"plugin";i:1;a:4:{i:0;s:9:"code_code";i:1;a:4:{i:0;s:4:"code";i:1;N;i:2;s:0:"";i:3;s:115:"
ansible-playbook -l <IP> /scripts/interspire_install_centos_vestacp.yml --extra-vars "domain=<domain>" --ask-pass
";}i:2;i:3;i:3;s:116:">
ansible-playbook -l <IP> /scripts/interspire_install_centos_vestacp.yml --extra-vars "domain=<domain>" --ask-pass
";}i:2;i:193;}i:13;a:3:{i:0;s:7:"p_close";i:1;a:0:{}i:2;i:316;}i:14;a:3:{i:0;s:6:"p_open";i:1;a:0:{}i:2;i:316;}i:15;a:3:{i:0;s:5:"cdata";i:1;a:1:{i:0;s:12:"3. Example 
";}i:2;i:318;}i:16;a:3:{i:0;s:6:"plugin";i:1;a:4:{i:0;s:9:"code_code";i:1;a:4:{i:0;s:4:"code";i:1;N;i:2;s:0:"";i:3;s:125:"
ansible-playbook -l 43.252.89.164 /scripts/interspire_install_centos_vestacp.yml --extra-vars "domain=email.mantragrid.com"
";}i:2;i:3;i:3;s:126:">
ansible-playbook -l 43.252.89.164 /scripts/interspire_install_centos_vestacp.yml --extra-vars "domain=email.mantragrid.com"
";}i:2;i:335;}i:17;a:3:{i:0;s:7:"p_close";i:1;a:0:{}i:2;i:468;}i:18;a:3:{i:0;s:6:"p_open";i:1;a:0:{}i:2;i:468;}i:19;a:3:{i:0;s:5:"cdata";i:1;a:1:{i:0;s:28:"This will do the following: ";}i:2;i:470;}i:20;a:3:{i:0;s:7:"p_close";i:1;a:0:{}i:2;i:499;}i:21;a:3:{i:0;s:10:"listu_open";i:1;a:0:{}i:2;i:499;}i:22;a:3:{i:0;s:13:"listitem_open";i:1;a:1:{i:0;i:1;}i:2;i:499;}i:23;a:3:{i:0;s:16:"listcontent_open";i:1;a:0:{}i:2;i:499;}i:24;a:3:{i:0;s:5:"cdata";i:1;a:1:{i:0;s:19:" Install Interspire";}i:2;i:503;}i:25;a:3:{i:0;s:17:"listcontent_close";i:1;a:0:{}i:2;i:522;}i:26;a:3:{i:0;s:14:"listitem_close";i:1;a:0:{}i:2;i:522;}i:27;a:3:{i:0;s:11:"listu_close";i:1;a:0:{}i:2;i:522;}i:28;a:3:{i:0;s:13:"section_close";i:1;a:0:{}i:2;i:523;}i:29;a:3:{i:0;s:12:"document_end";i:1;a:0:{}i:2;i:523;}}