a:78:{i:0;a:3:{i:0;s:14:"document_start";i:1;a:0:{}i:2;i:0;}i:1;a:3:{i:0;s:6:"header";i:1;a:3:{i:0;s:20:"Zimbra Logo Branding";i:1;i:1;i:2;i:1;}i:2;i:1;}i:2;a:3:{i:0;s:12:"section_open";i:1;a:1:{i:0;i:1;}i:2;i:1;}i:3;a:3:{i:0;s:6:"p_open";i:1;a:0:{}i:2;i:1;}i:4;a:3:{i:0;s:5:"cdata";i:1;a:1:{i:0;s:25:"1. Scale image as follow.";}i:2;i:38;}i:5;a:3:{i:0;s:7:"p_close";i:1;a:0:{}i:2;i:63;}i:6;a:3:{i:0;s:6:"p_open";i:1;a:0:{}i:2;i:63;}i:7;a:3:{i:0;s:5:"cdata";i:1;a:1:{i:0;s:15:"For Login Page.";}i:2;i:65;}i:8;a:3:{i:0;s:7:"p_close";i:1;a:0:{}i:2;i:80;}i:9;a:3:{i:0;s:12:"preformatted";i:1;a:1:{i:0;s:27:"Width 250px and Height 36px";}i:2;i:80;}i:10;a:3:{i:0;s:6:"p_open";i:1;a:0:{}i:2;i:80;}i:11;a:3:{i:0;s:5:"cdata";i:1;a:1:{i:0;s:20:"Rename this logo as ";}i:2;i:111;}i:12;a:3:{i:0;s:11:"strong_open";i:1;a:0:{}i:2;i:131;}i:13;a:3:{i:0;s:5:"cdata";i:1;a:1:{i:0;s:15:"LoginBanner.png";}i:2;i:133;}i:14;a:3:{i:0;s:12:"strong_close";i:1;a:0:{}i:2;i:148;}i:15;a:3:{i:0;s:7:"p_close";i:1;a:0:{}i:2;i:150;}i:16;a:3:{i:0;s:6:"p_open";i:1;a:0:{}i:2;i:150;}i:17;a:3:{i:0;s:5:"cdata";i:1;a:1:{i:0;s:27:"For panel's top left corner";}i:2;i:153;}i:18;a:3:{i:0;s:7:"p_close";i:1;a:0:{}i:2;i:180;}i:19;a:3:{i:0;s:12:"preformatted";i:1;a:1:{i:0;s:27:"Width 120px and Height 28px";}i:2;i:180;}i:20;a:3:{i:0;s:6:"p_open";i:1;a:0:{}i:2;i:180;}i:21;a:3:{i:0;s:5:"cdata";i:1;a:1:{i:0;s:20:"Rename this logo as ";}i:2;i:211;}i:22;a:3:{i:0;s:11:"strong_open";i:1;a:0:{}i:2;i:231;}i:23;a:3:{i:0;s:5:"cdata";i:1;a:1:{i:0;s:13:"AppBanner.png";}i:2;i:233;}i:24;a:3:{i:0;s:12:"strong_close";i:1;a:0:{}i:2;i:246;}i:25;a:3:{i:0;s:7:"p_close";i:1;a:0:{}i:2;i:248;}i:26;a:3:{i:0;s:6:"p_open";i:1;a:0:{}i:2;i:248;}i:27;a:3:{i:0;s:5:"cdata";i:1;a:1:{i:0;s:57:"2. Copy logos to following location by replacing existing";}i:2;i:251;}i:28;a:3:{i:0;s:7:"p_close";i:1;a:0:{}i:2;i:309;}i:29;a:3:{i:0;s:12:"preformatted";i:1;a:1:{i:0;s:81:" /opt/zimbra/jetty-distribution-7.6.12.v20130726/webapps/zimbra/skins/_base/logos";}i:2;i:309;}i:30;a:3:{i:0;s:6:"p_open";i:1;a:0:{}i:2;i:309;}i:31;a:3:{i:0;s:5:"cdata";i:1;a:1:{i:0;s:63:"(jetty-distribution version might change as per zimbra version)";}i:2;i:395;}i:32;a:3:{i:0;s:7:"p_close";i:1;a:0:{}i:2;i:458;}i:33;a:3:{i:0;s:6:"p_open";i:1;a:0:{}i:2;i:458;}i:34;a:3:{i:0;s:5:"cdata";i:1;a:1:{i:0;s:101:"Replace LoginBanner_white.png and LoginBanner_black.png with modified LoginBanner.png by renaming it.";}i:2;i:460;}i:35;a:3:{i:0;s:7:"p_close";i:1;a:0:{}i:2;i:561;}i:36;a:3:{i:0;s:6:"p_open";i:1;a:0:{}i:2;i:561;}i:37;a:3:{i:0;s:5:"cdata";i:1;a:1:{i:0;s:70:"same for AppBanner_white.png and AppBanner_black.png by AppBanner.png.";}i:2;i:563;}i:38;a:3:{i:0;s:7:"p_close";i:1;a:0:{}i:2;i:633;}i:39;a:3:{i:0;s:6:"p_open";i:1;a:0:{}i:2;i:633;}i:40;a:3:{i:0;s:5:"cdata";i:1;a:1:{i:0;s:44:"Also, replace images in folder ZimbraInside ";}i:2;i:635;}i:41;a:3:{i:0;s:7:"p_close";i:1;a:0:{}i:2;i:679;}i:42;a:3:{i:0;s:6:"p_open";i:1;a:0:{}i:2;i:679;}i:43;a:3:{i:0;s:5:"cdata";i:1;a:1:{i:0;s:38:"3. Change ownership of these as zimbra";}i:2;i:683;}i:44;a:3:{i:0;s:7:"p_close";i:1;a:0:{}i:2;i:721;}i:45;a:3:{i:0;s:6:"p_open";i:1;a:0:{}i:2;i:721;}i:46;a:3:{i:0;s:5:"cdata";i:1;a:1:{i:0;s:49:"4. Now logos will be available on following urls.";}i:2;i:724;}i:47;a:3:{i:0;s:7:"p_close";i:1;a:0:{}i:2;i:774;}i:48;a:3:{i:0;s:12:"preformatted";i:1;a:1:{i:0;s:66:"Login Banner: http://<domain/ip>/skins/_base/logos/LoginBanner.png";}i:2;i:774;}i:49;a:3:{i:0;s:12:"preformatted";i:1;a:1:{i:0;s:62:"App Banner: http://<domain/ip>/skins/_base/logos/AppBanner.png";}i:2;i:844;}i:50;a:3:{i:0;s:6:"p_open";i:1;a:0:{}i:2;i:844;}i:51;a:3:{i:0;s:11:"strong_open";i:1;a:0:{}i:2;i:911;}i:52;a:3:{i:0;s:5:"cdata";i:1;a:1:{i:0;s:44:"(Note: Make sure http is enabled in zimbra )";}i:2;i:913;}i:53;a:3:{i:0;s:12:"strong_close";i:1;a:0:{}i:2;i:957;}i:54;a:3:{i:0;s:7:"p_close";i:1;a:0:{}i:2;i:959;}i:55;a:3:{i:0;s:6:"p_open";i:1;a:0:{}i:2;i:959;}i:56;a:3:{i:0;s:5:"cdata";i:1;a:1:{i:0;s:76:"5. For zimbra admin panel replace logos at below location with modified one.";}i:2;i:961;}i:57;a:3:{i:0;s:7:"p_close";i:1;a:0:{}i:2;i:1038;}i:58;a:3:{i:0;s:12:"preformatted";i:1;a:1:{i:0;s:88:"/opt/zimbra/jetty-distribution-7.6.12.v20130726/webapps/zimbraAdmin/skins/serenity/logos";}i:2;i:1038;}i:59;a:3:{i:0;s:6:"p_open";i:1;a:0:{}i:2;i:1038;}i:60;a:3:{i:0;s:5:"cdata";i:1;a:1:{i:0;s:25:"6. Run following command ";}i:2;i:1131;}i:61;a:3:{i:0;s:7:"p_close";i:1;a:0:{}i:2;i:1157;}i:62;a:3:{i:0;s:12:"preformatted";i:1;a:1:{i:0;s:286:"zmprov modifyDomain <Domain name> zimbraSkinLogoURL <Site Url>

zmprov modifyDomain <Domain name> zimbraSkinLogoLoginBanner http://<domain/ip>/skins/_base/logos/LoginBanner.png

zmprov modifyDomain <Domain name> zimbraSkinLogoAppBanner http://<domain/ip>/skins/_base/logos/AppBanner.png";}i:2;i:1157;}i:63;a:3:{i:0;s:6:"p_open";i:1;a:0:{}i:2;i:1157;}i:64;a:3:{i:0;s:5:"cdata";i:1;a:1:{i:0;s:8:"Example:";}i:2;i:1457;}i:65;a:3:{i:0;s:7:"p_close";i:1;a:0:{}i:2;i:1465;}i:66;a:3:{i:0;s:12:"preformatted";i:1;a:1:{i:0;s:291:"zmprov modifyDomain maimon.in zimbraSkinLogoURL http://maimon.in

zmprov modifyDomain maimon.in zimbraSkinLogoLoginBanner http://mail.maimon.in/skins/_base/logos/maimon_panel.png

zmprov modifyDomain maimon.in zimbraSkinLogoAppBanner http://mail.maimon.in/skins/_base/logos/maimon_panel.png
";}i:2;i:1465;}i:67;a:3:{i:0;s:6:"p_open";i:1;a:0:{}i:2;i:1465;}i:68;a:3:{i:0;s:5:"cdata";i:1;a:1:{i:0;s:22:"Now restart the zimbra";}i:2;i:1773;}i:69;a:3:{i:0;s:7:"p_close";i:1;a:0:{}i:2;i:1795;}i:70;a:3:{i:0;s:12:"preformatted";i:1;a:1:{i:0;s:17:"zmcontrol restart";}i:2;i:1795;}i:71;a:3:{i:0;s:6:"p_open";i:1;a:0:{}i:2;i:1795;}i:72;a:3:{i:0;s:11:"strong_open";i:1;a:0:{}i:2;i:1817;}i:73;a:3:{i:0;s:5:"cdata";i:1;a:1:{i:0;s:73:"There might need for ctrl+f5 to load fresh images forcefully in browser.
";}i:2;i:1819;}i:74;a:3:{i:0;s:12:"strong_close";i:1;a:0:{}i:2;i:1892;}i:75;a:3:{i:0;s:7:"p_close";i:1;a:0:{}i:2;i:1894;}i:76;a:3:{i:0;s:13:"section_close";i:1;a:0:{}i:2;i:1895;}i:77;a:3:{i:0;s:12:"document_end";i:1;a:0:{}i:2;i:1895;}}