a:26:{i:0;a:3:{i:0;s:14:"document_start";i:1;a:0:{}i:2;i:0;}i:1;a:3:{i:0;s:6:"p_open";i:1;a:0:{}i:2;i:0;}i:2;a:3:{i:0;s:5:"cdata";i:1;a:1:{i:0;s:71:"After installing PATCH-SUPEE-6788 magento stores theme has been break. ";}i:2;i:1;}i:3;a:3:{i:0;s:9:"linebreak";i:1;a:0:{}i:2;i:72;}i:4;a:3:{i:0;s:7:"p_close";i:1;a:0:{}i:2;i:74;}i:5;a:3:{i:0;s:6:"p_open";i:1;a:0:{}i:2;i:74;}i:6;a:3:{i:0;s:11:"strong_open";i:1;a:0:{}i:2;i:76;}i:7;a:3:{i:0;s:5:"cdata";i:1;a:1:{i:0;s:8:"Solution";}i:2;i:78;}i:8;a:3:{i:0;s:12:"strong_close";i:1;a:0:{}i:2;i:86;}i:9;a:3:{i:0;s:5:"cdata";i:1;a:1:{i:0;s:1:":";}i:2;i:88;}i:10;a:3:{i:0;s:9:"linebreak";i:1;a:0:{}i:2;i:89;}i:11;a:3:{i:0;s:5:"cdata";i:1;a:1:{i:0;s:29:"
1. Login to Magento Backend ";}i:2;i:91;}i:12;a:3:{i:0;s:9:"linebreak";i:1;a:0:{}i:2;i:120;}i:13;a:3:{i:0;s:5:"cdata";i:1;a:1:{i:0;s:42:"
2. Go to : System > Permissions > Blocks ";}i:2;i:122;}i:14;a:3:{i:0;s:9:"linebreak";i:1;a:0:{}i:2;i:164;}i:15;a:3:{i:0;s:5:"cdata";i:1;a:1:{i:0;s:18:"
3. Add New Block ";}i:2;i:166;}i:16;a:3:{i:0;s:9:"linebreak";i:1;a:0:{}i:2;i:184;}i:17;a:3:{i:0;s:5:"cdata";i:1;a:1:{i:0;s:1:"
";}i:2;i:186;}i:18;a:3:{i:0;s:14:"monospace_open";i:1;a:0:{}i:2;i:187;}i:19;a:3:{i:0;s:5:"cdata";i:1;a:1:{i:0;s:22:"Block Name: cms/block ";}i:2;i:189;}i:20;a:3:{i:0;s:9:"linebreak";i:1;a:0:{}i:2;i:211;}i:21;a:3:{i:0;s:5:"cdata";i:1;a:1:{i:0;s:17:"
Is Allowed : Yes";}i:2;i:213;}i:22;a:3:{i:0;s:15:"monospace_close";i:1;a:0:{}i:2;i:230;}i:23;a:3:{i:0;s:5:"cdata";i:1;a:1:{i:0;s:0:"";}i:2;i:232;}i:24;a:3:{i:0;s:7:"p_close";i:1;a:0:{}i:2;i:232;}i:25;a:3:{i:0;s:12:"document_end";i:1;a:0:{}i:2;i:232;}}