a:9:{i:0;a:3:{i:0;s:14:"document_start";i:1;a:0:{}i:2;i:0;}i:1;a:3:{i:0;s:6:"header";i:1;a:3:{i:0;s:12:"SSH Security";i:1;i:1;i:2;i:1;}i:2;i:1;}i:2;a:3:{i:0;s:12:"section_open";i:1;a:1:{i:0;i:1;}i:2;i:1;}i:3;a:3:{i:0;s:6:"p_open";i:1;a:0:{}i:2;i:1;}i:4;a:3:{i:0;s:6:"plugin";i:1;a:4:{i:0;s:9:"code_code";i:1;a:4:{i:0;s:4:"code";i:1;N;i:2;s:0:"";i:3;s:654:"
By default ssh is pretty secure, however there are a few measure you can take to step up the security a bit.  You can find various settings located in /etc/ssh/sshd_config.
#disable protocol 1
Protocol 2
#reduce maximum login attempts
MaxAuthTries 4
#move ssh from default port (22)
Port 2022
#decrease time user has to authenticate
LoginGraceTime 30s
#deny root user to authenticate without ssh keypair
PermitRootLogin without-password
#throttle concurrent login attempts
#allow 3 concurrent connections and randomly reject connetions (75% probability)
#until 10 connections are running concurrently. anything beyond 10 is rejected
MaxStartups 3:75:10 ";}i:2;i:3;i:3;s:655:">
By default ssh is pretty secure, however there are a few measure you can take to step up the security a bit.  You can find various settings located in /etc/ssh/sshd_config.
#disable protocol 1
Protocol 2
#reduce maximum login attempts
MaxAuthTries 4
#move ssh from default port (22)
Port 2022
#decrease time user has to authenticate
LoginGraceTime 30s
#deny root user to authenticate without ssh keypair
PermitRootLogin without-password
#throttle concurrent login attempts
#allow 3 concurrent connections and randomly reject connetions (75% probability)
#until 10 connections are running concurrently. anything beyond 10 is rejected
MaxStartups 3:75:10 ";}i:2;i:34;}i:5;a:3:{i:0;s:5:"cdata";i:1;a:1:{i:0;s:0:"";}i:2;i:696;}i:6;a:3:{i:0;s:7:"p_close";i:1;a:0:{}i:2;i:696;}i:7;a:3:{i:0;s:13:"section_close";i:1;a:0:{}i:2;i:696;}i:8;a:3:{i:0;s:12:"document_end";i:1;a:0:{}i:2;i:696;}}