a:34:{i:0;a:3:{i:0;s:14:"document_start";i:1;a:0:{}i:2;i:0;}i:1;a:3:{i:0;s:6:"header";i:1;a:3:{i:0;s:35:"Random IP script for Mailing server";i:1;i:1;i:2;i:1;}i:2;i:1;}i:2;a:3:{i:0;s:12:"section_open";i:1;a:1:{i:0;i:1;}i:2;i:1;}i:3;a:3:{i:0;s:6:"p_open";i:1;a:0:{}i:2;i:1;}i:4;a:3:{i:0;s:13:"internalmedia";i:1;a:7:{i:0;s:15:":multipleip.txt";i:1;s:0:"";i:2;N;i:3;N;i:4;N;i:5;s:5:"cache";i:6;s:7:"details";}i:2;i:50;}i:5;a:3:{i:0;s:7:"p_close";i:1;a:0:{}i:2;i:70;}i:6;a:3:{i:0;s:6:"p_open";i:1;a:0:{}i:2;i:70;}i:7;a:3:{i:0;s:5:"cdata";i:1;a:1:{i:0;s:66:"1. Login to the server for which Multiple IP script is to be used.";}i:2;i:72;}i:8;a:3:{i:0;s:7:"p_close";i:1;a:0:{}i:2;i:138;}i:9;a:3:{i:0;s:6:"p_open";i:1;a:0:{}i:2;i:138;}i:10;a:3:{i:0;s:5:"cdata";i:1;a:1:{i:0;s:12:"2. Goto /etc";}i:2;i:140;}i:11;a:3:{i:0;s:7:"p_close";i:1;a:0:{}i:2;i:152;}i:12;a:3:{i:0;s:6:"p_open";i:1;a:0:{}i:2;i:152;}i:13;a:3:{i:0;s:5:"cdata";i:1;a:1:{i:0;s:68:"3. Copy exim.conf and exim.pl files as exim.conf.bak and exim.pl.bak";}i:2;i:154;}i:14;a:3:{i:0;s:7:"p_close";i:1;a:0:{}i:2;i:222;}i:15;a:3:{i:0;s:6:"p_open";i:1;a:0:{}i:2;i:222;}i:16;a:3:{i:0;s:5:"cdata";i:1;a:1:{i:0;s:87:"4. Now, open exim.conf file and make the changes given in attached file MultipleIP.txt.";}i:2;i:224;}i:17;a:3:{i:0;s:7:"p_close";i:1;a:0:{}i:2;i:311;}i:18;a:3:{i:0;s:6:"p_open";i:1;a:0:{}i:2;i:311;}i:19;a:3:{i:0;s:5:"cdata";i:1;a:1:{i:0;s:80:"5. Open exim.pl file and make the changes given in attached file MultipleIP.txt.";}i:2;i:313;}i:20;a:3:{i:0;s:7:"p_close";i:1;a:0:{}i:2;i:393;}i:21;a:3:{i:0;s:6:"p_open";i:1;a:0:{}i:2;i:393;}i:22;a:3:{i:0;s:5:"cdata";i:1;a:1:{i:0;s:48:"6. After all this, type the following commands:
";}i:2;i:395;}i:23;a:3:{i:0;s:6:"plugin";i:1;a:4:{i:0;s:9:"code_code";i:1;a:4:{i:0;s:4:"code";i:1;N;i:2;s:0:"";i:3;s:53:"
chattr +aui /etc/exim.conf 
chattr +aui /etc/exim.pl";}i:2;i:3;i:3;s:54:">
chattr +aui /etc/exim.conf 
chattr +aui /etc/exim.pl";}i:2;i:448;}i:24;a:3:{i:0;s:5:"cdata";i:1;a:1:{i:0;s:88:"
(This prevents any changes to file exim.conf when cPanel/WHM is automatically upgraded)";}i:2;i:509;}i:25;a:3:{i:0;s:7:"p_close";i:1;a:0:{}i:2;i:597;}i:26;a:3:{i:0;s:6:"p_open";i:1;a:0:{}i:2;i:597;}i:27;a:3:{i:0;s:5:"cdata";i:1;a:1:{i:0;s:41:"7. Restart exim: /etc/init.d/exim restart";}i:2;i:599;}i:28;a:3:{i:0;s:7:"p_close";i:1;a:0:{}i:2;i:640;}i:29;a:3:{i:0;s:6:"p_open";i:1;a:0:{}i:2;i:640;}i:30;a:3:{i:0;s:5:"cdata";i:1;a:1:{i:0;s:4:"DONE";}i:2;i:642;}i:31;a:3:{i:0;s:7:"p_close";i:1;a:0:{}i:2;i:646;}i:32;a:3:{i:0;s:13:"section_close";i:1;a:0:{}i:2;i:646;}i:33;a:3:{i:0;s:12:"document_end";i:1;a:0:{}i:2;i:646;}}