a:9:{i:0;a:3:{i:0;s:14:"document_start";i:1;a:0:{}i:2;i:0;}i:1;a:3:{i:0;s:6:"p_open";i:1;a:0:{}i:2;i:0;}i:2;a:3:{i:0;s:5:"cdata";i:1;a:1:{i:0;s:135:"Take backup of the file and then comment out the following part from the file /owncloud_install_folder/settings/templates/personal.php:";}i:2;i:1;}i:3;a:3:{i:0;s:7:"p_close";i:1;a:0:{}i:2;i:136;}i:4;a:3:{i:0;s:6:"p_open";i:1;a:0:{}i:2;i:136;}i:5;a:3:{i:0;s:6:"plugin";i:1;a:4:{i:0;s:9:"code_code";i:1;a:4:{i:0;s:4:"code";i:1;N;i:2;s:0:"";i:3;s:928:"
if($_['passwordChangeSupported']) {
?>
<form id="passwordform">
        <fieldset class="personalblock">
                <legend><strong><?php p($l->t('Password'));?></strong></legend>
                <div id="passwordchanged"><?php echo $l->t('Your password was changed');?></div>
                <div id="passworderror"><?php echo $l->t('Unable to change your password');?></div>
                <input type="password" id="pass1" name="oldpassword" placeholder="<?php echo $l->t('Current password');?>" />
                <input type="password" id="pass2" name="password"
                        placeholder="<?php echo $l->t('New password');?>" data-typetoggle="#personal-show" />
                <input type="checkbox" id="personal-show" name="show" /><label for="personal-show"></label>
                <input id="passwordbutton" type="submit" value="<?php echo $l->t('Change password');?>" />
        </fieldset>
</form>
";}i:2;i:3;i:3;s:929:">
if($_['passwordChangeSupported']) {
?>
<form id="passwordform">
        <fieldset class="personalblock">
                <legend><strong><?php p($l->t('Password'));?></strong></legend>
                <div id="passwordchanged"><?php echo $l->t('Your password was changed');?></div>
                <div id="passworderror"><?php echo $l->t('Unable to change your password');?></div>
                <input type="password" id="pass1" name="oldpassword" placeholder="<?php echo $l->t('Current password');?>" />
                <input type="password" id="pass2" name="password"
                        placeholder="<?php echo $l->t('New password');?>" data-typetoggle="#personal-show" />
                <input type="checkbox" id="personal-show" name="show" /><label for="personal-show"></label>
                <input id="passwordbutton" type="submit" value="<?php echo $l->t('Change password');?>" />
        </fieldset>
</form>
";}i:2;i:143;}i:6;a:3:{i:0;s:5:"cdata";i:1;a:1:{i:0;s:0:"";}i:2;i:1079;}i:7;a:3:{i:0;s:7:"p_close";i:1;a:0:{}i:2;i:1079;}i:8;a:3:{i:0;s:12:"document_end";i:1;a:0:{}i:2;i:1079;}}