a:26:{i:0;a:3:{i:0;s:14:"document_start";i:1;a:0:{}i:2;i:0;}i:1;a:3:{i:0;s:6:"p_open";i:1;a:0:{}i:2;i:0;}i:2;a:3:{i:0;s:5:"cdata";i:1;a:1:{i:0;s:23:"1. Formatting the node.";}i:2;i:1;}i:3;a:3:{i:0;s:7:"p_close";i:1;a:0:{}i:2;i:24;}i:4;a:3:{i:0;s:12:"preformatted";i:1;a:1:{i:0;s:526:"i.  Go to the OVH manager https://www.ovh.com/managerv3/ , Login into that and choose the node to be formatted.
ii.  Go to the Services-> Reinstall/Change OS and Select the Operating System is to be installed.
iii. If Selected Linux OS (Cent os) then choose the manual partition option and make partition as follow
     /boot       1024 MB
     /             102400 MB
     swap        Same or more than RAM alloted.
iv. Now begin the formatting (Reinstalling). When it finish out password  will be sent by ovh through email.
";}i:2;i:24;}i:5;a:3:{i:0;s:6:"p_open";i:1;a:0:{}i:2;i:24;}i:6;a:3:{i:0;s:5:"cdata";i:1;a:1:{i:0;s:19:"2. Making Partition";}i:2;i:568;}i:7;a:3:{i:0;s:7:"p_close";i:1;a:0:{}i:2;i:587;}i:8;a:3:{i:0;s:12:"preformatted";i:1;a:1:{i:0;s:595:" i.  Run following commands
     parted
     print                              // To see the current partition                        
     mkpartprimary ext4       // This will make a partition of type primary having  ext4 filesystem. It will ask for the START POINT and END POINT.
                                                        //Just enter the END POINT of last partition as the START POINT here and for END POINT enter the total size of node.
                                                        // ( Example of start and end point is 126GB and 2000GB corresponding) 
     quit
";}i:2;i:587;}i:9;a:3:{i:0;s:6:"p_open";i:1;a:0:{}i:2;i:587;}i:10;a:3:{i:0;s:5:"cdata";i:1;a:1:{i:0;s:27:"3. Creating Logical Volume.";}i:2;i:1200;}i:11;a:3:{i:0;s:7:"p_close";i:1;a:0:{}i:2;i:1227;}i:12;a:3:{i:0;s:12:"preformatted";i:1;a:1:{i:0;s:26:"Run following the commands";}i:2;i:1227;}i:13;a:3:{i:0;s:12:"preformatted";i:1;a:1:{i:0;s:169:"   pvcreate /dev/sda<no>
   pvscan
   vgcreate VolGroup00 /dev/sda<no>
   vgdisplay
   lvcreate -L +1GB -n LVM1 VolGroup00
   lvdisplay
   mkfs.ext3 /dev/VolGroup00/LVM1";}i:2;i:1257;}i:14;a:3:{i:0;s:6:"p_open";i:1;a:0:{}i:2;i:1257;}i:15;a:3:{i:0;s:5:"cdata";i:1;a:1:{i:0;s:20:"4. Comment the line ";}i:2;i:1443;}i:16;a:3:{i:0;s:18:"doublequoteopening";i:1;a:0:{}i:2;i:1463;}i:17;a:3:{i:0;s:5:"cdata";i:1;a:1:{i:0;s:17:" exclude=kernel* ";}i:2;i:1464;}i:18;a:3:{i:0;s:18:"doublequoteclosing";i:1;a:0:{}i:2;i:1481;}i:19;a:3:{i:0;s:5:"cdata";i:1;a:1:{i:0;s:27:" in the file /etc/yum.conf ";}i:2;i:1482;}i:20;a:3:{i:0;s:7:"p_close";i:1;a:0:{}i:2;i:1509;}i:21;a:3:{i:0;s:6:"p_open";i:1;a:0:{}i:2;i:1509;}i:22;a:3:{i:0;s:5:"cdata";i:1;a:1:{i:0;s:49:"5. For Installing SolusVM slave on it follow the ";}i:2;i:1511;}i:23;a:3:{i:0;s:12:"externallink";i:1;a:2:{i:0;s:66:"http://wiki.solusvm.com/index.php?title=Install#Installing_a_Slave";i:1;N;}i:2;i:1560;}i:24;a:3:{i:0;s:7:"p_close";i:1;a:0:{}i:2;i:1626;}i:25;a:3:{i:0;s:12:"document_end";i:1;a:0:{}i:2;i:1626;}}