a:77:{i:0;a:3:{i:0;s:14:"document_start";i:1;a:0:{}i:2;i:0;}i:1;a:3:{i:0;s:6:"p_open";i:1;a:0:{}i:2;i:0;}i:2;a:3:{i:0;s:13:"emphasis_open";i:1;a:0:{}i:2;i:1;}i:3;a:3:{i:0;s:5:"cdata";i:1;a:1:{i:0;s:16:"Magento Profiler";}i:2;i:3;}i:4;a:3:{i:0;s:14:"emphasis_close";i:1;a:0:{}i:2;i:19;}i:5;a:3:{i:0;s:5:"cdata";i:1;a:1:{i:0;s:120:" – the built in magento tool that lets you see what magento is doing and on what it spends most of the page load time.";}i:2;i:21;}i:6;a:3:{i:0;s:7:"p_close";i:1;a:0:{}i:2;i:141;}i:7;a:3:{i:0;s:6:"p_open";i:1;a:0:{}i:2;i:141;}i:8;a:3:{i:0;s:5:"cdata";i:1;a:1:{i:0;s:53:"In order to enable Magento Profiler do the following:";}i:2;i:143;}i:9;a:3:{i:0;s:7:"p_close";i:1;a:0:{}i:2;i:196;}i:10;a:3:{i:0;s:6:"p_open";i:1;a:0:{}i:2;i:196;}i:11;a:3:{i:0;s:5:"cdata";i:1;a:1:{i:0;s:26:"1. Login to Admin Backend.";}i:2;i:198;}i:12;a:3:{i:0;s:7:"p_close";i:1;a:0:{}i:2;i:224;}i:13;a:3:{i:0;s:6:"p_open";i:1;a:0:{}i:2;i:224;}i:14;a:3:{i:0;s:5:"cdata";i:1;a:1:{i:0;s:3:"2. ";}i:2;i:226;}i:15;a:3:{i:0;s:13:"emphasis_open";i:1;a:0:{}i:2;i:229;}i:16;a:3:{i:0;s:5:"cdata";i:1;a:1:{i:0;s:7:"System ";}i:2;i:231;}i:17;a:3:{i:0;s:14:"emphasis_close";i:1;a:0:{}i:2;i:238;}i:18;a:3:{i:0;s:5:"cdata";i:1;a:1:{i:0;s:2:" >";}i:2;i:240;}i:19;a:3:{i:0;s:13:"emphasis_open";i:1;a:0:{}i:2;i:242;}i:20;a:3:{i:0;s:5:"cdata";i:1;a:1:{i:0;s:15:" Configuration ";}i:2;i:244;}i:21;a:3:{i:0;s:14:"emphasis_close";i:1;a:0:{}i:2;i:259;}i:22;a:3:{i:0;s:5:"cdata";i:1;a:1:{i:0;s:2:" >";}i:2;i:261;}i:23;a:3:{i:0;s:13:"emphasis_open";i:1;a:0:{}i:2;i:263;}i:24;a:3:{i:0;s:5:"cdata";i:1;a:1:{i:0;s:22:" Developer (Advanced) ";}i:2;i:265;}i:25;a:3:{i:0;s:14:"emphasis_close";i:1;a:0:{}i:2;i:287;}i:26;a:3:{i:0;s:5:"cdata";i:1;a:1:{i:0;s:2:" >";}i:2;i:289;}i:27;a:3:{i:0;s:13:"emphasis_open";i:1;a:0:{}i:2;i:291;}i:28;a:3:{i:0;s:5:"cdata";i:1;a:1:{i:0;s:7:" Debug ";}i:2;i:293;}i:29;a:3:{i:0;s:14:"emphasis_close";i:1;a:0:{}i:2;i:300;}i:30;a:3:{i:0;s:5:"cdata";i:1;a:1:{i:0;s:2:" >";}i:2;i:302;}i:31;a:3:{i:0;s:13:"emphasis_open";i:1;a:0:{}i:2;i:304;}i:32;a:3:{i:0;s:5:"cdata";i:1;a:1:{i:0;s:9:" Profiler";}i:2;i:306;}i:33;a:3:{i:0;s:14:"emphasis_close";i:1;a:0:{}i:2;i:315;}i:34;a:3:{i:0;s:5:"cdata";i:1;a:1:{i:0;s:8:" set to ";}i:2;i:317;}i:35;a:3:{i:0;s:11:"strong_open";i:1;a:0:{}i:2;i:325;}i:36;a:3:{i:0;s:5:"cdata";i:1;a:1:{i:0;s:3:"Yes";}i:2;i:327;}i:37;a:3:{i:0;s:12:"strong_close";i:1;a:0:{}i:2;i:330;}i:38;a:3:{i:0;s:5:"cdata";i:1;a:1:{i:0;s:1:".";}i:2;i:332;}i:39;a:3:{i:0;s:7:"p_close";i:1;a:0:{}i:2;i:333;}i:40;a:3:{i:0;s:6:"p_open";i:1;a:0:{}i:2;i:333;}i:41;a:3:{i:0;s:5:"cdata";i:1;a:1:{i:0;s:6:"3. In ";}i:2;i:335;}i:42;a:3:{i:0;s:13:"emphasis_open";i:1;a:0:{}i:2;i:341;}i:43;a:3:{i:0;s:5:"cdata";i:1;a:1:{i:0;s:9:"index.php";}i:2;i:343;}i:44;a:3:{i:0;s:14:"emphasis_close";i:1;a:0:{}i:2;i:352;}i:45;a:3:{i:0;s:5:"cdata";i:1;a:1:{i:0;s:38:" file in your magento root, uncomment ";}i:2;i:354;}i:46;a:3:{i:0;s:14:"monospace_open";i:1;a:0:{}i:2;i:392;}i:47;a:3:{i:0;s:5:"cdata";i:1;a:1:{i:0;s:25:"Varien_Profiler::enable()";}i:2;i:394;}i:48;a:3:{i:0;s:15:"monospace_close";i:1;a:0:{}i:2;i:419;}i:49;a:3:{i:0;s:7:"p_close";i:1;a:0:{}i:2;i:421;}i:50;a:3:{i:0;s:6:"p_open";i:1;a:0:{}i:2;i:421;}i:51;a:3:{i:0;s:5:"cdata";i:1;a:1:{i:0;s:107:"Sometimes the profiler output is still not seen on the frontend. In that case you have to do a little hack:";}i:2;i:423;}i:52;a:3:{i:0;s:7:"p_close";i:1;a:0:{}i:2;i:530;}i:53;a:3:{i:0;s:6:"p_open";i:1;a:0:{}i:2;i:530;}i:54;a:3:{i:0;s:5:"cdata";i:1;a:1:{i:0;s:5:"open ";}i:2;i:532;}i:55;a:3:{i:0;s:13:"emphasis_open";i:1;a:0:{}i:2;i:537;}i:56;a:3:{i:0;s:5:"cdata";i:1;a:1:{i:0;s:42:"app/code/core/Mage/Core/Block/Profiler.php";}i:2;i:539;}i:57;a:3:{i:0;s:14:"emphasis_close";i:1;a:0:{}i:2;i:581;}i:58;a:3:{i:0;s:5:"cdata";i:1;a:1:{i:0;s:37:" and comment out the following block:";}i:2;i:583;}i:59;a:3:{i:0;s:7:"p_close";i:1;a:0:{}i:2;i:620;}i:60;a:3:{i:0;s:6:"p_open";i:1;a:0:{}i:2;i:620;}i:61;a:3:{i:0;s:14:"monospace_open";i:1;a:0:{}i:2;i:622;}i:62;a:3:{i:0;s:5:"cdata";i:1;a:1:{i:0;s:28:"if (!$this→_beforeToHtml()";}i:2;i:624;}i:63;a:3:{i:0;s:9:"linebreak";i:1;a:0:{}i:2;i:652;}i:64;a:3:{i:0;s:5:"cdata";i:1;a:1:{i:0;s:47:"
|| !Mage::getStoreConfig('dev/debug/profiler')";}i:2;i:654;}i:65;a:3:{i:0;s:9:"linebreak";i:1;a:0:{}i:2;i:701;}i:66;a:3:{i:0;s:5:"cdata";i:1;a:1:{i:0;s:45:"
|| !Mage::helper('core')→isDevAllowed()) {";}i:2;i:703;}i:67;a:3:{i:0;s:9:"linebreak";i:1;a:0:{}i:2;i:748;}i:68;a:3:{i:0;s:5:"cdata";i:1;a:1:{i:0;s:9:"
return ;";}i:2;i:750;}i:69;a:3:{i:0;s:9:"linebreak";i:1;a:0:{}i:2;i:759;}i:70;a:3:{i:0;s:5:"cdata";i:1;a:1:{i:0;s:2:"
}";}i:2;i:761;}i:71;a:3:{i:0;s:15:"monospace_close";i:1;a:0:{}i:2;i:763;}i:72;a:3:{i:0;s:7:"p_close";i:1;a:0:{}i:2;i:765;}i:73;a:3:{i:0;s:6:"p_open";i:1;a:0:{}i:2;i:765;}i:74;a:3:{i:0;s:5:"cdata";i:1;a:1:{i:0;s:119:"Clear your magento cache – you should see the magento profiler output at the bottom of your website pages afterwards.";}i:2;i:767;}i:75;a:3:{i:0;s:7:"p_close";i:1;a:0:{}i:2;i:886;}i:76;a:3:{i:0;s:12:"document_end";i:1;a:0:{}i:2;i:886;}}