a:275:{i:0;a:3:{i:0;s:14:"document_start";i:1;a:0:{}i:2;i:0;}i:1;a:3:{i:0;s:6:"p_open";i:1;a:0:{}i:2;i:0;}i:2;a:3:{i:0;s:5:"cdata";i:1;a:1:{i:0;s:62:"Step 1: RDP to Windows Server.
Step 2: Press Win+R , and type ";}i:2;i:2;}i:3;a:3:{i:0;s:18:"doublequoteopening";i:1;a:0:{}i:2;i:64;}i:4;a:3:{i:0;s:5:"cdata";i:1;a:1:{i:0;s:12:"compmgmt.msc";}i:2;i:65;}i:5;a:3:{i:0;s:18:"doublequoteclosing";i:1;a:0:{}i:2;i:77;}i:6;a:3:{i:0;s:5:"cdata";i:1;a:1:{i:0;s:50:" and then OK.
Step 3: Computer Management (Local) ";}i:2;i:78;}i:7;a:3:{i:0;s:6:"entity";i:1;a:1:{i:0;s:2:"--";}i:2;i:128;}i:8;a:3:{i:0;s:5:"cdata";i:1;a:1:{i:0;s:15:"> System Tools ";}i:2;i:130;}i:9;a:3:{i:0;s:6:"entity";i:1;a:1:{i:0;s:2:"--";}i:2;i:145;}i:10;a:3:{i:0;s:5:"cdata";i:1;a:1:{i:0;s:25:"> Local Users and Groups ";}i:2;i:147;}i:11;a:3:{i:0;s:6:"entity";i:1;a:1:{i:0;s:2:"--";}i:2;i:172;}i:12;a:3:{i:0;s:5:"cdata";i:1;a:1:{i:0;s:17:"> Right click on ";}i:2;i:174;}i:13;a:3:{i:0;s:18:"doublequoteopening";i:1;a:0:{}i:2;i:191;}i:14;a:3:{i:0;s:5:"cdata";i:1;a:1:{i:0;s:5:"Users";}i:2;i:192;}i:15;a:3:{i:0;s:18:"doublequoteclosing";i:1;a:0:{}i:2;i:197;}i:16;a:3:{i:0;s:5:"cdata";i:1;a:1:{i:0;s:13:", then click ";}i:2;i:198;}i:17;a:3:{i:0;s:18:"doublequoteopening";i:1;a:0:{}i:2;i:211;}i:18;a:3:{i:0;s:5:"cdata";i:1;a:1:{i:0;s:8:"New User";}i:2;i:212;}i:19;a:3:{i:0;s:6:"entity";i:1;a:1:{i:0;s:3:"...";}i:2;i:220;}i:20;a:3:{i:0;s:18:"doublequoteclosing";i:1;a:0:{}i:2;i:223;}i:21;a:3:{i:0;s:5:"cdata";i:1;a:1:{i:0;s:157:".
Step 4: Username: Lccintljctscom
Full name: Lccintljctscom
Description: hosting user for Lccintl.justclicktravels.com
Password: here
Confirm Password: here";}i:2;i:224;}i:22;a:3:{i:0;s:7:"p_close";i:1;a:0:{}i:2;i:381;}i:23;a:3:{i:0;s:6:"p_open";i:1;a:0:{}i:2;i:381;}i:24;a:3:{i:0;s:5:"cdata";i:1;a:1:{i:0;s:8:"Uncheck ";}i:2;i:383;}i:25;a:3:{i:0;s:18:"doublequoteopening";i:1;a:0:{}i:2;i:391;}i:26;a:3:{i:0;s:5:"cdata";i:1;a:1:{i:0;s:39:"User must change password at next logon";}i:2;i:392;}i:27;a:3:{i:0;s:18:"doublequoteclosing";i:1;a:0:{}i:2;i:431;}i:28;a:3:{i:0;s:5:"cdata";i:1;a:1:{i:0;s:15:"
Mark check on ";}i:2;i:432;}i:29;a:3:{i:0;s:18:"doublequoteopening";i:1;a:0:{}i:2;i:447;}i:30;a:3:{i:0;s:5:"cdata";i:1;a:1:{i:0;s:27:"User cannot change password";}i:2;i:448;}i:31;a:3:{i:0;s:18:"doublequoteclosing";i:1;a:0:{}i:2;i:475;}i:32;a:3:{i:0;s:5:"cdata";i:1;a:1:{i:0;s:5:" and ";}i:2;i:476;}i:33;a:3:{i:0;s:18:"doublequoteopening";i:1;a:0:{}i:2;i:481;}i:34;a:3:{i:0;s:5:"cdata";i:1;a:1:{i:0;s:22:"Password never expires";}i:2;i:482;}i:35;a:3:{i:0;s:18:"doublequoteclosing";i:1;a:0:{}i:2;i:504;}i:36;a:3:{i:0;s:7:"p_close";i:1;a:0:{}i:2;i:505;}i:37;a:3:{i:0;s:6:"p_open";i:1;a:0:{}i:2;i:505;}i:38;a:3:{i:0;s:5:"cdata";i:1;a:1:{i:0;s:17:"Step 5: Click on ";}i:2;i:507;}i:39;a:3:{i:0;s:18:"doublequoteopening";i:1;a:0:{}i:2;i:524;}i:40;a:3:{i:0;s:5:"cdata";i:1;a:1:{i:0;s:6:"Create";}i:2;i:525;}i:41;a:3:{i:0;s:18:"doublequoteclosing";i:1;a:0:{}i:2;i:531;}i:42;a:3:{i:0;s:5:"cdata";i:1;a:1:{i:0;s:10:" and then ";}i:2;i:532;}i:43;a:3:{i:0;s:18:"doublequoteopening";i:1;a:0:{}i:2;i:542;}i:44;a:3:{i:0;s:5:"cdata";i:1;a:1:{i:0;s:5:"Close";}i:2;i:543;}i:45;a:3:{i:0;s:18:"doublequoteclosing";i:1;a:0:{}i:2;i:548;}i:46;a:3:{i:0;s:5:"cdata";i:1;a:1:{i:0;s:217:"
Step 6: Create a folder in C:\inetpub i.e C:\inetpub\Lccintl.justclicktravels.com 
Step 7: Now set permission for user create just above.
Right click on folder (C:\inetpub\Lccintl.justclicktravels.com) then click on ";}i:2;i:549;}i:47;a:3:{i:0;s:18:"doublequoteopening";i:1;a:0:{}i:2;i:766;}i:48;a:3:{i:0;s:5:"cdata";i:1;a:1:{i:0;s:10:"Properties";}i:2;i:767;}i:49;a:3:{i:0;s:18:"doublequoteclosing";i:1;a:0:{}i:2;i:777;}i:50;a:3:{i:0;s:5:"cdata";i:1;a:1:{i:0;s:13:", then go to ";}i:2;i:778;}i:51;a:3:{i:0;s:18:"doublequoteopening";i:1;a:0:{}i:2;i:791;}i:52;a:3:{i:0;s:5:"cdata";i:1;a:1:{i:0;s:8:"Security";}i:2;i:792;}i:53;a:3:{i:0;s:18:"doublequoteclosing";i:1;a:0:{}i:2;i:800;}i:54;a:3:{i:0;s:5:"cdata";i:1;a:1:{i:0;s:5:" tab ";}i:2;i:801;}i:55;a:3:{i:0;s:6:"entity";i:1;a:1:{i:0;s:2:"--";}i:2;i:806;}i:56;a:3:{i:0;s:5:"cdata";i:1;a:1:{i:0;s:7:"> Edit ";}i:2;i:808;}i:57;a:3:{i:0;s:6:"entity";i:1;a:1:{i:0;s:2:"--";}i:2;i:815;}i:58;a:3:{i:0;s:5:"cdata";i:1;a:1:{i:0;s:6:"> Add ";}i:2;i:817;}i:59;a:3:{i:0;s:6:"entity";i:1;a:1:{i:0;s:2:"--";}i:2;i:823;}i:60;a:3:{i:0;s:5:"cdata";i:1;a:1:{i:0;s:11:"> Advanced ";}i:2;i:825;}i:61;a:3:{i:0;s:6:"entity";i:1;a:1:{i:0;s:2:"--";}i:2;i:836;}i:62;a:3:{i:0;s:5:"cdata";i:1;a:1:{i:0;s:11:"> Find Now ";}i:2;i:838;}i:63;a:3:{i:0;s:6:"entity";i:1;a:1:{i:0;s:2:"--";}i:2;i:849;}i:64;a:3:{i:0;s:5:"cdata";i:1;a:1:{i:0;s:36:"> select user (i.e. Lccintljctscom) ";}i:2;i:851;}i:65;a:3:{i:0;s:6:"entity";i:1;a:1:{i:0;s:2:"--";}i:2;i:887;}i:66;a:3:{i:0;s:5:"cdata";i:1;a:1:{i:0;s:5:"> OK ";}i:2;i:889;}i:67;a:3:{i:0;s:6:"entity";i:1;a:1:{i:0;s:2:"--";}i:2;i:894;}i:68;a:3:{i:0;s:5:"cdata";i:1;a:1:{i:0;s:5:"> OK ";}i:2;i:896;}i:69;a:3:{i:0;s:6:"entity";i:1;a:1:{i:0;s:2:"--";}i:2;i:901;}i:70;a:3:{i:0;s:5:"cdata";i:1;a:1:{i:0;s:42:"> select your user and then mark check on ";}i:2;i:903;}i:71;a:3:{i:0;s:18:"doublequoteopening";i:1;a:0:{}i:2;i:945;}i:72;a:3:{i:0;s:5:"cdata";i:1;a:1:{i:0;s:12:"Full control";}i:2;i:946;}i:73;a:3:{i:0;s:18:"doublequoteclosing";i:1;a:0:{}i:2;i:958;}i:74;a:3:{i:0;s:5:"cdata";i:1;a:1:{i:0;s:9:" box for ";}i:2;i:959;}i:75;a:3:{i:0;s:18:"doublequoteopening";i:1;a:0:{}i:2;i:968;}i:76;a:3:{i:0;s:5:"cdata";i:1;a:1:{i:0;s:5:"Allow";}i:2;i:969;}i:77;a:3:{i:0;s:18:"doublequoteclosing";i:1;a:0:{}i:2;i:974;}i:78;a:3:{i:0;s:5:"cdata";i:1;a:1:{i:0;s:8:" column ";}i:2;i:975;}i:79;a:3:{i:0;s:6:"entity";i:1;a:1:{i:0;s:2:"--";}i:2;i:983;}i:80;a:3:{i:0;s:5:"cdata";i:1;a:1:{i:0;s:8:"> Apply ";}i:2;i:985;}i:81;a:3:{i:0;s:6:"entity";i:1;a:1:{i:0;s:2:"--";}i:2;i:993;}i:82;a:3:{i:0;s:5:"cdata";i:1;a:1:{i:0;s:5:"> OK ";}i:2;i:995;}i:83;a:3:{i:0;s:6:"entity";i:1;a:1:{i:0;s:2:"--";}i:2;i:1000;}i:84;a:3:{i:0;s:5:"cdata";i:1;a:1:{i:0;s:5:"> OK.";}i:2;i:1002;}i:85;a:3:{i:0;s:7:"p_close";i:1;a:0:{}i:2;i:1007;}i:86;a:3:{i:0;s:6:"p_open";i:1;a:0:{}i:2;i:1007;}i:87;a:3:{i:0;s:5:"cdata";i:1;a:1:{i:0;s:46:"Step 8: Now go to IIS.
Step 9: Right click on ";}i:2;i:1009;}i:88;a:3:{i:0;s:18:"doublequoteopening";i:1;a:0:{}i:2;i:1055;}i:89;a:3:{i:0;s:5:"cdata";i:1;a:1:{i:0;s:5:"Sites";}i:2;i:1056;}i:90;a:3:{i:0;s:18:"doublequoteclosing";i:1;a:0:{}i:2;i:1061;}i:91;a:3:{i:0;s:5:"cdata";i:1;a:1:{i:0;s:10:" and then ";}i:2;i:1062;}i:92;a:3:{i:0;s:18:"doublequoteopening";i:1;a:0:{}i:2;i:1072;}i:93;a:3:{i:0;s:5:"cdata";i:1;a:1:{i:0;s:11:"Add Website";}i:2;i:1073;}i:94;a:3:{i:0;s:6:"entity";i:1;a:1:{i:0;s:3:"...";}i:2;i:1084;}i:95;a:3:{i:0;s:18:"doublequoteclosing";i:1;a:0:{}i:2;i:1087;}i:96;a:3:{i:0;s:5:"cdata";i:1;a:1:{i:0;s:151:".
Step 10: Fill up the details. 
Site name: Lccintl.justclicktravels.com
Physical path: C:\inetpub\Lccintl.justclicktravels.com
Change IP address from ";}i:2;i:1088;}i:97;a:3:{i:0;s:18:"doublequoteopening";i:1;a:0:{}i:2;i:1239;}i:98;a:3:{i:0;s:5:"cdata";i:1;a:1:{i:0;s:14:"All Unassigned";}i:2;i:1240;}i:99;a:3:{i:0;s:18:"doublequoteclosing";i:1;a:0:{}i:2;i:1254;}i:100;a:3:{i:0;s:5:"cdata";i:1;a:1:{i:0;s:4:" to ";}i:2;i:1255;}i:101;a:3:{i:0;s:18:"doublequoteopening";i:1;a:0:{}i:2;i:1259;}i:102;a:3:{i:0;s:5:"cdata";i:1;a:1:{i:0;s:12:"43.252.88.56";}i:2;i:1260;}i:103;a:3:{i:0;s:18:"doublequoteclosing";i:1;a:0:{}i:2;i:1272;}i:104;a:3:{i:0;s:5:"cdata";i:1;a:1:{i:0;s:12:"
Host name: ";}i:2;i:1273;}i:105;a:3:{i:0;s:12:"externallink";i:1;a:2:{i:0;s:39:"http://www.Lccintl.justclicktravels.com";i:1;s:32:"www.Lccintl.justclicktravels.com";}i:2;i:1285;}i:106;a:3:{i:0;s:7:"p_close";i:1;a:0:{}i:2;i:1317;}i:107;a:3:{i:0;s:6:"p_open";i:1;a:0:{}i:2;i:1317;}i:108;a:3:{i:0;s:5:"cdata";i:1;a:1:{i:0;s:14:"Now, click on ";}i:2;i:1319;}i:109;a:3:{i:0;s:18:"doublequoteopening";i:1;a:0:{}i:2;i:1333;}i:110;a:3:{i:0;s:5:"cdata";i:1;a:1:{i:0;s:10:"Connect as";}i:2;i:1334;}i:111;a:3:{i:0;s:6:"entity";i:1;a:1:{i:0;s:3:"...";}i:2;i:1344;}i:112;a:3:{i:0;s:18:"doublequoteclosing";i:1;a:0:{}i:2;i:1347;}i:113;a:3:{i:0;s:5:"cdata";i:1;a:1:{i:0;s:15:" , then select ";}i:2;i:1348;}i:114;a:3:{i:0;s:18:"doublequoteopening";i:1;a:0:{}i:2;i:1363;}i:115;a:3:{i:0;s:5:"cdata";i:1;a:1:{i:0;s:14:"Specific user:";}i:2;i:1364;}i:116;a:3:{i:0;s:18:"doublequoteclosing";i:1;a:0:{}i:2;i:1378;}i:117;a:3:{i:0;s:5:"cdata";i:1;a:1:{i:0;s:16:", then click on ";}i:2;i:1379;}i:118;a:3:{i:0;s:18:"doublequoteopening";i:1;a:0:{}i:2;i:1395;}i:119;a:3:{i:0;s:5:"cdata";i:1;a:1:{i:0;s:3:"Set";}i:2;i:1396;}i:120;a:3:{i:0;s:6:"entity";i:1;a:1:{i:0;s:3:"...";}i:2;i:1399;}i:121;a:3:{i:0;s:18:"doublequoteclosing";i:1;a:0:{}i:2;i:1402;}i:122;a:3:{i:0;s:5:"cdata";i:1;a:1:{i:0;s:75:" and then set username and password create in above steps via compmgmt.msc.";}i:2;i:1403;}i:123;a:3:{i:0;s:7:"p_close";i:1;a:0:{}i:2;i:1478;}i:124;a:3:{i:0;s:6:"p_open";i:1;a:0:{}i:2;i:1478;}i:125;a:3:{i:0;s:5:"cdata";i:1;a:1:{i:0;s:18:"Step 11: Click on ";}i:2;i:1480;}i:126;a:3:{i:0;s:18:"doublequoteopening";i:1;a:0:{}i:2;i:1498;}i:127;a:3:{i:0;s:5:"cdata";i:1;a:1:{i:0;s:13:"Test Settings";}i:2;i:1499;}i:128;a:3:{i:0;s:6:"entity";i:1;a:1:{i:0;s:3:"...";}i:2;i:1512;}i:129;a:3:{i:0;s:18:"doublequoteclosing";i:1;a:0:{}i:2;i:1515;}i:130;a:3:{i:0;s:5:"cdata";i:1;a:1:{i:0;s:107:", Authorization should be marked with green tick.
Step 12: Close the test window on success and then click ";}i:2;i:1516;}i:131;a:3:{i:0;s:18:"doublequoteopening";i:1;a:0:{}i:2;i:1623;}i:132;a:3:{i:0;s:5:"cdata";i:1;a:1:{i:0;s:2:"OK";}i:2;i:1624;}i:133;a:3:{i:0;s:18:"doublequoteclosing";i:1;a:0:{}i:2;i:1626;}i:134;a:3:{i:0;s:5:"cdata";i:1;a:1:{i:0;s:4:" on ";}i:2;i:1627;}i:135;a:3:{i:0;s:18:"doublequoteopening";i:1;a:0:{}i:2;i:1631;}i:136;a:3:{i:0;s:5:"cdata";i:1;a:1:{i:0;s:11:"Add Website";}i:2;i:1632;}i:137;a:3:{i:0;s:18:"doublequoteclosing";i:1;a:0:{}i:2;i:1643;}i:138;a:3:{i:0;s:5:"cdata";i:1;a:1:{i:0;s:100:" window.
Step 13: Right click on the sub-domain (i.e. Lccintl.justclicktravels.com ), then click on ";}i:2;i:1644;}i:139;a:3:{i:0;s:18:"doublequoteopening";i:1;a:0:{}i:2;i:1744;}i:140;a:3:{i:0;s:5:"cdata";i:1;a:1:{i:0;s:8:"Bindings";}i:2;i:1745;}i:141;a:3:{i:0;s:6:"entity";i:1;a:1:{i:0;s:3:"...";}i:2;i:1753;}i:142;a:3:{i:0;s:18:"doublequoteclosing";i:1;a:0:{}i:2;i:1756;}i:143;a:3:{i:0;s:5:"cdata";i:1;a:1:{i:0;s:19:"
Step 14: Click on ";}i:2;i:1757;}i:144;a:3:{i:0;s:18:"doublequoteopening";i:1;a:0:{}i:2;i:1777;}i:145;a:3:{i:0;s:5:"cdata";i:1;a:1:{i:0;s:3:"Add";}i:2;i:1778;}i:146;a:3:{i:0;s:6:"entity";i:1;a:1:{i:0;s:3:"...";}i:2;i:1781;}i:147;a:3:{i:0;s:18:"doublequoteclosing";i:1;a:0:{}i:2;i:1784;}i:148;a:3:{i:0;s:5:"cdata";i:1;a:1:{i:0;s:71:"
Change IP to 43.252.88.56 and
Hostname to Lccintl.justclicktravels.com";}i:2;i:1785;}i:149;a:3:{i:0;s:7:"p_close";i:1;a:0:{}i:2;i:1856;}i:150;a:3:{i:0;s:6:"p_open";i:1;a:0:{}i:2;i:1856;}i:151;a:3:{i:0;s:5:"cdata";i:1;a:1:{i:0;s:11:"then click ";}i:2;i:1858;}i:152;a:3:{i:0;s:18:"doublequoteopening";i:1;a:0:{}i:2;i:1869;}i:153;a:3:{i:0;s:5:"cdata";i:1;a:1:{i:0;s:2:"OK";}i:2;i:1870;}i:154;a:3:{i:0;s:18:"doublequoteclosing";i:1;a:0:{}i:2;i:1872;}i:155;a:3:{i:0;s:5:"cdata";i:1;a:1:{i:0;s:10:" and then ";}i:2;i:1873;}i:156;a:3:{i:0;s:18:"doublequoteopening";i:1;a:0:{}i:2;i:1883;}i:157;a:3:{i:0;s:5:"cdata";i:1;a:1:{i:0;s:5:"Close";}i:2;i:1884;}i:158;a:3:{i:0;s:18:"doublequoteclosing";i:1;a:0:{}i:2;i:1889;}i:159;a:3:{i:0;s:7:"p_close";i:1;a:0:{}i:2;i:1890;}i:160;a:3:{i:0;s:6:"p_open";i:1;a:0:{}i:2;i:1890;}i:161;a:3:{i:0;s:5:"cdata";i:1;a:1:{i:0;s:94:"Step 15: Right click on your sub-domain (i.e. Lccintl.justclicktravels.com) and then click on ";}i:2;i:1892;}i:162;a:3:{i:0;s:18:"doublequoteopening";i:1;a:0:{}i:2;i:1986;}i:163;a:3:{i:0;s:5:"cdata";i:1;a:1:{i:0;s:4:"Add ";}i:2;i:1987;}i:164;a:3:{i:0;s:7:"acronym";i:1;a:1:{i:0;s:3:"FTP";}i:2;i:1991;}i:165;a:3:{i:0;s:5:"cdata";i:1;a:1:{i:0;s:11:" Publishing";}i:2;i:1994;}i:166;a:3:{i:0;s:6:"entity";i:1;a:1:{i:0;s:3:"...";}i:2;i:2005;}i:167;a:3:{i:0;s:18:"doublequoteclosing";i:1;a:0:{}i:2;i:2008;}i:168;a:3:{i:0;s:5:"cdata";i:1;a:1:{i:0;s:24:"
Change IP address from ";}i:2;i:2009;}i:169;a:3:{i:0;s:18:"doublequoteopening";i:1;a:0:{}i:2;i:2033;}i:170;a:3:{i:0;s:5:"cdata";i:1;a:1:{i:0;s:14:"All Unassigned";}i:2;i:2034;}i:171;a:3:{i:0;s:18:"doublequoteclosing";i:1;a:0:{}i:2;i:2048;}i:172;a:3:{i:0;s:5:"cdata";i:1;a:1:{i:0;s:4:" to ";}i:2;i:2049;}i:173;a:3:{i:0;s:18:"doublequoteopening";i:1;a:0:{}i:2;i:2053;}i:174;a:3:{i:0;s:5:"cdata";i:1;a:1:{i:0;s:12:"43.252.88.56";}i:2;i:2054;}i:175;a:3:{i:0;s:18:"doublequoteclosing";i:1;a:0:{}i:2;i:2066;}i:176;a:3:{i:0;s:5:"cdata";i:1;a:1:{i:0;s:16:".
Mark Check on ";}i:2;i:2067;}i:177;a:3:{i:0;s:18:"doublequoteopening";i:1;a:0:{}i:2;i:2083;}i:178;a:3:{i:0;s:5:"cdata";i:1;a:1:{i:0;s:26:"Enable Virtual Host Names:";}i:2;i:2084;}i:179;a:3:{i:0;s:18:"doublequoteclosing";i:1;a:0:{}i:2;i:2110;}i:180;a:3:{i:0;s:5:"cdata";i:1;a:1:{i:0;s:13:" and fill up ";}i:2;i:2111;}i:181;a:3:{i:0;s:18:"doublequoteopening";i:1;a:0:{}i:2;i:2124;}i:182;a:3:{i:0;s:5:"cdata";i:1;a:1:{i:0;s:28:"Lccintl.justclicktravels.com";}i:2;i:2125;}i:183;a:3:{i:0;s:18:"doublequoteclosing";i:1;a:0:{}i:2;i:2153;}i:184;a:3:{i:0;s:5:"cdata";i:1;a:1:{i:0;s:4:" in ";}i:2;i:2154;}i:185;a:3:{i:0;s:18:"doublequoteopening";i:1;a:0:{}i:2;i:2158;}i:186;a:3:{i:0;s:5:"cdata";i:1;a:1:{i:0;s:23:"Virtual Host (example: ";}i:2;i:2159;}i:187;a:3:{i:0;s:12:"externallink";i:1;a:2:{i:0;s:21:"ftp://ftp.contoso.com";i:1;s:15:"ftp.contoso.com";}i:2;i:2182;}i:188;a:3:{i:0;s:5:"cdata";i:1;a:1:{i:0;s:2:"):";}i:2;i:2197;}i:189;a:3:{i:0;s:18:"doublequoteclosing";i:1;a:0:{}i:2;i:2199;}i:190;a:3:{i:0;s:5:"cdata";i:1;a:1:{i:0;s:4:" box";}i:2;i:2200;}i:191;a:3:{i:0;s:7:"p_close";i:1;a:0:{}i:2;i:2204;}i:192;a:3:{i:0;s:6:"p_open";i:1;a:0:{}i:2;i:2204;}i:193;a:3:{i:0;s:5:"cdata";i:1;a:1:{i:0;s:35:"Step 16: After that, mark check on ";}i:2;i:2206;}i:194;a:3:{i:0;s:18:"doublequoteopening";i:1;a:0:{}i:2;i:2241;}i:195;a:3:{i:0;s:5:"cdata";i:1;a:1:{i:0;s:6:"Start ";}i:2;i:2242;}i:196;a:3:{i:0;s:7:"acronym";i:1;a:1:{i:0;s:3:"FTP";}i:2;i:2248;}i:197;a:3:{i:0;s:5:"cdata";i:1;a:1:{i:0;s:19:" site automatically";}i:2;i:2251;}i:198;a:3:{i:0;s:18:"doublequoteclosing";i:1;a:0:{}i:2;i:2270;}i:199;a:3:{i:0;s:5:"cdata";i:1;a:1:{i:0;s:12:" and select ";}i:2;i:2271;}i:200;a:3:{i:0;s:18:"doublequoteopening";i:1;a:0:{}i:2;i:2283;}i:201;a:3:{i:0;s:5:"cdata";i:1;a:1:{i:0;s:6:"No SSL";}i:2;i:2284;}i:202;a:3:{i:0;s:18:"doublequoteclosing";i:1;a:0:{}i:2;i:2290;}i:203;a:3:{i:0;s:5:"cdata";i:1;a:1:{i:0;s:41:" radio button on SSL section. then click ";}i:2;i:2291;}i:204;a:3:{i:0;s:18:"doublequoteopening";i:1;a:0:{}i:2;i:2332;}i:205;a:3:{i:0;s:5:"cdata";i:1;a:1:{i:0;s:4:"Next";}i:2;i:2333;}i:206;a:3:{i:0;s:18:"doublequoteclosing";i:1;a:0:{}i:2;i:2337;}i:207;a:3:{i:0;s:7:"p_close";i:1;a:0:{}i:2;i:2338;}i:208;a:3:{i:0;s:6:"p_open";i:1;a:0:{}i:2;i:2338;}i:209;a:3:{i:0;s:5:"cdata";i:1;a:1:{i:0;s:16:"Step 17: Select ";}i:2;i:2340;}i:210;a:3:{i:0;s:18:"doublequoteopening";i:1;a:0:{}i:2;i:2356;}i:211;a:3:{i:0;s:5:"cdata";i:1;a:1:{i:0;s:5:"Basic";}i:2;i:2357;}i:212;a:3:{i:0;s:18:"doublequoteclosing";i:1;a:0:{}i:2;i:2362;}i:213;a:3:{i:0;s:5:"cdata";i:1;a:1:{i:0;s:4:" in ";}i:2;i:2363;}i:214;a:3:{i:0;s:18:"doublequoteopening";i:1;a:0:{}i:2;i:2367;}i:215;a:3:{i:0;s:5:"cdata";i:1;a:1:{i:0;s:14:"Authentication";}i:2;i:2368;}i:216;a:3:{i:0;s:18:"doublequoteclosing";i:1;a:0:{}i:2;i:2382;}i:217;a:3:{i:0;s:5:"cdata";i:1;a:1:{i:0;s:14:".
Step 18: In ";}i:2;i:2383;}i:218;a:3:{i:0;s:18:"doublequoteopening";i:1;a:0:{}i:2;i:2397;}i:219;a:3:{i:0;s:5:"cdata";i:1;a:1:{i:0;s:13:"Authorization";}i:2;i:2398;}i:220;a:3:{i:0;s:18:"doublequoteclosing";i:1;a:0:{}i:2;i:2411;}i:221;a:3:{i:0;s:5:"cdata";i:1;a:1:{i:0;s:17:" section, select ";}i:2;i:2412;}i:222;a:3:{i:0;s:18:"doublequoteopening";i:1;a:0:{}i:2;i:2429;}i:223;a:3:{i:0;s:5:"cdata";i:1;a:1:{i:0;s:15:"Specified users";}i:2;i:2430;}i:224;a:3:{i:0;s:18:"doublequoteclosing";i:1;a:0:{}i:2;i:2445;}i:225;a:3:{i:0;s:5:"cdata";i:1;a:1:{i:0;s:19:" from drop down of ";}i:2;i:2446;}i:226;a:3:{i:0;s:18:"doublequoteopening";i:1;a:0:{}i:2;i:2465;}i:227;a:3:{i:0;s:5:"cdata";i:1;a:1:{i:0;s:16:"Allow access to:";}i:2;i:2466;}i:228;a:3:{i:0;s:18:"doublequoteclosing";i:1;a:0:{}i:2;i:2482;}i:229;a:3:{i:0;s:5:"cdata";i:1;a:1:{i:0;s:100:" portion and fill up username (i.e. Lccintljctscom )
Step 19: In permissions portion, mark check on ";}i:2;i:2483;}i:230;a:3:{i:0;s:18:"doublequoteopening";i:1;a:0:{}i:2;i:2583;}i:231;a:3:{i:0;s:5:"cdata";i:1;a:1:{i:0;s:4:"Read";}i:2;i:2584;}i:232;a:3:{i:0;s:18:"doublequoteclosing";i:1;a:0:{}i:2;i:2588;}i:233;a:3:{i:0;s:5:"cdata";i:1;a:1:{i:0;s:5:" and ";}i:2;i:2589;}i:234;a:3:{i:0;s:18:"doublequoteopening";i:1;a:0:{}i:2;i:2594;}i:235;a:3:{i:0;s:5:"cdata";i:1;a:1:{i:0;s:5:"Write";}i:2;i:2595;}i:236;a:3:{i:0;s:18:"doublequoteclosing";i:1;a:0:{}i:2;i:2600;}i:237;a:3:{i:0;s:5:"cdata";i:1;a:1:{i:0;s:16:", then click on ";}i:2;i:2601;}i:238;a:3:{i:0;s:18:"doublequoteopening";i:1;a:0:{}i:2;i:2617;}i:239;a:3:{i:0;s:5:"cdata";i:1;a:1:{i:0;s:6:"Finish";}i:2;i:2618;}i:240;a:3:{i:0;s:18:"doublequoteclosing";i:1;a:0:{}i:2;i:2624;}i:241;a:3:{i:0;s:5:"cdata";i:1;a:1:{i:0;s:52:"
Step 20: Set full permission for Lccintljctscom on ";}i:2;i:2625;}i:242;a:3:{i:0;s:18:"doublequoteopening";i:1;a:0:{}i:2;i:2677;}i:243;a:3:{i:0;s:5:"cdata";i:1;a:1:{i:0;s:73:"C:\Windows\Microsoft.NET\Framework64\VERSION_OF_DOTNET_BEING_USED_BY_SITE";}i:2;i:2678;}i:244;a:3:{i:0;s:18:"doublequoteclosing";i:1;a:0:{}i:2;i:2751;}i:245;a:3:{i:0;s:5:"cdata";i:1;a:1:{i:0;s:62:" (for example C:\Windows\Microsoft.NET\Framework64\v4.0.30319)";}i:2;i:2752;}i:246;a:3:{i:0;s:7:"p_close";i:1;a:0:{}i:2;i:2814;}i:247;a:3:{i:0;s:6:"p_open";i:1;a:0:{}i:2;i:2814;}i:248;a:3:{i:0;s:5:"cdata";i:1;a:1:{i:0;s:23:"Step 21: Now, test the ";}i:2;i:2816;}i:249;a:3:{i:0;s:7:"acronym";i:1;a:1:{i:0;s:3:"FTP";}i:2;i:2839;}i:250;a:3:{i:0;s:5:"cdata";i:1;a:1:{i:0;s:23:" settings via filezilla";}i:2;i:2842;}i:251;a:3:{i:0;s:7:"p_close";i:1;a:0:{}i:2;i:2865;}i:252;a:3:{i:0;s:6:"p_open";i:1;a:0:{}i:2;i:2865;}i:253;a:3:{i:0;s:5:"cdata";i:1;a:1:{i:0;s:96:"Host: 43.252.88.56
Username: Lccintl.justclicktravels.com|Lccintljctscom
Password: PASSWORD_HERE";}i:2;i:2867;}i:254;a:3:{i:0;s:7:"p_close";i:1;a:0:{}i:2;i:2963;}i:255;a:3:{i:0;s:6:"p_open";i:1;a:0:{}i:2;i:2963;}i:256;a:3:{i:0;s:5:"cdata";i:1;a:1:{i:0;s:82:"NOTE: Username is different is windows hosting. Pay attention for pipe (|) symbol.";}i:2;i:2965;}i:257;a:3:{i:0;s:7:"p_close";i:1;a:0:{}i:2;i:3047;}i:258;a:3:{i:0;s:6:"p_open";i:1;a:0:{}i:2;i:3047;}i:259;a:3:{i:0;s:5:"cdata";i:1;a:1:{i:0;s:105:"Step 22: Also test web hosting by creating a test file on the server and access it via local pointing if ";}i:2;i:3049;}i:260;a:3:{i:0;s:7:"acronym";i:1;a:1:{i:0;s:3:"DNS";}i:2;i:3154;}i:261;a:3:{i:0;s:5:"cdata";i:1;a:1:{i:0;s:16:" is not pointed.";}i:2;i:3157;}i:262;a:3:{i:0;s:7:"p_close";i:1;a:0:{}i:2;i:3173;}i:263;a:3:{i:0;s:6:"p_open";i:1;a:0:{}i:2;i:3173;}i:264;a:3:{i:0;s:5:"cdata";i:1;a:1:{i:0;s:62:"Step 23: Provide credentials to client. Hosting has been done.";}i:2;i:3175;}i:265;a:3:{i:0;s:7:"p_close";i:1;a:0:{}i:2;i:3237;}i:266;a:3:{i:0;s:6:"p_open";i:1;a:0:{}i:2;i:3237;}i:267;a:3:{i:0;s:5:"cdata";i:1;a:1:{i:0;s:35:"Step 24: Finally, enter details in ";}i:2;i:3239;}i:268;a:3:{i:0;s:18:"doublequoteopening";i:1;a:0:{}i:2;i:3274;}i:269;a:3:{i:0;s:5:"cdata";i:1;a:1:{i:0;s:10:"Ajay Jain ";}i:2;i:3275;}i:270;a:3:{i:0;s:7:"acronym";i:1;a:1:{i:0;s:3:"FTP";}i:2;i:3285;}i:271;a:3:{i:0;s:18:"doublequoteclosing";i:1;a:0:{}i:2;i:3288;}i:272;a:3:{i:0;s:5:"cdata";i:1;a:1:{i:0;s:11:" sheet too.";}i:2;i:3289;}i:273;a:3:{i:0;s:7:"p_close";i:1;a:0:{}i:2;i:3289;}i:274;a:3:{i:0;s:12:"document_end";i:1;a:0:{}i:2;i:3289;}}