a:115:{i:0;a:3:{i:0;s:14:"document_start";i:1;a:0:{}i:2;i:0;}i:1;a:3:{i:0;s:6:"header";i:1;a:3:{i:0;s:14:"Install Zimbra";i:1;i:1;i:2;i:1;}i:2;i:1;}i:2;a:3:{i:0;s:12:"section_open";i:1;a:1:{i:0;i:1;}i:2;i:1;}i:3;a:3:{i:0;s:6:"p_open";i:1;a:0:{}i:2;i:1;}i:4;a:3:{i:0;s:5:"cdata";i:1;a:1:{i:0;s:29:"1. Prepare server with fresh ";}i:2;i:31;}i:5;a:3:{i:0;s:7:"acronym";i:1;a:1:{i:0;s:2:"OS";}i:2;i:60;}i:6;a:3:{i:0;s:5:"cdata";i:1;a:1:{i:0;s:121:" (Ubuntu is recommended) installation and update the server by apt-get update (for ubuntu) or yum update -y (for centos).";}i:2;i:62;}i:7;a:3:{i:0;s:7:"p_close";i:1;a:0:{}i:2;i:183;}i:8;a:3:{i:0;s:6:"p_open";i:1;a:0:{}i:2;i:183;}i:9;a:3:{i:0;s:5:"cdata";i:1;a:1:{i:0;s:48:"2. Make sure there is hostname entry present in ";}i:2;i:185;}i:10;a:3:{i:0;s:18:"doublequoteclosing";i:1;a:0:{}i:2;i:233;}i:11;a:3:{i:0;s:5:"cdata";i:1;a:1:{i:0;s:11:"/etc/hosts ";}i:2;i:234;}i:12;a:3:{i:0;s:18:"doublequoteclosing";i:1;a:0:{}i:2;i:245;}i:13;a:3:{i:0;s:5:"cdata";i:1;a:1:{i:0;s:53:" corresponding to IP address, if not create the same.";}i:2;i:246;}i:14;a:3:{i:0;s:7:"p_close";i:1;a:0:{}i:2;i:299;}i:15;a:3:{i:0;s:6:"p_open";i:1;a:0:{}i:2;i:299;}i:16;a:3:{i:0;s:5:"cdata";i:1;a:1:{i:0;s:43:"2. Download the latest zimbra package from ";}i:2;i:301;}i:17;a:3:{i:0;s:12:"externallink";i:1;a:2:{i:0;s:49:"http://www.zimbra.com/downloads/os-downloads.html";i:1;N;}i:2;i:344;}i:18;a:3:{i:0;s:5:"cdata";i:1;a:1:{i:0;s:12:" as per the ";}i:2;i:397;}i:19;a:3:{i:0;s:7:"acronym";i:1;a:1:{i:0;s:2:"OS";}i:2;i:409;}i:20;a:3:{i:0;s:5:"cdata";i:1;a:1:{i:0;s:11:" installed.";}i:2;i:411;}i:21;a:3:{i:0;s:7:"p_close";i:1;a:0:{}i:2;i:422;}i:22;a:3:{i:0;s:6:"p_open";i:1;a:0:{}i:2;i:422;}i:23;a:3:{i:0;s:5:"cdata";i:1;a:1:{i:0;s:23:"3. extract the package.";}i:2;i:424;}i:24;a:3:{i:0;s:7:"p_close";i:1;a:0:{}i:2;i:447;}i:25;a:3:{i:0;s:12:"preformatted";i:1;a:1:{i:0;s:30:" tar -xvzf zcs-XXXXXX-XX.tgz
 ";}i:2;i:447;}i:26;a:3:{i:0;s:6:"p_open";i:1;a:0:{}i:2;i:447;}i:27;a:3:{i:0;s:5:"cdata";i:1;a:1:{i:0;s:50:"4. Change the directory to extracted zcs-XXXXXX-XX";}i:2;i:483;}i:28;a:3:{i:0;s:7:"p_close";i:1;a:0:{}i:2;i:533;}i:29;a:3:{i:0;s:12:"preformatted";i:1;a:1:{i:0;s:21:" 
 cd zcs-XXXXXX-XX
 ";}i:2;i:533;}i:30;a:3:{i:0;s:6:"p_open";i:1;a:0:{}i:2;i:533;}i:31;a:3:{i:0;s:5:"cdata";i:1;a:1:{i:0;s:21:"5. run the installer ";}i:2;i:562;}i:32;a:3:{i:0;s:7:"p_close";i:1;a:0:{}i:2;i:584;}i:33;a:3:{i:0;s:12:"preformatted";i:1;a:1:{i:0;s:85:"   ./install.sh (For Ubuntu)
   or 
   ./install.sh --platform-override  (For centos)";}i:2;i:584;}i:34;a:3:{i:0;s:6:"p_open";i:1;a:0:{}i:2;i:584;}i:35;a:3:{i:0;s:5:"cdata";i:1;a:1:{i:0;s:86:"Note:- If any prerequisites not found quit the installation and install them manually.";}i:2;i:679;}i:36;a:3:{i:0;s:7:"p_close";i:1;a:0:{}i:2;i:765;}i:37;a:3:{i:0;s:6:"p_open";i:1;a:0:{}i:2;i:765;}i:38;a:3:{i:0;s:5:"cdata";i:1;a:1:{i:0;s:51:"6. After running the installation options come for ";}i:2;i:767;}i:39;a:3:{i:0;s:18:"doublequoteopening";i:1;a:0:{}i:2;i:818;}i:40;a:3:{i:0;s:5:"cdata";i:1;a:1:{i:0;s:30:"Select the packages to install";}i:2;i:819;}i:41;a:3:{i:0;s:18:"doublequoteclosing";i:1;a:0:{}i:2;i:849;}i:42;a:3:{i:0;s:5:"cdata";i:1;a:1:{i:0;s:9:", select ";}i:2;i:850;}i:43;a:3:{i:0;s:18:"doublequoteopening";i:1;a:0:{}i:2;i:859;}i:44;a:3:{i:0;s:5:"cdata";i:1;a:1:{i:0;s:1:"Y";}i:2;i:860;}i:45;a:3:{i:0;s:18:"doublequoteclosing";i:1;a:0:{}i:2;i:861;}i:46;a:3:{i:0;s:5:"cdata";i:1;a:1:{i:0;s:9:" for all.";}i:2;i:862;}i:47;a:3:{i:0;s:7:"p_close";i:1;a:0:{}i:2;i:871;}i:48;a:3:{i:0;s:6:"p_open";i:1;a:0:{}i:2;i:871;}i:49;a:3:{i:0;s:5:"cdata";i:1;a:1:{i:0;s:39:"7. In mid of installation a warning of ";}i:2;i:873;}i:50;a:3:{i:0;s:7:"acronym";i:1;a:1:{i:0;s:3:"DNS";}i:2;i:912;}i:51;a:3:{i:0;s:5:"cdata";i:1;a:1:{i:0;s:77:" ERROR might come and ask to change the hostname, DO NOT CHANGE simply press ";}i:2;i:915;}i:52;a:3:{i:0;s:18:"doublequoteopening";i:1;a:0:{}i:2;i:992;}i:53;a:3:{i:0;s:5:"cdata";i:1;a:1:{i:0;s:2:"No";}i:2;i:993;}i:54;a:3:{i:0;s:18:"doublequoteclosing";i:1;a:0:{}i:2;i:995;}i:55;a:3:{i:0;s:5:"cdata";i:1;a:1:{i:0;s:10:" for this.";}i:2;i:996;}i:56;a:3:{i:0;s:7:"p_close";i:1;a:0:{}i:2;i:1006;}i:57;a:3:{i:0;s:6:"p_open";i:1;a:0:{}i:2;i:1006;}i:58;a:3:{i:0;s:5:"cdata";i:1;a:1:{i:0;s:97:"8. After that option to set admin password will come, set the admin password and proceed further.";}i:2;i:1008;}i:59;a:3:{i:0;s:7:"p_close";i:1;a:0:{}i:2;i:1105;}i:60;a:3:{i:0;s:6:"p_open";i:1;a:0:{}i:2;i:1105;}i:61;a:3:{i:0;s:11:"strong_open";i:1;a:0:{}i:2;i:1107;}i:62;a:3:{i:0;s:5:"cdata";i:1;a:1:{i:0;s:31:"THINGS to do after installation";}i:2;i:1109;}i:63;a:3:{i:0;s:12:"strong_close";i:1;a:0:{}i:2;i:1140;}i:64;a:3:{i:0;s:7:"p_close";i:1;a:0:{}i:2;i:1142;}i:65;a:3:{i:0;s:6:"p_open";i:1;a:0:{}i:2;i:1142;}i:66;a:3:{i:0;s:5:"cdata";i:1;a:1:{i:0;s:30:"1. Set the bounce setting for ";}i:2;i:1144;}i:67;a:3:{i:0;s:12:"internallink";i:1;a:2:{i:0;s:46:"zimbra:bouce_message_to_sender_when_over_quota";i:1;s:46:"Bounce Message To Sender If User Quota Is Full";}i:2;i:1174;}i:68;a:3:{i:0;s:7:"p_close";i:1;a:0:{}i:2;i:1271;}i:69;a:3:{i:0;s:6:"p_open";i:1;a:0:{}i:2;i:1271;}i:70;a:3:{i:0;s:5:"cdata";i:1;a:1:{i:0;s:31:"2. IMAP and POP3 Port settings.";}i:2;i:1274;}i:71;a:3:{i:0;s:7:"p_close";i:1;a:0:{}i:2;i:1305;}i:72;a:3:{i:0;s:6:"p_open";i:1;a:0:{}i:2;i:1305;}i:73;a:3:{i:0;s:5:"cdata";i:1;a:1:{i:0;s:125:"i)  Login into web panel as admin.
ii) Go to Home-Configure-Global settings-Proxy and set the port as follow and hit on save.";}i:2;i:1307;}i:74;a:3:{i:0;s:7:"p_close";i:1;a:0:{}i:2;i:1432;}i:75;a:3:{i:0;s:12:"preformatted";i:1;a:1:{i:0;s:105:"   Proxy IMAP Port: 8143
   Proxy IMAPS Port: 8993
   Proxy POP3 Port: 8110
   Proxy POP3S Port: 8995
   ";}i:2;i:1432;}i:76;a:3:{i:0;s:6:"p_open";i:1;a:0:{}i:2;i:1432;}i:77;a:3:{i:0;s:5:"cdata";i:1;a:1:{i:0;s:79:"iii) Now go to the Home-Configure-Servers-<server hostname>-Proxy and click on ";}i:2;i:1549;}i:78;a:3:{i:0;s:18:"doublequoteopening";i:1;a:0:{}i:2;i:1628;}i:79;a:3:{i:0;s:5:"cdata";i:1;a:1:{i:0;s:21:"Reset to Global Value";}i:2;i:1629;}i:80;a:3:{i:0;s:18:"doublequoteclosing";i:1;a:0:{}i:2;i:1650;}i:81;a:3:{i:0;s:5:"cdata";i:1;a:1:{i:0;s:15:" for following.";}i:2;i:1651;}i:82;a:3:{i:0;s:7:"p_close";i:1;a:0:{}i:2;i:1667;}i:83;a:3:{i:0;s:12:"preformatted";i:1;a:1:{i:0;s:138:"   Proxy IMAP Port
   Proxy IMAPS Port
   Proxy POP3 Port
   Proxy POP3S Port
   
This will set the port value as mentioned in step (ii).
";}i:2;i:1667;}i:84;a:3:{i:0;s:6:"p_open";i:1;a:0:{}i:2;i:1667;}i:85;a:3:{i:0;s:5:"cdata";i:1;a:1:{i:0;s:78:"iV) Go to the Home-Configure-Servers-<server hostname>-IMAP and set following.";}i:2;i:1821;}i:86;a:3:{i:0;s:7:"p_close";i:1;a:0:{}i:2;i:1899;}i:87;a:3:{i:0;s:12:"preformatted";i:1;a:1:{i:0;s:54:"  IMAP port number: 143
  IMAP SSL port number: 993
  ";}i:2;i:1899;}i:88;a:3:{i:0;s:6:"p_open";i:1;a:0:{}i:2;i:1899;}i:89;a:3:{i:0;s:5:"cdata";i:1;a:1:{i:0;s:76:"v) Go to the Home-Configure-Servers-<server hostname>-POP and set following.";}i:2;i:1961;}i:90;a:3:{i:0;s:7:"p_close";i:1;a:0:{}i:2;i:2038;}i:91;a:3:{i:0;s:12:"preformatted";i:1;a:1:{i:0;s:51:"  POP3 port number: 110
  POP3 SSL port number: 995";}i:2;i:2038;}i:92;a:3:{i:0;s:6:"p_open";i:1;a:0:{}i:2;i:2038;}i:93;a:3:{i:0;s:11:"strong_open";i:1;a:0:{}i:2;i:2096;}i:94;a:3:{i:0;s:5:"cdata";i:1;a:1:{i:0;s:66:"NOTE: Don't forget to hit save after making changes in each steps ";}i:2;i:2098;}i:95;a:3:{i:0;s:12:"strong_close";i:1;a:0:{}i:2;i:2164;}i:96;a:3:{i:0;s:7:"p_close";i:1;a:0:{}i:2;i:2166;}i:97;a:3:{i:0;s:6:"p_open";i:1;a:0:{}i:2;i:2166;}i:98;a:3:{i:0;s:5:"cdata";i:1;a:1:{i:0;s:33:"3. SCRIPT for queue notification:";}i:2;i:2168;}i:99;a:3:{i:0;s:7:"p_close";i:1;a:0:{}i:2;i:2201;}i:100;a:3:{i:0;s:6:"p_open";i:1;a:0:{}i:2;i:2201;}i:101;a:3:{i:0;s:5:"cdata";i:1;a:1:{i:0;s:39:"Add this script to /opt/zimbra/queue.sh";}i:2;i:2203;}i:102;a:3:{i:0;s:7:"p_close";i:1;a:0:{}i:2;i:2242;}i:103;a:3:{i:0;s:6:"p_open";i:1;a:0:{}i:2;i:2242;}i:104;a:3:{i:0;s:6:"plugin";i:1;a:4:{i:0;s:9:"code_code";i:1;a:4:{i:0;s:4:"code";i:1;N;i:2;s:0:"";i:3;s:2:"

";}i:2;i:3;i:3;s:3:">

";}i:2;i:2249;}i:105;a:3:{i:0;s:7:"p_close";i:1;a:0:{}i:2;i:2259;}i:106;a:3:{i:0;s:6:"p_open";i:1;a:0:{}i:2;i:2259;}i:107;a:3:{i:0;s:5:"cdata";i:1;a:1:{i:0;s:41:"4. From Global Settings > AS/AV, uncheck ";}i:2;i:2261;}i:108;a:3:{i:0;s:18:"doublequoteopening";i:1;a:0:{}i:2;i:2302;}i:109;a:3:{i:0;s:5:"cdata";i:1;a:1:{i:0;s:24:"Block Encrypted archives";}i:2;i:2303;}i:110;a:3:{i:0;s:18:"doublequoteclosing";i:1;a:0:{}i:2;i:2327;}i:111;a:3:{i:0;s:5:"cdata";i:1;a:1:{i:0;s:10:" and save.";}i:2;i:2328;}i:112;a:3:{i:0;s:7:"p_close";i:1;a:0:{}i:2;i:2338;}i:113;a:3:{i:0;s:13:"section_close";i:1;a:0:{}i:2;i:2338;}i:114;a:3:{i:0;s:12:"document_end";i:1;a:0:{}i:2;i:2338;}}