a:64:{i:0;a:3:{i:0;s:14:"document_start";i:1;a:0:{}i:2;i:0;}i:1;a:3:{i:0;s:6:"p_open";i:1;a:0:{}i:2;i:0;}i:2;a:3:{i:0;s:5:"cdata";i:1;a:1:{i:0;s:35:"wget backup.mantragrid.com/raid.zip";}i:2;i:1;}i:3;a:3:{i:0;s:7:"p_close";i:1;a:0:{}i:2;i:36;}i:4;a:3:{i:0;s:6:"p_open";i:1;a:0:{}i:2;i:36;}i:5;a:3:{i:0;s:5:"cdata";i:1;a:1:{i:0;s:2:"OR";}i:2;i:38;}i:6;a:3:{i:0;s:7:"p_close";i:1;a:0:{}i:2;i:40;}i:7;a:3:{i:0;s:6:"p_open";i:1;a:0:{}i:2;i:40;}i:8;a:3:{i:0;s:5:"cdata";i:1;a:1:{i:0;s:28:"Copy raid.zip from any node.";}i:2;i:42;}i:9;a:3:{i:0;s:7:"p_close";i:1;a:0:{}i:2;i:70;}i:10;a:3:{i:0;s:6:"p_open";i:1;a:0:{}i:2;i:70;}i:11;a:3:{i:0;s:5:"cdata";i:1;a:1:{i:0;s:14:"unzip raid.zip";}i:2;i:72;}i:12;a:3:{i:0;s:7:"p_close";i:1;a:0:{}i:2;i:86;}i:13;a:3:{i:0;s:6:"p_open";i:1;a:0:{}i:2;i:86;}i:14;a:3:{i:0;s:5:"cdata";i:1;a:1:{i:0;s:20:"yum install mailx -y";}i:2;i:88;}i:15;a:3:{i:0;s:7:"p_close";i:1;a:0:{}i:2;i:108;}i:16;a:3:{i:0;s:6:"p_open";i:1;a:0:{}i:2;i:108;}i:17;a:3:{i:0;s:5:"cdata";i:1;a:1:{i:0;s:11:"vim inf.txt";}i:2;i:110;}i:18;a:3:{i:0;s:7:"p_close";i:1;a:0:{}i:2;i:121;}i:19;a:3:{i:0;s:6:"p_open";i:1;a:0:{}i:2;i:121;}i:20;a:3:{i:0;s:6:"entity";i:1;a:1:{i:0;s:3:"---";}i:2;i:123;}i:21;a:3:{i:0;s:6:"entity";i:1;a:1:{i:0;s:3:"---";}i:2;i:126;}i:22;a:3:{i:0;s:6:"entity";i:1;a:1:{i:0;s:3:"---";}i:2;i:129;}i:23;a:3:{i:0;s:6:"entity";i:1;a:1:{i:0;s:3:"---";}i:2;i:132;}i:24;a:3:{i:0;s:5:"cdata";i:1;a:1:{i:0;s:19:"- IN41 RAID STATUS ";}i:2;i:135;}i:25;a:3:{i:0;s:6:"entity";i:1;a:1:{i:0;s:3:"---";}i:2;i:154;}i:26;a:3:{i:0;s:6:"entity";i:1;a:1:{i:0;s:3:"---";}i:2;i:157;}i:27;a:3:{i:0;s:6:"entity";i:1;a:1:{i:0;s:3:"---";}i:2;i:160;}i:28;a:3:{i:0;s:6:"entity";i:1;a:1:{i:0;s:2:"--";}i:2;i:163;}i:29;a:3:{i:0;s:7:"p_close";i:1;a:0:{}i:2;i:165;}i:30;a:3:{i:0;s:6:"p_open";i:1;a:0:{}i:2;i:165;}i:31;a:3:{i:0;s:5:"cdata";i:1;a:1:{i:0;s:30:"Change the number accordingly.";}i:2;i:167;}i:32;a:3:{i:0;s:7:"p_close";i:1;a:0:{}i:2;i:197;}i:33;a:3:{i:0;s:6:"p_open";i:1;a:0:{}i:2;i:197;}i:34;a:3:{i:0;s:5:"cdata";i:1;a:1:{i:0;s:11:"ls /dev/md ";}i:2;i:199;}i:35;a:3:{i:0;s:6:"entity";i:1;a:1:{i:0;s:2:"<-";}i:2;i:210;}i:36;a:3:{i:0;s:6:"entity";i:1;a:1:{i:0;s:2:"--";}i:2;i:212;}i:37;a:3:{i:0;s:5:"cdata";i:1;a:1:{i:0;s:18:"> press double TAB";}i:2;i:214;}i:38;a:3:{i:0;s:7:"p_close";i:1;a:0:{}i:2;i:232;}i:39;a:3:{i:0;s:6:"p_open";i:1;a:0:{}i:2;i:232;}i:40;a:3:{i:0;s:5:"cdata";i:1;a:1:{i:0;s:17:"vim raid-alert.sh";}i:2;i:234;}i:41;a:3:{i:0;s:7:"p_close";i:1;a:0:{}i:2;i:251;}i:42;a:3:{i:0;s:6:"p_open";i:1;a:0:{}i:2;i:251;}i:43;a:3:{i:0;s:6:"plugin";i:1;a:4:{i:0;s:9:"code_code";i:1;a:4:{i:0;s:4:"code";i:1;N;i:2;s:0:"";i:3;s:584:"
node=IN41
to=alerts@mantraventures.com

cat /root/raid/inf.txt >> /root/raid/raid.txt
date >> /root/raid/raid.txt
cat /root/raid/space.txt >> /root/raid/raid.txt
/sbin/mdadm -D /dev/md0 >> /root/raid/raid.txt
cat /root/raid/space.txt >> /root/raid/raid.txt
/sbin/mdadm -D /dev/md1 >> /root/raid/raid.txt
cat /root/raid/space.txt >> /root/raid/raid.txt
/sbin/mdadm -D /dev/md2 >> /root/raid/raid.txt
cat /root/raid/space.txt >> /root/raid/raid.txt
/sbin/mdadm -D /dev/md3 >> /root/raid/raid.txt

cat /root/raid/raid.txt | mail -s "RAID STATUS at $node" $to

rm -f /root/raid/raid.txt
";}i:2;i:3;i:3;s:585:">
node=IN41
to=alerts@mantraventures.com

cat /root/raid/inf.txt >> /root/raid/raid.txt
date >> /root/raid/raid.txt
cat /root/raid/space.txt >> /root/raid/raid.txt
/sbin/mdadm -D /dev/md0 >> /root/raid/raid.txt
cat /root/raid/space.txt >> /root/raid/raid.txt
/sbin/mdadm -D /dev/md1 >> /root/raid/raid.txt
cat /root/raid/space.txt >> /root/raid/raid.txt
/sbin/mdadm -D /dev/md2 >> /root/raid/raid.txt
cat /root/raid/space.txt >> /root/raid/raid.txt
/sbin/mdadm -D /dev/md3 >> /root/raid/raid.txt

cat /root/raid/raid.txt | mail -s "RAID STATUS at $node" $to

rm -f /root/raid/raid.txt
";}i:2;i:258;}i:44;a:3:{i:0;s:7:"p_close";i:1;a:0:{}i:2;i:850;}i:45;a:3:{i:0;s:6:"p_open";i:1;a:0:{}i:2;i:850;}i:46;a:3:{i:0;s:5:"cdata";i:1;a:1:{i:0;s:76:"Change the first line to your node.
Change devices number according to this ";}i:2;i:853;}i:47;a:3:{i:0;s:18:"doublequoteopening";i:1;a:0:{}i:2;i:929;}i:48;a:3:{i:0;s:5:"cdata";i:1;a:1:{i:0;s:10:"ls /dev/md";}i:2;i:930;}i:49;a:3:{i:0;s:18:"doublequoteclosing";i:1;a:0:{}i:2;i:940;}i:50;a:3:{i:0;s:7:"p_close";i:1;a:0:{}i:2;i:941;}i:51;a:3:{i:0;s:6:"p_open";i:1;a:0:{}i:2;i:941;}i:52;a:3:{i:0;s:5:"cdata";i:1;a:1:{i:0;s:25:"/etc/init.d/postfix start";}i:2;i:943;}i:53;a:3:{i:0;s:7:"p_close";i:1;a:0:{}i:2;i:968;}i:54;a:3:{i:0;s:6:"p_open";i:1;a:0:{}i:2;i:968;}i:55;a:3:{i:0;s:5:"cdata";i:1;a:1:{i:0;s:10:"crontab -e";}i:2;i:970;}i:56;a:3:{i:0;s:7:"p_close";i:1;a:0:{}i:2;i:980;}i:57;a:3:{i:0;s:6:"p_open";i:1;a:0:{}i:2;i:980;}i:58;a:3:{i:0;s:5:"cdata";i:1;a:1:{i:0;s:39:"00 2 * * 0  sh /root/raid/raid-alert.sh";}i:2;i:982;}i:59;a:3:{i:0;s:7:"p_close";i:1;a:0:{}i:2;i:1021;}i:60;a:3:{i:0;s:6:"p_open";i:1;a:0:{}i:2;i:1021;}i:61;a:3:{i:0;s:5:"cdata";i:1;a:1:{i:0;s:15:"./raid-alert.sh";}i:2;i:1023;}i:62;a:3:{i:0;s:7:"p_close";i:1;a:0:{}i:2;i:1038;}i:63;a:3:{i:0;s:12:"document_end";i:1;a:0:{}i:2;i:1038;}}