a:72:{i:0;a:3:{i:0;s:14:"document_start";i:1;a:0:{}i:2;i:0;}i:1;a:3:{i:0;s:6:"p_open";i:1;a:0:{}i:2;i:0;}i:2;a:3:{i:0;s:5:"cdata";i:1;a:1:{i:0;s:54:"PolicyD activation procedure on Zimbra 8, fully tested";}i:2;i:1;}i:3;a:3:{i:0;s:7:"p_close";i:1;a:0:{}i:2;i:55;}i:4;a:3:{i:0;s:6:"p_open";i:1;a:0:{}i:2;i:55;}i:5;a:3:{i:0;s:11:"strong_open";i:1;a:0:{}i:2;i:57;}i:6;a:3:{i:0;s:5:"cdata";i:1;a:1:{i:0;s:24:"ACTIVATING POLICYD ADDON";}i:2;i:59;}i:7;a:3:{i:0;s:12:"strong_close";i:1;a:0:{}i:2;i:83;}i:8;a:3:{i:0;s:7:"p_close";i:1;a:0:{}i:2;i:85;}i:9;a:3:{i:0;s:6:"p_open";i:1;a:0:{}i:2;i:85;}i:10;a:3:{i:0;s:6:"plugin";i:1;a:4:{i:0;s:9:"code_code";i:1;a:4:{i:0;s:4:"code";i:1;N;i:2;s:0:"";i:3;s:520:"
su - zimbra
zmprov ms `zmhostname` +zimbraServiceInstalled cbpolicyd +zimbraServiceEnabled cbpolicyd

zmlocalconfig -e postfix_enable_smtpd_policyd=yes

zmprov mcf +zimbraMtaRestriction "check_policy_service inet:127.0.0.1:10031"

zmlocalconfig -e cbpolicyd_log_level=4; zmlocalconfig -e cbpolicyd_log_detail=modules,tracking,policies; zmlocalconfig -e cbpolicyd_module_accesscontrol=1 cbpolicyd_module_checkhelo=1 cbpolicyd_module_checkspf=1 cbpolicyd_module_greylisting=1 cbpolicyd_module_quotas=1

zmcontrol restart
";}i:2;i:3;i:3;s:521:">
su - zimbra
zmprov ms `zmhostname` +zimbraServiceInstalled cbpolicyd +zimbraServiceEnabled cbpolicyd

zmlocalconfig -e postfix_enable_smtpd_policyd=yes

zmprov mcf +zimbraMtaRestriction "check_policy_service inet:127.0.0.1:10031"

zmlocalconfig -e cbpolicyd_log_level=4; zmlocalconfig -e cbpolicyd_log_detail=modules,tracking,policies; zmlocalconfig -e cbpolicyd_module_accesscontrol=1 cbpolicyd_module_checkhelo=1 cbpolicyd_module_checkspf=1 cbpolicyd_module_greylisting=1 cbpolicyd_module_quotas=1

zmcontrol restart
";}i:2;i:92;}i:11;a:3:{i:0;s:7:"p_close";i:1;a:0:{}i:2;i:620;}i:12;a:3:{i:0;s:6:"p_open";i:1;a:0:{}i:2;i:620;}i:13;a:3:{i:0;s:11:"strong_open";i:1;a:0:{}i:2;i:623;}i:14;a:3:{i:0;s:5:"cdata";i:1;a:1:{i:0;s:40:"WEB UI ACTIVATION FOR POLICYD MANAGEMENT";}i:2;i:625;}i:15;a:3:{i:0;s:12:"strong_close";i:1;a:0:{}i:2;i:665;}i:16;a:3:{i:0;s:7:"p_close";i:1;a:0:{}i:2;i:667;}i:17;a:3:{i:0;s:6:"p_open";i:1;a:0:{}i:2;i:667;}i:18;a:3:{i:0;s:6:"plugin";i:1;a:4:{i:0;s:9:"code_code";i:1;a:4:{i:0;s:4:"code";i:1;N;i:2;s:0:"";i:3;s:67:"
cd /opt/zimbra/httpd/htdocs/ && ln -s ../../cbpolicyd/share/webui
";}i:2;i:3;i:3;s:68:">
cd /opt/zimbra/httpd/htdocs/ && ln -s ../../cbpolicyd/share/webui
";}i:2;i:674;}i:19;a:3:{i:0;s:7:"p_close";i:1;a:0:{}i:2;i:749;}i:20;a:3:{i:0;s:6:"p_open";i:1;a:0:{}i:2;i:749;}i:21;a:3:{i:0;s:5:"cdata";i:1;a:1:{i:0;s:200:"Modify file /opt/zimbra/cbpolicyd-2.1.0-beta/share/webui/includes/config.php
and mark a comment (#) to the line begining with: $DB_DSN and add the following code before line begining with : $DB_USER 
";}i:2;i:751;}i:22;a:3:{i:0;s:6:"plugin";i:1;a:4:{i:0;s:9:"code_code";i:1;a:4:{i:0;s:4:"code";i:1;N;i:2;s:0:"";i:3;s:70:"
vi /opt/zimbra/cbpolicyd-2.1.0-beta/share/webui/includes/config.php 
";}i:2;i:3;i:3;s:71:">
vi /opt/zimbra/cbpolicyd-2.1.0-beta/share/webui/includes/config.php 
";}i:2;i:956;}i:23;a:3:{i:0;s:7:"p_close";i:1;a:0:{}i:2;i:1034;}i:24;a:3:{i:0;s:6:"p_open";i:1;a:0:{}i:2;i:1034;}i:25;a:3:{i:0;s:6:"plugin";i:1;a:4:{i:0;s:9:"code_code";i:1;a:4:{i:0;s:4:"code";i:1;N;i:2;s:0:"";i:3;s:68:"
$DB_DSN="sqlite:/opt/zimbra/data/cbpolicyd/db/cbpolicyd.sqlitedb";
";}i:2;i:3;i:3;s:69:">
$DB_DSN="sqlite:/opt/zimbra/data/cbpolicyd/db/cbpolicyd.sqlitedb";
";}i:2;i:1041;}i:26;a:3:{i:0;s:7:"p_close";i:1;a:0:{}i:2;i:1117;}i:27;a:3:{i:0;s:6:"p_open";i:1;a:0:{}i:2;i:1117;}i:28;a:3:{i:0;s:11:"strong_open";i:1;a:0:{}i:2;i:1119;}i:29;a:3:{i:0;s:5:"cdata";i:1;a:1:{i:0;s:20:"Get The Web UI Files";}i:2;i:1121;}i:30;a:3:{i:0;s:12:"strong_close";i:1;a:0:{}i:2;i:1141;}i:31;a:3:{i:0;s:7:"p_close";i:1;a:0:{}i:2;i:1143;}i:32;a:3:{i:0;s:6:"p_open";i:1;a:0:{}i:2;i:1143;}i:33;a:3:{i:0;s:6:"plugin";i:1;a:4:{i:0;s:9:"code_code";i:1;a:4:{i:0;s:4:"code";i:1;N;i:2;s:0:"";i:3;s:278:"
cd /srv/
wget -c http://devlabs.linuxassist.net/attachments/download/230/cluebringer-snapshot-2.1.x-201205100639.tar.gz
tar -zxvf cluebringer-snapshot-2.1.x-201205100639.tar.gz
cd cluebringer-snapshot-2.1.x-201205100639/webui/
cp *.php *.css /opt/zimbra/cbpolicyd/share/webui/
";}i:2;i:3;i:3;s:279:">
cd /srv/
wget -c http://devlabs.linuxassist.net/attachments/download/230/cluebringer-snapshot-2.1.x-201205100639.tar.gz
tar -zxvf cluebringer-snapshot-2.1.x-201205100639.tar.gz
cd cluebringer-snapshot-2.1.x-201205100639/webui/
cp *.php *.css /opt/zimbra/cbpolicyd/share/webui/
";}i:2;i:1150;}i:34;a:3:{i:0;s:7:"p_close";i:1;a:0:{}i:2;i:1436;}i:35;a:3:{i:0;s:6:"p_open";i:1;a:0:{}i:2;i:1436;}i:36;a:3:{i:0;s:11:"strong_open";i:1;a:0:{}i:2;i:1438;}i:37;a:3:{i:0;s:5:"cdata";i:1;a:1:{i:0;s:18:"Reload Web service";}i:2;i:1440;}i:38;a:3:{i:0;s:12:"strong_close";i:1;a:0:{}i:2;i:1458;}i:39;a:3:{i:0;s:7:"p_close";i:1;a:0:{}i:2;i:1460;}i:40;a:3:{i:0;s:6:"p_open";i:1;a:0:{}i:2;i:1460;}i:41;a:3:{i:0;s:6:"plugin";i:1;a:4:{i:0;s:9:"code_code";i:1;a:4:{i:0;s:4:"code";i:1;N;i:2;s:0:"";i:3;s:38:"
su - zimbra -c "zmapachectl restart"
";}i:2;i:3;i:3;s:39:">
su - zimbra -c "zmapachectl restart"
";}i:2;i:1467;}i:42;a:3:{i:0;s:7:"p_close";i:1;a:0:{}i:2;i:1513;}i:43;a:3:{i:0;s:6:"p_open";i:1;a:0:{}i:2;i:1513;}i:44;a:3:{i:0;s:11:"strong_open";i:1;a:0:{}i:2;i:1515;}i:45;a:3:{i:0;s:5:"cdata";i:1;a:1:{i:0;s:46:"Open Webui Port For PolicyD Management Console";}i:2;i:1517;}i:46;a:3:{i:0;s:12:"strong_close";i:1;a:0:{}i:2;i:1563;}i:47;a:3:{i:0;s:7:"p_close";i:1;a:0:{}i:2;i:1565;}i:48;a:3:{i:0;s:6:"p_open";i:1;a:0:{}i:2;i:1565;}i:49;a:3:{i:0;s:6:"plugin";i:1;a:4:{i:0;s:9:"code_code";i:1;a:4:{i:0;s:4:"code";i:1;N;i:2;s:0:"";i:3;s:82:"
iptables -I INPUT -p tcp --dport 7780 -m state --state NEW,ESTABLISHED -j ACCEPT
";}i:2;i:3;i:3;s:83:">
iptables -I INPUT -p tcp --dport 7780 -m state --state NEW,ESTABLISHED -j ACCEPT
";}i:2;i:1572;}i:50;a:3:{i:0;s:7:"p_close";i:1;a:0:{}i:2;i:1662;}i:51;a:3:{i:0;s:6:"p_open";i:1;a:0:{}i:2;i:1662;}i:52;a:3:{i:0;s:5:"cdata";i:1;a:1:{i:0;s:62:"Try to open PolicyD web management by accessing the following ";}i:2;i:1664;}i:53;a:3:{i:0;s:7:"acronym";i:1;a:1:{i:0;s:3:"URL";}i:2;i:1726;}i:54;a:3:{i:0;s:5:"cdata";i:1;a:1:{i:0;s:4:" : 
";}i:2;i:1729;}i:55;a:3:{i:0;s:12:"externallink";i:1;a:2:{i:0;s:45:"http://IpAddressOfZimbra:7780/webui/index.php";i:1;N;}i:2;i:1733;}i:56;a:3:{i:0;s:7:"p_close";i:1;a:0:{}i:2;i:1778;}i:57;a:3:{i:0;s:6:"p_open";i:1;a:0:{}i:2;i:1778;}i:58;a:3:{i:0;s:11:"strong_open";i:1;a:0:{}i:2;i:1781;}i:59;a:3:{i:0;s:5:"cdata";i:1;a:1:{i:0;s:5:"Note:";}i:2;i:1783;}i:60;a:3:{i:0;s:12:"strong_close";i:1;a:0:{}i:2;i:1788;}i:61;a:3:{i:0;s:5:"cdata";i:1;a:1:{i:0;s:77:" Please close the Port again after Modifying the Policy on Production Server
";}i:2;i:1790;}i:62;a:3:{i:0;s:6:"plugin";i:1;a:4:{i:0;s:9:"code_code";i:1;a:4:{i:0;s:4:"code";i:1;N;i:2;s:0:"";i:3;s:58:"
iptables -A INPUT -p tcp --destination-port 7780 -j DROP
";}i:2;i:3;i:3;s:59:">
iptables -A INPUT -p tcp --destination-port 7780 -j DROP
";}i:2;i:1872;}i:63;a:3:{i:0;s:7:"p_close";i:1;a:0:{}i:2;i:1938;}i:64;a:3:{i:0;s:6:"p_open";i:1;a:0:{}i:2;i:1938;}i:65;a:3:{i:0;s:5:"cdata";i:1;a:1:{i:0;s:13:"References: 
";}i:2;i:1940;}i:66;a:3:{i:0;s:12:"externallink";i:1;a:2:{i:0;s:81:"http://wiki.zimbra.com/wiki/Postfix_Policyd#Postfix_Cluebringer_Policyd_in_Zimbra";i:1;N;}i:2;i:1953;}i:67;a:3:{i:0;s:5:"cdata";i:1;a:1:{i:0;s:1:"
";}i:2;i:2034;}i:68;a:3:{i:0;s:12:"externallink";i:1;a:2:{i:0;s:34:"http://wiki.policyd.org/installing";i:1;N;}i:2;i:2035;}i:69;a:3:{i:0;s:5:"cdata";i:1;a:1:{i:0;s:0:"";}i:2;i:2069;}i:70;a:3:{i:0;s:7:"p_close";i:1;a:0:{}i:2;i:2069;}i:71;a:3:{i:0;s:12:"document_end";i:1;a:0:{}i:2;i:2069;}}