a:16:{i:0;a:3:{i:0;s:14:"document_start";i:1;a:0:{}i:2;i:0;}i:1;a:3:{i:0;s:6:"p_open";i:1;a:0:{}i:2;i:0;}i:2;a:3:{i:0;s:5:"cdata";i:1;a:1:{i:0;s:30:"Installing Vesta control panel";}i:2;i:1;}i:3;a:3:{i:0;s:7:"p_close";i:1;a:0:{}i:2;i:31;}i:4;a:3:{i:0;s:6:"p_open";i:1;a:0:{}i:2;i:31;}i:5;a:3:{i:0;s:5:"cdata";i:1;a:1:{i:0;s:48:"1) Download the install script from vestacp.com
";}i:2;i:33;}i:6;a:3:{i:0;s:6:"plugin";i:1;a:4:{i:0;s:9:"code_code";i:1;a:4:{i:0;s:4:"code";i:1;N;i:2;s:0:"";i:3;s:44:"
wget http://vestacp.com/pub/vst-install.sh
";}i:2;i:3;i:3;s:45:">
wget http://vestacp.com/pub/vst-install.sh
";}i:2;i:86;}i:7;a:3:{i:0;s:5:"cdata";i:1;a:1:{i:0;s:58:"
2) Give exectue permission on the script and execute it.
";}i:2;i:138;}i:8;a:3:{i:0;s:6:"plugin";i:1;a:4:{i:0;s:9:"code_code";i:1;a:4:{i:0;s:4:"code";i:1;N;i:2;s:0:"";i:3;s:44:"
 chmod +x vst-install.sh
 ./vst-install.sh
";}i:2;i:3;i:3;s:45:">
 chmod +x vst-install.sh
 ./vst-install.sh
";}i:2;i:201;}i:9;a:3:{i:0;s:7:"p_close";i:1;a:0:{}i:2;i:253;}i:10;a:3:{i:0;s:6:"p_open";i:1;a:0:{}i:2;i:253;}i:11;a:3:{i:0;s:5:"cdata";i:1;a:1:{i:0;s:30:"3) Open Dashboard in browser.
";}i:2;i:255;}i:12;a:3:{i:0;s:6:"plugin";i:1;a:4:{i:0;s:9:"code_code";i:1;a:4:{i:0;s:4:"code";i:1;N;i:2;s:0:"";i:3;s:20:"
http://domain:8083
";}i:2;i:3;i:3;s:21:">
http://domain:8083
";}i:2;i:290;}i:13;a:3:{i:0;s:5:"cdata";i:1;a:1:{i:0;s:0:"";}i:2;i:318;}i:14;a:3:{i:0;s:7:"p_close";i:1;a:0:{}i:2;i:318;}i:15;a:3:{i:0;s:12:"document_end";i:1;a:0:{}i:2;i:318;}}