a:45:{i:0;a:3:{i:0;s:14:"document_start";i:1;a:0:{}i:2;i:0;}i:1;a:3:{i:0;s:6:"header";i:1;a:3:{i:0;s:29:"Reset A2billing root password";i:1;i:1;i:2;i:1;}i:2;i:1;}i:2;a:3:{i:0;s:12:"section_open";i:1;a:1:{i:0;i:1;}i:2;i:1;}i:3;a:3:{i:0;s:6:"p_open";i:1;a:0:{}i:2;i:1;}i:4;a:3:{i:0;s:5:"cdata";i:1;a:1:{i:0;s:135:"If you lose or forget your a2billing 1.4 root password then there is a simple procedure for resetting it by editing the MySQL database.";}i:2;i:47;}i:5;a:3:{i:0;s:7:"p_close";i:1;a:0:{}i:2;i:182;}i:6;a:3:{i:0;s:6:"p_open";i:1;a:0:{}i:2;i:182;}i:7;a:3:{i:0;s:5:"cdata";i:1;a:1:{i:0;s:126:"To do this you’ll need to get SSH access to your server. If you use Windows then Putty is a good, free application for this.";}i:2;i:184;}i:8;a:3:{i:0;s:7:"p_close";i:1;a:0:{}i:2;i:310;}i:9;a:3:{i:0;s:6:"p_open";i:1;a:0:{}i:2;i:310;}i:10;a:3:{i:0;s:5:"cdata";i:1;a:1:{i:0;s:32:"1. Log in to your server as root";}i:2;i:312;}i:11;a:3:{i:0;s:7:"p_close";i:1;a:0:{}i:2;i:344;}i:12;a:3:{i:0;s:6:"p_open";i:1;a:0:{}i:2;i:344;}i:13;a:3:{i:0;s:5:"cdata";i:1;a:1:{i:0;s:77:"2. Determine the database name, user and password for your A2Billing database";}i:2;i:346;}i:14;a:3:{i:0;s:7:"p_close";i:1;a:0:{}i:2;i:423;}i:15;a:3:{i:0;s:6:"p_open";i:1;a:0:{}i:2;i:423;}i:16;a:3:{i:0;s:5:"cdata";i:1;a:1:{i:0;s:131:"head -n 15 /etc/a2billing.conf
The settings are normally at the top of the file so we just need the first 15 lines. Here’s mine -";}i:2;i:425;}i:17;a:3:{i:0;s:7:"p_close";i:1;a:0:{}i:2;i:556;}i:18;a:3:{i:0;s:6:"p_open";i:1;a:0:{}i:2;i:556;}i:19;a:3:{i:0;s:5:"cdata";i:1;a:1:{i:0;s:22:"user = a2billing-user ";}i:2;i:558;}i:20;a:3:{i:0;s:9:"linebreak";i:1;a:0:{}i:2;i:580;}i:21;a:3:{i:0;s:5:"cdata";i:1;a:1:{i:0;s:30:"
password = a2billing-password";}i:2;i:583;}i:22;a:3:{i:0;s:9:"linebreak";i:1;a:0:{}i:2;i:613;}i:23;a:3:{i:0;s:5:"cdata";i:1;a:1:{i:0;s:21:"
dbname = mya2billing";}i:2;i:615;}i:24;a:3:{i:0;s:7:"p_close";i:1;a:0:{}i:2;i:636;}i:25;a:3:{i:0;s:6:"p_open";i:1;a:0:{}i:2;i:636;}i:26;a:3:{i:0;s:5:"cdata";i:1;a:1:{i:0;s:77:"3. Log in to MySQL using the details we just got for the A2Billing database -";}i:2;i:638;}i:27;a:3:{i:0;s:7:"p_close";i:1;a:0:{}i:2;i:715;}i:28;a:3:{i:0;s:6:"p_open";i:1;a:0:{}i:2;i:715;}i:29;a:3:{i:0;s:5:"cdata";i:1;a:1:{i:0;s:38:"mysql -u a2billing-user -p mya2billing";}i:2;i:717;}i:30;a:3:{i:0;s:7:"p_close";i:1;a:0:{}i:2;i:755;}i:31;a:3:{i:0;s:6:"p_open";i:1;a:0:{}i:2;i:755;}i:32;a:3:{i:0;s:5:"cdata";i:1;a:1:{i:0;s:15:"Enter password:";}i:2;i:757;}i:33;a:3:{i:0;s:7:"p_close";i:1;a:0:{}i:2;i:772;}i:34;a:3:{i:0;s:6:"p_open";i:1;a:0:{}i:2;i:772;}i:35;a:3:{i:0;s:5:"cdata";i:1;a:1:{i:0;s:156:"4. Change the password for root to ‘changepassword’. This is the default password and is now stored encoded as opposed to plain text as in A2Billing 1.3";}i:2;i:774;}i:36;a:3:{i:0;s:7:"p_close";i:1;a:0:{}i:2;i:930;}i:37;a:3:{i:0;s:6:"p_open";i:1;a:0:{}i:2;i:930;}i:38;a:3:{i:0;s:5:"cdata";i:1;a:1:{i:0;s:195:"mysql> update cc_ui_authen set pwd_encoded = '410fc6268dd3332226de95e42d9efa4046c5463769d7493b85e65cfa5c26362dc2455cc23c0bc5831deb008def4ab11a9eaa9b76ba3f377da134f39ec60dd758' where login='root';";}i:2;i:932;}i:39;a:3:{i:0;s:7:"p_close";i:1;a:0:{}i:2;i:1127;}i:40;a:3:{i:0;s:6:"p_open";i:1;a:0:{}i:2;i:1127;}i:41;a:3:{i:0;s:5:"cdata";i:1;a:1:{i:0;s:99:"5. You should now be able to login to A2Billing using the username/password of root/changepassword.";}i:2;i:1129;}i:42;a:3:{i:0;s:7:"p_close";i:1;a:0:{}i:2;i:1228;}i:43;a:3:{i:0;s:13:"section_close";i:1;a:0:{}i:2;i:1228;}i:44;a:3:{i:0;s:12:"document_end";i:1;a:0:{}i:2;i:1228;}}