a:43:{i:0;a:3:{i:0;s:14:"document_start";i:1;a:0:{}i:2;i:0;}i:1;a:3:{i:0;s:6:"p_open";i:1;a:0:{}i:2;i:0;}i:2;a:3:{i:0;s:11:"strong_open";i:1;a:0:{}i:2;i:6;}i:3;a:3:{i:0;s:5:"cdata";i:1;a:1:{i:0;s:82:"Note: Before all make sure mailx is installed on the server, if not install it by ";}i:2;i:8;}i:4;a:3:{i:0;s:18:"doublequoteopening";i:1;a:0:{}i:2;i:90;}i:5;a:3:{i:0;s:5:"cdata";i:1;a:1:{i:0;s:17:"yum install mailx";}i:2;i:91;}i:6;a:3:{i:0;s:18:"doublequoteclosing";i:1;a:0:{}i:2;i:108;}i:7;a:3:{i:0;s:5:"cdata";i:1;a:1:{i:0;s:1:".";}i:2;i:109;}i:8;a:3:{i:0;s:12:"strong_close";i:1;a:0:{}i:2;i:110;}i:9;a:3:{i:0;s:7:"p_close";i:1;a:0:{}i:2;i:112;}i:10;a:3:{i:0;s:6:"p_open";i:1;a:0:{}i:2;i:112;}i:11;a:3:{i:0;s:5:"cdata";i:1;a:1:{i:0;s:107:"1. Open the file /etc/munin/munin.conf and add following lines. (Take a backup of same before any changes).";}i:2;i:117;}i:12;a:3:{i:0;s:7:"p_close";i:1;a:0:{}i:2;i:225;}i:13;a:3:{i:0;s:12:"preformatted";i:1;a:1:{i:0;s:245:"  contact.me.command mail -s "Munin notification ${var:host}" alerts@mantraventures.com
  contact.me.always_send critical
   
  [server.hostname.com]
   address 127.0.0.1
   use_node_name yes
   exim_mailqueue.mails.critical <limit of mails>
   ";}i:2;i:225;}i:14;a:3:{i:0;s:6:"p_open";i:1;a:0:{}i:2;i:225;}i:15;a:3:{i:0;s:5:"cdata";i:1;a:1:{i:0;s:26:"2. Restart the munin node.";}i:2;i:488;}i:16;a:3:{i:0;s:7:"p_close";i:1;a:0:{}i:2;i:514;}i:17;a:3:{i:0;s:12:"preformatted";i:1;a:1:{i:0;s:31:"  
  service munin-node restart";}i:2;i:514;}i:18;a:3:{i:0;s:6:"p_open";i:1;a:0:{}i:2;i:514;}i:19;a:3:{i:0;s:5:"cdata";i:1;a:1:{i:0;s:31:"(For More Notification options ";}i:2;i:558;}i:20;a:3:{i:0;s:12:"externallink";i:1;a:2:{i:0;s:62:"http://blog.secaserver.com/2012/03/cpanel-trigger-alert-munin/";i:1;N;}i:2;i:589;}i:21;a:3:{i:0;s:5:"cdata";i:1;a:1:{i:0;s:2:" )";}i:2;i:651;}i:22;a:3:{i:0;s:7:"p_close";i:1;a:0:{}i:2;i:653;}i:23;a:3:{i:0;s:6:"p_open";i:1;a:0:{}i:2;i:653;}i:24;a:3:{i:0;s:5:"cdata";i:1;a:1:{i:0;s:70:"NOTE:- If receiving MySQL InnoDB free tablespace WARNING do following.";}i:2;i:656;}i:25;a:3:{i:0;s:7:"p_close";i:1;a:0:{}i:2;i:726;}i:26;a:3:{i:0;s:6:"p_open";i:1;a:0:{}i:2;i:726;}i:27;a:3:{i:0;s:5:"cdata";i:1;a:1:{i:0;s:29:"1. Create the following file:";}i:2;i:728;}i:28;a:3:{i:0;s:7:"p_close";i:1;a:0:{}i:2;i:758;}i:29;a:3:{i:0;s:12:"preformatted";i:1;a:1:{i:0;s:44:"  nano /etc/munin/plugin-conf.d/mysql_innodb";}i:2;i:758;}i:30;a:3:{i:0;s:6:"p_open";i:1;a:0:{}i:2;i:758;}i:31;a:3:{i:0;s:5:"cdata";i:1;a:1:{i:0;s:28:"2. paste the following code:";}i:2;i:808;}i:32;a:3:{i:0;s:7:"p_close";i:1;a:0:{}i:2;i:837;}i:33;a:3:{i:0;s:12:"preformatted";i:1;a:1:{i:0;s:55:"  [mysql_innodb]
   env.warning 0
   env.critical 0
   ";}i:2;i:837;}i:34;a:3:{i:0;s:6:"p_open";i:1;a:0:{}i:2;i:837;}i:35;a:3:{i:0;s:5:"cdata";i:1;a:1:{i:0;s:26:"3. Restart the munin node.";}i:2;i:902;}i:36;a:3:{i:0;s:7:"p_close";i:1;a:0:{}i:2;i:928;}i:37;a:3:{i:0;s:12:"preformatted";i:1;a:1:{i:0;s:36:"  
  service munin-node restart     ";}i:2;i:928;}i:38;a:3:{i:0;s:6:"p_open";i:1;a:0:{}i:2;i:928;}i:39;a:3:{i:0;s:5:"cdata";i:1;a:1:{i:0;s:110:"4. If mails limit is showing default ( 100 and 200) then make the changes in following file and set the limit.";}i:2;i:971;}i:40;a:3:{i:0;s:7:"p_close";i:1;a:0:{}i:2;i:1082;}i:41;a:3:{i:0;s:12:"preformatted";i:1;a:1:{i:0;s:123:"  /usr/share/munin/plugins/exim_mailqueue
  
  or
  
  /etc/munin/plugins/exim_mailqueue
  
  service munin-node restart
  ";}i:2;i:1082;}i:42;a:3:{i:0;s:12:"document_end";i:1;a:0:{}i:2;i:1082;}}