a:77:{i:0;a:3:{i:0;s:14:"document_start";i:1;a:0:{}i:2;i:0;}i:1;a:3:{i:0;s:6:"header";i:1;a:3:{i:0;s:32:"Install SSL certificate on WHMCS";i:1;i:1;i:2;i:1;}i:2;i:1;}i:2;a:3:{i:0;s:12:"section_open";i:1;a:1:{i:0;i:1;}i:2;i:1;}i:3;a:3:{i:0;s:6:"p_open";i:1;a:0:{}i:2;i:1;}i:4;a:3:{i:0;s:5:"cdata";i:1;a:1:{i:0;s:59:"Follow the instructions below to set up SSL on your domain.";}i:2;i:50;}i:5;a:3:{i:0;s:7:"p_close";i:1;a:0:{}i:2;i:109;}i:6;a:3:{i:0;s:6:"p_open";i:1;a:0:{}i:2;i:109;}i:7;a:3:{i:0;s:5:"cdata";i:1;a:1:{i:0;s:93:"1)  Install the SSL certificate issued by the respective certificate authority in the cpanel.";}i:2;i:111;}i:8;a:3:{i:0;s:7:"p_close";i:1;a:0:{}i:2;i:205;}i:9;a:3:{i:0;s:10:"listu_open";i:1;a:0:{}i:2;i:205;}i:10;a:3:{i:0;s:13:"listitem_open";i:1;a:1:{i:0;i:1;}i:2;i:205;}i:11;a:3:{i:0;s:16:"listcontent_open";i:1;a:0:{}i:2;i:205;}i:12;a:3:{i:0;s:5:"cdata";i:1;a:1:{i:0;s:23:"  Go to cPanel account ";}i:2;i:211;}i:13;a:3:{i:0;s:6:"entity";i:1;a:1:{i:0;s:2:"->";}i:2;i:234;}i:14;a:3:{i:0;s:5:"cdata";i:1;a:1:{i:0;s:17:" SSL/TLS Manager ";}i:2;i:236;}i:15;a:3:{i:0;s:6:"entity";i:1;a:1:{i:0;s:2:"->";}i:2;i:253;}i:16;a:3:{i:0;s:5:"cdata";i:1;a:1:{i:0;s:30:" Activate SSL on your website:";}i:2;i:255;}i:17;a:3:{i:0;s:17:"listcontent_close";i:1;a:0:{}i:2;i:285;}i:18;a:3:{i:0;s:14:"listitem_close";i:1;a:0:{}i:2;i:285;}i:19;a:3:{i:0;s:13:"listitem_open";i:1;a:1:{i:0;i:2;}i:2;i:285;}i:20;a:3:{i:0;s:16:"listcontent_open";i:1;a:0:{}i:2;i:285;}i:21;a:3:{i:0;s:5:"cdata";i:1;a:1:{i:0;s:181:"    Select the domain for which you wish you have requested the SSL certificate for and then either fetch the certificate automatically or manually paste it in the section provided.";}i:2;i:289;}i:22;a:3:{i:0;s:17:"listcontent_close";i:1;a:0:{}i:2;i:470;}i:23;a:3:{i:0;s:14:"listitem_close";i:1;a:0:{}i:2;i:470;}i:24;a:3:{i:0;s:13:"listitem_open";i:1;a:1:{i:0;i:2;}i:2;i:470;}i:25;a:3:{i:0;s:16:"listcontent_open";i:1;a:0:{}i:2;i:470;}i:26;a:3:{i:0;s:5:"cdata";i:1;a:1:{i:0;s:36:"    This will activate the SSL host.";}i:2;i:474;}i:27;a:3:{i:0;s:17:"listcontent_close";i:1;a:0:{}i:2;i:510;}i:28;a:3:{i:0;s:14:"listitem_close";i:1;a:0:{}i:2;i:510;}i:29;a:3:{i:0;s:11:"listu_close";i:1;a:0:{}i:2;i:510;}i:30;a:3:{i:0;s:6:"p_open";i:1;a:0:{}i:2;i:510;}i:31;a:3:{i:0;s:5:"cdata";i:1;a:1:{i:0;s:70:"2)  Create or modify existing .htaccess file in the cPanel as follows:";}i:2;i:511;}i:32;a:3:{i:0;s:7:"p_close";i:1;a:0:{}i:2;i:582;}i:33;a:3:{i:0;s:10:"listu_open";i:1;a:0:{}i:2;i:582;}i:34;a:3:{i:0;s:13:"listitem_open";i:1;a:1:{i:0;i:1;}i:2;i:582;}i:35;a:3:{i:0;s:16:"listcontent_open";i:1;a:0:{}i:2;i:582;}i:36;a:3:{i:0;s:5:"cdata";i:1;a:1:{i:0;s:175:" The follow code (which you should place inside your .htaccess file), will force all requests to the WHMCS folder to be done via https, unless it is the whmcs/dl.php file.    ";}i:2;i:590;}i:37;a:3:{i:0;s:17:"listcontent_close";i:1;a:0:{}i:2;i:765;}i:38;a:3:{i:0;s:14:"listitem_close";i:1;a:0:{}i:2;i:765;}i:39;a:3:{i:0;s:13:"listitem_open";i:1;a:1:{i:0;i:3;}i:2;i:765;}i:40;a:3:{i:0;s:16:"listcontent_open";i:1;a:0:{}i:2;i:765;}i:41;a:3:{i:0;s:5:"cdata";i:1;a:1:{i:0;s:80:"     The code after, will force the whmcs/dl.php to redirect from https to http.";}i:2;i:769;}i:42;a:3:{i:0;s:17:"listcontent_close";i:1;a:0:{}i:2;i:849;}i:43;a:3:{i:0;s:14:"listitem_close";i:1;a:0:{}i:2;i:849;}i:44;a:3:{i:0;s:11:"listu_close";i:1;a:0:{}i:2;i:849;}i:45;a:3:{i:0;s:6:"p_open";i:1;a:0:{}i:2;i:849;}i:46;a:3:{i:0;s:5:"cdata";i:1;a:1:{i:0;s:18:"  RewriteEngine on";}i:2;i:852;}i:47;a:3:{i:0;s:7:"p_close";i:1;a:0:{}i:2;i:870;}i:48;a:3:{i:0;s:12:"preformatted";i:1;a:1:{i:0;s:23:"Options +FollowSymlinks";}i:2;i:870;}i:49;a:3:{i:0;s:6:"p_open";i:1;a:0:{}i:2;i:870;}i:50;a:3:{i:0;s:6:"plugin";i:1;a:4:{i:0;s:9:"code_code";i:1;a:4:{i:0;s:4:"code";i:1;N;i:2;s:0:"";i:3;s:448:"
  #Rewrite the URL for WHMCS to always use https except for the whmcs/dl.php file
  RewriteCond %{REQUEST_URI} !^/dl.php [NC]
  RewriteCond %{REQUEST_URI} ^/ [NC]
  RewriteCond %{SERVER_PORT} !^443$
  RewriteRule ^(.*)$ https://www.domain.com/$1 [R=301,L]

  #Rewrite the URL for WHMCS dl area to always use http
  RewriteCond %{REQUEST_URI} ^/dl.php [NC]
  RewriteCond %{SERVER_PORT} !^80$
  RewriteRule ^(.*)$ http://www.domain.com/$1 [R=301,L]
";}i:2;i:3;i:3;s:449:">
  #Rewrite the URL for WHMCS to always use https except for the whmcs/dl.php file
  RewriteCond %{REQUEST_URI} !^/dl.php [NC]
  RewriteCond %{REQUEST_URI} ^/ [NC]
  RewriteCond %{SERVER_PORT} !^443$
  RewriteRule ^(.*)$ https://www.domain.com/$1 [R=301,L]

  #Rewrite the URL for WHMCS dl area to always use http
  RewriteCond %{REQUEST_URI} ^/dl.php [NC]
  RewriteCond %{SERVER_PORT} !^80$
  RewriteRule ^(.*)$ http://www.domain.com/$1 [R=301,L]
";}i:2;i:902;}i:51;a:3:{i:0;s:5:"cdata";i:1;a:1:{i:0;s:39:"
2)  Login to the WHMCS admin account :";}i:2;i:1358;}i:52;a:3:{i:0;s:7:"p_close";i:1;a:0:{}i:2;i:1398;}i:53;a:3:{i:0;s:10:"listu_open";i:1;a:0:{}i:2;i:1398;}i:54;a:3:{i:0;s:13:"listitem_open";i:1;a:1:{i:0;i:1;}i:2;i:1398;}i:55;a:3:{i:0;s:16:"listcontent_open";i:1;a:0:{}i:2;i:1398;}i:56;a:3:{i:0;s:5:"cdata";i:1;a:1:{i:0;s:22:" Open 'Configuration' ";}i:2;i:1402;}i:57;a:3:{i:0;s:6:"entity";i:1;a:1:{i:0;s:2:"->";}i:2;i:1424;}i:58;a:3:{i:0;s:5:"cdata";i:1;a:1:{i:0;s:23:" 'General Configuration";}i:2;i:1426;}i:59;a:3:{i:0;s:17:"listcontent_close";i:1;a:0:{}i:2;i:1449;}i:60;a:3:{i:0;s:14:"listitem_close";i:1;a:0:{}i:2;i:1449;}i:61;a:3:{i:0;s:13:"listitem_open";i:1;a:1:{i:0;i:1;}i:2;i:1449;}i:62;a:3:{i:0;s:16:"listcontent_open";i:1;a:0:{}i:2;i:1449;}i:63;a:3:{i:0;s:5:"cdata";i:1;a:1:{i:0;s:18:" Set WHMCS System ";}i:2;i:1453;}i:64;a:3:{i:0;s:7:"acronym";i:1;a:1:{i:0;s:3:"URL";}i:2;i:1471;}i:65;a:3:{i:0;s:5:"cdata";i:1;a:1:{i:0;s:10:" to https:";}i:2;i:1474;}i:66;a:3:{i:0;s:13:"emphasis_open";i:1;a:0:{}i:2;i:1484;}i:67;a:3:{i:0;s:5:"cdata";i:1;a:1:{i:0;s:1:"<";}i:2;i:1486;}i:68;a:3:{i:0;s:12:"externallink";i:1;a:2:{i:0;s:31:"http://www.yourdomain.com/whmcs";i:1;s:24:"www.yourdomain.com/whmcs";}i:2;i:1487;}i:69;a:3:{i:0;s:5:"cdata";i:1;a:1:{i:0;s:54:">/ (note the s within https)
  * Set WHMCS SSL System ";}i:2;i:1511;}i:70;a:3:{i:0;s:7:"acronym";i:1;a:1:{i:0;s:3:"URL";}i:2;i:1565;}i:71;a:3:{i:0;s:5:"cdata";i:1;a:1:{i:0;s:10:" to empty
";}i:2;i:1568;}i:72;a:3:{i:0;s:17:"listcontent_close";i:1;a:0:{}i:2;i:1568;}i:73;a:3:{i:0;s:14:"listitem_close";i:1;a:0:{}i:2;i:1568;}i:74;a:3:{i:0;s:11:"listu_close";i:1;a:0:{}i:2;i:1568;}i:75;a:3:{i:0;s:13:"section_close";i:1;a:0:{}i:2;i:1568;}i:76;a:3:{i:0;s:12:"document_end";i:1;a:0:{}i:2;i:1568;}}