a:153:{i:0;a:3:{i:0;s:14:"document_start";i:1;a:0:{}i:2;i:0;}i:1;a:3:{i:0;s:6:"p_open";i:1;a:0:{}i:2;i:0;}i:2;a:3:{i:0;s:5:"cdata";i:1;a:1:{i:0;s:7:"[mysql]";}i:2;i:1;}i:3;a:3:{i:0;s:9:"linebreak";i:1;a:0:{}i:2;i:8;}i:4;a:3:{i:0;s:7:"p_close";i:1;a:0:{}i:2;i:10;}i:5;a:3:{i:0;s:6:"p_open";i:1;a:0:{}i:2;i:10;}i:6;a:3:{i:0;s:5:"cdata";i:1;a:1:{i:0;s:10:"# CLIENT #";}i:2;i:12;}i:7;a:3:{i:0;s:9:"linebreak";i:1;a:0:{}i:2;i:22;}i:8;a:3:{i:0;s:5:"cdata";i:1;a:1:{i:0;s:39:"
#port                          = 3306 ";}i:2;i:24;}i:9;a:3:{i:0;s:14:"monospace_open";i:1;a:0:{}i:2;i:63;}i:10;a:3:{i:0;s:5:"cdata";i:1;a:1:{i:0;s:51:"# only if mysql needs to access from outside server";}i:2;i:65;}i:11;a:3:{i:0;s:15:"monospace_close";i:1;a:0:{}i:2;i:116;}i:12;a:3:{i:0;s:5:"cdata";i:1;a:1:{i:0;s:1:" ";}i:2;i:118;}i:13;a:3:{i:0;s:9:"linebreak";i:1;a:0:{}i:2;i:119;}i:14;a:3:{i:0;s:5:"cdata";i:1;a:1:{i:0;s:60:"
socket                         = /var/lib/mysql/mysql.sock ";}i:2;i:121;}i:15;a:3:{i:0;s:9:"linebreak";i:1;a:0:{}i:2;i:181;}i:16;a:3:{i:0;s:7:"p_close";i:1;a:0:{}i:2;i:183;}i:17;a:3:{i:0;s:6:"p_open";i:1;a:0:{}i:2;i:183;}i:18;a:3:{i:0;s:5:"cdata";i:1;a:1:{i:0;s:9:"[mysqld] ";}i:2;i:185;}i:19;a:3:{i:0;s:9:"linebreak";i:1;a:0:{}i:2;i:194;}i:20;a:3:{i:0;s:5:"cdata";i:1;a:1:{i:0;s:18:"
symbolic-links=0 ";}i:2;i:196;}i:21;a:3:{i:0;s:9:"linebreak";i:1;a:0:{}i:2;i:214;}i:22;a:3:{i:0;s:7:"p_close";i:1;a:0:{}i:2;i:216;}i:23;a:3:{i:0;s:6:"p_open";i:1;a:0:{}i:2;i:216;}i:24;a:3:{i:0;s:5:"cdata";i:1;a:1:{i:0;s:12:"# GENERAL # ";}i:2;i:218;}i:25;a:3:{i:0;s:9:"linebreak";i:1;a:0:{}i:2;i:230;}i:26;a:3:{i:0;s:5:"cdata";i:1;a:1:{i:0;s:40:"
user                           = mysql ";}i:2;i:232;}i:27;a:3:{i:0;s:9:"linebreak";i:1;a:0:{}i:2;i:272;}i:28;a:3:{i:0;s:5:"cdata";i:1;a:1:{i:0;s:41:"
default-storage-engine         = InnoDB ";}i:2;i:274;}i:29;a:3:{i:0;s:9:"linebreak";i:1;a:0:{}i:2;i:315;}i:30;a:3:{i:0;s:5:"cdata";i:1;a:1:{i:0;s:60:"
socket                         = /var/lib/mysql/mysql.sock ";}i:2;i:317;}i:31;a:3:{i:0;s:9:"linebreak";i:1;a:0:{}i:2;i:377;}i:32;a:3:{i:0;s:5:"cdata";i:1;a:1:{i:0;s:59:"
pid-file                       = /var/lib/mysql/mysql.pid ";}i:2;i:379;}i:33;a:3:{i:0;s:9:"linebreak";i:1;a:0:{}i:2;i:438;}i:34;a:3:{i:0;s:7:"p_close";i:1;a:0:{}i:2;i:440;}i:35;a:3:{i:0;s:6:"p_open";i:1;a:0:{}i:2;i:440;}i:36;a:3:{i:0;s:5:"cdata";i:1;a:1:{i:0;s:11:"# MyISAM # ";}i:2;i:442;}i:37;a:3:{i:0;s:9:"linebreak";i:1;a:0:{}i:2;i:453;}i:38;a:3:{i:0;s:5:"cdata";i:1;a:1:{i:0;s:38:"
key-buffer-size                = 16M ";}i:2;i:455;}i:39;a:3:{i:0;s:14:"monospace_open";i:1;a:0:{}i:2;i:493;}i:40;a:3:{i:0;s:5:"cdata";i:1;a:1:{i:0;s:18:"# permanent buffer";}i:2;i:495;}i:41;a:3:{i:0;s:15:"monospace_close";i:1;a:0:{}i:2;i:513;}i:42;a:3:{i:0;s:5:"cdata";i:1;a:1:{i:0;s:1:" ";}i:2;i:515;}i:43;a:3:{i:0;s:9:"linebreak";i:1;a:0:{}i:2;i:516;}i:44;a:3:{i:0;s:5:"cdata";i:1;a:1:{i:0;s:47:"
myisam-recover                 = FORCE,BACKUP ";}i:2;i:518;}i:45;a:3:{i:0;s:9:"linebreak";i:1;a:0:{}i:2;i:565;}i:46;a:3:{i:0;s:7:"p_close";i:1;a:0:{}i:2;i:567;}i:47;a:3:{i:0;s:6:"p_open";i:1;a:0:{}i:2;i:567;}i:48;a:3:{i:0;s:5:"cdata";i:1;a:1:{i:0;s:11:"# SAFETY # ";}i:2;i:569;}i:49;a:3:{i:0;s:9:"linebreak";i:1;a:0:{}i:2;i:580;}i:50;a:3:{i:0;s:5:"cdata";i:1;a:1:{i:0;s:37:"
max-allowed-packet             = 4M ";}i:2;i:582;}i:51;a:3:{i:0;s:9:"linebreak";i:1;a:0:{}i:2;i:619;}i:52;a:3:{i:0;s:5:"cdata";i:1;a:1:{i:0;s:42:"
max-connect-errors             = 1000000 ";}i:2;i:621;}i:53;a:3:{i:0;s:9:"linebreak";i:1;a:0:{}i:2;i:663;}i:54;a:3:{i:0;s:7:"p_close";i:1;a:0:{}i:2;i:665;}i:55;a:3:{i:0;s:6:"p_open";i:1;a:0:{}i:2;i:665;}i:56;a:3:{i:0;s:5:"cdata";i:1;a:1:{i:0;s:66:"# DATA STORAGE #
datadir                        = /var/lib/mysql/ ";}i:2;i:667;}i:57;a:3:{i:0;s:9:"linebreak";i:1;a:0:{}i:2;i:733;}i:58;a:3:{i:0;s:7:"p_close";i:1;a:0:{}i:2;i:735;}i:59;a:3:{i:0;s:6:"p_open";i:1;a:0:{}i:2;i:735;}i:60;a:3:{i:0;s:5:"cdata";i:1;a:1:{i:0;s:22:"# CACHES AND LIMITS # ";}i:2;i:737;}i:61;a:3:{i:0;s:9:"linebreak";i:1;a:0:{}i:2;i:759;}i:62;a:3:{i:0;s:5:"cdata";i:1;a:1:{i:0;s:38:"
tmp-table-size                 = 16M ";}i:2;i:761;}i:63;a:3:{i:0;s:14:"monospace_open";i:1;a:0:{}i:2;i:799;}i:64;a:3:{i:0;s:5:"cdata";i:1;a:1:{i:0;s:18:"# temporary buffer";}i:2;i:801;}i:65;a:3:{i:0;s:15:"monospace_close";i:1;a:0:{}i:2;i:819;}i:66;a:3:{i:0;s:5:"cdata";i:1;a:1:{i:0;s:1:" ";}i:2;i:821;}i:67;a:3:{i:0;s:9:"linebreak";i:1;a:0:{}i:2;i:822;}i:68;a:3:{i:0;s:5:"cdata";i:1;a:1:{i:0;s:38:"
max-heap-table-size            = 16M ";}i:2;i:824;}i:69;a:3:{i:0;s:14:"monospace_open";i:1;a:0:{}i:2;i:862;}i:70;a:3:{i:0;s:5:"cdata";i:1;a:1:{i:0;s:18:"# temporary buffer";}i:2;i:864;}i:71;a:3:{i:0;s:15:"monospace_close";i:1;a:0:{}i:2;i:882;}i:72;a:3:{i:0;s:5:"cdata";i:1;a:1:{i:0;s:1:" ";}i:2;i:884;}i:73;a:3:{i:0;s:9:"linebreak";i:1;a:0:{}i:2;i:885;}i:74;a:3:{i:0;s:5:"cdata";i:1;a:1:{i:0;s:38:"
query-cache-type               = 0   ";}i:2;i:887;}i:75;a:3:{i:0;s:9:"linebreak";i:1;a:0:{}i:2;i:925;}i:76;a:3:{i:0;s:5:"cdata";i:1;a:1:{i:0;s:38:"
query-cache-size               = 0   ";}i:2;i:927;}i:77;a:3:{i:0;s:9:"linebreak";i:1;a:0:{}i:2;i:965;}i:78;a:3:{i:0;s:5:"cdata";i:1;a:1:{i:0;s:38:"
max-connections                = 500 ";}i:2;i:967;}i:79;a:3:{i:0;s:9:"linebreak";i:1;a:0:{}i:2;i:1005;}i:80;a:3:{i:0;s:5:"cdata";i:1;a:1:{i:0;s:38:"
thread-cache-size              = 30  ";}i:2;i:1007;}i:81;a:3:{i:0;s:9:"linebreak";i:1;a:0:{}i:2;i:1045;}i:82;a:3:{i:0;s:5:"cdata";i:1;a:1:{i:0;s:38:"
read_buffer_size               = 1M  ";}i:2;i:1047;}i:83;a:3:{i:0;s:9:"linebreak";i:1;a:0:{}i:2;i:1085;}i:84;a:3:{i:0;s:5:"cdata";i:1;a:1:{i:0;s:38:"
sort_buffer_size               = 1M  ";}i:2;i:1087;}i:85;a:3:{i:0;s:9:"linebreak";i:1;a:0:{}i:2;i:1125;}i:86;a:3:{i:0;s:5:"cdata";i:1;a:1:{i:0;s:41:"
open-files-limit               = 65535  ";}i:2;i:1127;}i:87;a:3:{i:0;s:9:"linebreak";i:1;a:0:{}i:2;i:1168;}i:88;a:3:{i:0;s:5:"cdata";i:1;a:1:{i:0;s:40:"
table-definition-cache         = 1024  ";}i:2;i:1170;}i:89;a:3:{i:0;s:14:"monospace_open";i:1;a:0:{}i:2;i:1210;}i:90;a:3:{i:0;s:5:"cdata";i:1;a:1:{i:0;s:18:"# temporary buffer";}i:2;i:1212;}i:91;a:3:{i:0;s:15:"monospace_close";i:1;a:0:{}i:2;i:1230;}i:92;a:3:{i:0;s:9:"linebreak";i:1;a:0:{}i:2;i:1232;}i:93;a:3:{i:0;s:5:"cdata";i:1;a:1:{i:0;s:39:"
table-open-cache               = 16M  ";}i:2;i:1234;}i:94;a:3:{i:0;s:14:"monospace_open";i:1;a:0:{}i:2;i:1273;}i:95;a:3:{i:0;s:5:"cdata";i:1;a:1:{i:0;s:18:"# temporary buffer";}i:2;i:1275;}i:96;a:3:{i:0;s:15:"monospace_close";i:1;a:0:{}i:2;i:1293;}i:97;a:3:{i:0;s:9:"linebreak";i:1;a:0:{}i:2;i:1295;}i:98;a:3:{i:0;s:7:"p_close";i:1;a:0:{}i:2;i:1297;}i:99;a:3:{i:0;s:6:"p_open";i:1;a:0:{}i:2;i:1297;}i:100;a:3:{i:0;s:5:"cdata";i:1;a:1:{i:0;s:10:"# INNODB #";}i:2;i:1299;}i:101;a:3:{i:0;s:9:"linebreak";i:1;a:0:{}i:2;i:1309;}i:102;a:3:{i:0;s:5:"cdata";i:1;a:1:{i:0;s:43:"
innodb-flush-method            = O_DIRECT ";}i:2;i:1311;}i:103;a:3:{i:0;s:9:"linebreak";i:1;a:0:{}i:2;i:1354;}i:104;a:3:{i:0;s:5:"cdata";i:1;a:1:{i:0;s:36:"
innodb-log-files-in-group      = 2 ";}i:2;i:1356;}i:105;a:3:{i:0;s:9:"linebreak";i:1;a:0:{}i:2;i:1392;}i:106;a:3:{i:0;s:5:"cdata";i:1;a:1:{i:0;s:39:"
innodb-log-file-size           = 128M ";}i:2;i:1394;}i:107;a:3:{i:0;s:9:"linebreak";i:1;a:0:{}i:2;i:1433;}i:108;a:3:{i:0;s:5:"cdata";i:1;a:1:{i:0;s:36:"
innodb-flush-log-at-trx-commit = 1 ";}i:2;i:1435;}i:109;a:3:{i:0;s:9:"linebreak";i:1;a:0:{}i:2;i:1471;}i:110;a:3:{i:0;s:5:"cdata";i:1;a:1:{i:0;s:36:"
innodb-file-per-table          = 1 ";}i:2;i:1473;}i:111;a:3:{i:0;s:9:"linebreak";i:1;a:0:{}i:2;i:1509;}i:112;a:3:{i:0;s:5:"cdata";i:1;a:1:{i:0;s:40:"
innodb-buffer-pool-size        = 1024M ";}i:2;i:1511;}i:113;a:3:{i:0;s:14:"monospace_open";i:1;a:0:{}i:2;i:1551;}i:114;a:3:{i:0;s:5:"cdata";i:1;a:1:{i:0;s:25:"#must be 1/3 of total RAM";}i:2;i:1553;}i:115;a:3:{i:0;s:15:"monospace_close";i:1;a:0:{}i:2;i:1578;}i:116;a:3:{i:0;s:5:"cdata";i:1;a:1:{i:0;s:1:" ";}i:2;i:1580;}i:117;a:3:{i:0;s:9:"linebreak";i:1;a:0:{}i:2;i:1581;}i:118;a:3:{i:0;s:7:"p_close";i:1;a:0:{}i:2;i:1583;}i:119;a:3:{i:0;s:6:"p_open";i:1;a:0:{}i:2;i:1583;}i:120;a:3:{i:0;s:5:"cdata";i:1;a:1:{i:0;s:12:"# LOGGING # ";}i:2;i:1585;}i:121;a:3:{i:0;s:9:"linebreak";i:1;a:0:{}i:2;i:1597;}i:122;a:3:{i:0;s:5:"cdata";i:1;a:1:{i:0;s:65:"
log-error                      = /var/log/mysql/mysql-error.log ";}i:2;i:1599;}i:123;a:3:{i:0;s:14:"monospace_open";i:1;a:0:{}i:2;i:1664;}i:124;a:3:{i:0;s:5:"cdata";i:1;a:1:{i:0;s:32:"#/var/log/mysql dir. must exists";}i:2;i:1666;}i:125;a:3:{i:0;s:15:"monospace_close";i:1;a:0:{}i:2;i:1698;}i:126;a:3:{i:0;s:9:"linebreak";i:1;a:0:{}i:2;i:1700;}i:127;a:3:{i:0;s:5:"cdata";i:1;a:1:{i:0;s:1:"
";}i:2;i:1702;}i:128;a:3:{i:0;s:14:"monospace_open";i:1;a:0:{}i:2;i:1703;}i:129;a:3:{i:0;s:5:"cdata";i:1;a:1:{i:0;s:20:"# Slow query logging";}i:2;i:1705;}i:130;a:3:{i:0;s:15:"monospace_close";i:1;a:0:{}i:2;i:1725;}i:131;a:3:{i:0;s:5:"cdata";i:1;a:1:{i:0;s:1:" ";}i:2;i:1727;}i:132;a:3:{i:0;s:9:"linebreak";i:1;a:0:{}i:2;i:1728;}i:133;a:3:{i:0;s:5:"cdata";i:1;a:1:{i:0;s:37:"
#log-queries-not-using-indexes  = 1 ";}i:2;i:1730;}i:134;a:3:{i:0;s:9:"linebreak";i:1;a:0:{}i:2;i:1767;}i:135;a:3:{i:0;s:5:"cdata";i:1;a:1:{i:0;s:37:"
#slow-query-log                 = 2 ";}i:2;i:1769;}i:136;a:3:{i:0;s:14:"monospace_open";i:1;a:0:{}i:2;i:1806;}i:137;a:3:{i:0;s:5:"cdata";i:1;a:1:{i:0;s:36:"# slow query logging time in seconds";}i:2;i:1808;}i:138;a:3:{i:0;s:15:"monospace_close";i:1;a:0:{}i:2;i:1844;}i:139;a:3:{i:0;s:5:"cdata";i:1;a:1:{i:0;s:1:" ";}i:2;i:1846;}i:140;a:3:{i:0;s:9:"linebreak";i:1;a:0:{}i:2;i:1847;}i:141;a:3:{i:0;s:5:"cdata";i:1;a:1:{i:0;s:65:"
#slow-query-log-file            = /var/log/mysql/mysql-slow.log ";}i:2;i:1849;}i:142;a:3:{i:0;s:9:"linebreak";i:1;a:0:{}i:2;i:1914;}i:143;a:3:{i:0;s:7:"p_close";i:1;a:0:{}i:2;i:1916;}i:144;a:3:{i:0;s:6:"p_open";i:1;a:0:{}i:2;i:1916;}i:145;a:3:{i:0;s:5:"cdata";i:1;a:1:{i:0;s:12:"[mysqldump] ";}i:2;i:1918;}i:146;a:3:{i:0;s:9:"linebreak";i:1;a:0:{}i:2;i:1930;}i:147;a:3:{i:0;s:5:"cdata";i:1;a:1:{i:0;s:7:"
quick ";}i:2;i:1932;}i:148;a:3:{i:0;s:9:"linebreak";i:1;a:0:{}i:2;i:1939;}i:149;a:3:{i:0;s:5:"cdata";i:1;a:1:{i:0;s:25:"
max_allowed_packet = 4M ";}i:2;i:1941;}i:150;a:3:{i:0;s:9:"linebreak";i:1;a:0:{}i:2;i:1966;}i:151;a:3:{i:0;s:7:"p_close";i:1;a:0:{}i:2;i:1968;}i:152;a:3:{i:0;s:12:"document_end";i:1;a:0:{}i:2;i:1968;}}