a:6:{i:0;a:3:{i:0;s:14:"document_start";i:1;a:0:{}i:2;i:0;}i:1;a:3:{i:0;s:6:"p_open";i:1;a:0:{}i:2;i:0;}i:2;a:3:{i:0;s:6:"plugin";i:1;a:4:{i:0;s:9:"code_code";i:1;a:4:{i:0;s:4:"code";i:1;N;i:2;s:0:"";i:3;s:692:"
server {
       listen         80;
       server_name    devly.co www.devly.co;
       return         301 https://$server_name$request_uri;
}


server {
        listen 443 ssl spdy;
        server_name devly.co www.devly.co;
        ssl on;
        ssl_certificate /var/www/devly.co/cert/ssl-bundle.crt;
        ssl_certificate_key /var/www/devly.co/cert/devly_co.key;
        access_log   /var/log/nginx/devly.co.access.log rt_cache;
        error_log    /var/log/nginx/devly.co.error.log;
        root /var/www/devly.co/htdocs;
        index index.php index.htm index.html;

        include common/wpfc.conf;
        include common/wpcommon.conf;
        include common/locations.conf;

}
";}i:2;i:3;i:3;s:693:">
server {
       listen         80;
       server_name    devly.co www.devly.co;
       return         301 https://$server_name$request_uri;
}


server {
        listen 443 ssl spdy;
        server_name devly.co www.devly.co;
        ssl on;
        ssl_certificate /var/www/devly.co/cert/ssl-bundle.crt;
        ssl_certificate_key /var/www/devly.co/cert/devly_co.key;
        access_log   /var/log/nginx/devly.co.access.log rt_cache;
        error_log    /var/log/nginx/devly.co.error.log;
        root /var/www/devly.co/htdocs;
        index index.php index.htm index.html;

        include common/wpfc.conf;
        include common/wpcommon.conf;
        include common/locations.conf;

}
";}i:2;i:6;}i:3;a:3:{i:0;s:5:"cdata";i:1;a:1:{i:0;s:0:"";}i:2;i:706;}i:4;a:3:{i:0;s:7:"p_close";i:1;a:0:{}i:2;i:706;}i:5;a:3:{i:0;s:12:"document_end";i:1;a:0:{}i:2;i:706;}}