a:60:{i:0;a:3:{i:0;s:14:"document_start";i:1;a:0:{}i:2;i:0;}i:1;a:3:{i:0;s:6:"p_open";i:1;a:0:{}i:2;i:0;}i:2;a:3:{i:0;s:12:"externallink";i:1;a:2:{i:0;s:45:"http://www.speedtest2.nl/download/10000mb.bin";i:1;N;}i:2;i:1;}i:3;a:3:{i:0;s:5:"cdata";i:1;a:1:{i:0;s:1:" ";}i:2;i:46;}i:4;a:3:{i:0;s:9:"linebreak";i:1;a:0:{}i:2;i:47;}i:5;a:3:{i:0;s:5:"cdata";i:1;a:1:{i:0;s:1:"
";}i:2;i:49;}i:6;a:3:{i:0;s:12:"externallink";i:1;a:2:{i:0;s:102:"http://live.debian.net/cdimage/release/stable/amd64/iso-hybrid/debian-live-7.6.0-amd64-kde-desktop.iso";i:1;N;}i:2;i:50;}i:7;a:3:{i:0;s:5:"cdata";i:1;a:1:{i:0;s:1:" ";}i:2;i:152;}i:8;a:3:{i:0;s:9:"linebreak";i:1;a:0:{}i:2;i:153;}i:9;a:3:{i:0;s:5:"cdata";i:1;a:1:{i:0;s:1:"
";}i:2;i:155;}i:10;a:3:{i:0;s:12:"externallink";i:1;a:2:{i:0;s:105:"http://cdimage.debian.org/debian-cd/current-live/amd64/iso-hybrid/debian-live-7.6.0-amd64-kde-desktop.iso";i:1;N;}i:2;i:156;}i:11;a:3:{i:0;s:5:"cdata";i:1;a:1:{i:0;s:1:" ";}i:2;i:261;}i:12;a:3:{i:0;s:9:"linebreak";i:1;a:0:{}i:2;i:262;}i:13;a:3:{i:0;s:5:"cdata";i:1;a:1:{i:0;s:1:"
";}i:2;i:264;}i:14;a:3:{i:0;s:12:"externallink";i:1;a:2:{i:0;s:102:"http://ftp.jaist.ac.jp/debian-cd/current-live/amd64/iso-hybrid/debian-live-7.6.0-amd64-kde-desktop.iso";i:1;N;}i:2;i:265;}i:15;a:3:{i:0;s:5:"cdata";i:1;a:1:{i:0;s:1:" ";}i:2;i:367;}i:16;a:3:{i:0;s:9:"linebreak";i:1;a:0:{}i:2;i:368;}i:17;a:3:{i:0;s:5:"cdata";i:1;a:1:{i:0;s:1:"
";}i:2;i:370;}i:18;a:3:{i:0;s:12:"externallink";i:1;a:2:{i:0;s:120:"http://live.debian.net/cdimage/release/stable+nonfree/amd64/iso-hybrid/debian-live-7.6.0-amd64-gnome-desktop+nonfree.iso";i:1;N;}i:2;i:371;}i:19;a:3:{i:0;s:5:"cdata";i:1;a:1:{i:0;s:1:" ";}i:2;i:491;}i:20;a:3:{i:0;s:9:"linebreak";i:1;a:0:{}i:2;i:492;}i:21;a:3:{i:0;s:5:"cdata";i:1;a:1:{i:0;s:1:"
";}i:2;i:494;}i:22;a:3:{i:0;s:12:"externallink";i:1;a:2:{i:0;s:105:"http://ftp.yzu.edu.tw/linux/debian-cd/7.6.0-live/amd64/iso-hybrid/debian-live-7.6.0-amd64-kde-desktop.iso";i:1;N;}i:2;i:495;}i:23;a:3:{i:0;s:5:"cdata";i:1;a:1:{i:0;s:1:"
";}i:2;i:600;}i:24;a:3:{i:0;s:12:"externallink";i:1;a:2:{i:0;s:31:"http://speed.transip.nl/1gb.bin";i:1;N;}i:2;i:601;}i:25;a:3:{i:0;s:5:"cdata";i:1;a:1:{i:0;s:1:" ";}i:2;i:632;}i:26;a:3:{i:0;s:9:"linebreak";i:1;a:0:{}i:2;i:633;}i:27;a:3:{i:0;s:5:"cdata";i:1;a:1:{i:0;s:1:"
";}i:2;i:635;}i:28;a:3:{i:0;s:12:"externallink";i:1;a:2:{i:0;s:39:"http://download.xs4all.nl/test/10GB.bin";i:1;N;}i:2;i:636;}i:29;a:3:{i:0;s:5:"cdata";i:1;a:1:{i:0;s:1:" ";}i:2;i:675;}i:30;a:3:{i:0;s:9:"linebreak";i:1;a:0:{}i:2;i:676;}i:31;a:3:{i:0;s:5:"cdata";i:1;a:1:{i:0;s:1:"
";}i:2;i:678;}i:32;a:3:{i:0;s:12:"externallink";i:1;a:2:{i:0;s:51:"http://mirror.nl.leaseweb.net/speedtest/10000mb.bin";i:1;N;}i:2;i:679;}i:33;a:3:{i:0;s:5:"cdata";i:1;a:1:{i:0;s:1:" ";}i:2;i:730;}i:34;a:3:{i:0;s:9:"linebreak";i:1;a:0:{}i:2;i:731;}i:35;a:3:{i:0;s:5:"cdata";i:1;a:1:{i:0;s:1:"
";}i:2;i:733;}i:36;a:3:{i:0;s:12:"externallink";i:1;a:2:{i:0;s:45:"http://www.colocenter.nl/speedtest/1000mb.bin";i:1;N;}i:2;i:734;}i:37;a:3:{i:0;s:5:"cdata";i:1;a:1:{i:0;s:1:" ";}i:2;i:779;}i:38;a:3:{i:0;s:9:"linebreak";i:1;a:0:{}i:2;i:780;}i:39;a:3:{i:0;s:5:"cdata";i:1;a:1:{i:0;s:1:"
";}i:2;i:782;}i:40;a:3:{i:0;s:12:"externallink";i:1;a:2:{i:0;s:135:"http://www.mirrorservice.org/sites/cdimage.debian.org/debian-cd/current-live/amd64/iso-hybrid/debian-live-7.6.0-amd64-gnome-desktop.iso";i:1;N;}i:2;i:783;}i:41;a:3:{i:0;s:5:"cdata";i:1;a:1:{i:0;s:1:" ";}i:2;i:918;}i:42;a:3:{i:0;s:9:"linebreak";i:1;a:0:{}i:2;i:919;}i:43;a:3:{i:0;s:5:"cdata";i:1;a:1:{i:0;s:1:"
";}i:2;i:921;}i:44;a:3:{i:0;s:12:"externallink";i:1;a:2:{i:0;s:116:"http://ftp.cc.uoc.gr/mirrors/linux/debian-cd/current-live/amd64/iso-hybrid/debian-live-7.6.0-amd64-gnome-desktop.iso";i:1;N;}i:2;i:922;}i:45;a:3:{i:0;s:5:"cdata";i:1;a:1:{i:0;s:1:" ";}i:2;i:1038;}i:46;a:3:{i:0;s:9:"linebreak";i:1;a:0:{}i:2;i:1039;}i:47;a:3:{i:0;s:5:"cdata";i:1;a:1:{i:0;s:1:"
";}i:2;i:1041;}i:48;a:3:{i:0;s:12:"externallink";i:1;a:2:{i:0;s:48:"http://speedtest.serverius.net/files/10000mb.bin";i:1;N;}i:2;i:1042;}i:49;a:3:{i:0;s:5:"cdata";i:1;a:1:{i:0;s:1:" ";}i:2;i:1090;}i:50;a:3:{i:0;s:9:"linebreak";i:1;a:0:{}i:2;i:1091;}i:51;a:3:{i:0;s:5:"cdata";i:1;a:1:{i:0;s:1:"
";}i:2;i:1093;}i:52;a:3:{i:0;s:12:"externallink";i:1;a:2:{i:0;s:36:"http://speedtest.tele2.net/100GB.zip";i:1;N;}i:2;i:1094;}i:53;a:3:{i:0;s:5:"cdata";i:1;a:1:{i:0;s:1:" ";}i:2;i:1130;}i:54;a:3:{i:0;s:9:"linebreak";i:1;a:0:{}i:2;i:1131;}i:55;a:3:{i:0;s:5:"cdata";i:1;a:1:{i:0;s:1:"
";}i:2;i:1133;}i:56;a:3:{i:0;s:12:"externallink";i:1;a:2:{i:0;s:51:"http://mirror.sg.leaseweb.net/speedtest/10000mb.bin";i:1;N;}i:2;i:1134;}i:57;a:3:{i:0;s:5:"cdata";i:1;a:1:{i:0;s:0:"";}i:2;i:1185;}i:58;a:3:{i:0;s:7:"p_close";i:1;a:0:{}i:2;i:1185;}i:59;a:3:{i:0;s:12:"document_end";i:1;a:0:{}i:2;i:1185;}}