a:25:{i:0;a:3:{i:0;s:14:"document_start";i:1;a:0:{}i:2;i:0;}i:1;a:3:{i:0;s:6:"header";i:1;a:3:{i:0;s:26:"Mail Queue Alert in Zimbra";i:1;i:1;i:2;i:1;}i:2;i:1;}i:2;a:3:{i:0;s:12:"section_open";i:1;a:1:{i:0;i:1;}i:2;i:1;}i:3;a:3:{i:0;s:6:"p_open";i:1;a:0:{}i:2;i:1;}i:4;a:3:{i:0;s:5:"cdata";i:1;a:1:{i:0;s:25:"1. Create a file queue.sh";}i:2;i:44;}i:5;a:3:{i:0;s:7:"p_close";i:1;a:0:{}i:2;i:69;}i:6;a:3:{i:0;s:6:"p_open";i:1;a:0:{}i:2;i:69;}i:7;a:3:{i:0;s:5:"cdata";i:1;a:1:{i:0;s:25:"2. Change it's permission";}i:2;i:71;}i:8;a:3:{i:0;s:7:"p_close";i:1;a:0:{}i:2;i:96;}i:9;a:3:{i:0;s:12:"preformatted";i:1;a:1:{i:0;s:18:" chmod +x queue.sh";}i:2;i:96;}i:10;a:3:{i:0;s:6:"p_open";i:1;a:0:{}i:2;i:96;}i:11;a:3:{i:0;s:5:"cdata";i:1;a:1:{i:0;s:70:"3. Copy following to the this file. (Change the entries as per server)";}i:2;i:119;}i:12;a:3:{i:0;s:7:"p_close";i:1;a:0:{}i:2;i:190;}i:13;a:3:{i:0;s:12:"preformatted";i:1;a:1:{i:0;s:355:"#!/bin/bash

hostname=<hostname of server>
to=alerts@mantraventures.com
limit=250

mail="<absolute path of postqueue(e.g. /opt/zimbra/postfix-2.10.0.2z/sbin/postqueue)> -p | tail -n 1 |    cut -d' ' -f5"

queue=$(bash -c "$mail")

if [ $queue -gt $limit ];then

echo "Queued mails on $hostname is $queue" | mail -s "Mail Queue Alert at $hostname" $to

fi
";}i:2;i:190;}i:14;a:3:{i:0;s:6:"p_open";i:1;a:0:{}i:2;i:190;}i:15;a:3:{i:0;s:5:"cdata";i:1;a:1:{i:0;s:54:"4. Add following to the cron to run the script hourly.";}i:2;i:579;}i:16;a:3:{i:0;s:7:"p_close";i:1;a:0:{}i:2;i:634;}i:17;a:3:{i:0;s:12:"preformatted";i:1;a:1:{i:0;s:35:"   0 * * * *  sh /root/queue.sh
   ";}i:2;i:634;}i:18;a:3:{i:0;s:6:"p_open";i:1;a:0:{}i:2;i:634;}i:19;a:3:{i:0;s:11:"strong_open";i:1;a:0:{}i:2;i:675;}i:20;a:3:{i:0;s:5:"cdata";i:1;a:1:{i:0;s:68:"NOTE: Make sure mailx is installed on the server, if not install it.";}i:2;i:677;}i:21;a:3:{i:0;s:12:"strong_close";i:1;a:0:{}i:2;i:745;}i:22;a:3:{i:0;s:7:"p_close";i:1;a:0:{}i:2;i:747;}i:23;a:3:{i:0;s:13:"section_close";i:1;a:0:{}i:2;i:747;}i:24;a:3:{i:0;s:12:"document_end";i:1;a:0:{}i:2;i:747;}}