a:147:{i:0;a:3:{i:0;s:14:"document_start";i:1;a:0:{}i:2;i:0;}i:1;a:3:{i:0;s:6:"p_open";i:1;a:0:{}i:2;i:0;}i:2;a:3:{i:0;s:11:"strong_open";i:1;a:0:{}i:2;i:1;}i:3;a:3:{i:0;s:5:"cdata";i:1;a:1:{i:0;s:7:"Target ";}i:2;i:3;}i:4;a:3:{i:0;s:7:"acronym";i:1;a:1:{i:0;s:2:"OS";}i:2;i:10;}i:5;a:3:{i:0;s:6:"entity";i:1;a:1:{i:0;s:2:"--";}i:2;i:12;}i:6;a:3:{i:0;s:5:"cdata";i:1;a:1:{i:0;s:21:"> CentOS/RHEL/Fedora
";}i:2;i:14;}i:7;a:3:{i:0;s:12:"strong_close";i:1;a:0:{}i:2;i:35;}i:8;a:3:{i:0;s:7:"p_close";i:1;a:0:{}i:2;i:37;}i:9;a:3:{i:0;s:6:"p_open";i:1;a:0:{}i:2;i:37;}i:10;a:3:{i:0;s:5:"cdata";i:1;a:1:{i:0;s:439:"Ansible is an open-source software platform for configuring and managing computers. It combines multi-node software deployment, ad hoc task execution, and configuration management. It manages nodes over SSH and does not require any additional remote software to be installed on them. Modules work over JSON and standard output and can be written in any programming language. The system uses YAML to express reusable descriptions of systems";}i:2;i:39;}i:11;a:3:{i:0;s:7:"p_close";i:1;a:0:{}i:2;i:478;}i:12;a:3:{i:0;s:6:"p_open";i:1;a:0:{}i:2;i:478;}i:13;a:3:{i:0;s:5:"cdata";i:1;a:1:{i:0;s:99:"For Installing Ansible we'll setup 11.11.11.11 as server and 22.22.22.22 and 33.33.33.33 as clients";}i:2;i:480;}i:14;a:3:{i:0;s:7:"p_close";i:1;a:0:{}i:2;i:579;}i:15;a:3:{i:0;s:6:"p_open";i:1;a:0:{}i:2;i:579;}i:16;a:3:{i:0;s:5:"cdata";i:1;a:1:{i:0;s:55:"Install Ansible by running the following on 11.11.11.11";}i:2;i:581;}i:17;a:3:{i:0;s:7:"p_close";i:1;a:0:{}i:2;i:636;}i:18;a:3:{i:0;s:6:"p_open";i:1;a:0:{}i:2;i:636;}i:19;a:3:{i:0;s:14:"monospace_open";i:1;a:0:{}i:2;i:638;}i:20;a:3:{i:0;s:5:"cdata";i:1;a:1:{i:0;s:10:" rpm -Uvh ";}i:2;i:640;}i:21;a:3:{i:0;s:12:"externallink";i:1;a:2:{i:0;s:77:"http://download.fedoraproject.org/pub/epel/6/i386/epel-release-6-8.noarch.rpm";i:1;N;}i:2;i:650;}i:22;a:3:{i:0;s:15:"monospace_close";i:1;a:0:{}i:2;i:727;}i:23;a:3:{i:0;s:7:"p_close";i:1;a:0:{}i:2;i:729;}i:24;a:3:{i:0;s:6:"p_open";i:1;a:0:{}i:2;i:729;}i:25;a:3:{i:0;s:14:"monospace_open";i:1;a:0:{}i:2;i:731;}i:26;a:3:{i:0;s:5:"cdata";i:1;a:1:{i:0;s:22:"yum install -y ansible";}i:2;i:733;}i:27;a:3:{i:0;s:15:"monospace_close";i:1;a:0:{}i:2;i:755;}i:28;a:3:{i:0;s:7:"p_close";i:1;a:0:{}i:2;i:757;}i:29;a:3:{i:0;s:6:"p_open";i:1;a:0:{}i:2;i:757;}i:30;a:3:{i:0;s:5:"cdata";i:1;a:1:{i:0;s:121:"Since Ansible utilizes SSH for connectivity there is no client package needed, simply install OpenSSH on client machines.";}i:2;i:759;}i:31;a:3:{i:0;s:7:"p_close";i:1;a:0:{}i:2;i:880;}i:32;a:3:{i:0;s:6:"p_open";i:1;a:0:{}i:2;i:880;}i:33;a:3:{i:0;s:5:"cdata";i:1;a:1:{i:0;s:88:"Setting up SSH keys for password less login :
Generate the ssh key on the Ansible server";}i:2;i:882;}i:34;a:3:{i:0;s:7:"p_close";i:1;a:0:{}i:2;i:970;}i:35;a:3:{i:0;s:6:"p_open";i:1;a:0:{}i:2;i:970;}i:36;a:3:{i:0;s:14:"monospace_open";i:1;a:0:{}i:2;i:972;}i:37;a:3:{i:0;s:5:"cdata";i:1;a:1:{i:0;s:37:"ssh-keygen -t rsa -C root@11.11.11.11";}i:2;i:974;}i:38;a:3:{i:0;s:15:"monospace_close";i:1;a:0:{}i:2;i:1011;}i:39;a:3:{i:0;s:7:"p_close";i:1;a:0:{}i:2;i:1013;}i:40;a:3:{i:0;s:6:"p_open";i:1;a:0:{}i:2;i:1013;}i:41;a:3:{i:0;s:5:"cdata";i:1;a:1:{i:0;s:368:"You will be asked to specify the file location of the created key pair, a passphrase, and the passphrase confirmation. Press ENTER through all of these to accept the default values. Your new keys are available in your root's ~/.ssh directory. The public key (the one you can share) is called id_rsa.pub. The private key (the one that you keep secure) is called id_rsa.";}i:2;i:1015;}i:42;a:3:{i:0;s:7:"p_close";i:1;a:0:{}i:2;i:1383;}i:43;a:3:{i:0;s:6:"p_open";i:1;a:0:{}i:2;i:1383;}i:44;a:3:{i:0;s:5:"cdata";i:1;a:1:{i:0;s:77:"Now copy the public key generated in the previous step on the client machines";}i:2;i:1385;}i:45;a:3:{i:0;s:7:"p_close";i:1;a:0:{}i:2;i:1462;}i:46;a:3:{i:0;s:6:"p_open";i:1;a:0:{}i:2;i:1462;}i:47;a:3:{i:0;s:14:"monospace_open";i:1;a:0:{}i:2;i:1464;}i:48;a:3:{i:0;s:5:"cdata";i:1;a:1:{i:0;s:28:"ssh-copy-id root@22.22.22.22";}i:2;i:1466;}i:49;a:3:{i:0;s:15:"monospace_close";i:1;a:0:{}i:2;i:1494;}i:50;a:3:{i:0;s:7:"p_close";i:1;a:0:{}i:2;i:1496;}i:51;a:3:{i:0;s:6:"p_open";i:1;a:0:{}i:2;i:1496;}i:52;a:3:{i:0;s:14:"monospace_open";i:1;a:0:{}i:2;i:1498;}i:53;a:3:{i:0;s:5:"cdata";i:1;a:1:{i:0;s:28:"ssh-copy-id root@33.33.33.33";}i:2;i:1500;}i:54;a:3:{i:0;s:15:"monospace_close";i:1;a:0:{}i:2;i:1528;}i:55;a:3:{i:0;s:7:"p_close";i:1;a:0:{}i:2;i:1530;}i:56;a:3:{i:0;s:6:"p_open";i:1;a:0:{}i:2;i:1530;}i:57;a:3:{i:0;s:5:"cdata";i:1;a:1:{i:0;s:152:"To verify that we've correctly copied keys on the client server, just ssh as root to the client server, you should be able to login without any password";}i:2;i:1532;}i:58;a:3:{i:0;s:7:"p_close";i:1;a:0:{}i:2;i:1684;}i:59;a:3:{i:0;s:6:"p_open";i:1;a:0:{}i:2;i:1684;}i:60;a:3:{i:0;s:5:"cdata";i:1;a:1:{i:0;s:182:"Adding host/clients:
Open /etc/ansible/hosts and comment ever line with #, Ansible supports adding hosts both as ungrouped and grouped. Here we add two hosts under the group [hosts],";}i:2;i:1686;}i:61;a:3:{i:0;s:7:"p_close";i:1;a:0:{}i:2;i:1868;}i:62;a:3:{i:0;s:6:"p_open";i:1;a:0:{}i:2;i:1868;}i:63;a:3:{i:0;s:14:"monospace_open";i:1;a:0:{}i:2;i:1870;}i:64;a:3:{i:0;s:5:"cdata";i:1;a:1:{i:0;s:7:"[hosts]";}i:2;i:1872;}i:65;a:3:{i:0;s:15:"monospace_close";i:1;a:0:{}i:2;i:1879;}i:66;a:3:{i:0;s:5:"cdata";i:1;a:1:{i:0;s:12:"  #groupname";}i:2;i:1881;}i:67;a:3:{i:0;s:7:"p_close";i:1;a:0:{}i:2;i:1893;}i:68;a:3:{i:0;s:6:"p_open";i:1;a:0:{}i:2;i:1893;}i:69;a:3:{i:0;s:14:"monospace_open";i:1;a:0:{}i:2;i:1895;}i:70;a:3:{i:0;s:5:"cdata";i:1;a:1:{i:0;s:35:" host1 ansible_ssh_host=22.22.22.22";}i:2;i:1897;}i:71;a:3:{i:0;s:15:"monospace_close";i:1;a:0:{}i:2;i:1932;}i:72;a:3:{i:0;s:7:"p_close";i:1;a:0:{}i:2;i:1934;}i:73;a:3:{i:0;s:6:"p_open";i:1;a:0:{}i:2;i:1934;}i:74;a:3:{i:0;s:14:"monospace_open";i:1;a:0:{}i:2;i:1938;}i:75;a:3:{i:0;s:5:"cdata";i:1;a:1:{i:0;s:35:" host2 ansible_ssh_host=33.33.33.33";}i:2;i:1940;}i:76;a:3:{i:0;s:15:"monospace_close";i:1;a:0:{}i:2;i:1975;}i:77;a:3:{i:0;s:5:"cdata";i:1;a:1:{i:0;s:26:" #host1, host1 are aliases";}i:2;i:1977;}i:78;a:3:{i:0;s:7:"p_close";i:1;a:0:{}i:2;i:2003;}i:79;a:3:{i:0;s:6:"p_open";i:1;a:0:{}i:2;i:2003;}i:80;a:3:{i:0;s:5:"cdata";i:1;a:1:{i:0;s:220:"The group_name is an organizational tag that lets you refer to any servers listed under it with one word. The alias is just a name to refer to that server. Now that we have our hosts/clients set up we'll try to ping them";}i:2;i:2005;}i:81;a:3:{i:0;s:7:"p_close";i:1;a:0:{}i:2;i:2225;}i:82;a:3:{i:0;s:6:"p_open";i:1;a:0:{}i:2;i:2225;}i:83;a:3:{i:0;s:5:"cdata";i:1;a:1:{i:0;s:41:"Ping all of the hosts you configured by: ";}i:2;i:2227;}i:84;a:3:{i:0;s:7:"p_close";i:1;a:0:{}i:2;i:2268;}i:85;a:3:{i:0;s:6:"p_open";i:1;a:0:{}i:2;i:2268;}i:86;a:3:{i:0;s:14:"monospace_open";i:1;a:0:{}i:2;i:2270;}i:87;a:3:{i:0;s:5:"cdata";i:1;a:1:{i:0;s:19:"ansible -m ping all";}i:2;i:2272;}i:88;a:3:{i:0;s:15:"monospace_close";i:1;a:0:{}i:2;i:2291;}i:89;a:3:{i:0;s:7:"p_close";i:1;a:0:{}i:2;i:2293;}i:90;a:3:{i:0;s:6:"p_open";i:1;a:0:{}i:2;i:2293;}i:91;a:3:{i:0;s:5:"cdata";i:1;a:1:{i:0;s:5:"Here ";}i:2;i:2295;}i:92;a:3:{i:0;s:18:"doublequoteopening";i:1;a:0:{}i:2;i:2300;}i:93;a:3:{i:0;s:5:"cdata";i:1;a:1:{i:0;s:3:"all";}i:2;i:2301;}i:94;a:3:{i:0;s:18:"doublequoteclosing";i:1;a:0:{}i:2;i:2304;}i:95;a:3:{i:0;s:5:"cdata";i:1;a:1:{i:0;s:48:" means all hosts. We could also specify a group:";}i:2;i:2305;}i:96;a:3:{i:0;s:7:"p_close";i:1;a:0:{}i:2;i:2353;}i:97;a:3:{i:0;s:6:"p_open";i:1;a:0:{}i:2;i:2353;}i:98;a:3:{i:0;s:14:"monospace_open";i:1;a:0:{}i:2;i:2355;}i:99;a:3:{i:0;s:5:"cdata";i:1;a:1:{i:0;s:21:"ansible -m ping hosts";}i:2;i:2357;}i:100;a:3:{i:0;s:15:"monospace_close";i:1;a:0:{}i:2;i:2378;}i:101;a:3:{i:0;s:7:"p_close";i:1;a:0:{}i:2;i:2380;}i:102;a:3:{i:0;s:6:"p_open";i:1;a:0:{}i:2;i:2380;}i:103;a:3:{i:0;s:5:"cdata";i:1;a:1:{i:0;s:23:"For an individual host:";}i:2;i:2382;}i:104;a:3:{i:0;s:7:"p_close";i:1;a:0:{}i:2;i:2405;}i:105;a:3:{i:0;s:6:"p_open";i:1;a:0:{}i:2;i:2405;}i:106;a:3:{i:0;s:14:"monospace_open";i:1;a:0:{}i:2;i:2407;}i:107;a:3:{i:0;s:5:"cdata";i:1;a:1:{i:0;s:21:"ansible -m ping host1";}i:2;i:2409;}i:108;a:3:{i:0;s:15:"monospace_close";i:1;a:0:{}i:2;i:2430;}i:109;a:3:{i:0;s:7:"p_close";i:1;a:0:{}i:2;i:2432;}i:110;a:3:{i:0;s:6:"p_open";i:1;a:0:{}i:2;i:2432;}i:111;a:3:{i:0;s:5:"cdata";i:1;a:1:{i:0;s:87:"Ansible has a number of built-in modules suitable for different functions, here we use ";}i:2;i:2434;}i:112;a:3:{i:0;s:18:"doublequoteopening";i:1;a:0:{}i:2;i:2521;}i:113;a:3:{i:0;s:5:"cdata";i:1;a:1:{i:0;s:5:"shell";}i:2;i:2522;}i:114;a:3:{i:0;s:18:"doublequoteclosing";i:1;a:0:{}i:2;i:2527;}i:115;a:3:{i:0;s:5:"cdata";i:1;a:1:{i:0;s:89:" module that lets us send a terminal command to the remote host and retrieve the results.";}i:2;i:2528;}i:116;a:3:{i:0;s:7:"p_close";i:1;a:0:{}i:2;i:2617;}i:117;a:3:{i:0;s:6:"p_open";i:1;a:0:{}i:2;i:2617;}i:118;a:3:{i:0;s:14:"monospace_open";i:1;a:0:{}i:2;i:2619;}i:119;a:3:{i:0;s:5:"cdata";i:1;a:1:{i:0;s:37:" ansible -m shell -a 'fdisk -l' hosts";}i:2;i:2621;}i:120;a:3:{i:0;s:15:"monospace_close";i:1;a:0:{}i:2;i:2658;}i:121;a:3:{i:0;s:7:"p_close";i:1;a:0:{}i:2;i:2660;}i:122;a:3:{i:0;s:6:"p_open";i:1;a:0:{}i:2;i:2660;}i:123;a:3:{i:0;s:5:"cdata";i:1;a:1:{i:0;s:63:"To check, restart, stop a service on remote host we'll use the ";}i:2;i:2662;}i:124;a:3:{i:0;s:18:"doublequoteopening";i:1;a:0:{}i:2;i:2725;}i:125;a:3:{i:0;s:5:"cdata";i:1;a:1:{i:0;s:7:"service";}i:2;i:2726;}i:126;a:3:{i:0;s:18:"doublequoteclosing";i:1;a:0:{}i:2;i:2733;}i:127;a:3:{i:0;s:5:"cdata";i:1;a:1:{i:0;s:66:" module
In the example below we'll restart nginx on client server1";}i:2;i:2734;}i:128;a:3:{i:0;s:7:"p_close";i:1;a:0:{}i:2;i:2800;}i:129;a:3:{i:0;s:6:"p_open";i:1;a:0:{}i:2;i:2800;}i:130;a:3:{i:0;s:14:"monospace_open";i:1;a:0:{}i:2;i:2802;}i:131;a:3:{i:0;s:5:"cdata";i:1;a:1:{i:0;s:58:" ansible server1 -m service -a 'name=nginx state=restarted";}i:2;i:2804;}i:132;a:3:{i:0;s:15:"monospace_close";i:1;a:0:{}i:2;i:2862;}i:133;a:3:{i:0;s:5:"cdata";i:1;a:1:{i:0;s:1:"'";}i:2;i:2864;}i:134;a:3:{i:0;s:7:"p_close";i:1;a:0:{}i:2;i:2865;}i:135;a:3:{i:0;s:6:"p_open";i:1;a:0:{}i:2;i:2865;}i:136;a:3:{i:0;s:5:"cdata";i:1;a:1:{i:0;s:26:"To run a script on a host.";}i:2;i:2867;}i:137;a:3:{i:0;s:7:"p_close";i:1;a:0:{}i:2;i:2893;}i:138;a:3:{i:0;s:6:"p_open";i:1;a:0:{}i:2;i:2893;}i:139;a:3:{i:0;s:14:"monospace_open";i:1;a:0:{}i:2;i:2895;}i:140;a:3:{i:0;s:5:"cdata";i:1;a:1:{i:0;s:30:"ansible server1 -m newrelic.sh";}i:2;i:2897;}i:141;a:3:{i:0;s:15:"monospace_close";i:1;a:0:{}i:2;i:2927;}i:142;a:3:{i:0;s:7:"p_close";i:1;a:0:{}i:2;i:2929;}i:143;a:3:{i:0;s:6:"p_open";i:1;a:0:{}i:2;i:2929;}i:144;a:3:{i:0;s:5:"cdata";i:1;a:1:{i:0;s:116:"Scripts should be placed in /usr/share/ansible/utilities/ or their absolute path should be specified as an argument.";}i:2;i:2931;}i:145;a:3:{i:0;s:7:"p_close";i:1;a:0:{}i:2;i:2931;}i:146;a:3:{i:0;s:12:"document_end";i:1;a:0:{}i:2;i:2931;}}