a:9:{i:0;a:3:{i:0;s:14:"document_start";i:1;a:0:{}i:2;i:0;}i:1;a:3:{i:0;s:6:"p_open";i:1;a:0:{}i:2;i:0;}i:2;a:3:{i:0;s:5:"cdata";i:1;a:1:{i:0;s:50:"Edit /etc/my.cnf file and add the following lines:";}i:2;i:1;}i:3;a:3:{i:0;s:7:"p_close";i:1;a:0:{}i:2;i:51;}i:4;a:3:{i:0;s:4:"code";i:1;a:3:{i:0;s:85:"
long_query_time         = 1
log-slow-queries        = /var/log/mysql/mysql-slow.log
";i:1;N;i:2;N;}i:2;i:58;}i:5;a:3:{i:0;s:6:"p_open";i:1;a:0:{}i:2;i:58;}i:6;a:3:{i:0;s:5:"cdata";i:1;a:1:{i:0;s:40:"Restart mysql:
/etc/init.d/mysql restart";}i:2;i:153;}i:7;a:3:{i:0;s:7:"p_close";i:1;a:0:{}i:2;i:193;}i:8;a:3:{i:0;s:12:"document_end";i:1;a:0:{}i:2;i:193;}}