a:10:{i:0;a:3:{i:0;s:14:"document_start";i:1;a:0:{}i:2;i:0;}i:1;a:3:{i:0;s:6:"header";i:1;a:3:{i:0;s:57:"Restrict access to certain IP's in Apache using .htaccess";i:1;i:1;i:2;i:1;}i:2;i:1;}i:2;a:3:{i:0;s:12:"section_open";i:1;a:1:{i:0;i:1;}i:2;i:1;}i:3;a:3:{i:0;s:6:"p_open";i:1;a:0:{}i:2;i:1;}i:4;a:3:{i:0;s:5:"cdata";i:1;a:1:{i:0;s:110:"Create a .htaccess file in the directory for which you want to disable public access and add following lines:
";}i:2;i:75;}i:5;a:3:{i:0;s:6:"plugin";i:1;a:4:{i:0;s:9:"code_code";i:1;a:4:{i:0;s:4:"code";i:1;N;i:2;s:0:"";i:3;s:101:"
<Limit GET>
order allow,deny
allow from <IP1 to be allowed>
allow from <IP2 to be allowed>
</Limit>
";}i:2;i:3;i:3;s:102:">
<Limit GET>
order allow,deny
allow from <IP1 to be allowed>
allow from <IP2 to be allowed>
</Limit>
";}i:2;i:190;}i:6;a:3:{i:0;s:5:"cdata";i:1;a:1:{i:0;s:0:"";}i:2;i:299;}i:7;a:3:{i:0;s:7:"p_close";i:1;a:0:{}i:2;i:299;}i:8;a:3:{i:0;s:13:"section_close";i:1;a:0:{}i:2;i:299;}i:9;a:3:{i:0;s:12:"document_end";i:1;a:0:{}i:2;i:299;}}