a:16:{i:0;a:3:{i:0;s:14:"document_start";i:1;a:0:{}i:2;i:0;}i:1;a:3:{i:0;s:6:"header";i:1;a:3:{i:0;s:39:"Monitoring Bandwidth Usage Using vnstat";i:1;i:1;i:2;i:1;}i:2;i:1;}i:2;a:3:{i:0;s:12:"section_open";i:1;a:1:{i:0;i:1;}i:2;i:1;}i:3;a:3:{i:0;s:12:"preformatted";i:1;a:1:{i:0;s:144:"wget http://mirror-fpt-telecom.fpt.net/fedora/epel/6/i386/epel-release-6-8.noarch.rpm

rpm -ivh epel-release-6-8.noarch.rpm

yum install vnstat
";}i:2;i:56;}i:4;a:3:{i:0;s:6:"p_open";i:1;a:0:{}i:2;i:56;}i:5;a:3:{i:0;s:5:"cdata";i:1;a:1:{i:0;s:18:"Edit configuration";}i:2;i:214;}i:6;a:3:{i:0;s:7:"p_close";i:1;a:0:{}i:2;i:233;}i:7;a:3:{i:0;s:12:"preformatted";i:1;a:1:{i:0;s:25:"vi /etc/sysconfig/vnstat
";}i:2;i:233;}i:8;a:3:{i:0;s:6:"p_open";i:1;a:0:{}i:2;i:233;}i:9;a:3:{i:0;s:5:"cdata";i:1;a:1:{i:0;s:15:"More reference:";}i:2;i:264;}i:10;a:3:{i:0;s:7:"p_close";i:1;a:0:{}i:2;i:279;}i:11;a:3:{i:0;s:6:"p_open";i:1;a:0:{}i:2;i:279;}i:12;a:3:{i:0;s:12:"externallink";i:1;a:2:{i:0;s:89:"http://www.cyberciti.biz/faq/centos-redhat-fedora-linux-install-vnstat-bandwidth-monitor/";i:1;N;}i:2;i:281;}i:13;a:3:{i:0;s:7:"p_close";i:1;a:0:{}i:2;i:370;}i:14;a:3:{i:0;s:13:"section_close";i:1;a:0:{}i:2;i:373;}i:15;a:3:{i:0;s:12:"document_end";i:1;a:0:{}i:2;i:373;}}