a:73:{i:0;a:3:{i:0;s:14:"document_start";i:1;a:0:{}i:2;i:0;}i:1;a:3:{i:0;s:6:"header";i:1;a:3:{i:0;s:32:"Resizing a KVM disk image on LVM";i:1;i:1;i:2;i:1;}i:2;i:1;}i:2;a:3:{i:0;s:12:"section_open";i:1;a:1:{i:0;i:1;}i:2;i:1;}i:3;a:3:{i:0;s:6:"p_open";i:1;a:0:{}i:2;i:1;}i:4;a:3:{i:0;s:5:"cdata";i:1;a:1:{i:0;s:108:"1. Rename the /dev/VolGroup00/guest-vm volume and create a new one with the size we want to have it finally.";}i:2;i:49;}i:5;a:3:{i:0;s:7:"p_close";i:1;a:0:{}i:2;i:158;}i:6;a:3:{i:0;s:12:"preformatted";i:1;a:1:{i:0;s:43:"  lvrename VolGroup00 guest-vm guest-vm-OLD";}i:2;i:158;}i:7;a:3:{i:0;s:6:"p_open";i:1;a:0:{}i:2;i:158;}i:8;a:3:{i:0;s:5:"cdata";i:1;a:1:{i:0;s:62:"2. Now create the new LVM volume with the size of your choice:";}i:2;i:206;}i:9;a:3:{i:0;s:7:"p_close";i:1;a:0:{}i:2;i:268;}i:10;a:3:{i:0;s:12:"preformatted";i:1;a:1:{i:0;s:41:"
  lvcreate -L 20G -n guest-vm VolGroup00";}i:2;i:268;}i:11;a:3:{i:0;s:6:"p_open";i:1;a:0:{}i:2;i:268;}i:12;a:3:{i:0;s:5:"cdata";i:1;a:1:{i:0;s:33:"3. Now execute the command below:";}i:2;i:316;}i:13;a:3:{i:0;s:7:"p_close";i:1;a:0:{}i:2;i:349;}i:14;a:3:{i:0;s:6:"p_open";i:1;a:0:{}i:2;i:349;}i:15;a:3:{i:0;s:5:"cdata";i:1;a:1:{i:0;s:4:"    ";}i:2;i:352;}i:16;a:3:{i:0;s:6:"plugin";i:1;a:4:{i:0;s:9:"code_code";i:1;a:4:{i:0;s:4:"code";i:1;N;i:2;s:0:"";i:3;s:86:" virt-resize /dev/VolGroup00/guest-vm-OLD /dev/VolGroup00/guest-vm --expand /dev/vda1 ";}i:2;i:3;i:3;s:87:"> virt-resize /dev/VolGroup00/guest-vm-OLD /dev/VolGroup00/guest-vm --expand /dev/vda1 ";}i:2;i:361;}i:17;a:3:{i:0;s:7:"p_close";i:1;a:0:{}i:2;i:455;}i:18;a:3:{i:0;s:6:"p_open";i:1;a:0:{}i:2;i:455;}i:19;a:3:{i:0;s:5:"cdata";i:1;a:1:{i:0;s:250:"The above command will resize the VM's disk using the new /dev/VolGroup00/guest-vm LVM volume and afterwards it will resize the guest's disk image, which is /dev/vda1. Wait for the command to complete. Here's the output when we run the above command:";}i:2;i:457;}i:20;a:3:{i:0;s:7:"p_close";i:1;a:0:{}i:2;i:707;}i:21;a:3:{i:0;s:6:"p_open";i:1;a:0:{}i:2;i:707;}i:22;a:3:{i:0;s:5:"cdata";i:1;a:1:{i:0;s:24:"Output will be as follow";}i:2;i:709;}i:23;a:3:{i:0;s:7:"p_close";i:1;a:0:{}i:2;i:733;}i:24;a:3:{i:0;s:6:"p_open";i:1;a:0:{}i:2;i:733;}i:25;a:3:{i:0;s:5:"cdata";i:1;a:1:{i:0;s:39:"Examining /dev/VolGroup00/guest-vm-old ";}i:2;i:770;}i:26;a:3:{i:0;s:6:"entity";i:1;a:1:{i:0;s:3:"...";}i:2;i:809;}i:27;a:3:{i:0;s:7:"p_close";i:1;a:0:{}i:2;i:812;}i:28;a:3:{i:0;s:6:"p_open";i:1;a:0:{}i:2;i:812;}i:29;a:3:{i:0;s:5:"cdata";i:1;a:1:{i:0;s:181:" 100% ⟦▓▓▓▓▓▓▓▓▓▓▓▓▓▓▓▓▓▓▓▓▓▓▓▓▓▓▓▓▓▓▓▓▓▓▓▓▓▓▓▓▓▓▓▓▓▓▓▓▓▓▓▓▓▓▓▓⟧ ";}i:2;i:814;}i:30;a:3:{i:0;s:6:"entity";i:1;a:1:{i:0;s:2:"--";}i:2;i:995;}i:31;a:3:{i:0;s:5:"cdata";i:1;a:1:{i:0;s:1:":";}i:2;i:997;}i:32;a:3:{i:0;s:6:"entity";i:1;a:1:{i:0;s:2:"--";}i:2;i:998;}i:33;a:3:{i:0;s:7:"p_close";i:1;a:0:{}i:2;i:1000;}i:34;a:3:{i:0;s:6:"p_open";i:1;a:0:{}i:2;i:1000;}i:35;a:3:{i:0;s:11:"strong_open";i:1;a:0:{}i:2;i:1002;}i:36;a:3:{i:0;s:12:"strong_close";i:1;a:0:{}i:2;i:1004;}i:37;a:3:{i:0;s:11:"strong_open";i:1;a:0:{}i:2;i:1006;}i:38;a:3:{i:0;s:12:"strong_close";i:1;a:0:{}i:2;i:1008;}i:39;a:3:{i:0;s:11:"strong_open";i:1;a:0:{}i:2;i:1010;}i:40;a:3:{i:0;s:5:"cdata";i:1;a:1:{i:0;s:91:"
 
Summary of changes:
 
/dev/vda1: This partition will be resized from 10.0G to 20.0G.

 
";}i:2;i:1012;}i:41;a:3:{i:0;s:12:"strong_close";i:1;a:0:{}i:2;i:1103;}i:42;a:3:{i:0;s:11:"strong_open";i:1;a:0:{}i:2;i:1105;}i:43;a:3:{i:0;s:12:"strong_close";i:1;a:0:{}i:2;i:1107;}i:44;a:3:{i:0;s:11:"strong_open";i:1;a:0:{}i:2;i:1109;}i:45;a:3:{i:0;s:12:"strong_close";i:1;a:0:{}i:2;i:1111;}i:46;a:3:{i:0;s:7:"p_close";i:1;a:0:{}i:2;i:1113;}i:47;a:3:{i:0;s:6:"p_open";i:1;a:0:{}i:2;i:1113;}i:48;a:3:{i:0;s:5:"cdata";i:1;a:1:{i:0;s:63:"Setting up initial partition table on /dev/VolGroup00/guest-vm ";}i:2;i:1115;}i:49;a:3:{i:0;s:6:"entity";i:1;a:1:{i:0;s:3:"...";}i:2;i:1178;}i:50;a:3:{i:0;s:7:"p_close";i:1;a:0:{}i:2;i:1181;}i:51;a:3:{i:0;s:6:"p_open";i:1;a:0:{}i:2;i:1181;}i:52;a:3:{i:0;s:5:"cdata";i:1;a:1:{i:0;s:18:"Copying /dev/vda1 ";}i:2;i:1183;}i:53;a:3:{i:0;s:6:"entity";i:1;a:1:{i:0;s:3:"...";}i:2;i:1201;}i:54;a:3:{i:0;s:7:"p_close";i:1;a:0:{}i:2;i:1204;}i:55;a:3:{i:0;s:6:"p_open";i:1;a:0:{}i:2;i:1204;}i:56;a:3:{i:0;s:5:"cdata";i:1;a:1:{i:0;s:186:" 100% ⟦▓▓▓▓▓▓▓▓▓▓▓▓▓▓▓▓▓▓▓▓▓▓▓▓▓▓▓▓▓▓▓▓▓▓▓▓▓▓▓▓▓▓▓▓▓▓▓▓▓▓▓▓▓▓▓▓⟧ 00:00";}i:2;i:1206;}i:57;a:3:{i:0;s:7:"p_close";i:1;a:0:{}i:2;i:1392;}i:58;a:3:{i:0;s:6:"p_open";i:1;a:0:{}i:2;i:1392;}i:59;a:3:{i:0;s:5:"cdata";i:1;a:1:{i:0;s:181:" 100% ⟦▓▓▓▓▓▓▓▓▓▓▓▓▓▓▓▓▓▓▓▓▓▓▓▓▓▓▓▓▓▓▓▓▓▓▓▓▓▓▓▓▓▓▓▓▓▓▓▓▓▓▓▓▓▓▓▓⟧ ";}i:2;i:1394;}i:60;a:3:{i:0;s:6:"entity";i:1;a:1:{i:0;s:2:"--";}i:2;i:1575;}i:61;a:3:{i:0;s:5:"cdata";i:1;a:1:{i:0;s:1:":";}i:2;i:1577;}i:62;a:3:{i:0;s:6:"entity";i:1;a:1:{i:0;s:2:"--";}i:2;i:1578;}i:63;a:3:{i:0;s:7:"p_close";i:1;a:0:{}i:2;i:1580;}i:64;a:3:{i:0;s:6:"p_open";i:1;a:0:{}i:2;i:1580;}i:65;a:3:{i:0;s:5:"cdata";i:1;a:1:{i:0;s:48:"Expanding /dev/vda1 using the 'pvresize' method ";}i:2;i:1582;}i:66;a:3:{i:0;s:6:"entity";i:1;a:1:{i:0;s:3:"...";}i:2;i:1630;}i:67;a:3:{i:0;s:7:"p_close";i:1;a:0:{}i:2;i:1633;}i:68;a:3:{i:0;s:6:"p_open";i:1;a:0:{}i:2;i:1633;}i:69;a:3:{i:0;s:5:"cdata";i:1;a:1:{i:0;s:179:"Resize operation completed with no errors.  Before deleting the old 
disk, carefully check that the resized disk boots and works correctly.
Then remove the old disk after testing.";}i:2;i:1635;}i:70;a:3:{i:0;s:7:"p_close";i:1;a:0:{}i:2;i:1814;}i:71;a:3:{i:0;s:13:"section_close";i:1;a:0:{}i:2;i:1815;}i:72;a:3:{i:0;s:12:"document_end";i:1;a:0:{}i:2;i:1815;}}