a:27:{i:0;a:3:{i:0;s:14:"document_start";i:1;a:0:{}i:2;i:0;}i:1;a:3:{i:0;s:6:"header";i:1;a:3:{i:0;s:45:"Copy Incoming or Outgoing mails to another ID";i:1;i:1;i:2;i:1;}i:2;i:1;}i:2;a:3:{i:0;s:12:"section_open";i:1;a:1:{i:0;i:1;}i:2;i:1;}i:3;a:3:{i:0;s:6:"p_open";i:1;a:0:{}i:2;i:1;}i:4;a:3:{i:0;s:5:"cdata";i:1;a:1:{i:0;s:72:"For cPanel 11, you need to edit the file /etc/cpanel_exim_system_filter.";}i:2;i:63;}i:5;a:3:{i:0;s:7:"p_close";i:1;a:0:{}i:2;i:135;}i:6;a:3:{i:0;s:6:"p_open";i:1;a:0:{}i:2;i:135;}i:7;a:3:{i:0;s:5:"cdata";i:1;a:1:{i:0;s:53:" For older versions, the file is /etc/antivirus.exim.";}i:2;i:137;}i:8;a:3:{i:0;s:7:"p_close";i:1;a:0:{}i:2;i:190;}i:9;a:3:{i:0;s:6:"p_open";i:1;a:0:{}i:2;i:190;}i:10;a:3:{i:0;s:5:"cdata";i:1;a:1:{i:0;s:52:"Add the following to send a BCC to another email-ID:";}i:2;i:192;}i:11;a:3:{i:0;s:7:"p_close";i:1;a:0:{}i:2;i:244;}i:12;a:3:{i:0;s:13:"section_close";i:1;a:0:{}i:2;i:246;}i:13;a:3:{i:0;s:6:"header";i:1;a:3:{i:0;s:19:"For Incoming mails:";i:1;i:3;i:2;i:246;}i:2;i:246;}i:14;a:3:{i:0;s:12:"section_open";i:1;a:1:{i:0;i:3;}i:2;i:246;}i:15;a:3:{i:0;s:6:"p_open";i:1;a:0:{}i:2;i:246;}i:16;a:3:{i:0;s:6:"plugin";i:1;a:4:{i:0;s:9:"code_code";i:1;a:4:{i:0;s:4:"code";i:1;N;i:2;s:0:"";i:3;s:196:"
if first_delivery
and ( ("$h_from:" contains "test1@test.com")
or ("$h_from:" contains "test2@test.com")
or ("$h_from:" contains "test3@test.com")
)
then
unseen deliver "tracker@test.com"
endif  ";}i:2;i:3;i:3;s:197:">
if first_delivery
and ( ("$h_from:" contains "test1@test.com")
or ("$h_from:" contains "test2@test.com")
or ("$h_from:" contains "test3@test.com")
)
then
unseen deliver "tracker@test.com"
endif  ";}i:2;i:282;}i:17;a:3:{i:0;s:7:"p_close";i:1;a:0:{}i:2;i:486;}i:18;a:3:{i:0;s:13:"section_close";i:1;a:0:{}i:2;i:488;}i:19;a:3:{i:0;s:6:"header";i:1;a:3:{i:0;s:19:"For Outgoing mails:";i:1;i:3;i:2;i:488;}i:2;i:488;}i:20;a:3:{i:0;s:12:"section_open";i:1;a:1:{i:0;i:3;}i:2;i:488;}i:21;a:3:{i:0;s:6:"p_open";i:1;a:0:{}i:2;i:488;}i:22;a:3:{i:0;s:6:"plugin";i:1;a:4:{i:0;s:9:"code_code";i:1;a:4:{i:0;s:4:"code";i:1;N;i:2;s:0:"";i:3;s:189:"
if first_delivery
and ( ("$h_to:" contains "test1@test.com")
or ("$h_to:" contains "test2@test.com")
or ("$h_to:" contains "test3@test.com")
)
then
unseen deliver "tracker@test.com"
endif ";}i:2;i:3;i:3;s:190:">
if first_delivery
and ( ("$h_to:" contains "test1@test.com")
or ("$h_to:" contains "test2@test.com")
or ("$h_to:" contains "test3@test.com")
)
then
unseen deliver "tracker@test.com"
endif ";}i:2;i:524;}i:23;a:3:{i:0;s:5:"cdata";i:1;a:1:{i:0;s:0:"";}i:2;i:721;}i:24;a:3:{i:0;s:7:"p_close";i:1;a:0:{}i:2;i:721;}i:25;a:3:{i:0;s:13:"section_close";i:1;a:0:{}i:2;i:721;}i:26;a:3:{i:0;s:12:"document_end";i:1;a:0:{}i:2;i:721;}}