a:6:{i:0;a:3:{i:0;s:14:"document_start";i:1;a:0:{}i:2;i:0;}i:1;a:3:{i:0;s:6:"p_open";i:1;a:0:{}i:2;i:0;}i:2;a:3:{i:0;s:6:"plugin";i:1;a:4:{i:0;s:9:"code_code";i:1;a:4:{i:0;s:4:"code";i:1;N;i:2;s:0:"";i:3;s:332:"

For CentOS Use this.

tail -n 100000 /var/log/maillog | grep "sasl_username=" > /tmp/smtpauthlogins.txt


For Ubuntu OS use below command.


tail -n 100000 /var/log/mail.log | grep "sasl_username=" > /tmp/smtpauthlogins.txt

then
cat /tmp/smtpauthlogins.txt  | grep -i sasl_username | awk {'print $9'} | sort | uniq -c | sort -n

";}i:2;i:3;i:3;s:333:">

For CentOS Use this.

tail -n 100000 /var/log/maillog | grep "sasl_username=" > /tmp/smtpauthlogins.txt


For Ubuntu OS use below command.


tail -n 100000 /var/log/mail.log | grep "sasl_username=" > /tmp/smtpauthlogins.txt

then
cat /tmp/smtpauthlogins.txt  | grep -i sasl_username | awk {'print $9'} | sort | uniq -c | sort -n

";}i:2;i:6;}i:3;a:3:{i:0;s:5:"cdata";i:1;a:1:{i:0;s:0:"";}i:2;i:346;}i:4;a:3:{i:0;s:7:"p_close";i:1;a:0:{}i:2;i:346;}i:5;a:3:{i:0;s:12:"document_end";i:1;a:0:{}i:2;i:346;}}