a:190:{i:0;a:3:{i:0;s:14:"document_start";i:1;a:0:{}i:2;i:0;}i:1;a:3:{i:0;s:6:"header";i:1;a:3:{i:0;s:28:"Install cPanel on new server";i:1;i:1;i:2;i:1;}i:2;i:1;}i:2;a:3:{i:0;s:12:"section_open";i:1;a:1:{i:0;i:1;}i:2;i:1;}i:3;a:3:{i:0;s:6:"p_open";i:1;a:0:{}i:2;i:1;}i:4;a:3:{i:0;s:5:"cdata";i:1;a:1:{i:0;s:74:"Since the server is fresh, we need to install everything from the scratch.";}i:2;i:47;}i:5;a:3:{i:0;s:7:"p_close";i:1;a:0:{}i:2;i:121;}i:6;a:3:{i:0;s:6:"p_open";i:1;a:0:{}i:2;i:121;}i:7;a:3:{i:0;s:5:"cdata";i:1;a:1:{i:0;s:47:"Run the command below to install screen utility";}i:2;i:123;}i:8;a:3:{i:0;s:7:"p_close";i:1;a:0:{}i:2;i:170;}i:9;a:3:{i:0;s:6:"p_open";i:1;a:0:{}i:2;i:170;}i:10;a:3:{i:0;s:5:"cdata";i:1;a:1:{i:0;s:23:"yum install screen perl";}i:2;i:172;}i:11;a:3:{i:0;s:7:"p_close";i:1;a:0:{}i:2;i:195;}i:12;a:3:{i:0;s:6:"p_open";i:1;a:0:{}i:2;i:195;}i:13;a:3:{i:0;s:5:"cdata";i:1;a:1:{i:0;s:60:"Login as root in the server and type the following commands:";}i:2;i:200;}i:14;a:3:{i:0;s:7:"p_close";i:1;a:0:{}i:2;i:260;}i:15;a:3:{i:0;s:6:"p_open";i:1;a:0:{}i:2;i:260;}i:16;a:3:{i:0;s:5:"cdata";i:1;a:1:{i:0;s:7:"screen ";}i:2;i:262;}i:17;a:3:{i:0;s:9:"linebreak";i:1;a:0:{}i:2;i:269;}i:18;a:3:{i:0;s:5:"cdata";i:1;a:1:{i:0;s:10:"
cd /home ";}i:2;i:271;}i:19;a:3:{i:0;s:9:"linebreak";i:1;a:0:{}i:2;i:281;}i:20;a:3:{i:0;s:5:"cdata";i:1;a:1:{i:0;s:9:"
wget -N ";}i:2;i:283;}i:21;a:3:{i:0;s:12:"externallink";i:1;a:2:{i:0;s:31:"http://layer1.cpanel.net/latest";i:1;N;}i:2;i:292;}i:22;a:3:{i:0;s:5:"cdata";i:1;a:1:{i:0;s:1:" ";}i:2;i:323;}i:23;a:3:{i:0;s:9:"linebreak";i:1;a:0:{}i:2;i:324;}i:24;a:3:{i:0;s:5:"cdata";i:1;a:1:{i:0;s:11:"
sh latest ";}i:2;i:326;}i:25;a:3:{i:0;s:9:"linebreak";i:1;a:0:{}i:2;i:337;}i:26;a:3:{i:0;s:5:"cdata";i:1;a:1:{i:0;s:1:"
";}i:2;i:339;}i:27;a:3:{i:0;s:9:"linebreak";i:1;a:0:{}i:2;i:340;}i:28;a:3:{i:0;s:5:"cdata";i:1;a:1:{i:0;s:92:"
After cPanel installation is complete, type the following commands for adding some Plugins:";}i:2;i:343;}i:29;a:3:{i:0;s:7:"p_close";i:1;a:0:{}i:2;i:435;}i:30;a:3:{i:0;s:6:"p_open";i:1;a:0:{}i:2;i:435;}i:31;a:3:{i:0;s:5:"cdata";i:1;a:1:{i:0;s:3:"1. ";}i:2;i:437;}i:32;a:3:{i:0;s:11:"strong_open";i:1;a:0:{}i:2;i:440;}i:33;a:3:{i:0;s:5:"cdata";i:1;a:1:{i:0;s:23:"For Mail Queue Manager:";}i:2;i:442;}i:34;a:3:{i:0;s:12:"strong_close";i:1;a:0:{}i:2;i:465;}i:35;a:3:{i:0;s:7:"p_close";i:1;a:0:{}i:2;i:467;}i:36;a:3:{i:0;s:6:"p_open";i:1;a:0:{}i:2;i:467;}i:37;a:3:{i:0;s:5:"cdata";i:1;a:1:{i:0;s:15:"rm -fv cmq.tgz ";}i:2;i:469;}i:38;a:3:{i:0;s:9:"linebreak";i:1;a:0:{}i:2;i:484;}i:39;a:3:{i:0;s:5:"cdata";i:1;a:1:{i:0;s:6:"
wget ";}i:2;i:486;}i:40;a:3:{i:0;s:12:"externallink";i:1;a:2:{i:0;s:40:"http://www.configserver.com/free/cmq.tgz";i:1;N;}i:2;i:492;}i:41;a:3:{i:0;s:5:"cdata";i:1;a:1:{i:0;s:1:" ";}i:2;i:532;}i:42;a:3:{i:0;s:9:"linebreak";i:1;a:0:{}i:2;i:533;}i:43;a:3:{i:0;s:5:"cdata";i:1;a:1:{i:0;s:18:"
tar -xzf cmq.tgz ";}i:2;i:535;}i:44;a:3:{i:0;s:9:"linebreak";i:1;a:0:{}i:2;i:553;}i:45;a:3:{i:0;s:5:"cdata";i:1;a:1:{i:0;s:8:"
cd cmq ";}i:2;i:555;}i:46;a:3:{i:0;s:9:"linebreak";i:1;a:0:{}i:2;i:563;}i:47;a:3:{i:0;s:5:"cdata";i:1;a:1:{i:0;s:15:"
sh install.sh ";}i:2;i:565;}i:48;a:3:{i:0;s:9:"linebreak";i:1;a:0:{}i:2;i:580;}i:49;a:3:{i:0;s:5:"cdata";i:1;a:1:{i:0;s:7:"
cd .. ";}i:2;i:582;}i:50;a:3:{i:0;s:9:"linebreak";i:1;a:0:{}i:2;i:589;}i:51;a:3:{i:0;s:5:"cdata";i:1;a:1:{i:0;s:21:"
rm -Rfv cmq/ cmq.tgz";}i:2;i:591;}i:52;a:3:{i:0;s:7:"p_close";i:1;a:0:{}i:2;i:612;}i:53;a:3:{i:0;s:6:"p_open";i:1;a:0:{}i:2;i:612;}i:54;a:3:{i:0;s:5:"cdata";i:1;a:1:{i:0;s:2:"2.";}i:2;i:614;}i:55;a:3:{i:0;s:11:"strong_open";i:1;a:0:{}i:2;i:616;}i:56;a:3:{i:0;s:5:"cdata";i:1;a:1:{i:0;s:25:"For Mail Account Manager:";}i:2;i:618;}i:57;a:3:{i:0;s:12:"strong_close";i:1;a:0:{}i:2;i:643;}i:58;a:3:{i:0;s:7:"p_close";i:1;a:0:{}i:2;i:645;}i:59;a:3:{i:0;s:6:"p_open";i:1;a:0:{}i:2;i:645;}i:60;a:3:{i:0;s:5:"cdata";i:1;a:1:{i:0;s:14:"rm -fv cmm.tgz";}i:2;i:647;}i:61;a:3:{i:0;s:9:"linebreak";i:1;a:0:{}i:2;i:661;}i:62;a:3:{i:0;s:5:"cdata";i:1;a:1:{i:0;s:6:"
wget ";}i:2;i:663;}i:63;a:3:{i:0;s:12:"externallink";i:1;a:2:{i:0;s:40:"http://www.configserver.com/free/cmm.tgz";i:1;N;}i:2;i:669;}i:64;a:3:{i:0;s:5:"cdata";i:1;a:1:{i:0;s:1:" ";}i:2;i:709;}i:65;a:3:{i:0;s:9:"linebreak";i:1;a:0:{}i:2;i:710;}i:66;a:3:{i:0;s:5:"cdata";i:1;a:1:{i:0;s:18:"
tar -xzf cmm.tgz ";}i:2;i:712;}i:67;a:3:{i:0;s:9:"linebreak";i:1;a:0:{}i:2;i:730;}i:68;a:3:{i:0;s:5:"cdata";i:1;a:1:{i:0;s:8:"
cd cmm ";}i:2;i:732;}i:69;a:3:{i:0;s:9:"linebreak";i:1;a:0:{}i:2;i:740;}i:70;a:3:{i:0;s:5:"cdata";i:1;a:1:{i:0;s:15:"
sh install.sh ";}i:2;i:742;}i:71;a:3:{i:0;s:9:"linebreak";i:1;a:0:{}i:2;i:757;}i:72;a:3:{i:0;s:5:"cdata";i:1;a:1:{i:0;s:6:"
cd ..";}i:2;i:759;}i:73;a:3:{i:0;s:9:"linebreak";i:1;a:0:{}i:2;i:765;}i:74;a:3:{i:0;s:5:"cdata";i:1;a:1:{i:0;s:21:"
rm -Rfv cmm/ cmm.tgz";}i:2;i:767;}i:75;a:3:{i:0;s:7:"p_close";i:1;a:0:{}i:2;i:788;}i:76;a:3:{i:0;s:6:"p_open";i:1;a:0:{}i:2;i:788;}i:77;a:3:{i:0;s:5:"cdata";i:1;a:1:{i:0;s:2:"3.";}i:2;i:790;}i:78;a:3:{i:0;s:11:"strong_open";i:1;a:0:{}i:2;i:792;}i:79;a:3:{i:0;s:5:"cdata";i:1;a:1:{i:0;s:4:"CSF:";}i:2;i:794;}i:80;a:3:{i:0;s:12:"strong_close";i:1;a:0:{}i:2;i:798;}i:81;a:3:{i:0;s:7:"p_close";i:1;a:0:{}i:2;i:800;}i:82;a:3:{i:0;s:6:"p_open";i:1;a:0:{}i:2;i:800;}i:83;a:3:{i:0;s:5:"cdata";i:1;a:1:{i:0;s:15:"rm -fv csf.tgz ";}i:2;i:802;}i:84;a:3:{i:0;s:9:"linebreak";i:1;a:0:{}i:2;i:817;}i:85;a:3:{i:0;s:5:"cdata";i:1;a:1:{i:0;s:6:"
wget ";}i:2;i:819;}i:86;a:3:{i:0;s:12:"externallink";i:1;a:2:{i:0;s:40:"http://www.configserver.com/free/csf.tgz";i:1;N;}i:2;i:825;}i:87;a:3:{i:0;s:5:"cdata";i:1;a:1:{i:0;s:1:" ";}i:2;i:865;}i:88;a:3:{i:0;s:9:"linebreak";i:1;a:0:{}i:2;i:866;}i:89;a:3:{i:0;s:5:"cdata";i:1;a:1:{i:0;s:18:"
tar -xzf csf.tgz ";}i:2;i:868;}i:90;a:3:{i:0;s:9:"linebreak";i:1;a:0:{}i:2;i:886;}i:91;a:3:{i:0;s:5:"cdata";i:1;a:1:{i:0;s:8:"
cd csf ";}i:2;i:888;}i:92;a:3:{i:0;s:9:"linebreak";i:1;a:0:{}i:2;i:896;}i:93;a:3:{i:0;s:5:"cdata";i:1;a:1:{i:0;s:14:"
sh install.sh";}i:2;i:898;}i:94;a:3:{i:0;s:7:"p_close";i:1;a:0:{}i:2;i:912;}i:95;a:3:{i:0;s:6:"p_open";i:1;a:0:{}i:2;i:912;}i:96;a:3:{i:0;s:5:"cdata";i:1;a:1:{i:0;s:58:"Next, test whether you have the required iptables modules:";}i:2;i:914;}i:97;a:3:{i:0;s:7:"p_close";i:1;a:0:{}i:2;i:972;}i:98;a:3:{i:0;s:6:"p_open";i:1;a:0:{}i:2;i:972;}i:99;a:3:{i:0;s:5:"cdata";i:1;a:1:{i:0;s:24:"perl /etc/csf/csftest.pl";}i:2;i:974;}i:100;a:3:{i:0;s:7:"p_close";i:1;a:0:{}i:2;i:998;}i:101;a:3:{i:0;s:6:"p_open";i:1;a:0:{}i:2;i:998;}i:102;a:3:{i:0;s:5:"cdata";i:1;a:1:{i:0;s:63:"After installing these Plugins, type the following for crontab:";}i:2;i:1000;}i:103;a:3:{i:0;s:9:"linebreak";i:1;a:0:{}i:2;i:1063;}i:104;a:3:{i:0;s:7:"p_close";i:1;a:0:{}i:2;i:1065;}i:105;a:3:{i:0;s:6:"p_open";i:1;a:0:{}i:2;i:1065;}i:106;a:3:{i:0;s:5:"cdata";i:1;a:1:{i:0;s:27:"chmod 4755 /usr/bin/crontab";}i:2;i:1067;}i:107;a:3:{i:0;s:7:"p_close";i:1;a:0:{}i:2;i:1094;}i:108;a:3:{i:0;s:6:"p_open";i:1;a:0:{}i:2;i:1094;}i:109;a:3:{i:0;s:5:"cdata";i:1;a:1:{i:0;s:67:"After all these steps, login to the WHM by typing the following as ";}i:2;i:1096;}i:110;a:3:{i:0;s:7:"acronym";i:1;a:1:{i:0;s:3:"URL";}i:2;i:1163;}i:111;a:3:{i:0;s:5:"cdata";i:1;a:1:{i:0;s:1:":";}i:2;i:1166;}i:112;a:3:{i:0;s:7:"p_close";i:1;a:0:{}i:2;i:1167;}i:113;a:3:{i:0;s:6:"p_open";i:1;a:0:{}i:2;i:1167;}i:114;a:3:{i:0;s:12:"externallink";i:1;a:2:{i:0;s:14:"http://IP:2086";i:1;N;}i:2;i:1169;}i:115;a:3:{i:0;s:7:"p_close";i:1;a:0:{}i:2;i:1183;}i:116;a:3:{i:0;s:6:"p_open";i:1;a:0:{}i:2;i:1183;}i:117;a:3:{i:0;s:5:"cdata";i:1;a:1:{i:0;s:47:"Follow the steps given in Initial Installation.";}i:2;i:1185;}i:118;a:3:{i:0;s:7:"p_close";i:1;a:0:{}i:2;i:1232;}i:119;a:3:{i:0;s:6:"p_open";i:1;a:0:{}i:2;i:1232;}i:120;a:3:{i:0;s:11:"strong_open";i:1;a:0:{}i:2;i:1234;}i:121;a:3:{i:0;s:5:"cdata";i:1;a:1:{i:0;s:43:"Disable test mode of firewall and start it.";}i:2;i:1236;}i:122;a:3:{i:0;s:12:"strong_close";i:1;a:0:{}i:2;i:1279;}i:123;a:3:{i:0;s:7:"p_close";i:1;a:0:{}i:2;i:1281;}i:124;a:3:{i:0;s:6:"p_open";i:1;a:0:{}i:2;i:1281;}i:125;a:3:{i:0;s:5:"cdata";i:1;a:1:{i:0;s:62:"Also, goto Manage Plugins option in WHM and add the following:";}i:2;i:1283;}i:126;a:3:{i:0;s:7:"p_close";i:1;a:0:{}i:2;i:1345;}i:127;a:3:{i:0;s:6:"p_open";i:1;a:0:{}i:2;i:1345;}i:128;a:3:{i:0;s:5:"cdata";i:1;a:1:{i:0;s:3:"1. ";}i:2;i:1347;}i:129;a:3:{i:0;s:11:"strong_open";i:1;a:0:{}i:2;i:1350;}i:130;a:3:{i:0;s:5:"cdata";i:1;a:1:{i:0;s:5:"Munin";}i:2;i:1352;}i:131;a:3:{i:0;s:12:"strong_close";i:1;a:0:{}i:2;i:1357;}i:132;a:3:{i:0;s:5:"cdata";i:1;a:1:{i:0;s:1:" ";}i:2;i:1359;}i:133;a:3:{i:0;s:9:"linebreak";i:1;a:0:{}i:2;i:1360;}i:134;a:3:{i:0;s:5:"cdata";i:1;a:1:{i:0;s:4:"
2. ";}i:2;i:1362;}i:135;a:3:{i:0;s:11:"strong_open";i:1;a:0:{}i:2;i:1366;}i:136;a:3:{i:0;s:5:"cdata";i:1;a:1:{i:0;s:10:"CronConfig";}i:2;i:1368;}i:137;a:3:{i:0;s:12:"strong_close";i:1;a:0:{}i:2;i:1378;}i:138;a:3:{i:0;s:7:"p_close";i:1;a:0:{}i:2;i:1380;}i:139;a:3:{i:0;s:6:"p_open";i:1;a:0:{}i:2;i:1380;}i:140;a:3:{i:0;s:11:"strong_open";i:1;a:0:{}i:2;i:1383;}i:141;a:3:{i:0;s:5:"cdata";i:1;a:1:{i:0;s:32:"Recompile Apache with following:";}i:2;i:1385;}i:142;a:3:{i:0;s:12:"strong_close";i:1;a:0:{}i:2;i:1417;}i:143;a:3:{i:0;s:7:"p_close";i:1;a:0:{}i:2;i:1419;}i:144;a:3:{i:0;s:6:"p_open";i:1;a:0:{}i:2;i:1419;}i:145;a:3:{i:0;s:5:"cdata";i:1;a:1:{i:0;s:9:"Mbstring ";}i:2;i:1421;}i:146;a:3:{i:0;s:9:"linebreak";i:1;a:0:{}i:2;i:1430;}i:147;a:3:{i:0;s:5:"cdata";i:1;a:1:{i:0;s:12:"
GD Library ";}i:2;i:1433;}i:148;a:3:{i:0;s:9:"linebreak";i:1;a:0:{}i:2;i:1445;}i:149;a:3:{i:0;s:5:"cdata";i:1;a:1:{i:0;s:8:"
MySQL-i";}i:2;i:1447;}i:150;a:3:{i:0;s:9:"linebreak";i:1;a:0:{}i:2;i:1455;}i:151;a:3:{i:0;s:5:"cdata";i:1;a:1:{i:0;s:4:"
PDO";}i:2;i:1457;}i:152;a:3:{i:0;s:9:"linebreak";i:1;a:0:{}i:2;i:1461;}i:153;a:3:{i:0;s:5:"cdata";i:1;a:1:{i:0;s:10:"
PDO MySQL";}i:2;i:1463;}i:154;a:3:{i:0;s:9:"linebreak";i:1;a:0:{}i:2;i:1473;}i:155;a:3:{i:0;s:5:"cdata";i:1;a:1:{i:0;s:4:"
TTF";}i:2;i:1475;}i:156;a:3:{i:0;s:9:"linebreak";i:1;a:0:{}i:2;i:1479;}i:157;a:3:{i:0;s:7:"p_close";i:1;a:0:{}i:2;i:1481;}i:158;a:3:{i:0;s:6:"p_open";i:1;a:0:{}i:2;i:1481;}i:159;a:3:{i:0;s:11:"strong_open";i:1;a:0:{}i:2;i:1486;}i:160;a:3:{i:0;s:5:"cdata";i:1;a:1:{i:0;s:26:"Removing https redirection";}i:2;i:1488;}i:161;a:3:{i:0;s:12:"strong_close";i:1;a:0:{}i:2;i:1514;}i:162;a:3:{i:0;s:5:"cdata";i:1;a:1:{i:0;s:12:"
Goto  Main ";}i:2;i:1516;}i:163;a:3:{i:0;s:6:"entity";i:1;a:1:{i:0;s:2:">>";}i:2;i:1528;}i:164;a:3:{i:0;s:5:"cdata";i:1;a:1:{i:0;s:22:" Server Configuration ";}i:2;i:1530;}i:165;a:3:{i:0;s:6:"entity";i:1;a:1:{i:0;s:2:">>";}i:2;i:1552;}i:166;a:3:{i:0;s:5:"cdata";i:1;a:1:{i:0;s:54:" Tweak Settings  in Security section and turn off the ";}i:2;i:1554;}i:167;a:3:{i:0;s:18:"doublequoteopening";i:1;a:0:{}i:2;i:1608;}i:168;a:3:{i:0;s:5:"cdata";i:1;a:1:{i:0;s:11:"Require SSL";}i:2;i:1609;}i:169;a:3:{i:0;s:18:"doublequoteclosing";i:1;a:0:{}i:2;i:1620;}i:170;a:3:{i:0;s:7:"p_close";i:1;a:0:{}i:2;i:1621;}i:171;a:3:{i:0;s:6:"p_open";i:1;a:0:{}i:2;i:1621;}i:172;a:3:{i:0;s:11:"strong_open";i:1;a:0:{}i:2;i:1624;}i:173;a:3:{i:0;s:5:"cdata";i:1;a:1:{i:0;s:10:"Start Cron";}i:2;i:1626;}i:174;a:3:{i:0;s:12:"strong_close";i:1;a:0:{}i:2;i:1636;}i:175;a:3:{i:0;s:7:"p_close";i:1;a:0:{}i:2;i:1638;}i:176;a:3:{i:0;s:6:"p_open";i:1;a:0:{}i:2;i:1638;}i:177;a:3:{i:0;s:5:"cdata";i:1;a:1:{i:0;s:24:"/etc/init.d/crond start ";}i:2;i:1640;}i:178;a:3:{i:0;s:9:"linebreak";i:1;a:0:{}i:2;i:1664;}i:179;a:3:{i:0;s:5:"cdata";i:1;a:1:{i:0;s:19:"
chkconfig crond on";}i:2;i:1666;}i:180;a:3:{i:0;s:7:"p_close";i:1;a:0:{}i:2;i:1685;}i:181;a:3:{i:0;s:6:"p_open";i:1;a:0:{}i:2;i:1685;}i:182;a:3:{i:0;s:11:"strong_open";i:1;a:0:{}i:2;i:1687;}i:183;a:3:{i:0;s:5:"cdata";i:1;a:1:{i:0;s:69:"For Best Practices Of Cpanel Server (Hardening cpanel server) follow ";}i:2;i:1689;}i:184;a:3:{i:0;s:12:"internallink";i:1;a:2:{i:0;s:29:"cpanel_guide:cpanel_hardening";i:1;s:26:"Hardening Of Cpanel Server";}i:2;i:1758;}i:185;a:3:{i:0;s:5:"cdata";i:1;a:1:{i:0;s:1:" ";}i:2;i:1818;}i:186;a:3:{i:0;s:12:"strong_close";i:1;a:0:{}i:2;i:1819;}i:187;a:3:{i:0;s:7:"p_close";i:1;a:0:{}i:2;i:1821;}i:188;a:3:{i:0;s:13:"section_close";i:1;a:0:{}i:2;i:1822;}i:189;a:3:{i:0;s:12:"document_end";i:1;a:0:{}i:2;i:1822;}}