a:8:{i:0;a:3:{i:0;s:14:"document_start";i:1;a:0:{}i:2;i:0;}i:1;a:3:{i:0;s:6:"p_open";i:1;a:0:{}i:2;i:0;}i:2;a:3:{i:0;s:5:"cdata";i:1;a:1:{i:0;s:59:"Add this to Nginx config in particular virtual host section";}i:2;i:1;}i:3;a:3:{i:0;s:7:"p_close";i:1;a:0:{}i:2;i:60;}i:4;a:3:{i:0;s:6:"p_open";i:1;a:0:{}i:2;i:60;}i:5;a:3:{i:0;s:6:"plugin";i:1;a:4:{i:0;s:9:"code_code";i:1;a:4:{i:0;s:4:"code";i:1;N;i:2;s:0:"";i:3;s:1716:"
client_body_timeout  2860;
                client_header_timeout 2860;
                send_timeout 2860;
                client_max_body_size 30M;

                gzip on;
    gzip_disable "msie6";
    gzip_vary on;
    gzip_proxied any;
    gzip_comp_level 5;
    gzip_buffers 16 8k;
    gzip_http_version 1.0;

                # Set a variable to work around the lack of nested conditionals
    set $cache_uri $request_uri;

    # POST requests and urls with a query string should always go to PHP
    if ($request_method = POST) {
        set $cache_uri 'no cache';
    }
    if ($query_string != "") {
        set $cache_uri 'no cache';
    }


                #Don't cache uris containing the following segments
    if ($request_uri ~* "(\/wp-admin\/|\/xmlrpc.php|\/wp-(app|cron|login|register|mail)\.php|wp-.*\.php|index\.php|wp\-comments\-popup\.php|wp\-links\-opml\.php|wp\-locations\.php)") {
        set $cache_uri "no cache";
        }
# Don't use the cache for logged in users or recent commenters
    if ($http_cookie ~* "comment_author|wordpress_[a-f0-9]+|wp\-postpass|wordpress_logged_in") {
        set $cache_uri 'no cache';
    }

                location / {
        try_files /wp-content/w3tc/pgcache/$cache_uri/_index.html $uri $uri/ /index.php?q=$uri&$args;

        }

# Cache static files for as long as possible
    location ~* \.(xml|ogg|ogv|svg|svgz|eot|otf|woff|mp4|ttf|css|rss|atom|js|jpg|jpeg|gif|png|ico|zip|tgz|gz|rar|bz2|doc|xls|exe|ppt|tar|mid|midi|wav|bmp|rtf)$ {
        try_files $uri =404;
        expires max;
        #access_log off;
    }
# Deny access to hidden files
    location ~* /\. {
        deny all;
        #access_log off;
        log_not_found off;
        }

";}i:2;i:3;i:3;s:1717:">
client_body_timeout  2860;
                client_header_timeout 2860;
                send_timeout 2860;
                client_max_body_size 30M;

                gzip on;
    gzip_disable "msie6";
    gzip_vary on;
    gzip_proxied any;
    gzip_comp_level 5;
    gzip_buffers 16 8k;
    gzip_http_version 1.0;

                # Set a variable to work around the lack of nested conditionals
    set $cache_uri $request_uri;

    # POST requests and urls with a query string should always go to PHP
    if ($request_method = POST) {
        set $cache_uri 'no cache';
    }
    if ($query_string != "") {
        set $cache_uri 'no cache';
    }


                #Don't cache uris containing the following segments
    if ($request_uri ~* "(\/wp-admin\/|\/xmlrpc.php|\/wp-(app|cron|login|register|mail)\.php|wp-.*\.php|index\.php|wp\-comments\-popup\.php|wp\-links\-opml\.php|wp\-locations\.php)") {
        set $cache_uri "no cache";
        }
# Don't use the cache for logged in users or recent commenters
    if ($http_cookie ~* "comment_author|wordpress_[a-f0-9]+|wp\-postpass|wordpress_logged_in") {
        set $cache_uri 'no cache';
    }

                location / {
        try_files /wp-content/w3tc/pgcache/$cache_uri/_index.html $uri $uri/ /index.php?q=$uri&$args;

        }

# Cache static files for as long as possible
    location ~* \.(xml|ogg|ogv|svg|svgz|eot|otf|woff|mp4|ttf|css|rss|atom|js|jpg|jpeg|gif|png|ico|zip|tgz|gz|rar|bz2|doc|xls|exe|ppt|tar|mid|midi|wav|bmp|rtf)$ {
        try_files $uri =404;
        expires max;
        #access_log off;
    }
# Deny access to hidden files
    location ~* /\. {
        deny all;
        #access_log off;
        log_not_found off;
        }

";}i:2;i:67;}i:6;a:3:{i:0;s:7:"p_close";i:1;a:0:{}i:2;i:1791;}i:7;a:3:{i:0;s:12:"document_end";i:1;a:0:{}i:2;i:1791;}}