a:35:{i:0;a:3:{i:0;s:14:"document_start";i:1;a:0:{}i:2;i:0;}i:1;a:3:{i:0;s:6:"header";i:1;a:3:{i:0;s:24:"Pure-FTP for directadmin";i:1;i:1;i:2;i:1;}i:2;i:1;}i:2;a:3:{i:0;s:12:"section_open";i:1;a:1:{i:0;i:1;}i:2;i:1;}i:3;a:3:{i:0;s:6:"p_open";i:1;a:0:{}i:2;i:1;}i:4;a:3:{i:0;s:5:"cdata";i:1;a:1:{i:0;s:28:"Added support for Pure-FTPD.";}i:2;i:41;}i:5;a:3:{i:0;s:7:"p_close";i:1;a:0:{}i:2;i:69;}i:6;a:3:{i:0;s:6:"p_open";i:1;a:0:{}i:2;i:69;}i:7;a:3:{i:0;s:5:"cdata";i:1;a:1:{i:0;s:82:"The unified_ftp_password_file option must be set to 1 and all passwords converted:";}i:2;i:71;}i:8;a:3:{i:0;s:9:"linebreak";i:1;a:0:{}i:2;i:153;}i:9;a:3:{i:0;s:5:"cdata";i:1;a:1:{i:0;s:1:"
";}i:2;i:155;}i:10;a:3:{i:0;s:12:"externallink";i:1;a:2:{i:0;s:47:"http://www.directadmin.com/features.php?id=1134";i:1;N;}i:2;i:156;}i:11;a:3:{i:0;s:7:"p_close";i:1;a:0:{}i:2;i:203;}i:12;a:3:{i:0;s:6:"p_open";i:1;a:0:{}i:2;i:203;}i:13;a:3:{i:0;s:5:"cdata";i:1;a:1:{i:0;s:9:"pureftp=1";}i:2;i:205;}i:14;a:3:{i:0;s:7:"p_close";i:1;a:0:{}i:2;i:214;}i:15;a:3:{i:0;s:6:"p_open";i:1;a:0:{}i:2;i:214;}i:16;a:3:{i:0;s:5:"cdata";i:1;a:1:{i:0;s:24:"should also be set to 1.";}i:2;i:216;}i:17;a:3:{i:0;s:7:"p_close";i:1;a:0:{}i:2;i:240;}i:18;a:3:{i:0;s:6:"p_open";i:1;a:0:{}i:2;i:240;}i:19;a:3:{i:0;s:5:"cdata";i:1;a:1:{i:0;s:82:"After any change to the /etc/proftpd.passwd file, DA will add a task.queue entry: ";}i:2;i:242;}i:20;a:3:{i:0;s:9:"linebreak";i:1;a:0:{}i:2;i:324;}i:21;a:3:{i:0;s:5:"cdata";i:1;a:1:{i:0;s:32:"
action=rewrite&value=pureftp_db";}i:2;i:326;}i:22;a:3:{i:0;s:7:"p_close";i:1;a:0:{}i:2;i:358;}i:23;a:3:{i:0;s:6:"p_open";i:1;a:0:{}i:2;i:358;}i:24;a:3:{i:0;s:5:"cdata";i:1;a:1:{i:0;s:27:"and the dataskq will call: ";}i:2;i:360;}i:25;a:3:{i:0;s:9:"linebreak";i:1;a:0:{}i:2;i:387;}i:26;a:3:{i:0;s:5:"cdata";i:1;a:1:{i:0;s:63:"
/usr/bin/pure-pw mkdb /etc/pureftpd.pdb -f /etc/proftpd.passwd";}i:2;i:389;}i:27;a:3:{i:0;s:7:"p_close";i:1;a:0:{}i:2;i:452;}i:28;a:3:{i:0;s:6:"p_open";i:1;a:0:{}i:2;i:452;}i:29;a:3:{i:0;s:5:"cdata";i:1;a:1:{i:0;s:13:"Installation:";}i:2;i:454;}i:30;a:3:{i:0;s:6:"plugin";i:1;a:4:{i:0;s:9:"code_code";i:1;a:4:{i:0;s:4:"code";i:1;N;i:2;s:0:"";i:3;s:145:"
Use custombuild to install this for you:
cd /usr/local/directadmin/custombuild
./build set proftpd no
./build set pureftpd yes
./build pureftpd ";}i:2;i:3;i:3;s:146:">
Use custombuild to install this for you:
cd /usr/local/directadmin/custombuild
./build set proftpd no
./build set pureftpd yes
./build pureftpd ";}i:2;i:472;}i:31;a:3:{i:0;s:5:"cdata";i:1;a:1:{i:0;s:0:"";}i:2;i:625;}i:32;a:3:{i:0;s:7:"p_close";i:1;a:0:{}i:2;i:625;}i:33;a:3:{i:0;s:13:"section_close";i:1;a:0:{}i:2;i:625;}i:34;a:3:{i:0;s:12:"document_end";i:1;a:0:{}i:2;i:625;}}