a:52:{i:0;a:3:{i:0;s:14:"document_start";i:1;a:0:{}i:2;i:0;}i:1;a:3:{i:0;s:6:"p_open";i:1;a:0:{}i:2;i:0;}i:2;a:3:{i:0;s:11:"strong_open";i:1;a:0:{}i:2;i:1;}i:3;a:3:{i:0;s:5:"cdata";i:1;a:1:{i:0;s:38:"1. Install Zabbix Agent on CentOS/RHEL";}i:2;i:3;}i:4;a:3:{i:0;s:12:"strong_close";i:1;a:0:{}i:2;i:41;}i:5;a:3:{i:0;s:7:"p_close";i:1;a:0:{}i:2;i:43;}i:6;a:3:{i:0;s:6:"p_open";i:1;a:0:{}i:2;i:43;}i:7;a:3:{i:0;s:5:"cdata";i:1;a:1:{i:0;s:32:"Step 1: Add Required Repository ";}i:2;i:45;}i:8;a:3:{i:0;s:7:"p_close";i:1;a:0:{}i:2;i:77;}i:9;a:3:{i:0;s:6:"p_open";i:1;a:0:{}i:2;i:77;}i:10;a:3:{i:0;s:5:"cdata";i:1;a:1:{i:0;s:1:" ";}i:2;i:79;}i:11;a:3:{i:0;s:11:"strong_open";i:1;a:0:{}i:2;i:80;}i:12;a:3:{i:0;s:5:"cdata";i:1;a:1:{i:0;s:14:"CentOS/RHEL 6:";}i:2;i:82;}i:13;a:3:{i:0;s:12:"strong_close";i:1;a:0:{}i:2;i:96;}i:14;a:3:{i:0;s:7:"p_close";i:1;a:0:{}i:2;i:98;}i:15;a:3:{i:0;s:6:"p_open";i:1;a:0:{}i:2;i:98;}i:16;a:3:{i:0;s:5:"cdata";i:1;a:1:{i:0;s:13:"»  rpm -Uvh ";}i:2;i:100;}i:17;a:3:{i:0;s:12:"externallink";i:1;a:2:{i:0;s:83:"http://repo.zabbix.com/zabbix/2.2/rhel/6/x86_64/zabbix-release-2.2-1.el6.noarch.rpm";i:1;N;}i:2;i:113;}i:18;a:3:{i:0;s:7:"p_close";i:1;a:0:{}i:2;i:196;}i:19;a:3:{i:0;s:6:"p_open";i:1;a:0:{}i:2;i:196;}i:20;a:3:{i:0;s:5:"cdata";i:1;a:1:{i:0;s:1:" ";}i:2;i:198;}i:21;a:3:{i:0;s:11:"strong_open";i:1;a:0:{}i:2;i:199;}i:22;a:3:{i:0;s:5:"cdata";i:1;a:1:{i:0;s:14:"CentOS/RHEL 5:";}i:2;i:201;}i:23;a:3:{i:0;s:12:"strong_close";i:1;a:0:{}i:2;i:215;}i:24;a:3:{i:0;s:7:"p_close";i:1;a:0:{}i:2;i:217;}i:25;a:3:{i:0;s:6:"p_open";i:1;a:0:{}i:2;i:217;}i:26;a:3:{i:0;s:5:"cdata";i:1;a:1:{i:0;s:13:"»  rpm -Uvh ";}i:2;i:219;}i:27;a:3:{i:0;s:12:"externallink";i:1;a:2:{i:0;s:83:"http://repo.zabbix.com/zabbix/2.2/rhel/5/x86_64/zabbix-release-2.2-1.el5.noarch.rpm";i:1;N;}i:2;i:232;}i:28;a:3:{i:0;s:7:"p_close";i:1;a:0:{}i:2;i:315;}i:29;a:3:{i:0;s:6:"p_open";i:1;a:0:{}i:2;i:315;}i:30;a:3:{i:0;s:5:"cdata";i:1;a:1:{i:0;s:28:"Step 2: Install Zabbix Agent";}i:2;i:318;}i:31;a:3:{i:0;s:7:"p_close";i:1;a:0:{}i:2;i:346;}i:32;a:3:{i:0;s:6:"p_open";i:1;a:0:{}i:2;i:346;}i:33;a:3:{i:0;s:5:"cdata";i:1;a:1:{i:0;s:35:"»  yum install zabbix zabbix-agent";}i:2;i:348;}i:34;a:3:{i:0;s:7:"p_close";i:1;a:0:{}i:2;i:383;}i:35;a:3:{i:0;s:6:"p_open";i:1;a:0:{}i:2;i:383;}i:36;a:3:{i:0;s:5:"cdata";i:1;a:1:{i:0;s:42:"Step 3: Update Zabbix Agent Configuration ";}i:2;i:386;}i:37;a:3:{i:0;s:7:"p_close";i:1;a:0:{}i:2;i:428;}i:38;a:3:{i:0;s:6:"p_open";i:1;a:0:{}i:2;i:428;}i:39;a:3:{i:0;s:5:"cdata";i:1;a:1:{i:0;s:30:"»  Server= noc.mantragrid.com";}i:2;i:430;}i:40;a:3:{i:0;s:7:"p_close";i:1;a:0:{}i:2;i:460;}i:41;a:3:{i:0;s:12:"preformatted";i:1;a:1:{i:0;s:79:" Hostname=[ Hostname of client system ]
 Server=192.168.1.11
 Hostname=Server1
";}i:2;i:460;}i:42;a:3:{i:0;s:6:"p_open";i:1;a:0:{}i:2;i:460;}i:43;a:3:{i:0;s:5:"cdata";i:1;a:1:{i:0;s:31:"Step 4: Start/Stop Zabbix Agent";}i:2;i:549;}i:44;a:3:{i:0;s:7:"p_close";i:1;a:0:{}i:2;i:580;}i:45;a:3:{i:0;s:6:"p_open";i:1;a:0:{}i:2;i:580;}i:46;a:3:{i:0;s:5:"cdata";i:1;a:1:{i:0;s:35:"» # /etc/init.d/zabbix-agent start";}i:2;i:582;}i:47;a:3:{i:0;s:7:"p_close";i:1;a:0:{}i:2;i:617;}i:48;a:3:{i:0;s:6:"p_open";i:1;a:0:{}i:2;i:617;}i:49;a:3:{i:0;s:5:"cdata";i:1;a:1:{i:0;s:34:"» # /etc/init.d/zabbix-agent stop";}i:2;i:619;}i:50;a:3:{i:0;s:7:"p_close";i:1;a:0:{}i:2;i:653;}i:51;a:3:{i:0;s:12:"document_end";i:1;a:0:{}i:2;i:653;}}