a:43:{i:0;a:3:{i:0;s:14:"document_start";i:1;a:0:{}i:2;i:0;}i:1;a:3:{i:0;s:6:"p_open";i:1;a:0:{}i:2;i:0;}i:2;a:3:{i:0;s:11:"strong_open";i:1;a:0:{}i:2;i:3;}i:3;a:3:{i:0;s:6:"plugin";i:1;a:4:{i:0;s:12:"ckgedit_font";i:1;a:2:{i:0;i:1;i:1;a:2:{i:0;s:15:"font-size:16px;";i:1;s:25:"inherit;;inherit;;inherit";}}i:2;i:1;i:3;s:37:"<font 16px/inherit;;inherit;;inherit>";}i:2;i:5;}i:4;a:3:{i:0;s:6:"plugin";i:1;a:4:{i:0;s:12:"ckgedit_font";i:1;a:2:{i:0;i:3;i:1;s:56:"Enforcing a match between FROM address and sasl username";}i:2;i:3;i:3;s:56:"Enforcing a match between FROM address and sasl username";}i:2;i:42;}i:5;a:3:{i:0;s:6:"plugin";i:1;a:4:{i:0;s:12:"ckgedit_font";i:1;a:2:{i:0;i:4;i:1;s:0:"";}i:2;i:4;i:3;s:7:"</font>";}i:2;i:98;}i:6;a:3:{i:0;s:5:"cdata";i:1;a:1:{i:0;s:1:" ";}i:2;i:105;}i:7;a:3:{i:0;s:12:"strong_close";i:1;a:0:{}i:2;i:106;}i:8;a:3:{i:0;s:7:"p_close";i:1;a:0:{}i:2;i:108;}i:9;a:3:{i:0;s:6:"p_open";i:1;a:0:{}i:2;i:108;}i:10;a:3:{i:0;s:12:"externallink";i:1;a:2:{i:0;s:89:"https://wiki.zimbra.com/wiki/Enforcing_a_match_between_FROM_address_and_sasl_username_8.5";i:1;N;}i:2;i:110;}i:11;a:3:{i:0;s:7:"p_close";i:1;a:0:{}i:2;i:199;}i:12;a:3:{i:0;s:6:"p_open";i:1;a:0:{}i:2;i:199;}i:13;a:3:{i:0;s:5:"cdata";i:1;a:1:{i:0;s:63:"If it is ZCS 8.6 or 8.5, then simply follow this as zimbra user";}i:2;i:201;}i:14;a:3:{i:0;s:7:"p_close";i:1;a:0:{}i:2;i:264;}i:15;a:3:{i:0;s:6:"p_open";i:1;a:0:{}i:2;i:264;}i:16;a:3:{i:0;s:6:"plugin";i:1;a:4:{i:0;s:9:"code_code";i:1;a:4:{i:0;s:4:"code";i:1;N;i:2;s:0:"";i:3;s:173:"
su - zimbra

zmprov mcf zimbraMtaSmtpdSenderLoginMaps  proxy:ldap:/opt/zimbra/conf/ldap-slm.cf +zimbraMtaSmtpdSenderRestrictions reject_authenticated_sender_login_mismatch
";}i:2;i:3;i:3;s:174:">
su - zimbra

zmprov mcf zimbraMtaSmtpdSenderLoginMaps  proxy:ldap:/opt/zimbra/conf/ldap-slm.cf +zimbraMtaSmtpdSenderRestrictions reject_authenticated_sender_login_mismatch
";}i:2;i:271;}i:17;a:3:{i:0;s:7:"p_close";i:1;a:0:{}i:2;i:452;}i:18;a:3:{i:0;s:6:"p_open";i:1;a:0:{}i:2;i:452;}i:19;a:3:{i:0;s:11:"strong_open";i:1;a:0:{}i:2;i:454;}i:20;a:3:{i:0;s:5:"cdata";i:1;a:1:{i:0;s:39:"Edit the file smtpd_sender_restrictions";}i:2;i:456;}i:21;a:3:{i:0;s:12:"strong_close";i:1;a:0:{}i:2;i:495;}i:22;a:3:{i:0;s:7:"p_close";i:1;a:0:{}i:2;i:497;}i:23;a:3:{i:0;s:6:"p_open";i:1;a:0:{}i:2;i:497;}i:24;a:3:{i:0;s:5:"cdata";i:1;a:1:{i:0;s:154:"You need to edit the file opt/zimbra/conf/zmconfigd/smtpd_sender_restrictions.cf and add after the permit_mynetworks the line reject_sender_login_mismatch";}i:2;i:499;}i:25;a:3:{i:0;s:7:"p_close";i:1;a:0:{}i:2;i:653;}i:26;a:3:{i:0;s:6:"p_open";i:1;a:0:{}i:2;i:653;}i:27;a:3:{i:0;s:6:"plugin";i:1;a:4:{i:0;s:9:"code_code";i:1;a:4:{i:0;s:4:"code";i:1;N;i:2;s:0:"";i:3;s:61:"
vim /opt/zimbra/conf/zmconfigd/smtpd_sender_restrictions.cf
";}i:2;i:3;i:3;s:62:">
vim /opt/zimbra/conf/zmconfigd/smtpd_sender_restrictions.cf
";}i:2;i:660;}i:28;a:3:{i:0;s:7:"p_close";i:1;a:0:{}i:2;i:729;}i:29;a:3:{i:0;s:6:"p_open";i:1;a:0:{}i:2;i:729;}i:30;a:3:{i:0;s:5:"cdata";i:1;a:1:{i:0;s:22:"Should look like this:";}i:2;i:731;}i:31;a:3:{i:0;s:7:"p_close";i:1;a:0:{}i:2;i:753;}i:32;a:3:{i:0;s:6:"p_open";i:1;a:0:{}i:2;i:753;}i:33;a:3:{i:0;s:6:"plugin";i:1;a:4:{i:0;s:9:"code_code";i:1;a:4:{i:0;s:4:"code";i:1;N;i:2;s:0:"";i:3;s:49:"
permit_mynetworks, reject_sender_login_mismatch
";}i:2;i:3;i:3;s:50:">
permit_mynetworks, reject_sender_login_mismatch
";}i:2;i:760;}i:34;a:3:{i:0;s:7:"p_close";i:1;a:0:{}i:2;i:817;}i:35;a:3:{i:0;s:6:"p_open";i:1;a:0:{}i:2;i:817;}i:36;a:3:{i:0;s:5:"cdata";i:1;a:1:{i:0;s:210:"After a minute, zmconfigd will update the postfix configuration automatically and apply the new rules. Now if an account is hacked, and this is in place, they will not be able to send out emails with different ";}i:2;i:819;}i:37;a:3:{i:0;s:18:"doublequoteopening";i:1;a:0:{}i:2;i:1029;}i:38;a:3:{i:0;s:5:"cdata";i:1;a:1:{i:0;s:4:"from";}i:2;i:1030;}i:39;a:3:{i:0;s:18:"doublequoteclosing";i:1;a:0:{}i:2;i:1034;}i:40;a:3:{i:0;s:5:"cdata";i:1;a:1:{i:0;s:11:" addresses.";}i:2;i:1035;}i:41;a:3:{i:0;s:7:"p_close";i:1;a:0:{}i:2;i:1046;}i:42;a:3:{i:0;s:12:"document_end";i:1;a:0:{}i:2;i:1046;}}