a:74:{i:0;a:3:{i:0;s:14:"document_start";i:1;a:0:{}i:2;i:0;}i:1;a:3:{i:0;s:6:"header";i:1;a:3:{i:0;s:25:"Linux Monitoring commands";i:1;i:1;i:2;i:1;}i:2;i:1;}i:2;a:3:{i:0;s:12:"section_open";i:1;a:1:{i:0;i:1;}i:2;i:1;}i:3;a:3:{i:0;s:6:"p_open";i:1;a:0:{}i:2;i:1;}i:4;a:3:{i:0;s:11:"strong_open";i:1;a:0:{}i:2;i:42;}i:5;a:3:{i:0;s:5:"cdata";i:1;a:1:{i:0;s:34:"#1: top - Process Activity Command";}i:2;i:44;}i:6;a:3:{i:0;s:12:"strong_close";i:1;a:0:{}i:2;i:78;}i:7;a:3:{i:0;s:7:"p_close";i:1;a:0:{}i:2;i:80;}i:8;a:3:{i:0;s:6:"p_open";i:1;a:0:{}i:2;i:80;}i:9;a:3:{i:0;s:5:"cdata";i:1;a:1:{i:0;s:49:"The top command provides several useful hot keys:";}i:2;i:82;}i:10;a:3:{i:0;s:7:"p_close";i:1;a:0:{}i:2;i:131;}i:11;a:3:{i:0;s:6:"p_open";i:1;a:0:{}i:2;i:131;}i:12;a:3:{i:0;s:5:"cdata";i:1;a:1:{i:0;s:42:"t Displays summary information off and on.";}i:2;i:133;}i:13;a:3:{i:0;s:9:"linebreak";i:1;a:0:{}i:2;i:175;}i:14;a:3:{i:0;s:5:"cdata";i:1;a:1:{i:0;s:42:"
m Displays memory information off and on.";}i:2;i:177;}i:15;a:3:{i:0;s:9:"linebreak";i:1;a:0:{}i:2;i:219;}i:16;a:3:{i:0;s:5:"cdata";i:1;a:1:{i:0;s:139:"
A Sorts the display by top consumers of various system resources. Useful for quick identification of performance-hungry tasks on a system.";}i:2;i:221;}i:17;a:3:{i:0;s:9:"linebreak";i:1;a:0:{}i:2;i:360;}i:18;a:3:{i:0;s:5:"cdata";i:1;a:1:{i:0;s:102:"
f Enters an interactive configuration screen for top. Helpful for setting up top for a specific task.";}i:2;i:362;}i:19;a:3:{i:0;s:9:"linebreak";i:1;a:0:{}i:2;i:464;}i:20;a:3:{i:0;s:5:"cdata";i:1;a:1:{i:0;s:63:"
o Enables you to interactively select the ordering within top.";}i:2;i:466;}i:21;a:3:{i:0;s:9:"linebreak";i:1;a:0:{}i:2;i:529;}i:22;a:3:{i:0;s:5:"cdata";i:1;a:1:{i:0;s:25:"
r Issues renice command.";}i:2;i:531;}i:23;a:3:{i:0;s:9:"linebreak";i:1;a:0:{}i:2;i:556;}i:24;a:3:{i:0;s:5:"cdata";i:1;a:1:{i:0;s:23:"
k Issues kill command.";}i:2;i:558;}i:25;a:3:{i:0;s:9:"linebreak";i:1;a:0:{}i:2;i:581;}i:26;a:3:{i:0;s:5:"cdata";i:1;a:1:{i:0;s:28:"
z Turn on or off color/mono";}i:2;i:583;}i:27;a:3:{i:0;s:9:"linebreak";i:1;a:0:{}i:2;i:611;}i:28;a:3:{i:0;s:7:"p_close";i:1;a:0:{}i:2;i:613;}i:29;a:3:{i:0;s:6:"p_open";i:1;a:0:{}i:2;i:613;}i:30;a:3:{i:0;s:11:"strong_open";i:1;a:0:{}i:2;i:615;}i:31;a:3:{i:0;s:5:"cdata";i:1;a:1:{i:0;s:31:"#2: ps - Displays The Processes";}i:2;i:617;}i:32;a:3:{i:0;s:12:"strong_close";i:1;a:0:{}i:2;i:648;}i:33;a:3:{i:0;s:7:"p_close";i:1;a:0:{}i:2;i:650;}i:34;a:3:{i:0;s:6:"p_open";i:1;a:0:{}i:2;i:650;}i:35;a:3:{i:0;s:5:"cdata";i:1;a:1:{i:0;s:45:"Find Out The Top 10 Memory Consuming Process:";}i:2;i:652;}i:36;a:3:{i:0;s:9:"linebreak";i:1;a:0:{}i:2;i:697;}i:37;a:3:{i:0;s:5:"cdata";i:1;a:1:{i:0;s:36:"
ps -auxf | sort -nr -k 4 | head -10";}i:2;i:699;}i:38;a:3:{i:0;s:9:"linebreak";i:1;a:0:{}i:2;i:735;}i:39;a:3:{i:0;s:7:"p_close";i:1;a:0:{}i:2;i:737;}i:40;a:3:{i:0;s:6:"p_open";i:1;a:0:{}i:2;i:737;}i:41;a:3:{i:0;s:5:"cdata";i:1;a:1:{i:0;s:38:"Find Out top 10 CPU Consuming Process:";}i:2;i:739;}i:42;a:3:{i:0;s:9:"linebreak";i:1;a:0:{}i:2;i:777;}i:43;a:3:{i:0;s:5:"cdata";i:1;a:1:{i:0;s:36:"
ps -auxf | sort -nr -k 3 | head -10";}i:2;i:779;}i:44;a:3:{i:0;s:9:"linebreak";i:1;a:0:{}i:2;i:815;}i:45;a:3:{i:0;s:7:"p_close";i:1;a:0:{}i:2;i:817;}i:46;a:3:{i:0;s:6:"p_open";i:1;a:0:{}i:2;i:817;}i:47;a:3:{i:0;s:11:"strong_open";i:1;a:0:{}i:2;i:819;}i:48;a:3:{i:0;s:5:"cdata";i:1;a:1:{i:0;s:23:"#3: free - Memory Usage";}i:2;i:821;}i:49;a:3:{i:0;s:12:"strong_close";i:1;a:0:{}i:2;i:844;}i:50;a:3:{i:0;s:7:"p_close";i:1;a:0:{}i:2;i:846;}i:51;a:3:{i:0;s:6:"p_open";i:1;a:0:{}i:2;i:846;}i:52;a:3:{i:0;s:5:"cdata";i:1;a:1:{i:0;s:4:"free";}i:2;i:848;}i:53;a:3:{i:0;s:7:"p_close";i:1;a:0:{}i:2;i:852;}i:54;a:3:{i:0;s:6:"p_open";i:1;a:0:{}i:2;i:852;}i:55;a:3:{i:0;s:11:"strong_open";i:1;a:0:{}i:2;i:854;}i:56;a:3:{i:0;s:5:"cdata";i:1;a:1:{i:0;s:10:"#4: uptime";}i:2;i:856;}i:57;a:3:{i:0;s:12:"strong_close";i:1;a:0:{}i:2;i:866;}i:58;a:3:{i:0;s:7:"p_close";i:1;a:0:{}i:2;i:868;}i:59;a:3:{i:0;s:6:"p_open";i:1;a:0:{}i:2;i:868;}i:60;a:3:{i:0;s:5:"cdata";i:1;a:1:{i:0;s:6:"uptime";}i:2;i:870;}i:61;a:3:{i:0;s:7:"p_close";i:1;a:0:{}i:2;i:876;}i:62;a:3:{i:0;s:6:"p_open";i:1;a:0:{}i:2;i:876;}i:63;a:3:{i:0;s:11:"strong_open";i:1;a:0:{}i:2;i:878;}i:64;a:3:{i:0;s:5:"cdata";i:1;a:1:{i:0;s:10:"#5: Nagios";}i:2;i:880;}i:65;a:3:{i:0;s:12:"strong_close";i:1;a:0:{}i:2;i:890;}i:66;a:3:{i:0;s:7:"p_close";i:1;a:0:{}i:2;i:892;}i:67;a:3:{i:0;s:6:"p_open";i:1;a:0:{}i:2;i:892;}i:68;a:3:{i:0;s:11:"strong_open";i:1;a:0:{}i:2;i:894;}i:69;a:3:{i:0;s:5:"cdata";i:1;a:1:{i:0;s:9:"#6: Cacti";}i:2;i:896;}i:70;a:3:{i:0;s:12:"strong_close";i:1;a:0:{}i:2;i:905;}i:71;a:3:{i:0;s:7:"p_close";i:1;a:0:{}i:2;i:907;}i:72;a:3:{i:0;s:13:"section_close";i:1;a:0:{}i:2;i:908;}i:73;a:3:{i:0;s:12:"document_end";i:1;a:0:{}i:2;i:908;}}