a:45:{i:0;a:3:{i:0;s:14:"document_start";i:1;a:0:{}i:2;i:0;}i:1;a:3:{i:0;s:6:"p_open";i:1;a:0:{}i:2;i:0;}i:2;a:3:{i:0;s:5:"cdata";i:1;a:1:{i:0;s:18:"Download the agent";}i:2;i:1;}i:3;a:3:{i:0;s:7:"p_close";i:1;a:0:{}i:2;i:20;}i:4;a:3:{i:0;s:12:"preformatted";i:1;a:1:{i:0;s:97:"  http://sourceforge.net/projects/zabbix/files/ZABBIX%20Latest%20Stable/2.2.2/zabbix-2.2.2.tar.gz";}i:2;i:20;}i:5;a:3:{i:0;s:6:"p_open";i:1;a:0:{}i:2;i:20;}i:6;a:3:{i:0;s:5:"cdata";i:1;a:1:{i:0;s:20:"Extract the package.";}i:2;i:123;}i:7;a:3:{i:0;s:7:"p_close";i:1;a:0:{}i:2;i:143;}i:8;a:3:{i:0;s:12:"preformatted";i:1;a:1:{i:0;s:35:"      tar -zxvf zabbix-2.2.2.tar.gz";}i:2;i:143;}i:9;a:3:{i:0;s:6:"p_open";i:1;a:0:{}i:2;i:143;}i:10;a:3:{i:0;s:5:"cdata";i:1;a:1:{i:0;s:26:"Adding the user and group.";}i:2;i:183;}i:11;a:3:{i:0;s:7:"p_close";i:1;a:0:{}i:2;i:209;}i:12;a:3:{i:0;s:12:"preformatted";i:1;a:1:{i:0;s:52:"      groupadd zabbix
      useradd -g zabbix zabbix";}i:2;i:209;}i:13;a:3:{i:0;s:6:"p_open";i:1;a:0:{}i:2;i:209;}i:14;a:3:{i:0;s:5:"cdata";i:1;a:1:{i:0;s:21:"Change the directory.";}i:2;i:268;}i:15;a:3:{i:0;s:7:"p_close";i:1;a:0:{}i:2;i:289;}i:16;a:3:{i:0;s:12:"preformatted";i:1;a:1:{i:0;s:21:"      cd zabbix-2.2.2";}i:2;i:289;}i:17;a:3:{i:0;s:6:"p_open";i:1;a:0:{}i:2;i:289;}i:18;a:3:{i:0;s:5:"cdata";i:1;a:1:{i:0;s:25:"Install the dependencies.";}i:2;i:315;}i:19;a:3:{i:0;s:7:"p_close";i:1;a:0:{}i:2;i:340;}i:20;a:3:{i:0;s:12:"preformatted";i:1;a:1:{i:0;s:139:"      yum install -y zlib-devel glibc-devel curl-devel gcc automake libidn-devel openssl-devel net-snmp-devel rpm-devel OpenIPMI-devel make";}i:2;i:340;}i:21;a:3:{i:0;s:6:"p_open";i:1;a:0:{}i:2;i:340;}i:22;a:3:{i:0;s:5:"cdata";i:1;a:1:{i:0;s:32:"Compile the package and install.";}i:2;i:484;}i:23;a:3:{i:0;s:7:"p_close";i:1;a:0:{}i:2;i:516;}i:24;a:3:{i:0;s:12:"preformatted";i:1;a:1:{i:0;s:156:"      ./configure --enable-agent --enable-static
      
      (Note :- If it showing any library missing try to run above command without "--enable-static")";}i:2;i:516;}i:25;a:3:{i:0;s:12:"preformatted";i:1;a:1:{i:0;s:19:"       make install";}i:2;i:680;}i:26;a:3:{i:0;s:6:"p_open";i:1;a:0:{}i:2;i:680;}i:27;a:3:{i:0;s:5:"cdata";i:1;a:1:{i:0;s:109:" Eedit the Zabbix agent configuration file /usr/local/etc/zabbix_agentd.conf and set following.              ";}i:2;i:704;}i:28;a:3:{i:0;s:7:"p_close";i:1;a:0:{}i:2;i:813;}i:29;a:3:{i:0;s:12:"preformatted";i:1;a:1:{i:0;s:30:"     server=noc.mantragrid.com";}i:2;i:813;}i:30;a:3:{i:0;s:6:"p_open";i:1;a:0:{}i:2;i:813;}i:31;a:3:{i:0;s:5:"cdata";i:1;a:1:{i:0;s:41:"Copy the files and change the permission.";}i:2;i:848;}i:32;a:3:{i:0;s:7:"p_close";i:1;a:0:{}i:2;i:889;}i:33;a:3:{i:0;s:12:"preformatted";i:1;a:1:{i:0;s:61:"       cp misc/init.d/fedora/core5/zabbix_agentd /etc/init.d/";}i:2;i:889;}i:34;a:3:{i:0;s:12:"preformatted";i:1;a:1:{i:0;s:42:"       chmod 755 /etc/init.d/zabbix_agentd";}i:2;i:954;}i:35;a:3:{i:0;s:6:"p_open";i:1;a:0:{}i:2;i:954;}i:36;a:3:{i:0;s:5:"cdata";i:1;a:1:{i:0;s:16:"Start the agent.";}i:2;i:1002;}i:37;a:3:{i:0;s:7:"p_close";i:1;a:0:{}i:2;i:1018;}i:38;a:3:{i:0;s:12:"preformatted";i:1;a:1:{i:0;s:34:"        chkconfig zabbix_agentd on";}i:2;i:1018;}i:39;a:3:{i:0;s:12:"preformatted";i:1;a:1:{i:0;s:38:"       /etc/init.d/zabbix_agentd start";}i:2;i:1056;}i:40;a:3:{i:0;s:6:"p_open";i:1;a:0:{}i:2;i:1056;}i:41;a:3:{i:0;s:5:"cdata";i:1;a:1:{i:0;s:41:"To check whether agent is running or not.";}i:2;i:1099;}i:42;a:3:{i:0;s:7:"p_close";i:1;a:0:{}i:2;i:1140;}i:43;a:3:{i:0;s:12:"preformatted";i:1;a:1:{i:0;s:546:"       ps -eaf | grep zabbix
       
       
       Note: Kindly allow IP 66.232.121.116 (noc.mantragrid.com)in iptabales OR CSF
       # csf -g | grep 66.232.121.116
       # csf -a 66.232.121.116
       # csf -g | grep 66.232.121.116
       # /etc/init.d/zabbix_agentd restart
       
       OR
       
       # iptables-save > iptables.14042016.bak.fw
       # iptables -I INPUT -p tcp -s 66.232.121.116 --dport 10050 -j ACCEPT
       # /etc/init.d/iptables save
       # /etc/init.d/iptables restart
       # /etc/init.d/zabbix_agentd restart";}i:2;i:1140;}i:44;a:3:{i:0;s:12:"document_end";i:1;a:0:{}i:2;i:1140;}}