a:13:{i:0;a:3:{i:0;s:14:"document_start";i:1;a:0:{}i:2;i:0;}i:1;a:3:{i:0;s:6:"p_open";i:1;a:0:{}i:2;i:0;}i:2;a:3:{i:0;s:5:"cdata";i:1;a:1:{i:0;s:3:"1. ";}i:2;i:1;}i:3;a:3:{i:0;s:12:"internallink";i:1;a:2:{i:0;s:16:"interspire_setup";i:1;s:16:"Interspire Setup";}i:2;i:4;}i:4;a:3:{i:0;s:5:"cdata";i:1;a:1:{i:0;s:1:" ";}i:2;i:41;}i:5;a:3:{i:0;s:9:"linebreak";i:1;a:0:{}i:2;i:42;}i:6;a:3:{i:0;s:5:"cdata";i:1;a:1:{i:0;s:20:"
2. Multi-IP script ";}i:2;i:44;}i:7;a:3:{i:0;s:9:"linebreak";i:1;a:0:{}i:2;i:64;}i:8;a:3:{i:0;s:5:"cdata";i:1;a:1:{i:0;s:20:"
3. rDNS of the IPs ";}i:2;i:66;}i:9;a:3:{i:0;s:9:"linebreak";i:1;a:0:{}i:2;i:86;}i:10;a:3:{i:0;s:5:"cdata";i:1;a:1:{i:0;s:23:"
4. SPF / DKIM settings";}i:2;i:88;}i:11;a:3:{i:0;s:7:"p_close";i:1;a:0:{}i:2;i:111;}i:12;a:3:{i:0;s:12:"document_end";i:1;a:0:{}i:2;i:111;}}