a:77:{i:0;a:3:{i:0;s:14:"document_start";i:1;a:0:{}i:2;i:0;}i:1;a:3:{i:0;s:6:"p_open";i:1;a:0:{}i:2;i:0;}i:2;a:3:{i:0;s:5:"cdata";i:1;a:1:{i:0;s:1:" ";}i:2;i:1;}i:3;a:3:{i:0;s:11:"strong_open";i:1;a:0:{}i:2;i:2;}i:4;a:3:{i:0;s:5:"cdata";i:1;a:1:{i:0;s:26:"ssh_with_keys_in_a_console";}i:2;i:4;}i:5;a:3:{i:0;s:12:"strong_close";i:1;a:0:{}i:2;i:30;}i:6;a:3:{i:0;s:7:"p_close";i:1;a:0:{}i:2;i:32;}i:7;a:3:{i:0;s:6:"p_open";i:1;a:0:{}i:2;i:32;}i:8;a:3:{i:0;s:5:"cdata";i:1;a:1:{i:0;s:16:"1.Creating A Key";}i:2;i:34;}i:9;a:3:{i:0;s:7:"p_close";i:1;a:0:{}i:2;i:51;}i:10;a:3:{i:0;s:12:"preformatted";i:1;a:1:{i:0;s:80:"When you want to use ssh with keys, the first thing that you will need is a key.";}i:2;i:51;}i:11;a:3:{i:0;s:6:"p_open";i:1;a:0:{}i:2;i:51;}i:12;a:3:{i:0;s:5:"cdata";i:1;a:1:{i:0;s:112:"2.To create the most simple key, with the default encryption, open up a console, and enter the following command";}i:2;i:135;}i:13;a:3:{i:0;s:7:"p_close";i:1;a:0:{}i:2;i:247;}i:14;a:3:{i:0;s:12:"preformatted";i:1;a:1:{i:0;s:15:"  ssh-keygen
  ";}i:2;i:247;}i:15;a:3:{i:0;s:6:"p_open";i:1;a:0:{}i:2;i:247;}i:16;a:3:{i:0;s:5:"cdata";i:1;a:1:{i:0;s:19:"3.When asked for a ";}i:2;i:268;}i:17;a:3:{i:0;s:18:"doublequoteopening";i:1;a:0:{}i:2;i:287;}i:18;a:3:{i:0;s:5:"cdata";i:1;a:1:{i:0;s:10:"passphrase";}i:2;i:288;}i:19;a:3:{i:0;s:18:"doublequoteclosing";i:1;a:0:{}i:2;i:298;}i:20;a:3:{i:0;s:5:"cdata";i:1;a:1:{i:0;s:24:",Just press enter twice.";}i:2;i:299;}i:21;a:3:{i:0;s:7:"p_close";i:1;a:0:{}i:2;i:323;}i:22;a:3:{i:0;s:6:"p_open";i:1;a:0:{}i:2;i:323;}i:23;a:3:{i:0;s:5:"cdata";i:1;a:1:{i:0;s:82:"  The ssh-keygen program will now generate both your public and your private key. ";}i:2;i:326;}i:24;a:3:{i:0;s:7:"p_close";i:1;a:0:{}i:2;i:408;}i:25;a:3:{i:0;s:12:"preformatted";i:1;a:1:{i:0;s:67:"Your keys are stored in the .ssh/ directory in your home directory,";}i:2;i:408;}i:26;a:3:{i:0;s:10:"listu_open";i:1;a:0:{}i:2;i:479;}i:27;a:3:{i:0;s:13:"listitem_open";i:1;a:1:{i:0;i:1;}i:2;i:479;}i:28;a:3:{i:0;s:16:"listcontent_open";i:1;a:0:{}i:2;i:479;}i:29;a:3:{i:0;s:5:"cdata";i:1;a:1:{i:0;s:36:"*Protocol version 2 key generation**";}i:2;i:485;}i:30;a:3:{i:0;s:17:"listcontent_close";i:1;a:0:{}i:2;i:521;}i:31;a:3:{i:0;s:14:"listitem_close";i:1;a:0:{}i:2;i:521;}i:32;a:3:{i:0;s:11:"listu_close";i:1;a:0:{}i:2;i:521;}i:33;a:3:{i:0;s:6:"p_open";i:1;a:0:{}i:2;i:521;}i:34;a:3:{i:0;s:5:"cdata";i:1;a:1:{i:0;s:34:"1. terminal type ssh-keygen -t dsa";}i:2;i:523;}i:35;a:3:{i:0;s:7:"p_close";i:1;a:0:{}i:2;i:557;}i:36;a:3:{i:0;s:6:"p_open";i:1;a:0:{}i:2;i:557;}i:37;a:3:{i:0;s:5:"cdata";i:1;a:1:{i:0;s:83:"Your keys are stored in the .ssh/ directory in your home directory
check with ls -l";}i:2;i:559;}i:38;a:3:{i:0;s:7:"p_close";i:1;a:0:{}i:2;i:642;}i:39;a:3:{i:0;s:6:"p_open";i:1;a:0:{}i:2;i:642;}i:40;a:3:{i:0;s:5:"cdata";i:1;a:1:{i:0;s:46:"2. Placing the public key on the remote server";}i:2;i:644;}i:41;a:3:{i:0;s:7:"p_close";i:1;a:0:{}i:2;i:690;}i:42;a:3:{i:0;s:12:"preformatted";i:1;a:1:{i:0;s:105:" cd .ssh/
 scp identity.pub dave@192.168.1.3:./identity.pub
 scp id_dsa.pub dave@192.168.1.3:./id_dsa.pub";}i:2;i:690;}i:43;a:3:{i:0;s:6:"p_open";i:1;a:0:{}i:2;i:690;}i:44;a:3:{i:0;s:5:"cdata";i:1;a:1:{i:0;s:157:"This will place your keys in your home directory on the remote server. After that we will login on the remote server using ssh or telnet the conventional way";}i:2;i:804;}i:45;a:3:{i:0;s:6:"entity";i:1;a:1:{i:0;s:3:"...";}i:2;i:961;}i:46;a:3:{i:0;s:5:"cdata";i:1;a:1:{i:0;s:18:" with a password. ";}i:2;i:964;}i:47;a:3:{i:0;s:7:"p_close";i:1;a:0:{}i:2;i:982;}i:48;a:3:{i:0;s:6:"p_open";i:1;a:0:{}i:2;i:982;}i:49;a:3:{i:0;s:5:"cdata";i:1;a:1:{i:0;s:283:"When you are logged in you should create a .ssh directory, and inside the .ssh/ directory create an authorized_keys and an authorized_keys2 file and add the keys to the files. Make sure the files are not readable for other users/groups. chmod 600 authorized_keys* does the trick.    ";}i:2;i:987;}i:50;a:3:{i:0;s:7:"p_close";i:1;a:0:{}i:2;i:1270;}i:51;a:3:{i:0;s:6:"p_open";i:1;a:0:{}i:2;i:1270;}i:52;a:3:{i:0;s:13:"emphasis_open";i:1;a:0:{}i:2;i:1272;}i:53;a:3:{i:0;s:5:"cdata";i:1;a:1:{i:0;s:53:"Adding the public key for version 1 works like this: ";}i:2;i:1274;}i:54;a:3:{i:0;s:14:"emphasis_close";i:1;a:0:{}i:2;i:1327;}i:55;a:3:{i:0;s:5:"cdata";i:1;a:1:{i:0;s:0:"";}i:2;i:1329;}i:56;a:3:{i:0;s:7:"p_close";i:1;a:0:{}i:2;i:1332;}i:57;a:3:{i:0;s:12:"preformatted";i:1;a:1:{i:0;s:159:"ssh 192.168.1.3 -v
mkdir .ssh
chmod 700 .ssh
cd .ssh
touch authorized_keys
chmod 600 authorized_keys
cat ../identity.pub >> authorized_keys
rm ../identity.pub
";}i:2;i:1332;}i:58;a:3:{i:0;s:6:"p_open";i:1;a:0:{}i:2;i:1332;}i:59;a:3:{i:0;s:13:"emphasis_open";i:1;a:0:{}i:2;i:1511;}i:60;a:3:{i:0;s:5:"cdata";i:1;a:1:{i:0;s:50:"Placing the key for version 2 works about the same";}i:2;i:1513;}i:61;a:3:{i:0;s:14:"emphasis_close";i:1;a:0:{}i:2;i:1563;}i:62;a:3:{i:0;s:5:"cdata";i:1;a:1:{i:0;s:10:"
  cd .ssh";}i:2;i:1565;}i:63;a:3:{i:0;s:7:"p_close";i:1;a:0:{}i:2;i:1576;}i:64;a:3:{i:0;s:12:"preformatted";i:1;a:1:{i:0;s:105:"touch authorized_keys2
chmod 600 authorized_keys2
cat ../id_dsa.pub >> authorized_keys2
rm ../id_dsa.pub
";}i:2;i:1576;}i:65;a:3:{i:0;s:6:"p_open";i:1;a:0:{}i:2;i:1576;}i:66;a:3:{i:0;s:14:"underline_open";i:1;a:0:{}i:2;i:1693;}i:67;a:3:{i:0;s:5:"cdata";i:1;a:1:{i:0;s:21:"Log in using your key";}i:2;i:1695;}i:68;a:3:{i:0;s:15:"underline_close";i:1;a:0:{}i:2;i:1716;}i:69;a:3:{i:0;s:7:"p_close";i:1;a:0:{}i:2;i:1718;}i:70;a:3:{i:0;s:6:"p_open";i:1;a:0:{}i:2;i:1718;}i:71;a:3:{i:0;s:5:"cdata";i:1;a:1:{i:0;s:17:"ssh -1 -v root@IP";}i:2;i:1723;}i:72;a:3:{i:0;s:7:"p_close";i:1;a:0:{}i:2;i:1740;}i:73;a:3:{i:0;s:6:"p_open";i:1;a:0:{}i:2;i:1740;}i:74;a:3:{i:0;s:5:"cdata";i:1;a:1:{i:0;s:17:"ssh -2 -v root@IP";}i:2;i:1742;}i:75;a:3:{i:0;s:7:"p_close";i:1;a:0:{}i:2;i:1742;}i:76;a:3:{i:0;s:12:"document_end";i:1;a:0:{}i:2;i:1742;}}