a:35:{i:0;a:3:{i:0;s:14:"document_start";i:1;a:0:{}i:2;i:0;}i:1;a:3:{i:0;s:6:"p_open";i:1;a:0:{}i:2;i:0;}i:2;a:3:{i:0;s:5:"cdata";i:1;a:1:{i:0;s:29:"Check if blocked in Iptables
";}i:2;i:2;}i:3;a:3:{i:0;s:11:"strong_open";i:1;a:0:{}i:2;i:31;}i:4;a:3:{i:0;s:5:"cdata";i:1;a:1:{i:0;s:25:"iptables -Vnl | grep [IP]";}i:2;i:33;}i:5;a:3:{i:0;s:12:"strong_close";i:1;a:0:{}i:2;i:58;}i:6;a:3:{i:0;s:7:"p_close";i:1;a:0:{}i:2;i:60;}i:7;a:3:{i:0;s:6:"p_open";i:1;a:0:{}i:2;i:60;}i:8;a:3:{i:0;s:5:"cdata";i:1;a:1:{i:0;s:21:"check in CS Firewall
";}i:2;i:62;}i:9;a:3:{i:0;s:11:"strong_open";i:1;a:0:{}i:2;i:83;}i:10;a:3:{i:0;s:5:"cdata";i:1;a:1:{i:0;s:12:"csf -g [IP]
";}i:2;i:85;}i:11;a:3:{i:0;s:12:"strong_close";i:1;a:0:{}i:2;i:97;}i:12;a:3:{i:0;s:5:"cdata";i:1;a:1:{i:0;s:28:"
Remove from CSF, If exist.
";}i:2;i:99;}i:13;a:3:{i:0;s:11:"strong_open";i:1;a:0:{}i:2;i:127;}i:14;a:3:{i:0;s:5:"cdata";i:1;a:1:{i:0;s:12:"csf -dr [IP]";}i:2;i:129;}i:15;a:3:{i:0;s:12:"strong_close";i:1;a:0:{}i:2;i:141;}i:16;a:3:{i:0;s:7:"p_close";i:1;a:0:{}i:2;i:143;}i:17;a:3:{i:0;s:6:"p_open";i:1;a:0:{}i:2;i:143;}i:18;a:3:{i:0;s:5:"cdata";i:1;a:1:{i:0;s:19:"Make it white list
";}i:2;i:145;}i:19;a:3:{i:0;s:11:"strong_open";i:1;a:0:{}i:2;i:164;}i:20;a:3:{i:0;s:5:"cdata";i:1;a:1:{i:0;s:11:"csf -a [IP]";}i:2;i:166;}i:21;a:3:{i:0;s:12:"strong_close";i:1;a:0:{}i:2;i:177;}i:22;a:3:{i:0;s:7:"p_close";i:1;a:0:{}i:2;i:179;}i:23;a:3:{i:0;s:6:"p_open";i:1;a:0:{}i:2;i:179;}i:24;a:3:{i:0;s:5:"cdata";i:1;a:1:{i:0;s:13:"restart CSF.
";}i:2;i:181;}i:25;a:3:{i:0;s:11:"strong_open";i:1;a:0:{}i:2;i:194;}i:26;a:3:{i:0;s:5:"cdata";i:1;a:1:{i:0;s:6:"csf -r";}i:2;i:196;}i:27;a:3:{i:0;s:12:"strong_close";i:1;a:0:{}i:2;i:202;}i:28;a:3:{i:0;s:7:"p_close";i:1;a:0:{}i:2;i:204;}i:29;a:3:{i:0;s:6:"p_open";i:1;a:0:{}i:2;i:204;}i:30;a:3:{i:0;s:5:"cdata";i:1;a:1:{i:0;s:4:"DONE";}i:2;i:206;}i:31;a:3:{i:0;s:6:"entity";i:1;a:1:{i:0;s:3:"...";}i:2;i:210;}i:32;a:3:{i:0;s:5:"cdata";i:1;a:1:{i:0;s:1:".";}i:2;i:213;}i:33;a:3:{i:0;s:7:"p_close";i:1;a:0:{}i:2;i:213;}i:34;a:3:{i:0;s:12:"document_end";i:1;a:0:{}i:2;i:213;}}