a:34:{i:0;a:3:{i:0;s:14:"document_start";i:1;a:0:{}i:2;i:0;}i:1;a:3:{i:0;s:6:"header";i:1;a:3:{i:0;s:16:"Zimbra Migration";i:1;i:1;i:2;i:1;}i:2;i:1;}i:2;a:3:{i:0;s:12:"section_open";i:1;a:1:{i:0;i:1;}i:2;i:1;}i:3;a:3:{i:0;s:6:"p_open";i:1;a:0:{}i:2;i:1;}i:4;a:3:{i:0;s:5:"cdata";i:1;a:1:{i:0;s:39:"1. Create destination server with same ";}i:2;i:33;}i:5;a:3:{i:0;s:7:"acronym";i:1;a:1:{i:0;s:2:"OS";}i:2;i:72;}i:6;a:3:{i:0;s:5:"cdata";i:1;a:1:{i:0;s:52:" as source and install exact same version of zimbra.";}i:2;i:74;}i:7;a:3:{i:0;s:7:"p_close";i:1;a:0:{}i:2;i:126;}i:8;a:3:{i:0;s:6:"p_open";i:1;a:0:{}i:2;i:126;}i:9;a:3:{i:0;s:5:"cdata";i:1;a:1:{i:0;s:80:"2. Make the same hostname on destination and change /etc/hosts file accordingly.";}i:2;i:128;}i:10;a:3:{i:0;s:7:"p_close";i:1;a:0:{}i:2;i:208;}i:11;a:3:{i:0;s:6:"p_open";i:1;a:0:{}i:2;i:208;}i:12;a:3:{i:0;s:5:"cdata";i:1;a:1:{i:0;s:81:"3. Stop zimbra on destination and rename directory /opt/zimbra to /opt/zimbra-old";}i:2;i:210;}i:13;a:3:{i:0;s:7:"p_close";i:1;a:0:{}i:2;i:291;}i:14;a:3:{i:0;s:6:"p_open";i:1;a:0:{}i:2;i:291;}i:15;a:3:{i:0;s:5:"cdata";i:1;a:1:{i:0;s:98:"4. Run following command on source server to reduce DB spare size while copy (keep zimbra running)";}i:2;i:293;}i:16;a:3:{i:0;s:7:"p_close";i:1;a:0:{}i:2;i:391;}i:17;a:3:{i:0;s:12:"preformatted";i:1;a:1:{i:0;s:48:"      zmlocalconfig -e ldap_db_maxsize=134217728";}i:2;i:391;}i:18;a:3:{i:0;s:6:"p_open";i:1;a:0:{}i:2;i:391;}i:19;a:3:{i:0;s:5:"cdata";i:1;a:1:{i:0;s:57:"5. Now stop zimbra on source and change directory to /opt";}i:2;i:443;}i:20;a:3:{i:0;s:7:"p_close";i:1;a:0:{}i:2;i:500;}i:21;a:3:{i:0;s:6:"p_open";i:1;a:0:{}i:2;i:500;}i:22;a:3:{i:0;s:5:"cdata";i:1;a:1:{i:0;s:91:"6. Now run following command to sync zimbra folder onto destination excluding DB directory.";}i:2;i:502;}i:23;a:3:{i:0;s:7:"p_close";i:1;a:0:{}i:2;i:593;}i:24;a:3:{i:0;s:12:"preformatted";i:1;a:1:{i:0;s:60:"       rsync -avh zimbra root@<destination IP>:/opt/        ";}i:2;i:593;}i:25;a:3:{i:0;s:6:"p_open";i:1;a:0:{}i:2;i:593;}i:26;a:3:{i:0;s:5:"cdata";i:1;a:1:{i:0;s:55:"7. after rsync completion, start zimbra on destination.";}i:2;i:657;}i:27;a:3:{i:0;s:7:"p_close";i:1;a:0:{}i:2;i:712;}i:28;a:3:{i:0;s:6:"p_open";i:1;a:0:{}i:2;i:712;}i:29;a:3:{i:0;s:5:"cdata";i:1;a:1:{i:0;s:152:"NOTE: IF you get error while starting the zimbra services then kindly check the hostname zimbra trying to start and add a /etc/hosts entry for the same.";}i:2;i:714;}i:30;a:3:{i:0;s:7:"p_close";i:1;a:0:{}i:2;i:866;}i:31;a:3:{i:0;s:12:"preformatted";i:1;a:1:{i:0;s:207:"      
      
      If mail sending now working on new server ( in case hostname and IP changed) then follow below
      link to take care of the issue.
      https://wiki.zimbra.com/wiki/ZimbraMtaMyNetworks";}i:2;i:866;}i:32;a:3:{i:0;s:13:"section_close";i:1;a:0:{}i:2;i:866;}i:33;a:3:{i:0;s:12:"document_end";i:1;a:0:{}i:2;i:866;}}