a:61:{i:0;a:3:{i:0;s:14:"document_start";i:1;a:0:{}i:2;i:0;}i:1;a:3:{i:0;s:6:"p_open";i:1;a:0:{}i:2;i:0;}i:2;a:3:{i:0;s:5:"cdata";i:1;a:1:{i:0;s:77:"Requirement 1: Install and maintain a firewall configuration to protect data ";}i:2;i:1;}i:3;a:3:{i:0;s:7:"p_close";i:1;a:0:{}i:2;i:78;}i:4;a:3:{i:0;s:6:"p_open";i:1;a:0:{}i:2;i:78;}i:5;a:3:{i:0;s:5:"cdata";i:1;a:1:{i:0;s:225:"1.1.4 (a) Is a firewall required and implemented at each Internet connection and between any demilitarized zone (DMZ) and the internal network zone? 
A software firewall (using iptables) is installed and maintained on server.";}i:2;i:81;}i:6;a:3:{i:0;s:7:"p_close";i:1;a:0:{}i:2;i:306;}i:7;a:3:{i:0;s:6:"p_open";i:1;a:0:{}i:2;i:306;}i:8;a:3:{i:0;s:5:"cdata";i:1;a:1:{i:0;s:156:"1.1.4 (b) Is the current network diagram consistent with the firewall configuration standards? 
We maintain and monitor firewalls for all eCommerce clients.";}i:2;i:309;}i:9;a:3:{i:0;s:7:"p_close";i:1;a:0:{}i:2;i:465;}i:10;a:3:{i:0;s:6:"p_open";i:1;a:0:{}i:2;i:465;}i:11;a:3:{i:0;s:5:"cdata";i:1;a:1:{i:0;s:352:"1.1.6 (a) Do firewall and router configuration standards include a documented list of services, protocols, and ports, including business justification (for example, hypertext transfer protocol (HTTP), Secure Sockets Layer (SSL), Secure Shell (SSH), and Virtual Private Network (VPN) protocols)? 
Yes, only required protocols/ports are open in firewall.";}i:2;i:468;}i:12;a:3:{i:0;s:7:"p_close";i:1;a:0:{}i:2;i:820;}i:13;a:3:{i:0;s:6:"p_open";i:1;a:0:{}i:2;i:820;}i:14;a:3:{i:0;s:5:"cdata";i:1;a:1:{i:0;s:202:"1.1.6 (b) Are all insecure services, protocols, and ports identified, and are security features documented and implemented for each identified service? 
All other protocols/ports are blocked by default.";}i:2;i:823;}i:15;a:3:{i:0;s:7:"p_close";i:1;a:0:{}i:2;i:1025;}i:16;a:3:{i:0;s:6:"p_open";i:1;a:0:{}i:2;i:1025;}i:17;a:3:{i:0;s:5:"cdata";i:1;a:1:{i:0;s:122:"1.2.1 (a) Is inbound and outbound traffic restricted to that which is necessary for the cardholder data environment? 
Yes.";}i:2;i:1028;}i:18;a:3:{i:0;s:7:"p_close";i:1;a:0:{}i:2;i:1150;}i:19;a:3:{i:0;s:6:"p_open";i:1;a:0:{}i:2;i:1150;}i:20;a:3:{i:0;s:5:"cdata";i:1;a:1:{i:0;s:200:"1.2.1 (b) Is all other inbound and outbound traffic specifically denied (for example by using an explicit “deny all” or an implicit deny after allow statement)? 
Deny all for all ports not in use.";}i:2;i:1153;}i:21;a:3:{i:0;s:7:"p_close";i:1;a:0:{}i:2;i:1353;}i:22;a:3:{i:0;s:6:"p_open";i:1;a:0:{}i:2;i:1353;}i:23;a:3:{i:0;s:5:"cdata";i:1;a:1:{i:0;s:183:"1.3.4 Are anti-spoofing measures implemented to detect and block forged sourced IP addresses from entering the network? 
Internal addresses cannot pass from the internet into the DMZ.";}i:2;i:1356;}i:24;a:3:{i:0;s:7:"p_close";i:1;a:0:{}i:2;i:1539;}i:25;a:3:{i:0;s:6:"p_open";i:1;a:0:{}i:2;i:1539;}i:26;a:3:{i:0;s:5:"cdata";i:1;a:1:{i:0;s:106:"1.3.5 Is outbound traffic from the cardholder data environment to the Internet explicitly authorized? 
No.";}i:2;i:1542;}i:27;a:3:{i:0;s:7:"p_close";i:1;a:0:{}i:2;i:1648;}i:28;a:3:{i:0;s:6:"p_open";i:1;a:0:{}i:2;i:1648;}i:29;a:3:{i:0;s:5:"cdata";i:1;a:1:{i:0;s:183:"1.3.6 Is stateful inspection, also known as dynamic packet filtering, implemented—that is, only established connections are allowed into the network? 
Currently access for HTTP and ";}i:2;i:1651;}i:30;a:3:{i:0;s:7:"acronym";i:1;a:1:{i:0;s:3:"FTP";}i:2;i:1834;}i:31;a:3:{i:0;s:5:"cdata";i:1;a:1:{i:0;s:112:" protocols are allowed for all IP addresses. We can limit this to only limited IP address or ranges if required.";}i:2;i:1837;}i:32;a:3:{i:0;s:7:"p_close";i:1;a:0:{}i:2;i:1949;}i:33;a:3:{i:0;s:6:"p_open";i:1;a:0:{}i:2;i:1949;}i:34;a:3:{i:0;s:5:"cdata";i:1;a:1:{i:0;s:127:"1.3.8 (a) Are methods in place to prevent the disclosure of private IP addresses and routing information to the Internet? 
Yes.";}i:2;i:1952;}i:35;a:3:{i:0;s:7:"p_close";i:1;a:0:{}i:2;i:2079;}i:36;a:3:{i:0;s:6:"p_open";i:1;a:0:{}i:2;i:2079;}i:37;a:3:{i:0;s:5:"cdata";i:1;a:1:{i:0;s:114:"1.3.8 (b) Is any disclosure of private IP addresses and routing information to external entities authorized? 
Yes.";}i:2;i:2082;}i:38;a:3:{i:0;s:7:"p_close";i:1;a:0:{}i:2;i:2196;}i:39;a:3:{i:0;s:6:"p_open";i:1;a:0:{}i:2;i:2196;}i:40;a:3:{i:0;s:5:"cdata";i:1;a:1:{i:0;s:68:"Requirement 6: Develop and maintain secure systems and applications ";}i:2;i:2199;}i:41;a:3:{i:0;s:7:"p_close";i:1;a:0:{}i:2;i:2267;}i:42;a:3:{i:0;s:6:"p_open";i:1;a:0:{}i:2;i:2267;}i:43;a:3:{i:0;s:5:"cdata";i:1;a:1:{i:0;s:120:"6.5.2 Do coding techniques address buffer overflow vulnerabilities? 
This is something code/Magento/application related.";}i:2;i:2269;}i:44;a:3:{i:0;s:7:"p_close";i:1;a:0:{}i:2;i:2389;}i:45;a:3:{i:0;s:6:"p_open";i:1;a:0:{}i:2;i:2389;}i:46;a:3:{i:0;s:5:"cdata";i:1;a:1:{i:0;s:327:"6.6 For public-facing web applications, are new threats and vulnerabilities addressed on an ongoing basis, and are these applications protected against known attacks by applying either of the following methods? 
We inform on any new security patches for Magento. We get server side patches done when required from time to time.";}i:2;i:2392;}i:47;a:3:{i:0;s:7:"p_close";i:1;a:0:{}i:2;i:2719;}i:48;a:3:{i:0;s:6:"p_open";i:1;a:0:{}i:2;i:2719;}i:49;a:3:{i:0;s:5:"cdata";i:1;a:1:{i:0;s:69:"Requirement 8: Identify and authenticate access to system components ";}i:2;i:2722;}i:50;a:3:{i:0;s:7:"p_close";i:1;a:0:{}i:2;i:2791;}i:51;a:3:{i:0;s:6:"p_open";i:1;a:0:{}i:2;i:2791;}i:52;a:3:{i:0;s:5:"cdata";i:1;a:1:{i:0;s:110:"8.1.6 (a Are repeated access attempts limited by locking out the user ID after no more than six attempts?
Yes.";}i:2;i:2793;}i:53;a:3:{i:0;s:7:"p_close";i:1;a:0:{}i:2;i:2903;}i:54;a:3:{i:0;s:6:"p_open";i:1;a:0:{}i:2;i:2903;}i:55;a:3:{i:0;s:5:"cdata";i:1;a:1:{i:0;s:147:"8.1.7 Once a user account is locked out, is the lockout duration set to a minimum of 30 minutes or until an administrator enables the user ID?
Yes.";}i:2;i:2906;}i:56;a:3:{i:0;s:7:"p_close";i:1;a:0:{}i:2;i:3053;}i:57;a:3:{i:0;s:6:"p_open";i:1;a:0:{}i:2;i:3053;}i:58;a:3:{i:0;s:5:"cdata";i:1;a:1:{i:0;s:239:"8.3 Is two-factor authentication incorporated for remote network access originating from outside the network by personnel (including users and administrators) and all third parties (including vendor access for support or maintenance)? 
No.";}i:2;i:3056;}i:59;a:3:{i:0;s:7:"p_close";i:1;a:0:{}i:2;i:3056;}i:60;a:3:{i:0;s:12:"document_end";i:1;a:0:{}i:2;i:3056;}}