a:99:{i:0;a:3:{i:0;s:14:"document_start";i:1;a:0:{}i:2;i:0;}i:1;a:3:{i:0;s:6:"header";i:1;a:3:{i:0;s:14:"Install Zimbra";i:1;i:1;i:2;i:1;}i:2;i:1;}i:2;a:3:{i:0;s:12:"section_open";i:1;a:1:{i:0;i:1;}i:2;i:1;}i:3;a:3:{i:0;s:6:"p_open";i:1;a:0:{}i:2;i:1;}i:4;a:3:{i:0;s:5:"cdata";i:1;a:1:{i:0;s:34:"1. Install Ubuntu 14.04 64 bit as ";}i:2;i:31;}i:5;a:3:{i:0;s:7:"acronym";i:1;a:1:{i:0;s:2:"OS";}i:2;i:65;}i:6;a:3:{i:0;s:5:"cdata";i:1;a:1:{i:0;s:7:" on VM.";}i:2;i:67;}i:7;a:3:{i:0;s:9:"linebreak";i:1;a:0:{}i:2;i:74;}i:8;a:3:{i:0;s:7:"p_close";i:1;a:0:{}i:2;i:76;}i:9;a:3:{i:0;s:6:"p_open";i:1;a:0:{}i:2;i:76;}i:10;a:3:{i:0;s:5:"cdata";i:1;a:1:{i:0;s:88:"2. The hostname of the VM must be set to whatever is required as Zimbra server hostname.";}i:2;i:78;}i:11;a:3:{i:0;s:9:"linebreak";i:1;a:0:{}i:2;i:166;}i:12;a:3:{i:0;s:7:"p_close";i:1;a:0:{}i:2;i:168;}i:13;a:3:{i:0;s:6:"p_open";i:1;a:0:{}i:2;i:168;}i:14;a:3:{i:0;s:5:"cdata";i:1;a:1:{i:0;s:82:"3. Login to ansible master, add the VM IP to ansible hosts and run screen command.";}i:2;i:170;}i:15;a:3:{i:0;s:9:"linebreak";i:1;a:0:{}i:2;i:252;}i:16;a:3:{i:0;s:7:"p_close";i:1;a:0:{}i:2;i:254;}i:17;a:3:{i:0;s:6:"p_open";i:1;a:0:{}i:2;i:254;}i:18;a:3:{i:0;s:5:"cdata";i:1;a:1:{i:0;s:53:"4. If the VM hostname points correctly to VM IP i.e. ";}i:2;i:256;}i:19;a:3:{i:0;s:7:"acronym";i:1;a:1:{i:0;s:3:"DNS";}i:2;i:309;}i:20;a:3:{i:0;s:5:"cdata";i:1;a:1:{i:0;s:78:" resolves correctly for VM hostname, THEN run this command on ansible master:
";}i:2;i:312;}i:21;a:3:{i:0;s:6:"plugin";i:1;a:4:{i:0;s:9:"code_code";i:1;a:4:{i:0;s:4:"code";i:1;N;i:2;s:0:"";i:3;s:79:"ansible-playbook -l <VM_IP> /scripts/zimbra_8.05_install_DNS_set.yml --ask-pass";}i:2;i:3;i:3;s:80:">ansible-playbook -l <VM_IP> /scripts/zimbra_8.05_install_DNS_set.yml --ask-pass";}i:2;i:395;}i:22;a:3:{i:0;s:5:"cdata";i:1;a:1:{i:0;s:84:"
ELSE, if the VM hostname DOES NOT point correctly to VM IP, then run this command:
";}i:2;i:482;}i:23;a:3:{i:0;s:6:"plugin";i:1;a:4:{i:0;s:9:"code_code";i:1;a:4:{i:0;s:4:"code";i:1;N;i:2;s:0:"";i:3;s:71:"ansible-playbook -l <VM_IP> /scripts/zimbra_8.05_install.yml --ask-pass";}i:2;i:3;i:3;s:72:">ansible-playbook -l <VM_IP> /scripts/zimbra_8.05_install.yml --ask-pass";}i:2;i:571;}i:24;a:3:{i:0;s:5:"cdata";i:1;a:1:{i:0;s:28:"
This will do the following:";}i:2;i:650;}i:25;a:3:{i:0;s:7:"p_close";i:1;a:0:{}i:2;i:678;}i:26;a:3:{i:0;s:10:"listu_open";i:1;a:0:{}i:2;i:678;}i:27;a:3:{i:0;s:13:"listitem_open";i:1;a:1:{i:0;i:1;}i:2;i:678;}i:28;a:3:{i:0;s:16:"listcontent_open";i:1;a:0:{}i:2;i:678;}i:29;a:3:{i:0;s:5:"cdata";i:1;a:1:{i:0;s:20:" Install Zimbra 8.05";}i:2;i:684;}i:30;a:3:{i:0;s:17:"listcontent_close";i:1;a:0:{}i:2;i:704;}i:31;a:3:{i:0;s:14:"listitem_close";i:1;a:0:{}i:2;i:704;}i:32;a:3:{i:0;s:13:"listitem_open";i:1;a:1:{i:0;i:2;}i:2;i:704;}i:33;a:3:{i:0;s:16:"listcontent_open";i:1;a:0:{}i:2;i:704;}i:34;a:3:{i:0;s:5:"cdata";i:1;a:1:{i:0;s:57:" Install Zabbix Agent (Configuration of agent is pending)";}i:2;i:710;}i:35;a:3:{i:0;s:17:"listcontent_close";i:1;a:0:{}i:2;i:767;}i:36;a:3:{i:0;s:14:"listitem_close";i:1;a:0:{}i:2;i:767;}i:37;a:3:{i:0;s:11:"listu_close";i:1;a:0:{}i:2;i:767;}i:38;a:3:{i:0;s:6:"p_open";i:1;a:0:{}i:2;i:767;}i:39;a:3:{i:0;s:5:"cdata";i:1;a:1:{i:0;s:42:"5. Change the default admin password from ";}i:2;i:769;}i:40;a:3:{i:0;s:18:"doublequoteopening";i:1;a:0:{}i:2;i:811;}i:41;a:3:{i:0;s:5:"cdata";i:1;a:1:{i:0;s:18:"DefaultZimbra12@34";}i:2;i:812;}i:42;a:3:{i:0;s:18:"doublequoteclosing";i:1;a:0:{}i:2;i:830;}i:43;a:3:{i:0;s:5:"cdata";i:1;a:1:{i:0;s:31:" to a random strong password. (";}i:2;i:831;}i:44;a:3:{i:0;s:12:"externallink";i:1;a:2:{i:0;s:48:"http://wiki.zimbra.com/wiki/Admin_Password_Reset";i:1;N;}i:2;i:862;}i:45;a:3:{i:0;s:5:"cdata";i:1;a:1:{i:0;s:1:")";}i:2;i:910;}i:46;a:3:{i:0;s:9:"linebreak";i:1;a:0:{}i:2;i:911;}i:47;a:3:{i:0;s:7:"p_close";i:1;a:0:{}i:2;i:913;}i:48;a:3:{i:0;s:6:"p_open";i:1;a:0:{}i:2;i:913;}i:49;a:3:{i:0;s:11:"strong_open";i:1;a:0:{}i:2;i:915;}i:50;a:3:{i:0;s:5:"cdata";i:1;a:1:{i:0;s:31:"THINGS to do after installation";}i:2;i:917;}i:51;a:3:{i:0;s:12:"strong_close";i:1;a:0:{}i:2;i:948;}i:52;a:3:{i:0;s:7:"p_close";i:1;a:0:{}i:2;i:950;}i:53;a:3:{i:0;s:6:"p_open";i:1;a:0:{}i:2;i:950;}i:54;a:3:{i:0;s:5:"cdata";i:1;a:1:{i:0;s:30:"1. Set the bounce setting for ";}i:2;i:952;}i:55;a:3:{i:0;s:12:"internallink";i:1;a:2:{i:0;s:46:"zimbra:bouce_message_to_sender_when_over_quota";i:1;s:46:"Bounce Message To Sender If User Quota Is Full";}i:2;i:982;}i:56;a:3:{i:0;s:7:"p_close";i:1;a:0:{}i:2;i:1079;}i:57;a:3:{i:0;s:6:"p_open";i:1;a:0:{}i:2;i:1079;}i:58;a:3:{i:0;s:5:"cdata";i:1;a:1:{i:0;s:31:"2. IMAP and POP3 Port settings.";}i:2;i:1082;}i:59;a:3:{i:0;s:7:"p_close";i:1;a:0:{}i:2;i:1113;}i:60;a:3:{i:0;s:6:"p_open";i:1;a:0:{}i:2;i:1113;}i:61;a:3:{i:0;s:5:"cdata";i:1;a:1:{i:0;s:125:"i)  Login into web panel as admin.
ii) Go to Home-Configure-Global settings-Proxy and set the port as follow and hit on save.";}i:2;i:1115;}i:62;a:3:{i:0;s:7:"p_close";i:1;a:0:{}i:2;i:1240;}i:63;a:3:{i:0;s:12:"preformatted";i:1;a:1:{i:0;s:105:"   Proxy IMAP Port: 8143
   Proxy IMAPS Port: 8993
   Proxy POP3 Port: 8110
   Proxy POP3S Port: 8995
   ";}i:2;i:1240;}i:64;a:3:{i:0;s:6:"p_open";i:1;a:0:{}i:2;i:1240;}i:65;a:3:{i:0;s:5:"cdata";i:1;a:1:{i:0;s:79:"iii) Now go to the Home-Configure-Servers-<server hostname>-Proxy and click on ";}i:2;i:1357;}i:66;a:3:{i:0;s:18:"doublequoteopening";i:1;a:0:{}i:2;i:1436;}i:67;a:3:{i:0;s:5:"cdata";i:1;a:1:{i:0;s:21:"Reset to Global Value";}i:2;i:1437;}i:68;a:3:{i:0;s:18:"doublequoteclosing";i:1;a:0:{}i:2;i:1458;}i:69;a:3:{i:0;s:5:"cdata";i:1;a:1:{i:0;s:15:" for following.";}i:2;i:1459;}i:70;a:3:{i:0;s:7:"p_close";i:1;a:0:{}i:2;i:1475;}i:71;a:3:{i:0;s:12:"preformatted";i:1;a:1:{i:0;s:138:"   Proxy IMAP Port
   Proxy IMAPS Port
   Proxy POP3 Port
   Proxy POP3S Port
   
This will set the port value as mentioned in step (ii).
";}i:2;i:1475;}i:72;a:3:{i:0;s:6:"p_open";i:1;a:0:{}i:2;i:1475;}i:73;a:3:{i:0;s:5:"cdata";i:1;a:1:{i:0;s:78:"iV) Go to the Home-Configure-Servers-<server hostname>-IMAP and set following.";}i:2;i:1629;}i:74;a:3:{i:0;s:7:"p_close";i:1;a:0:{}i:2;i:1707;}i:75;a:3:{i:0;s:12:"preformatted";i:1;a:1:{i:0;s:54:"  IMAP port number: 143
  IMAP SSL port number: 993
  ";}i:2;i:1707;}i:76;a:3:{i:0;s:6:"p_open";i:1;a:0:{}i:2;i:1707;}i:77;a:3:{i:0;s:5:"cdata";i:1;a:1:{i:0;s:76:"v) Go to the Home-Configure-Servers-<server hostname>-POP and set following.";}i:2;i:1769;}i:78;a:3:{i:0;s:7:"p_close";i:1;a:0:{}i:2;i:1846;}i:79;a:3:{i:0;s:12:"preformatted";i:1;a:1:{i:0;s:51:"  POP3 port number: 110
  POP3 SSL port number: 995";}i:2;i:1846;}i:80;a:3:{i:0;s:6:"p_open";i:1;a:0:{}i:2;i:1846;}i:81;a:3:{i:0;s:11:"strong_open";i:1;a:0:{}i:2;i:1904;}i:82;a:3:{i:0;s:5:"cdata";i:1;a:1:{i:0;s:66:"NOTE: Don't forget to hit save after making changes in each steps ";}i:2;i:1906;}i:83;a:3:{i:0;s:12:"strong_close";i:1;a:0:{}i:2;i:1972;}i:84;a:3:{i:0;s:7:"p_close";i:1;a:0:{}i:2;i:1974;}i:85;a:3:{i:0;s:6:"p_open";i:1;a:0:{}i:2;i:1974;}i:86;a:3:{i:0;s:5:"cdata";i:1;a:1:{i:0;s:3:"3. ";}i:2;i:1976;}i:87;a:3:{i:0;s:12:"internallink";i:1;a:2:{i:0;s:23:"zimbra:mail_queue_alert";i:1;s:26:"Mail Queue Alert in Zimbra";}i:2;i:1979;}i:88;a:3:{i:0;s:5:"cdata";i:1;a:1:{i:0;s:27:"Add for queue notification:";}i:2;i:2033;}i:89;a:3:{i:0;s:7:"p_close";i:1;a:0:{}i:2;i:2060;}i:90;a:3:{i:0;s:6:"p_open";i:1;a:0:{}i:2;i:2060;}i:91;a:3:{i:0;s:5:"cdata";i:1;a:1:{i:0;s:41:"4. From Global Settings > AS/AV, uncheck ";}i:2;i:2063;}i:92;a:3:{i:0;s:18:"doublequoteopening";i:1;a:0:{}i:2;i:2104;}i:93;a:3:{i:0;s:5:"cdata";i:1;a:1:{i:0;s:24:"Block Encrypted archives";}i:2;i:2105;}i:94;a:3:{i:0;s:18:"doublequoteclosing";i:1;a:0:{}i:2;i:2129;}i:95;a:3:{i:0;s:5:"cdata";i:1;a:1:{i:0;s:10:" and save.";}i:2;i:2130;}i:96;a:3:{i:0;s:7:"p_close";i:1;a:0:{}i:2;i:2140;}i:97;a:3:{i:0;s:13:"section_close";i:1;a:0:{}i:2;i:2140;}i:98;a:3:{i:0;s:12:"document_end";i:1;a:0:{}i:2;i:2140;}}