a:159:{i:0;a:3:{i:0;s:14:"document_start";i:1;a:0:{}i:2;i:0;}i:1;a:3:{i:0;s:6:"header";i:1;a:3:{i:0;s:35:"Multiple IP script (Webmin+Postfix)";i:1;i:1;i:2;i:1;}i:2;i:1;}i:2;a:3:{i:0;s:12:"section_open";i:1;a:1:{i:0;i:1;}i:2;i:1;}i:3;a:3:{i:0;s:6:"p_open";i:1;a:0:{}i:2;i:1;}i:4;a:3:{i:0;s:5:"cdata";i:1;a:1:{i:0;s:49:"1) Install Webmin on a VPS with CentOS installed!";}i:2;i:54;}i:5;a:3:{i:0;s:7:"p_close";i:1;a:0:{}i:2;i:103;}i:6;a:3:{i:0;s:6:"p_open";i:1;a:0:{}i:2;i:103;}i:7;a:3:{i:0;s:5:"cdata";i:1;a:1:{i:0;s:31:"2) Install required components:";}i:2;i:105;}i:8;a:3:{i:0;s:7:"p_close";i:1;a:0:{}i:2;i:136;}i:9;a:3:{i:0;s:6:"p_open";i:1;a:0:{}i:2;i:136;}i:10;a:3:{i:0;s:5:"cdata";i:1;a:1:{i:0;s:103:"yum install rpm-build gcc db4-devel openldap-devel pcre-devel postgresql-devel cyrus-sasl-devel ed make";}i:2;i:138;}i:11;a:3:{i:0;s:7:"p_close";i:1;a:0:{}i:2;i:241;}i:12;a:3:{i:0;s:6:"p_open";i:1;a:0:{}i:2;i:241;}i:13;a:3:{i:0;s:11:"strong_open";i:1;a:0:{}i:2;i:243;}i:14;a:3:{i:0;s:5:"cdata";i:1;a:1:{i:0;s:20:"Download the package";}i:2;i:245;}i:15;a:3:{i:0;s:12:"strong_close";i:1;a:0:{}i:2;i:265;}i:16;a:3:{i:0;s:7:"p_close";i:1;a:0:{}i:2;i:267;}i:17;a:3:{i:0;s:6:"p_open";i:1;a:0:{}i:2;i:267;}i:18;a:3:{i:0;s:5:"cdata";i:1;a:1:{i:0;s:5:"wget ";}i:2;i:269;}i:19;a:3:{i:0;s:12:"externallink";i:1;a:2:{i:0;s:61:"http://ftp.wl0.org/official/2.9/SRPMS/postfix-2.9.1-1.src.rpm";i:1;N;}i:2;i:274;}i:20;a:3:{i:0;s:7:"p_close";i:1;a:0:{}i:2;i:335;}i:21;a:3:{i:0;s:6:"p_open";i:1;a:0:{}i:2;i:335;}i:22;a:3:{i:0;s:11:"strong_open";i:1;a:0:{}i:2;i:337;}i:23;a:3:{i:0;s:5:"cdata";i:1;a:1:{i:0;s:30:"Execute the following commands";}i:2;i:339;}i:24;a:3:{i:0;s:12:"strong_close";i:1;a:0:{}i:2;i:369;}i:25;a:3:{i:0;s:7:"p_close";i:1;a:0:{}i:2;i:371;}i:26;a:3:{i:0;s:6:"p_open";i:1;a:0:{}i:2;i:371;}i:27;a:3:{i:0;s:6:"plugin";i:1;a:4:{i:0;s:9:"code_code";i:1;a:4:{i:0;s:4:"code";i:1;N;i:2;s:0:"";i:3;s:273:"
rpm -Uvh postfix-2.9.1-1.src.rpm
cd `rpm --eval '%{_sourcedir}'`
export POSTFIX_LDAP=1
export POSTFIX_MYSQL_REDHAT=1
export POSTFIX_PCRE=1
export POSTFIX_PGSQL=1
export POSTFIX_RBL_MAPS=1
export POSTFIX_SASL=2
export POSTFIX_TLS=1
export POSTFIX_VDA=1
export POSTFIX_DB=4
";}i:2;i:3;i:3;s:274:">
rpm -Uvh postfix-2.9.1-1.src.rpm
cd `rpm --eval '%{_sourcedir}'`
export POSTFIX_LDAP=1
export POSTFIX_MYSQL_REDHAT=1
export POSTFIX_PCRE=1
export POSTFIX_PGSQL=1
export POSTFIX_RBL_MAPS=1
export POSTFIX_SASL=2
export POSTFIX_TLS=1
export POSTFIX_VDA=1
export POSTFIX_DB=4
";}i:2;i:378;}i:28;a:3:{i:0;s:7:"p_close";i:1;a:0:{}i:2;i:659;}i:29;a:3:{i:0;s:6:"p_open";i:1;a:0:{}i:2;i:659;}i:30;a:3:{i:0;s:6:"plugin";i:1;a:4:{i:0;s:9:"code_code";i:1;a:4:{i:0;s:4:"code";i:1;N;i:2;s:0:"";i:3;s:103:"
$ sh `rpm --eval '%{_sourcedir}'`/make-postfix.spec
$ cd `rpm --eval '%{_specdir}'`
$ vi postfix.spec
";}i:2;i:3;i:3;s:104:">
$ sh `rpm --eval '%{_sourcedir}'`/make-postfix.spec
$ cd `rpm --eval '%{_specdir}'`
$ vi postfix.spec
";}i:2;i:672;}i:31;a:3:{i:0;s:7:"p_close";i:1;a:0:{}i:2;i:783;}i:32;a:3:{i:0;s:6:"p_open";i:1;a:0:{}i:2;i:783;}i:33;a:3:{i:0;s:5:"cdata";i:1;a:1:{i:0;s:37:"Search for CCARGS variable (line 376)";}i:2;i:787;}i:34;a:3:{i:0;s:7:"p_close";i:1;a:0:{}i:2;i:824;}i:35;a:3:{i:0;s:6:"p_open";i:1;a:0:{}i:2;i:824;}i:36;a:3:{i:0;s:5:"cdata";i:1;a:1:{i:0;s:23:"Default value is empty.";}i:2;i:826;}i:37;a:3:{i:0;s:7:"p_close";i:1;a:0:{}i:2;i:849;}i:38;a:3:{i:0;s:6:"p_open";i:1;a:0:{}i:2;i:849;}i:39;a:3:{i:0;s:5:"cdata";i:1;a:1:{i:0;s:15:"modify to this:";}i:2;i:851;}i:40;a:3:{i:0;s:7:"p_close";i:1;a:0:{}i:2;i:866;}i:41;a:3:{i:0;s:6:"p_open";i:1;a:0:{}i:2;i:866;}i:42;a:3:{i:0;s:6:"plugin";i:1;a:4:{i:0;s:9:"code_code";i:1;a:4:{i:0;s:4:"code";i:1;N;i:2;s:0:"";i:3;s:21:"
CCARGS="-DSNAPSHOT" ";}i:2;i:3;i:3;s:22:">
CCARGS="-DSNAPSHOT" ";}i:2;i:876;}i:43;a:3:{i:0;s:7:"p_close";i:1;a:0:{}i:2;i:905;}i:44;a:3:{i:0;s:6:"p_open";i:1;a:0:{}i:2;i:905;}i:45;a:3:{i:0;s:5:"cdata";i:1;a:1:{i:0;s:39:"Also Make following changes in postfix.";}i:2;i:909;}i:46;a:3:{i:0;s:7:"acronym";i:1;a:1:{i:0;s:4:"spec";}i:2;i:948;}i:47;a:3:{i:0;s:5:"cdata";i:1;a:1:{i:0;s:76:"
Replace all rhel5 to rhel6
Comment out lines with greeting.patch
#Patch99: ";}i:2;i:952;}i:48;a:3:{i:0;s:12:"externallink";i:1;a:2:{i:0;s:64:"ftp://ftp.wl0.org/SOURCES/postfix-2.8.3-multiline-greeting.patch";i:1;N;}i:2;i:1028;}i:49;a:3:{i:0;s:5:"cdata";i:1;a:1:{i:0;s:164:"
#%patch99  -p1 -b .multiline
Comment out lines with patch5 OR Patch5
#%patch5 -p1 -b .notls
#Patch5: postfix-makedefs.patch
Comment out lines for Patch4
#Patch4:  ";}i:2;i:1092;}i:50;a:3:{i:0;s:12:"externallink";i:1;a:2:{i:0;s:40:"http://vda.sourceforge.net/VDA/postfix-%";i:1;N;}i:2;i:1256;}i:51;a:3:{i:0;s:5:"cdata";i:1;a:1:{i:0;s:40:"{V_vda}-vda-ng.patch.gz
#%if %{with_vda}";}i:2;i:1296;}i:52;a:3:{i:0;s:7:"p_close";i:1;a:0:{}i:2;i:1336;}i:53;a:3:{i:0;s:6:"p_open";i:1;a:0:{}i:2;i:1336;}i:54;a:3:{i:0;s:5:"cdata";i:1;a:1:{i:0;s:63:"#  test -e  %{_sourcedir}/postfix-%{V_vda}-vda-ng.patch.gz && \";}i:2;i:1338;}i:55;a:3:{i:0;s:7:"p_close";i:1;a:0:{}i:2;i:1401;}i:56;a:3:{i:0;s:6:"p_open";i:1;a:0:{}i:2;i:1401;}i:57;a:3:{i:0;s:5:"cdata";i:1;a:1:{i:0;s:74:"#  gzip -dc %{_sourcedir}/postfix-%{V_vda}-vda-ng.patch.gz | patch -p1 -b ";}i:2;i:1403;}i:58;a:3:{i:0;s:6:"entity";i:1;a:1:{i:0;s:2:"--";}i:2;i:1477;}i:59;a:3:{i:0;s:5:"cdata";i:1;a:1:{i:0;s:19:"suffix .vda -s || \";}i:2;i:1479;}i:60;a:3:{i:0;s:7:"p_close";i:1;a:0:{}i:2;i:1498;}i:61;a:3:{i:0;s:6:"p_open";i:1;a:0:{}i:2;i:1498;}i:62;a:3:{i:0;s:5:"cdata";i:1;a:1:{i:0;s:9:"#    die ";}i:2;i:1500;}i:63;a:3:{i:0;s:18:"doublequoteopening";i:1;a:0:{}i:2;i:1509;}i:64;a:3:{i:0;s:5:"cdata";i:1;a:1:{i:0;s:82:"POSTFIX RPM: %{_sourcedir}/postfix-%{V_vda}-vda.patch.gz not found or patch failed";}i:2;i:1510;}i:65;a:3:{i:0;s:18:"doublequoteclosing";i:1;a:0:{}i:2;i:1592;}i:66;a:3:{i:0;s:7:"p_close";i:1;a:0:{}i:2;i:1593;}i:67;a:3:{i:0;s:6:"p_open";i:1;a:0:{}i:2;i:1593;}i:68;a:3:{i:0;s:5:"cdata";i:1;a:1:{i:0;s:7:"#%endif";}i:2;i:1595;}i:69;a:3:{i:0;s:7:"p_close";i:1;a:0:{}i:2;i:1602;}i:70;a:3:{i:0;s:6:"p_open";i:1;a:0:{}i:2;i:1602;}i:71;a:3:{i:0;s:11:"strong_open";i:1;a:0:{}i:2;i:1606;}i:72;a:3:{i:0;s:5:"cdata";i:1;a:1:{i:0;s:31:"After Changes Execute Following";}i:2;i:1608;}i:73;a:3:{i:0;s:12:"strong_close";i:1;a:0:{}i:2;i:1639;}i:74;a:3:{i:0;s:7:"p_close";i:1;a:0:{}i:2;i:1641;}i:75;a:3:{i:0;s:6:"p_open";i:1;a:0:{}i:2;i:1641;}i:76;a:3:{i:0;s:6:"plugin";i:1;a:4:{i:0;s:9:"code_code";i:1;a:4:{i:0;s:4:"code";i:1;N;i:2;s:0:"";i:3;s:89:"
$ rpmbuild -ba postfix.spec
$ rpm -Uvh `rpm --eval'%{_rpmdir}'`../x86_64/postfix-...rpm
";}i:2;i:3;i:3;s:90:">
$ rpmbuild -ba postfix.spec
$ rpm -Uvh `rpm --eval'%{_rpmdir}'`../x86_64/postfix-...rpm
";}i:2;i:1648;}i:77;a:3:{i:0;s:7:"p_close";i:1;a:0:{}i:2;i:1745;}i:78;a:3:{i:0;s:6:"p_open";i:1;a:0:{}i:2;i:1745;}i:79;a:3:{i:0;s:5:"cdata";i:1;a:1:{i:0;s:44:"Now test if tcp is compiled with postconf -m";}i:2;i:1747;}i:80;a:3:{i:0;s:7:"p_close";i:1;a:0:{}i:2;i:1791;}i:81;a:3:{i:0;s:6:"p_open";i:1;a:0:{}i:2;i:1791;}i:82;a:3:{i:0;s:5:"cdata";i:1;a:1:{i:0;s:68:"If successfully installed there will be tcp in the output of command";}i:2;i:1793;}i:83;a:3:{i:0;s:7:"p_close";i:1;a:0:{}i:2;i:1861;}i:84;a:3:{i:0;s:6:"p_open";i:1;a:0:{}i:2;i:1861;}i:85;a:3:{i:0;s:6:"plugin";i:1;a:4:{i:0;s:9:"code_code";i:1;a:4:{i:0;s:4:"code";i:1;N;i:2;s:0:"";i:3;s:98:"
$ postconf -m
btree
cdb
cidr
environ
hash
ldap
mysql
nis
pcre
pgsql
proxy
regexp
static
tcp
unix
";}i:2;i:3;i:3;s:99:">
$ postconf -m
btree
cdb
cidr
environ
hash
ldap
mysql
nis
pcre
pgsql
proxy
regexp
static
tcp
unix
";}i:2;i:1869;}i:86;a:3:{i:0;s:7:"p_close";i:1;a:0:{}i:2;i:1975;}i:87;a:3:{i:0;s:6:"p_open";i:1;a:0:{}i:2;i:1975;}i:88;a:3:{i:0;s:11:"strong_open";i:1;a:0:{}i:2;i:1977;}i:89;a:3:{i:0;s:5:"cdata";i:1;a:1:{i:0;s:26:"Now Implement this script:";}i:2;i:1979;}i:90;a:3:{i:0;s:12:"strong_close";i:1;a:0:{}i:2;i:2005;}i:91;a:3:{i:0;s:7:"p_close";i:1;a:0:{}i:2;i:2007;}i:92;a:3:{i:0;s:6:"p_open";i:1;a:0:{}i:2;i:2007;}i:93;a:3:{i:0;s:6:"plugin";i:1;a:4:{i:0;s:9:"code_code";i:1;a:4:{i:0;s:4:"code";i:1;N;i:2;s:0:"";i:3;s:34:"
# cd /etc/postfix
# vi random.pl ";}i:2;i:3;i:3;s:35:">
# cd /etc/postfix
# vi random.pl ";}i:2;i:2017;}i:94;a:3:{i:0;s:7:"p_close";i:1;a:0:{}i:2;i:2059;}i:95;a:3:{i:0;s:6:"p_open";i:1;a:0:{}i:2;i:2059;}i:96;a:3:{i:0;s:6:"plugin";i:1;a:4:{i:0;s:9:"code_code";i:1;a:4:{i:0;s:4:"code";i:1;N;i:2;s:0:"";i:3;s:779:"
#!/usr/bin/perl -w
# author: Hari Hendaryanto <hari.h -at- csmcom.com>
 
use strict;
use warnings;
use Sys::Syslog qw(:DEFAULT setlogsock);
 
#
# our transports array, we will define this in master.cf as transport services
#
 
our @array = (
'rotate1:',
'rotate2:',
'rotate3:',
'rotate4:',
'rotate5:'
);
 
#
# Initalize and open syslog.
#
openlog('postfix/randomizer','pid','mail');
 
#
# Autoflush standard output.
#
select STDOUT; $|++;
 
while (<>) {
        chomp;
        # randomizing transports array
        my $random_smtp = int(rand(scalar(@array)));
        if (/^get\s(.+)$/i) {
                print "200 $array[$random_smtp]\n";
                syslog("info","Using: %s Transport Service", $random_smtp);
                next;
        }
 
    print "200 smtp:";
}
";}i:2;i:3;i:3;s:780:">
#!/usr/bin/perl -w
# author: Hari Hendaryanto <hari.h -at- csmcom.com>
 
use strict;
use warnings;
use Sys::Syslog qw(:DEFAULT setlogsock);
 
#
# our transports array, we will define this in master.cf as transport services
#
 
our @array = (
'rotate1:',
'rotate2:',
'rotate3:',
'rotate4:',
'rotate5:'
);
 
#
# Initalize and open syslog.
#
openlog('postfix/randomizer','pid','mail');
 
#
# Autoflush standard output.
#
select STDOUT; $|++;
 
while (<>) {
        chomp;
        # randomizing transports array
        my $random_smtp = int(rand(scalar(@array)));
        if (/^get\s(.+)$/i) {
                print "200 $array[$random_smtp]\n";
                syslog("info","Using: %s Transport Service", $random_smtp);
                next;
        }
 
    print "200 smtp:";
}
";}i:2;i:2066;}i:97;a:3:{i:0;s:7:"p_close";i:1;a:0:{}i:2;i:2853;}i:98;a:3:{i:0;s:6:"p_open";i:1;a:0:{}i:2;i:2853;}i:99;a:3:{i:0;s:5:"cdata";i:1;a:1:{i:0;s:18:"Make it executable";}i:2;i:2855;}i:100;a:3:{i:0;s:7:"p_close";i:1;a:0:{}i:2;i:2873;}i:101;a:3:{i:0;s:6:"p_open";i:1;a:0:{}i:2;i:2873;}i:102;a:3:{i:0;s:6:"plugin";i:1;a:4:{i:0;s:9:"code_code";i:1;a:4:{i:0;s:4:"code";i:1;N;i:2;s:0:"";i:3;s:23:"
# chmod 755 random.pl ";}i:2;i:3;i:3;s:24:">
# chmod 755 random.pl ";}i:2;i:2880;}i:103;a:3:{i:0;s:7:"p_close";i:1;a:0:{}i:2;i:2911;}i:104;a:3:{i:0;s:6:"p_open";i:1;a:0:{}i:2;i:2911;}i:105;a:3:{i:0;s:5:"cdata";i:1;a:1:{i:0;s:15:"master.cf parts";}i:2;i:2915;}i:106;a:3:{i:0;s:7:"p_close";i:1;a:0:{}i:2;i:2930;}i:107;a:3:{i:0;s:6:"p_open";i:1;a:0:{}i:2;i:2930;}i:108;a:3:{i:0;s:5:"cdata";i:1;a:1:{i:0;s:49:"Run the scripts via postfix spawn daemon service.";}i:2;i:2932;}i:109;a:3:{i:0;s:7:"p_close";i:1;a:0:{}i:2;i:2981;}i:110;a:3:{i:0;s:6:"p_open";i:1;a:0:{}i:2;i:2981;}i:111;a:3:{i:0;s:6:"plugin";i:1;a:4:{i:0;s:9:"code_code";i:1;a:4:{i:0;s:4:"code";i:1;N;i:2;s:0:"";i:3;s:117:"
127.0.0.1:2527 inet  n       n       n       -       0      spawn
          user=nobody argv=/etc/postfix/random.pl ";}i:2;i:3;i:3;s:118:">
127.0.0.1:2527 inet  n       n       n       -       0      spawn
          user=nobody argv=/etc/postfix/random.pl ";}i:2;i:2989;}i:112;a:3:{i:0;s:7:"p_close";i:1;a:0:{}i:2;i:3114;}i:113;a:3:{i:0;s:6:"p_open";i:1;a:0:{}i:2;i:3114;}i:114;a:3:{i:0;s:5:"cdata";i:1;a:1:{i:0;s:141:"add 5 smtp client services called rotate1, rotate2, rotate3, rotate4, rotate5, that bind to its own ip
address and has uniq syslog/helo name.";}i:2;i:3118;}i:115;a:3:{i:0;s:7:"p_close";i:1;a:0:{}i:2;i:3259;}i:116;a:3:{i:0;s:6:"p_open";i:1;a:0:{}i:2;i:3259;}i:117;a:3:{i:0;s:6:"plugin";i:1;a:4:{i:0;s:9:"code_code";i:1;a:4:{i:0;s:4:"code";i:1;N;i:2;s:0:"";i:3;s:948:"
# random smtp
rotate1  unix -       -       n       -       -       smtp
          -o syslog_name=postfix-rotate1
          -o smtp_helo_name=smtp1.example.com
          -o smtp_bind_address=1.2.3.1
 
rotate2  unix -       -       n       -       -       smtp
          -o syslog_name=postfix-rotate2
          -o smtp_helo_name=smtp2.example.com
          -o smtp_bind_address=1.2.3.2
 
rotate3  unix -       -       n       -       -       smtp
          -o syslog_name=postfix-rotate3
          -o smtp_helo_name=smtp3.example.com
          -o smtp_bind_address=1.2.3.3
 
rotate4  unix -       -       n       -       -       smtp
          -o syslog_name=postfix-rotate4
          -o smtp_helo_name=smtp4.example.com
          -o smtp_bind_address=1.2.3.4
 
rotate5  unix -       -       n       -       -       smtp
          -o syslog_name=postfix-rotate5
          -o smtp_helo_name=smtp5.example.com
          -o smtp_bind_address=1.2.3.5 ";}i:2;i:3;i:3;s:949:">
# random smtp
rotate1  unix -       -       n       -       -       smtp
          -o syslog_name=postfix-rotate1
          -o smtp_helo_name=smtp1.example.com
          -o smtp_bind_address=1.2.3.1
 
rotate2  unix -       -       n       -       -       smtp
          -o syslog_name=postfix-rotate2
          -o smtp_helo_name=smtp2.example.com
          -o smtp_bind_address=1.2.3.2
 
rotate3  unix -       -       n       -       -       smtp
          -o syslog_name=postfix-rotate3
          -o smtp_helo_name=smtp3.example.com
          -o smtp_bind_address=1.2.3.3
 
rotate4  unix -       -       n       -       -       smtp
          -o syslog_name=postfix-rotate4
          -o smtp_helo_name=smtp4.example.com
          -o smtp_bind_address=1.2.3.4
 
rotate5  unix -       -       n       -       -       smtp
          -o syslog_name=postfix-rotate5
          -o smtp_helo_name=smtp5.example.com
          -o smtp_bind_address=1.2.3.5 ";}i:2;i:3267;}i:118;a:3:{i:0;s:7:"p_close";i:1;a:0:{}i:2;i:4223;}i:119;a:3:{i:0;s:6:"p_open";i:1;a:0:{}i:2;i:4223;}i:120;a:3:{i:0;s:5:"cdata";i:1;a:1:{i:0;s:15:"Reload postfix
";}i:2;i:4227;}i:121;a:3:{i:0;s:6:"plugin";i:1;a:4:{i:0;s:9:"code_code";i:1;a:4:{i:0;s:4:"code";i:1;N;i:2;s:0:"";i:3;s:18:"
# postfix reload ";}i:2;i:3;i:3;s:19:">
# postfix reload ";}i:2;i:4247;}i:122;a:3:{i:0;s:5:"cdata";i:1;a:1:{i:0;s:1:" ";}i:2;i:4273;}i:123;a:3:{i:0;s:9:"linebreak";i:1;a:0:{}i:2;i:4274;}i:124;a:3:{i:0;s:5:"cdata";i:1;a:1:{i:0;s:102:"
Run this query fiew times, and you’ll see the perl script will return “random answer” transport";}i:2;i:4276;}i:125;a:3:{i:0;s:7:"p_close";i:1;a:0:{}i:2;i:4378;}i:126;a:3:{i:0;s:6:"p_open";i:1;a:0:{}i:2;i:4378;}i:127;a:3:{i:0;s:6:"plugin";i:1;a:4:{i:0;s:9:"code_code";i:1;a:4:{i:0;s:4:"code";i:1;N;i:2;s:0:"";i:3;s:53:"
# postmap -q "whatever" tcp:127.0.0.1:2527
rotate1: ";}i:2;i:3;i:3;s:54:">
# postmap -q "whatever" tcp:127.0.0.1:2527
rotate1: ";}i:2;i:4386;}i:128;a:3:{i:0;s:7:"p_close";i:1;a:0:{}i:2;i:4447;}i:129;a:3:{i:0;s:6:"p_open";i:1;a:0:{}i:2;i:4447;}i:130;a:3:{i:0;s:6:"plugin";i:1;a:4:{i:0;s:9:"code_code";i:1;a:4:{i:0;s:4:"code";i:1;N;i:2;s:0:"";i:3;s:53:"
# postmap -q "whatever" tcp:127.0.0.1:2527
rotate5: ";}i:2;i:3;i:3;s:54:">
# postmap -q "whatever" tcp:127.0.0.1:2527
rotate5: ";}i:2;i:4459;}i:131;a:3:{i:0;s:7:"p_close";i:1;a:0:{}i:2;i:4520;}i:132;a:3:{i:0;s:6:"p_open";i:1;a:0:{}i:2;i:4520;}i:133;a:3:{i:0;s:5:"cdata";i:1;a:1:{i:0;s:3:"In ";}i:2;i:4524;}i:134;a:3:{i:0;s:11:"strong_open";i:1;a:0:{}i:2;i:4527;}i:135;a:3:{i:0;s:5:"cdata";i:1;a:1:{i:0;s:7:"main.cf";}i:2;i:4529;}i:136;a:3:{i:0;s:12:"strong_close";i:1;a:0:{}i:2;i:4536;}i:137;a:3:{i:0;s:5:"cdata";i:1;a:1:{i:0;s:22:" parts add these lines";}i:2;i:4538;}i:138;a:3:{i:0;s:7:"p_close";i:1;a:0:{}i:2;i:4560;}i:139;a:3:{i:0;s:6:"p_open";i:1;a:0:{}i:2;i:4560;}i:140;a:3:{i:0;s:6:"plugin";i:1;a:4:{i:0;s:9:"code_code";i:1;a:4:{i:0;s:4:"code";i:1;N;i:2;s:0:"";i:3;s:74:"
transport_maps = tcp:[127.0.0.1]:2527
127.0.0.1:2527_time_limit = 3600s
 ";}i:2;i:3;i:3;s:75:">
transport_maps = tcp:[127.0.0.1]:2527
127.0.0.1:2527_time_limit = 3600s
 ";}i:2;i:4568;}i:141;a:3:{i:0;s:7:"p_close";i:1;a:0:{}i:2;i:4650;}i:142;a:3:{i:0;s:6:"p_open";i:1;a:0:{}i:2;i:4650;}i:143;a:3:{i:0;s:5:"cdata";i:1;a:1:{i:0;s:14:"Reload postfix";}i:2;i:4652;}i:144;a:3:{i:0;s:7:"p_close";i:1;a:0:{}i:2;i:4666;}i:145;a:3:{i:0;s:6:"p_open";i:1;a:0:{}i:2;i:4666;}i:146;a:3:{i:0;s:5:"cdata";i:1;a:1:{i:0;s:30:"Original Scripts are following";}i:2;i:4671;}i:147;a:3:{i:0;s:7:"p_close";i:1;a:0:{}i:2;i:4701;}i:148;a:3:{i:0;s:6:"p_open";i:1;a:0:{}i:2;i:4701;}i:149;a:3:{i:0;s:12:"externallink";i:1;a:2:{i:0;s:85:"http://www.kutukupret.com/2009/11/17/centos-5-compile-postfix-with-tcp-table-support/";i:1;N;}i:2;i:4703;}i:150;a:3:{i:0;s:7:"p_close";i:1;a:0:{}i:2;i:4788;}i:151;a:3:{i:0;s:6:"p_open";i:1;a:0:{}i:2;i:4788;}i:152;a:3:{i:0;s:5:"cdata";i:1;a:1:{i:0;s:4:"Then";}i:2;i:4790;}i:153;a:3:{i:0;s:7:"p_close";i:1;a:0:{}i:2;i:4794;}i:154;a:3:{i:0;s:6:"p_open";i:1;a:0:{}i:2;i:4794;}i:155;a:3:{i:0;s:12:"externallink";i:1;a:2:{i:0;s:94:"http://www.kutukupret.com/2010/12/06/postfix-randomizing-outgoing-ip-using-tcp_table-and-perl/";i:1;N;}i:2;i:4796;}i:156;a:3:{i:0;s:7:"p_close";i:1;a:0:{}i:2;i:4890;}i:157;a:3:{i:0;s:13:"section_close";i:1;a:0:{}i:2;i:4892;}i:158;a:3:{i:0;s:12:"document_end";i:1;a:0:{}i:2;i:4892;}}