a:42:{i:0;a:3:{i:0;s:14:"document_start";i:1;a:0:{}i:2;i:0;}i:1;a:3:{i:0;s:6:"header";i:1;a:3:{i:0;s:22:"ShoutCast Server Setup";i:1;i:1;i:2;i:1;}i:2;i:1;}i:2;a:3:{i:0;s:12:"section_open";i:1;a:1:{i:0;i:1;}i:2;i:1;}i:3;a:3:{i:0;s:6:"p_open";i:1;a:0:{}i:2;i:1;}i:4;a:3:{i:0;s:5:"cdata";i:1;a:1:{i:0;s:75:"To setup complete Shoutcast there is need to be configuration on two levels";}i:2;i:40;}i:5;a:3:{i:0;s:7:"p_close";i:1;a:0:{}i:2;i:115;}i:6;a:3:{i:0;s:6:"p_open";i:1;a:0:{}i:2;i:115;}i:7;a:3:{i:0;s:5:"cdata";i:1;a:1:{i:0;s:107:"1. On Server ( where shoutcast server is to be installed)
2. On system (From where streaming is to be done)";}i:2;i:118;}i:8;a:3:{i:0;s:7:"p_close";i:1;a:0:{}i:2;i:225;}i:9;a:3:{i:0;s:6:"p_open";i:1;a:0:{}i:2;i:225;}i:10;a:3:{i:0;s:5:"cdata";i:1;a:1:{i:0;s:70:"On Server
1. Login into the server and make a directory for shoutcast.";}i:2;i:227;}i:11;a:3:{i:0;s:7:"p_close";i:1;a:0:{}i:2;i:297;}i:12;a:3:{i:0;s:12:"preformatted";i:1;a:1:{i:0;s:25:"          mkdir shoutcast";}i:2;i:297;}i:13;a:3:{i:0;s:6:"p_open";i:1;a:0:{}i:2;i:297;}i:14;a:3:{i:0;s:5:"cdata";i:1;a:1:{i:0;s:77:"2. Change the directory and download the latest Linux SHOUTcast server files.";}i:2;i:326;}i:15;a:3:{i:0;s:7:"p_close";i:1;a:0:{}i:2;i:403;}i:16;a:3:{i:0;s:12:"preformatted";i:1;a:1:{i:0;s:121:"           cd shoutcast
           wget http://download.nullsoft.com/shoutcast/tools/sc_serv2_linux_x64_07_31_2011.tar.gz";}i:2;i:403;}i:17;a:3:{i:0;s:6:"p_open";i:1;a:0:{}i:2;i:403;}i:18;a:3:{i:0;s:5:"cdata";i:1;a:1:{i:0;s:21:"3. Extract the files.";}i:2;i:530;}i:19;a:3:{i:0;s:7:"p_close";i:1;a:0:{}i:2;i:551;}i:20;a:3:{i:0;s:12:"preformatted";i:1;a:1:{i:0;s:57:"           tar -zxvf sc_serv2_linux_x64_07_31_2011.tar.gz";}i:2;i:551;}i:21;a:3:{i:0;s:6:"p_open";i:1;a:0:{}i:2;i:551;}i:22;a:3:{i:0;s:5:"cdata";i:1;a:1:{i:0;s:147:"4.There are several .conf files which are used to run the server for different need. Here need just basic server so, just edit sc_serv_basic.conf .";}i:2;i:613;}i:23;a:3:{i:0;s:7:"p_close";i:1;a:0:{}i:2;i:760;}i:24;a:3:{i:0;s:6:"p_open";i:1;a:0:{}i:2;i:760;}i:25;a:3:{i:0;s:5:"cdata";i:1;a:1:{i:0;s:61:"5. Do the following changes in the sc_serv_basic.conf files.
";}i:2;i:762;}i:26;a:3:{i:0;s:6:"plugin";i:1;a:4:{i:0;s:9:"code_code";i:1;a:4:{i:0;s:4:"code";i:1;N;i:2;s:0:"";i:3;s:607:"
              portbase=8000                                                         ;The port would be any according to desire or need. Here we used 8000
              password=<your password>                                    ; This  password  is used by sc_trans or the Winamp dsp plug-in
              adminpassword=<your password>                          ; This password is used for accessing the administation pages
              streamid=1                                                              ; This specify the details of the stream we're going to serve
              streampath=/test.mp3 ";}i:2;i:3;i:3;s:608:">
              portbase=8000                                                         ;The port would be any according to desire or need. Here we used 8000
              password=<your password>                                    ; This  password  is used by sc_trans or the Winamp dsp plug-in
              adminpassword=<your password>                          ; This password is used for accessing the administation pages
              streamid=1                                                              ; This specify the details of the stream we're going to serve
              streampath=/test.mp3 ";}i:2;i:828;}i:27;a:3:{i:0;s:7:"p_close";i:1;a:0:{}i:2;i:1443;}i:28;a:3:{i:0;s:6:"p_open";i:1;a:0:{}i:2;i:1443;}i:29;a:3:{i:0;s:5:"cdata";i:1;a:1:{i:0;s:98:"6. Now save the changes and run the following command to run the server with above configurations.";}i:2;i:1459;}i:30;a:3:{i:0;s:7:"p_close";i:1;a:0:{}i:2;i:1557;}i:31;a:3:{i:0;s:12:"preformatted";i:1;a:1:{i:0;s:55:"             ./sc_serv sc_serv_basic.conf
             ";}i:2;i:1557;}i:32;a:3:{i:0;s:6:"p_open";i:1;a:0:{}i:2;i:1557;}i:33;a:3:{i:0;s:5:"cdata";i:1;a:1:{i:0;s:56:"7. Now open http:<server ip>:8000  . Admin can login by
";}i:2;i:1618;}i:34;a:3:{i:0;s:6:"plugin";i:1;a:4:{i:0;s:9:"code_code";i:1;a:4:{i:0;s:4:"code";i:1;N;i:2;s:0:"";i:3;s:102:"              username: admin
              password: <adminpassword set in step 5 of server section> ";}i:2;i:3;i:3;s:103:">              username: admin
              password: <adminpassword set in step 5 of server section> ";}i:2;i:1679;}i:35;a:3:{i:0;s:7:"p_close";i:1;a:0:{}i:2;i:1789;}i:36;a:3:{i:0;s:6:"p_open";i:1;a:0:{}i:2;i:1789;}i:37;a:3:{i:0;s:5:"cdata";i:1;a:1:{i:0;s:10:"On System
";}i:2;i:1805;}i:38;a:3:{i:0;s:6:"plugin";i:1;a:4:{i:0;s:9:"code_code";i:1;a:4:{i:0;s:4:"code";i:1;N;i:2;s:0:"";i:3;s:1665:"
1. Download and install the Winamp and DSP Winamp Plugin.
              You can download winamp fron http://www.winamp.com/media-player/all  and DSP Winamp Plugin from http://shoutcast.softpedia.com/      
       2. Open the Winamp and Go to the Options->Preferences->Plugins->DSP/Effect   select shoutcast dsp plug-in and hit "Configure active plug-in" (you can simply use Ctrl+p )      
       3. In Output section.
                i. select "output 1" 
                ii. In Connection fill following
                      Address: <IP Address of the Shoutcast server>
                      Port: 8000  
                      Stream ID: <streamid set in step 5 of server section>
                      Username: <left blank>
                      Password: <Password set for Winamp dsp plug-in in step 5 of server section>
                iii. In Yellowpages select "make this server public" and fill rest of your choice
                iv.  In Encoder select "mp3 encoder"      
       4. In Input section select input device of your choice. 
               Winamp ( If you want to broadcast the winamp playing list)
               Soundcard input ( You want to broadcast through system's internal mic)
       5.  Now hit connect and see the status if bits transferring to server.
       6.  If connected successfully, Play any song in your winamp (If selected winamp in input) and goto the site http://<server ip>:8000/
            there would appear a available stream just click that and hit the listen. A .pls file will downloaded, open it with any media player and listen the broadcasting.
  
       7. You can monitor the streaming through admin panel. ";}i:2;i:3;i:3;s:1666:">
1. Download and install the Winamp and DSP Winamp Plugin.
              You can download winamp fron http://www.winamp.com/media-player/all  and DSP Winamp Plugin from http://shoutcast.softpedia.com/      
       2. Open the Winamp and Go to the Options->Preferences->Plugins->DSP/Effect   select shoutcast dsp plug-in and hit "Configure active plug-in" (you can simply use Ctrl+p )      
       3. In Output section.
                i. select "output 1" 
                ii. In Connection fill following
                      Address: <IP Address of the Shoutcast server>
                      Port: 8000  
                      Stream ID: <streamid set in step 5 of server section>
                      Username: <left blank>
                      Password: <Password set for Winamp dsp plug-in in step 5 of server section>
                iii. In Yellowpages select "make this server public" and fill rest of your choice
                iv.  In Encoder select "mp3 encoder"      
       4. In Input section select input device of your choice. 
               Winamp ( If you want to broadcast the winamp playing list)
               Soundcard input ( You want to broadcast through system's internal mic)
       5.  Now hit connect and see the status if bits transferring to server.
       6.  If connected successfully, Play any song in your winamp (If selected winamp in input) and goto the site http://<server ip>:8000/
            there would appear a available stream just click that and hit the listen. A .pls file will downloaded, open it with any media player and listen the broadcasting.
  
       7. You can monitor the streaming through admin panel. ";}i:2;i:1820;}i:39;a:3:{i:0;s:7:"p_close";i:1;a:0:{}i:2;i:3493;}i:40;a:3:{i:0;s:13:"section_close";i:1;a:0:{}i:2;i:3494;}i:41;a:3:{i:0;s:12:"document_end";i:1;a:0:{}i:2;i:3494;}}