a:62:{i:0;a:3:{i:0;s:14:"document_start";i:1;a:0:{}i:2;i:0;}i:1;a:3:{i:0;s:6:"p_open";i:1;a:0:{}i:2;i:0;}i:2;a:3:{i:0;s:5:"cdata";i:1;a:1:{i:0;s:24:"Two ways to go about it.";}i:2;i:1;}i:3;a:3:{i:0;s:7:"p_close";i:1;a:0:{}i:2;i:25;}i:4;a:3:{i:0;s:6:"p_open";i:1;a:0:{}i:2;i:25;}i:5;a:3:{i:0;s:11:"strong_open";i:1;a:0:{}i:2;i:27;}i:6;a:3:{i:0;s:5:"cdata";i:1;a:1:{i:0;s:3:"ONE";}i:2;i:29;}i:7;a:3:{i:0;s:12:"strong_close";i:1;a:0:{}i:2;i:32;}i:8;a:3:{i:0;s:9:"linebreak";i:1;a:0:{}i:2;i:34;}i:9;a:3:{i:0;s:5:"cdata";i:1;a:1:{i:0;s:14:"
Go to AdminCP";}i:2;i:36;}i:10;a:3:{i:0;s:9:"linebreak";i:1;a:0:{}i:2;i:50;}i:11;a:3:{i:0;s:5:"cdata";i:1;a:1:{i:0;s:18:"
Click on settings";}i:2;i:52;}i:12;a:3:{i:0;s:9:"linebreak";i:1;a:0:{}i:2;i:70;}i:13;a:3:{i:0;s:5:"cdata";i:1;a:1:{i:0;s:18:"
Edit the product ";}i:2;i:72;}i:14;a:3:{i:0;s:7:"acronym";i:1;a:1:{i:0;s:3:"URL";}i:2;i:90;}i:15;a:3:{i:0;s:9:"linebreak";i:1;a:0:{}i:2;i:93;}i:16;a:3:{i:0;s:5:"cdata";i:1;a:1:{i:0;s:31:"
Move the files to new location";}i:2;i:95;}i:17;a:3:{i:0;s:9:"linebreak";i:1;a:0:{}i:2;i:126;}i:18;a:3:{i:0;s:5:"cdata";i:1;a:1:{i:0;s:28:"
Delete Cache and Logs from ";}i:2;i:128;}i:19;a:3:{i:0;s:18:"doublequoteopening";i:1;a:0:{}i:2;i:156;}i:20;a:3:{i:0;s:5:"cdata";i:1;a:1:{i:0;s:1:"/";}i:2;i:157;}i:21;a:3:{i:0;s:14:"underline_open";i:1;a:0:{}i:2;i:158;}i:22;a:3:{i:0;s:5:"cdata";i:1;a:1:{i:0;s:11:"swift/cache";}i:2;i:160;}i:23;a:3:{i:0;s:18:"doublequoteclosing";i:1;a:0:{}i:2;i:171;}i:24;a:3:{i:0;s:5:"cdata";i:1;a:1:{i:0;s:5:" and ";}i:2;i:172;}i:25;a:3:{i:0;s:18:"doublequoteopening";i:1;a:0:{}i:2;i:177;}i:26;a:3:{i:0;s:5:"cdata";i:1;a:1:{i:0;s:1:"/";}i:2;i:178;}i:27;a:3:{i:0;s:15:"underline_close";i:1;a:0:{}i:2;i:179;}i:28;a:3:{i:0;s:5:"cdata";i:1;a:1:{i:0;s:10:"swift/logs";}i:2;i:181;}i:29;a:3:{i:0;s:18:"doublequoteclosing";i:1;a:0:{}i:2;i:191;}i:30;a:3:{i:0;s:5:"cdata";i:1;a:1:{i:0;s:1:" ";}i:2;i:192;}i:31;a:3:{i:0;s:9:"linebreak";i:1;a:0:{}i:2;i:193;}i:32;a:3:{i:0;s:5:"cdata";i:1;a:1:{i:0;s:88:"
In a new browser, open new admin path and go to Diagnostics and click on Rebuild Cache.";}i:2;i:195;}i:33;a:3:{i:0;s:7:"p_close";i:1;a:0:{}i:2;i:283;}i:34;a:3:{i:0;s:6:"p_open";i:1;a:0:{}i:2;i:283;}i:35;a:3:{i:0;s:11:"strong_open";i:1;a:0:{}i:2;i:285;}i:36;a:3:{i:0;s:5:"cdata";i:1;a:1:{i:0;s:3:"TWO";}i:2;i:287;}i:37;a:3:{i:0;s:12:"strong_close";i:1;a:0:{}i:2;i:290;}i:38;a:3:{i:0;s:9:"linebreak";i:1;a:0:{}i:2;i:292;}i:39;a:3:{i:0;s:5:"cdata";i:1;a:1:{i:0;s:18:"
Open the database";}i:2;i:294;}i:40;a:3:{i:0;s:9:"linebreak";i:1;a:0:{}i:2;i:312;}i:41;a:3:{i:0;s:5:"cdata";i:1;a:1:{i:0;s:7:"
Under ";}i:2;i:314;}i:42;a:3:{i:0;s:18:"doublequoteopening";i:1;a:0:{}i:2;i:321;}i:43;a:3:{i:0;s:5:"cdata";i:1;a:1:{i:0;s:10:"swsettings";}i:2;i:322;}i:44;a:3:{i:0;s:18:"doublequoteclosing";i:1;a:0:{}i:2;i:332;}i:45;a:3:{i:0;s:5:"cdata";i:1;a:1:{i:0;s:27:", run the following command";}i:2;i:333;}i:46;a:3:{i:0;s:9:"linebreak";i:1;a:0:{}i:2;i:360;}i:47;a:3:{i:0;s:5:"cdata";i:1;a:1:{i:0;s:61:"
Select * from swsettings WHERE vkey = 'general_producturl'; ";}i:2;i:362;}i:48;a:3:{i:0;s:6:"entity";i:1;a:1:{i:0;s:2:"->";}i:2;i:423;}i:49;a:3:{i:0;s:5:"cdata";i:1;a:1:{i:0;s:16:" to see present ";}i:2;i:425;}i:50;a:3:{i:0;s:7:"acronym";i:1;a:1:{i:0;s:3:"URL";}i:2;i:441;}i:51;a:3:{i:0;s:9:"linebreak";i:1;a:0:{}i:2;i:444;}i:52;a:3:{i:0;s:5:"cdata";i:1;a:1:{i:0;s:35:"
UPDATE swsettings SET data = 'new ";}i:2;i:446;}i:53;a:3:{i:0;s:7:"acronym";i:1;a:1:{i:0;s:3:"URL";}i:2;i:481;}i:54;a:3:{i:0;s:5:"cdata";i:1;a:1:{i:0;s:37:"' WHERE vkey = 'general_producturl'; ";}i:2;i:484;}i:55;a:3:{i:0;s:6:"entity";i:1;a:1:{i:0;s:2:"->";}i:2;i:521;}i:56;a:3:{i:0;s:5:"cdata";i:1;a:1:{i:0;s:11:" to update ";}i:2;i:523;}i:57;a:3:{i:0;s:7:"acronym";i:1;a:1:{i:0;s:3:"URL";}i:2;i:534;}i:58;a:3:{i:0;s:9:"linebreak";i:1;a:0:{}i:2;i:537;}i:59;a:3:{i:0;s:5:"cdata";i:1;a:1:{i:0;s:32:"
Repeat last two steps from ONE.";}i:2;i:539;}i:60;a:3:{i:0;s:7:"p_close";i:1;a:0:{}i:2;i:539;}i:61;a:3:{i:0;s:12:"document_end";i:1;a:0:{}i:2;i:539;}}