a:47:{i:0;a:3:{i:0;s:14:"document_start";i:1;a:0:{}i:2;i:0;}i:1;a:3:{i:0;s:6:"p_open";i:1;a:0:{}i:2;i:0;}i:2;a:3:{i:0;s:14:"underline_open";i:1;a:0:{}i:2;i:1;}i:3;a:3:{i:0;s:11:"strong_open";i:1;a:0:{}i:2;i:3;}i:4;a:3:{i:0;s:5:"cdata";i:1;a:1:{i:0;s:16:"For whitelisting";}i:2;i:5;}i:5;a:3:{i:0;s:12:"strong_close";i:1;a:0:{}i:2;i:21;}i:6;a:3:{i:0;s:15:"underline_close";i:1;a:0:{}i:2;i:23;}i:7;a:3:{i:0;s:5:"cdata";i:1;a:1:{i:0;s:1:" ";}i:2;i:25;}i:8;a:3:{i:0;s:9:"linebreak";i:1;a:0:{}i:2;i:26;}i:9;a:3:{i:0;s:5:"cdata";i:1;a:1:{i:0;s:120:"
Whitelist Edit /opt/zimbra/conf/postfix_rbl_override. Add IP address(es) SPACE OK to the file, one IP address per line:";}i:2;i:28;}i:10;a:3:{i:0;s:7:"p_close";i:1;a:0:{}i:2;i:148;}i:11;a:3:{i:0;s:6:"p_open";i:1;a:0:{}i:2;i:148;}i:12;a:3:{i:0;s:6:"plugin";i:1;a:4:{i:0;s:9:"code_code";i:1;a:4:{i:0;s:4:"code";i:1;N;i:2;s:0:"";i:3;s:12:"
1.2.3.4 OK
";}i:2;i:3;i:3;s:13:">
1.2.3.4 OK
";}i:2;i:155;}i:13;a:3:{i:0;s:5:"cdata";i:1;a:1:{i:0;s:58:"
Run the postmap to save and apply the changes in Postfix:";}i:2;i:175;}i:14;a:3:{i:0;s:7:"p_close";i:1;a:0:{}i:2;i:233;}i:15;a:3:{i:0;s:6:"p_open";i:1;a:0:{}i:2;i:233;}i:16;a:3:{i:0;s:6:"plugin";i:1;a:4:{i:0;s:9:"code_code";i:1;a:4:{i:0;s:4:"code";i:1;N;i:2;s:0:"";i:3;s:47:"
postmap /opt/zimbra/conf/postfix_rbl_override
";}i:2;i:3;i:3;s:48:">
postmap /opt/zimbra/conf/postfix_rbl_override
";}i:2;i:240;}i:17;a:3:{i:0;s:5:"cdata";i:1;a:1:{i:0;s:72:"
Run the zmprov to apply the changes to the Zimbra Collaboration Server:";}i:2;i:295;}i:18;a:3:{i:0;s:7:"p_close";i:1;a:0:{}i:2;i:367;}i:19;a:3:{i:0;s:6:"p_open";i:1;a:0:{}i:2;i:367;}i:20;a:3:{i:0;s:6:"plugin";i:1;a:4:{i:0;s:9:"code_code";i:1;a:4:{i:0;s:4:"code";i:1;N;i:2;s:0:"";i:3;s:99:"
zmprov mcf +zimbraMtaRestriction 'check_client_access lmdb:/opt/zimbra/conf/postfix_rbl_override'
";}i:2;i:3;i:3;s:100:">
zmprov mcf +zimbraMtaRestriction 'check_client_access lmdb:/opt/zimbra/conf/postfix_rbl_override'
";}i:2;i:374;}i:21;a:3:{i:0;s:5:"cdata";i:1;a:1:{i:0;s:86:"
postmap will need to be rerun on the file any time an IP address is added or removed.";}i:2;i:481;}i:22;a:3:{i:0;s:7:"p_close";i:1;a:0:{}i:2;i:567;}i:23;a:3:{i:0;s:2:"hr";i:1;a:0:{}i:2;i:569;}i:24;a:3:{i:0;s:6:"p_open";i:1;a:0:{}i:2;i:569;}i:25;a:3:{i:0;s:14:"underline_open";i:1;a:0:{}i:2;i:576;}i:26;a:3:{i:0;s:11:"strong_open";i:1;a:0:{}i:2;i:578;}i:27;a:3:{i:0;s:5:"cdata";i:1;a:1:{i:0;s:16:"For blacklisting";}i:2;i:580;}i:28;a:3:{i:0;s:12:"strong_close";i:1;a:0:{}i:2;i:596;}i:29;a:3:{i:0;s:15:"underline_close";i:1;a:0:{}i:2;i:598;}i:30;a:3:{i:0;s:7:"p_close";i:1;a:0:{}i:2;i:600;}i:31;a:3:{i:0;s:6:"p_open";i:1;a:0:{}i:2;i:600;}i:32;a:3:{i:0;s:5:"cdata";i:1;a:1:{i:0;s:117:"Blacklist Edit /opt/zimbra/conf/postfix_blacklist. 
Add IP address SPACE REJECT to the file, one IP address per line:";}i:2;i:602;}i:33;a:3:{i:0;s:7:"p_close";i:1;a:0:{}i:2;i:719;}i:34;a:3:{i:0;s:6:"p_open";i:1;a:0:{}i:2;i:719;}i:35;a:3:{i:0;s:6:"plugin";i:1;a:4:{i:0;s:9:"code_code";i:1;a:4:{i:0;s:4:"code";i:1;N;i:2;s:0:"";i:3;s:16:"
1.2.3.4 REJECT
";}i:2;i:3;i:3;s:17:">
1.2.3.4 REJECT
";}i:2;i:726;}i:36;a:3:{i:0;s:5:"cdata";i:1;a:1:{i:0;s:58:"
Run the postmap to save and apply the changes in Postfix:";}i:2;i:750;}i:37;a:3:{i:0;s:7:"p_close";i:1;a:0:{}i:2;i:808;}i:38;a:3:{i:0;s:6:"p_open";i:1;a:0:{}i:2;i:808;}i:39;a:3:{i:0;s:6:"plugin";i:1;a:4:{i:0;s:9:"code_code";i:1;a:4:{i:0;s:4:"code";i:1;N;i:2;s:0:"";i:3;s:44:"
postmap /opt/zimbra/conf/postfix_blacklist
";}i:2;i:3;i:3;s:45:">
postmap /opt/zimbra/conf/postfix_blacklist
";}i:2;i:815;}i:40;a:3:{i:0;s:5:"cdata";i:1;a:1:{i:0;s:72:"
Run the zmprov to apply the changes to the Zimbra Collaboration Server:";}i:2;i:867;}i:41;a:3:{i:0;s:7:"p_close";i:1;a:0:{}i:2;i:939;}i:42;a:3:{i:0;s:6:"p_open";i:1;a:0:{}i:2;i:939;}i:43;a:3:{i:0;s:6:"plugin";i:1;a:4:{i:0;s:9:"code_code";i:1;a:4:{i:0;s:4:"code";i:1;N;i:2;s:0:"";i:3;s:96:"
zmprov mcf +zimbraMtaRestriction 'check_client_access lmdb:/opt/zimbra/conf/postfix_blacklist'
";}i:2;i:3;i:3;s:97:">
zmprov mcf +zimbraMtaRestriction 'check_client_access lmdb:/opt/zimbra/conf/postfix_blacklist'
";}i:2;i:946;}i:44;a:3:{i:0;s:5:"cdata";i:1;a:1:{i:0;s:85:"
postmap will need to be rerun on the file anytime an IP address is added or removed.";}i:2;i:1050;}i:45;a:3:{i:0;s:7:"p_close";i:1;a:0:{}i:2;i:1050;}i:46;a:3:{i:0;s:12:"document_end";i:1;a:0:{}i:2;i:1050;}}