a:34:{i:0;a:3:{i:0;s:14:"document_start";i:1;a:0:{}i:2;i:0;}i:1;a:3:{i:0;s:6:"p_open";i:1;a:0:{}i:2;i:0;}i:2;a:3:{i:0;s:6:"plugin";i:1;a:4:{i:0;s:9:"code_code";i:1;a:4:{i:0;s:4:"code";i:1;N;i:2;s:0:"";i:3;s:52:"
cd /opt/zimbra/cbpolicyd/share/webui/
vi .htaccess
";}i:2;i:3;i:3;s:53:">
cd /opt/zimbra/cbpolicyd/share/webui/
vi .htaccess
";}i:2;i:6;}i:3;a:3:{i:0;s:7:"p_close";i:1;a:0:{}i:2;i:66;}i:4;a:3:{i:0;s:6:"p_open";i:1;a:0:{}i:2;i:66;}i:5;a:3:{i:0;s:5:"cdata";i:1;a:1:{i:0;s:39:"Add the following content to .htaccess
";}i:2;i:68;}i:6;a:3:{i:0;s:6:"plugin";i:1;a:4:{i:0;s:9:"code_code";i:1;a:4:{i:0;s:4:"code";i:1;N;i:2;s:0:"";i:3;s:167:"
AuthUserFile /opt/zimbra/cbpolicyd/share/webui/.htpasswd
AuthGroupFile /dev/null
AuthName "User and Password"
AuthType Basic

<LIMIT GET>
require valid-user
</LIMIT>
";}i:2;i:3;i:3;s:168:">
AuthUserFile /opt/zimbra/cbpolicyd/share/webui/.htpasswd
AuthGroupFile /dev/null
AuthName "User and Password"
AuthType Basic

<LIMIT GET>
require valid-user
</LIMIT>
";}i:2;i:112;}i:7;a:3:{i:0;s:7:"p_close";i:1;a:0:{}i:2;i:287;}i:8;a:3:{i:0;s:6:"p_open";i:1;a:0:{}i:2;i:287;}i:9;a:3:{i:0;s:5:"cdata";i:1;a:1:{i:0;s:18:"Create .htpasswd.
";}i:2;i:289;}i:10;a:3:{i:0;s:6:"plugin";i:1;a:4:{i:0;s:9:"code_code";i:1;a:4:{i:0;s:4:"code";i:1;N;i:2;s:0:"";i:3;s:80:"
touch .htpasswd
/opt/zimbra/httpd/bin/htpasswd -cb .htpasswd USERNAME PASSWORD
";}i:2;i:3;i:3;s:81:">
touch .htpasswd
/opt/zimbra/httpd/bin/htpasswd -cb .htpasswd USERNAME PASSWORD
";}i:2;i:312;}i:11;a:3:{i:0;s:7:"p_close";i:1;a:0:{}i:2;i:400;}i:12;a:3:{i:0;s:6:"p_open";i:1;a:0:{}i:2;i:400;}i:13;a:3:{i:0;s:5:"cdata";i:1;a:1:{i:0;s:66:"#Use your username and password in place of USERNAME and PASSWORD.";}i:2;i:402;}i:14;a:3:{i:0;s:7:"p_close";i:1;a:0:{}i:2;i:468;}i:15;a:3:{i:0;s:6:"p_open";i:1;a:0:{}i:2;i:468;}i:16;a:3:{i:0;s:6:"plugin";i:1;a:4:{i:0;s:9:"code_code";i:1;a:4:{i:0;s:4:"code";i:1;N;i:2;s:0:"";i:3;s:32:"
vi /opt/zimbra/conf/httpd.conf
";}i:2;i:3;i:3;s:33:">
vi /opt/zimbra/conf/httpd.conf
";}i:2;i:475;}i:17;a:3:{i:0;s:7:"p_close";i:1;a:0:{}i:2;i:515;}i:18;a:3:{i:0;s:6:"p_open";i:1;a:0:{}i:2;i:515;}i:19;a:3:{i:0;s:5:"cdata";i:1;a:1:{i:0;s:48:"Add below lines in the end of httpd.conf file .
";}i:2;i:517;}i:20;a:3:{i:0;s:6:"plugin";i:1;a:4:{i:0;s:9:"code_code";i:1;a:4:{i:0;s:4:"code";i:1;N;i:2;s:0:"";i:3;s:242:"
Alias /webui /opt/zimbra/cbpolicyd/share/webui/
<Directory /opt/zimbra/cbpolicyd/share/webui/>
# Comment out the following 3 lines to make web ui accessible from anywhere
AllowOverride AuthConfig
Order Deny,Allow
Allow from all
</Directory>
";}i:2;i:3;i:3;s:243:">
Alias /webui /opt/zimbra/cbpolicyd/share/webui/
<Directory /opt/zimbra/cbpolicyd/share/webui/>
# Comment out the following 3 lines to make web ui accessible from anywhere
AllowOverride AuthConfig
Order Deny,Allow
Allow from all
</Directory>
";}i:2;i:570;}i:21;a:3:{i:0;s:7:"p_close";i:1;a:0:{}i:2;i:820;}i:22;a:3:{i:0;s:6:"p_open";i:1;a:0:{}i:2;i:820;}i:23;a:3:{i:0;s:5:"cdata";i:1;a:1:{i:0;s:23:"Restart zimbra apache.
";}i:2;i:822;}i:24;a:3:{i:0;s:6:"plugin";i:1;a:4:{i:0;s:9:"code_code";i:1;a:4:{i:0;s:4:"code";i:1;N;i:2;s:0:"";i:3;s:38:"
su - zimbra -c "zmapachectl restart"
";}i:2;i:3;i:3;s:39:">
su - zimbra -c "zmapachectl restart"
";}i:2;i:850;}i:25;a:3:{i:0;s:7:"p_close";i:1;a:0:{}i:2;i:896;}i:26;a:3:{i:0;s:6:"p_open";i:1;a:0:{}i:2;i:896;}i:27;a:3:{i:0;s:5:"cdata";i:1;a:1:{i:0;s:17:"Reference Links: ";}i:2;i:898;}i:28;a:3:{i:0;s:12:"externallink";i:1;a:2:{i:0;s:73:"https://imanudin.net/2014/09/12/zimbra-tips-how-to-protect-policyd-webui/";i:1;N;}i:2;i:915;}i:29;a:3:{i:0;s:7:"p_close";i:1;a:0:{}i:2;i:988;}i:30;a:3:{i:0;s:6:"p_open";i:1;a:0:{}i:2;i:988;}i:31;a:3:{i:0;s:6:"plugin";i:1;a:4:{i:0;s:9:"code_code";i:1;a:4:{i:0;s:4:"code";i:1;N;i:2;s:0:"";i:3;s:417:"


##########################################################################
<Directory /var/www/html>
                Options -Indexes +IncludesNOEXEC +SymLinksIfOwnerMatch +ExecCGI
                allow from all
                AllowOverride All Options=ExecCGI,Includes,IncludesNOEXEC,Indexes,MultiViews,SymLinksIfOwnerMatch
</Directory>
##########################################################################
";}i:2;i:3;i:3;s:418:">


##########################################################################
<Directory /var/www/html>
                Options -Indexes +IncludesNOEXEC +SymLinksIfOwnerMatch +ExecCGI
                allow from all
                AllowOverride All Options=ExecCGI,Includes,IncludesNOEXEC,Indexes,MultiViews,SymLinksIfOwnerMatch
</Directory>
##########################################################################
";}i:2;i:996;}i:32;a:3:{i:0;s:7:"p_close";i:1;a:0:{}i:2;i:1421;}i:33;a:3:{i:0;s:12:"document_end";i:1;a:0:{}i:2;i:1421;}}