a:153:{i:0;a:3:{i:0;s:14:"document_start";i:1;a:0:{}i:2;i:0;}i:1;a:3:{i:0;s:6:"p_open";i:1;a:0:{}i:2;i:0;}i:2;a:3:{i:0;s:11:"strong_open";i:1;a:0:{}i:2;i:3;}i:3;a:3:{i:0;s:5:"cdata";i:1;a:1:{i:0;s:28:"1. Set Kill and Tag Percent.";}i:2;i:5;}i:4;a:3:{i:0;s:12:"strong_close";i:1;a:0:{}i:2;i:33;}i:5;a:3:{i:0;s:7:"p_close";i:1;a:0:{}i:2;i:35;}i:6;a:3:{i:0;s:6:"p_open";i:1;a:0:{}i:2;i:35;}i:7;a:3:{i:0;s:5:"cdata";i:1;a:1:{i:0;s:31:"i. Login to zimbra admin panel.";}i:2;i:37;}i:8;a:3:{i:0;s:7:"p_close";i:1;a:0:{}i:2;i:68;}i:9;a:3:{i:0;s:6:"p_open";i:1;a:0:{}i:2;i:68;}i:10;a:3:{i:0;s:5:"cdata";i:1;a:1:{i:0;s:58:"ii. Navigate to Home→Configure→Global Settings→AS/AV";}i:2;i:70;}i:11;a:3:{i:0;s:7:"p_close";i:1;a:0:{}i:2;i:128;}i:12;a:3:{i:0;s:6:"p_open";i:1;a:0:{}i:2;i:128;}i:13;a:3:{i:0;s:5:"cdata";i:1;a:1:{i:0;s:45:"iii. Set Kill Percent: 50 and Tag Percent: 25";}i:2;i:130;}i:14;a:3:{i:0;s:7:"p_close";i:1;a:0:{}i:2;i:175;}i:15;a:3:{i:0;s:6:"p_open";i:1;a:0:{}i:2;i:175;}i:16;a:3:{i:0;s:5:"cdata";i:1;a:1:{i:0;s:58:"(These values can be reduced intend to strict SPAM filter)";}i:2;i:177;}i:17;a:3:{i:0;s:7:"p_close";i:1;a:0:{}i:2;i:235;}i:18;a:3:{i:0;s:6:"p_open";i:1;a:0:{}i:2;i:235;}i:19;a:3:{i:0;s:11:"strong_open";i:1;a:0:{}i:2;i:237;}i:20;a:3:{i:0;s:5:"cdata";i:1;a:1:{i:0;s:19:"2. Rejecting false ";}i:2;i:239;}i:21;a:3:{i:0;s:18:"doublequoteopening";i:1;a:0:{}i:2;i:258;}i:22;a:3:{i:0;s:5:"cdata";i:1;a:1:{i:0;s:9:"mail from";}i:2;i:259;}i:23;a:3:{i:0;s:18:"doublequoteclosing";i:1;a:0:{}i:2;i:268;}i:24;a:3:{i:0;s:5:"cdata";i:1;a:1:{i:0;s:48:" addresses (mail spoofing), follow below article";}i:2;i:269;}i:25;a:3:{i:0;s:12:"strong_close";i:1;a:0:{}i:2;i:317;}i:26;a:3:{i:0;s:7:"p_close";i:1;a:0:{}i:2;i:319;}i:27;a:3:{i:0;s:6:"p_open";i:1;a:0:{}i:2;i:319;}i:28;a:3:{i:0;s:12:"externallink";i:1;a:2:{i:0;s:70:"https://wiki.zimbra.com/wiki/Rejecting_false_%22mail_from%22_addresses";i:1;s:70:"https://wiki.zimbra.com/wiki/Rejecting_false_%22mail_from%22_addresses";}i:2;i:321;}i:29;a:3:{i:0;s:7:"p_close";i:1;a:0:{}i:2;i:466;}i:30;a:3:{i:0;s:6:"p_open";i:1;a:0:{}i:2;i:466;}i:31;a:3:{i:0;s:11:"strong_open";i:1;a:0:{}i:2;i:468;}i:32;a:3:{i:0;s:5:"cdata";i:1;a:1:{i:0;s:210:"Note: For versions 8.5 and above if method not worked said in above article then follow instructions for 8.0.x but add below line in /opt/zimbra/conf/zmconfigd/smtpd_sender_restrictions.cf instead of given one ";}i:2;i:470;}i:33;a:3:{i:0;s:12:"strong_close";i:1;a:0:{}i:2;i:680;}i:34;a:3:{i:0;s:5:"cdata";i:1;a:1:{i:0;s:1:"
";}i:2;i:682;}i:35;a:3:{i:0;s:6:"plugin";i:1;a:4:{i:0;s:9:"code_code";i:1;a:4:{i:0;s:4:"code";i:1;N;i:2;s:0:"";i:3;s:59:"
 check_sender_access lmdb:/opt/zimbra/conf/domainrestrict
";}i:2;i:3;i:3;s:60:">
 check_sender_access lmdb:/opt/zimbra/conf/domainrestrict
";}i:2;i:688;}i:36;a:3:{i:0;s:7:"p_close";i:1;a:0:{}i:2;i:755;}i:37;a:3:{i:0;s:6:"p_open";i:1;a:0:{}i:2;i:755;}i:38;a:3:{i:0;s:11:"strong_open";i:1;a:0:{}i:2;i:757;}i:39;a:3:{i:0;s:5:"cdata";i:1;a:1:{i:0;s:51:"3. Enable SpamAssassin rule updates via sa-update. ";}i:2;i:759;}i:40;a:3:{i:0;s:12:"strong_close";i:1;a:0:{}i:2;i:810;}i:41;a:3:{i:0;s:7:"p_close";i:1;a:0:{}i:2;i:812;}i:42;a:3:{i:0;s:6:"p_open";i:1;a:0:{}i:2;i:812;}i:43;a:3:{i:0;s:5:"cdata";i:1;a:1:{i:0;s:95:"Check that these are set to true, and if not, set them to true and restart amavisd and the MTA:";}i:2;i:814;}i:44;a:3:{i:0;s:7:"p_close";i:1;a:0:{}i:2;i:909;}i:45;a:3:{i:0;s:6:"p_open";i:1;a:0:{}i:2;i:909;}i:46;a:3:{i:0;s:6:"plugin";i:1;a:4:{i:0;s:9:"code_code";i:1;a:4:{i:0;s:4:"code";i:1;N;i:2;s:0:"";i:3;s:87:"
  zmlocalconfig antispam_enable_rule_updates
  zmlocalconfig antispam_enable_restarts
";}i:2;i:3;i:3;s:88:">
  zmlocalconfig antispam_enable_rule_updates
  zmlocalconfig antispam_enable_restarts
";}i:2;i:916;}i:47;a:3:{i:0;s:7:"p_close";i:1;a:0:{}i:2;i:1011;}i:48;a:3:{i:0;s:6:"p_open";i:1;a:0:{}i:2;i:1011;}i:49;a:3:{i:0;s:5:"cdata";i:1;a:1:{i:0;s:25:"If above two are showing ";}i:2;i:1013;}i:50;a:3:{i:0;s:18:"doublequoteopening";i:1;a:0:{}i:2;i:1038;}i:51;a:3:{i:0;s:5:"cdata";i:1;a:1:{i:0;s:5:"false";}i:2;i:1039;}i:52;a:3:{i:0;s:18:"doublequoteclosing";i:1;a:0:{}i:2;i:1044;}i:53;a:3:{i:0;s:5:"cdata";i:1;a:1:{i:0;s:35:" then run below commands to enable.";}i:2;i:1045;}i:54;a:3:{i:0;s:7:"p_close";i:1;a:0:{}i:2;i:1080;}i:55;a:3:{i:0;s:6:"p_open";i:1;a:0:{}i:2;i:1080;}i:56;a:3:{i:0;s:6:"plugin";i:1;a:4:{i:0;s:9:"code_code";i:1;a:4:{i:0;s:4:"code";i:1;N;i:2;s:0:"";i:3;s:145:"
  zmlocalconfig -e antispam_enable_rule_updates=true
  zmlocalconfig -e antispam_enable_restarts=true
  zmamavisdctl restart
  zmmtactl restart
";}i:2;i:3;i:3;s:146:">
  zmlocalconfig -e antispam_enable_rule_updates=true
  zmlocalconfig -e antispam_enable_restarts=true
  zmamavisdctl restart
  zmmtactl restart
";}i:2;i:1087;}i:57;a:3:{i:0;s:7:"p_close";i:1;a:0:{}i:2;i:1240;}i:58;a:3:{i:0;s:6:"p_open";i:1;a:0:{}i:2;i:1240;}i:59;a:3:{i:0;s:11:"strong_open";i:1;a:0:{}i:2;i:1242;}i:60;a:3:{i:0;s:5:"cdata";i:1;a:1:{i:0;s:18:"4. Enable RBL and ";}i:2;i:1244;}i:61;a:3:{i:0;s:7:"acronym";i:1;a:1:{i:0;s:3:"DNS";}i:2;i:1262;}i:62;a:3:{i:0;s:5:"cdata";i:1;a:1:{i:0;s:9:" checks. ";}i:2;i:1265;}i:63;a:3:{i:0;s:12:"strong_close";i:1;a:0:{}i:2;i:1274;}i:64;a:3:{i:0;s:5:"cdata";i:1;a:1:{i:0;s:47:" Run below commands to enable RBL and required ";}i:2;i:1276;}i:65;a:3:{i:0;s:7:"acronym";i:1;a:1:{i:0;s:3:"DNS";}i:2;i:1323;}i:66;a:3:{i:0;s:5:"cdata";i:1;a:1:{i:0;s:9:" checks.
";}i:2;i:1326;}i:67;a:3:{i:0;s:6:"plugin";i:1;a:4:{i:0;s:9:"code_code";i:1;a:4:{i:0;s:4:"code";i:1;N;i:2;s:0:"";i:3;s:398:"
   zmprov mcf +zimbraMtaRestriction "reject_invalid_hostname"
   zmprov mcf +zimbraMtaRestriction "reject_non_fqdn_hostname"
   zmprov mcf +zimbraMtaRestriction "reject_non_fqdn_sender"
   zmprov mcf +zimbraMtaRestriction "reject_unknown_sender_domain"
   zmprov mcf +zimbraMtaRestriction "reject_rbl_client bl.spamcop.net"
   zmprov mcf +zimbraMtaRestriction "reject_rbl_client sbl.spamhaus.org"
";}i:2;i:3;i:3;s:399:">
   zmprov mcf +zimbraMtaRestriction "reject_invalid_hostname"
   zmprov mcf +zimbraMtaRestriction "reject_non_fqdn_hostname"
   zmprov mcf +zimbraMtaRestriction "reject_non_fqdn_sender"
   zmprov mcf +zimbraMtaRestriction "reject_unknown_sender_domain"
   zmprov mcf +zimbraMtaRestriction "reject_rbl_client bl.spamcop.net"
   zmprov mcf +zimbraMtaRestriction "reject_rbl_client sbl.spamhaus.org"
";}i:2;i:1340;}i:68;a:3:{i:0;s:7:"p_close";i:1;a:0:{}i:2;i:1746;}i:69;a:3:{i:0;s:6:"p_open";i:1;a:0:{}i:2;i:1746;}i:70;a:3:{i:0;s:5:"cdata";i:1;a:1:{i:0;s:82:"Then restart zimbra services. To check configured restrictions run below commands.";}i:2;i:1748;}i:71;a:3:{i:0;s:7:"p_close";i:1;a:0:{}i:2;i:1830;}i:72;a:3:{i:0;s:6:"p_open";i:1;a:0:{}i:2;i:1830;}i:73;a:3:{i:0;s:6:"plugin";i:1;a:4:{i:0;s:9:"code_code";i:1;a:4:{i:0;s:4:"code";i:1;N;i:2;s:0:"";i:3;s:36:"
   zmprov gcf zimbraMtaRestriction
";}i:2;i:3;i:3;s:37:">
   zmprov gcf zimbraMtaRestriction
";}i:2;i:1837;}i:74;a:3:{i:0;s:7:"p_close";i:1;a:0:{}i:2;i:1881;}i:75;a:3:{i:0;s:6:"p_open";i:1;a:0:{}i:2;i:1881;}i:76;a:3:{i:0;s:5:"cdata";i:1;a:1:{i:0;s:41:"You can add below RBL's also if required.";}i:2;i:1883;}i:77;a:3:{i:0;s:7:"p_close";i:1;a:0:{}i:2;i:1924;}i:78;a:3:{i:0;s:6:"p_open";i:1;a:0:{}i:2;i:1924;}i:79;a:3:{i:0;s:6:"plugin";i:1;a:4:{i:0;s:9:"code_code";i:1;a:4:{i:0;s:4:"code";i:1;N;i:2;s:0:"";i:3;s:42:"
 dnsbl.sorbs.net
 b.barracudacentral.org
";}i:2;i:3;i:3;s:43:">
 dnsbl.sorbs.net
 b.barracudacentral.org
";}i:2;i:1931;}i:80;a:3:{i:0;s:7:"p_close";i:1;a:0:{}i:2;i:1981;}i:81;a:3:{i:0;s:6:"p_open";i:1;a:0:{}i:2;i:1981;}i:82;a:3:{i:0;s:11:"strong_open";i:1;a:0:{}i:2;i:1983;}i:83;a:3:{i:0;s:5:"cdata";i:1;a:1:{i:0;s:39:"NOTE: After enabling RBLs do following.";}i:2;i:1985;}i:84;a:3:{i:0;s:12:"strong_close";i:1;a:0:{}i:2;i:2024;}i:85;a:3:{i:0;s:7:"p_close";i:1;a:0:{}i:2;i:2026;}i:86;a:3:{i:0;s:6:"p_open";i:1;a:0:{}i:2;i:2026;}i:87;a:3:{i:0;s:5:"cdata";i:1;a:1:{i:0;s:88:"i. Open /opt/zimbra/postfix-2.10.1.2z/conf/main.cf (postfix version could be different).";}i:2;i:2028;}i:88;a:3:{i:0;s:7:"p_close";i:1;a:0:{}i:2;i:2116;}i:89;a:3:{i:0;s:6:"p_open";i:1;a:0:{}i:2;i:2116;}i:90;a:3:{i:0;s:5:"cdata";i:1;a:1:{i:0;s:8:"ii. For ";}i:2;i:2118;}i:91;a:3:{i:0;s:18:"doublequoteopening";i:1;a:0:{}i:2;i:2126;}i:92;a:3:{i:0;s:5:"cdata";i:1;a:1:{i:0;s:28:"smtpd_recipient_restrictions";}i:2;i:2127;}i:93;a:3:{i:0;s:18:"doublequoteclosing";i:1;a:0:{}i:2;i:2155;}i:94;a:3:{i:0;s:5:"cdata";i:1;a:1:{i:0;s:6:" make ";}i:2;i:2156;}i:95;a:3:{i:0;s:18:"doublequoteopening";i:1;a:0:{}i:2;i:2162;}i:96;a:3:{i:0;s:5:"cdata";i:1;a:1:{i:0;s:25:"permit_sasl_authenticated";}i:2;i:2163;}i:97;a:3:{i:0;s:18:"doublequoteclosing";i:1;a:0:{}i:2;i:2188;}i:98;a:3:{i:0;s:5:"cdata";i:1;a:1:{i:0;s:26:" prior to RBLs check. e.g.";}i:2;i:2189;}i:99;a:3:{i:0;s:7:"p_close";i:1;a:0:{}i:2;i:2215;}i:100;a:3:{i:0;s:6:"p_open";i:1;a:0:{}i:2;i:2215;}i:101;a:3:{i:0;s:6:"plugin";i:1;a:4:{i:0;s:9:"code_code";i:1;a:4:{i:0;s:4:"code";i:1;N;i:2;s:0:"";i:3;s:335:"
  smtpd_recipient_restrictions = reject_non_fqdn_recipient, check_sender_access hash:/opt/zimbra/postfix/conf/restricted_senders, permit_sasl_authenticated, permit_mynetworks, reject_unlisted_recipient, reject_non_fqdn_sender, reject_unknown_sender_domain, reject_rbl_client bl.spamcop.net, reject_rbl_client sbl.spamhaus.org, permit
";}i:2;i:3;i:3;s:336:">
  smtpd_recipient_restrictions = reject_non_fqdn_recipient, check_sender_access hash:/opt/zimbra/postfix/conf/restricted_senders, permit_sasl_authenticated, permit_mynetworks, reject_unlisted_recipient, reject_non_fqdn_sender, reject_unknown_sender_domain, reject_rbl_client bl.spamcop.net, reject_rbl_client sbl.spamhaus.org, permit
";}i:2;i:2222;}i:102;a:3:{i:0;s:7:"p_close";i:1;a:0:{}i:2;i:2565;}i:103;a:3:{i:0;s:6:"p_open";i:1;a:0:{}i:2;i:2565;}i:104;a:3:{i:0;s:5:"cdata";i:1;a:1:{i:0;s:28:"iii. restart zimbra service.";}i:2;i:2567;}i:105;a:3:{i:0;s:7:"p_close";i:1;a:0:{}i:2;i:2595;}i:106;a:3:{i:0;s:6:"p_open";i:1;a:0:{}i:2;i:2595;}i:107;a:3:{i:0;s:11:"strong_open";i:1;a:0:{}i:2;i:2597;}i:108;a:3:{i:0;s:5:"cdata";i:1;a:1:{i:0;s:28:"5. Increase SPAM Fail score.";}i:2;i:2599;}i:109;a:3:{i:0;s:12:"strong_close";i:1;a:0:{}i:2;i:2627;}i:110;a:3:{i:0;s:7:"p_close";i:1;a:0:{}i:2;i:2629;}i:111;a:3:{i:0;s:6:"p_open";i:1;a:0:{}i:2;i:2629;}i:112;a:3:{i:0;s:5:"cdata";i:1;a:1:{i:0;s:92:"i. Open /opt/zimbra/conf/spamassassin/50_scores.cf (location would be change for this file).";}i:2;i:2631;}i:113;a:3:{i:0;s:7:"p_close";i:1;a:0:{}i:2;i:2723;}i:114;a:3:{i:0;s:6:"p_open";i:1;a:0:{}i:2;i:2723;}i:115;a:3:{i:0;s:6:"plugin";i:1;a:4:{i:0;s:9:"code_code";i:1;a:4:{i:0;s:4:"code";i:1;N;i:2;s:0:"";i:3;s:86:"
  For Zimbra 8.6 file location is>> /opt/zimbra/data/spamassassin/rules/50_scores.cf
";}i:2;i:3;i:3;s:87:">
  For Zimbra 8.6 file location is>> /opt/zimbra/data/spamassassin/rules/50_scores.cf
";}i:2;i:2730;}i:116;a:3:{i:0;s:7:"p_close";i:1;a:0:{}i:2;i:2824;}i:117;a:3:{i:0;s:6:"p_open";i:1;a:0:{}i:2;i:2824;}i:118;a:3:{i:0;s:5:"cdata";i:1;a:1:{i:0;s:49:"ii. Change it's permission to 644 and search for ";}i:2;i:2826;}i:119;a:3:{i:0;s:18:"doublequoteopening";i:1;a:0:{}i:2;i:2875;}i:120;a:3:{i:0;s:5:"cdata";i:1;a:1:{i:0;s:8:"SPF_FAIL";}i:2;i:2876;}i:121;a:3:{i:0;s:18:"doublequoteclosing";i:1;a:0:{}i:2;i:2884;}i:122;a:3:{i:0;s:5:"cdata";i:1;a:1:{i:0;s:64:", now change values as below (increase value by 2 for SPF fail).";}i:2;i:2885;}i:123;a:3:{i:0;s:7:"p_close";i:1;a:0:{}i:2;i:2949;}i:124;a:3:{i:0;s:6:"p_open";i:1;a:0:{}i:2;i:2949;}i:125;a:3:{i:0;s:6:"plugin";i:1;a:4:{i:0;s:9:"code_code";i:1;a:4:{i:0;s:4:"code";i:1;N;i:2;s:0:"";i:3;s:506:"
  ifplugin Mail::SpamAssassin::Plugin::SPF
  score SPF_NONE 2
  score SPF_HELO_NONE 0
  score SPF_PASS -0.001
  score SPF_HELO_PASS -0.001
  # <gen:mutable>
  score SPF_FAIL 2 2.919 2 2.001 # n=0 n=2
  score SPF_HELO_FAIL 2 2.001 2 2.001 # n=0 n=2
  score SPF_HELO_NEUTRAL 2 2.001 2 2.112 # n=0 n=2
  score SPF_HELO_SOFTFAIL 2 2.896 2 2.732 # n=0 n=2
  score SPF_NEUTRAL 2 2.652 2 2.779 # n=0 n=2
  score SPF_SOFTFAIL 2 2.972 2 2.665 # n=0 n=2
  # </gen:mutable>
  endif # Mail::SpamAssassin::Plugin::SPF
";}i:2;i:3;i:3;s:507:">
  ifplugin Mail::SpamAssassin::Plugin::SPF
  score SPF_NONE 2
  score SPF_HELO_NONE 0
  score SPF_PASS -0.001
  score SPF_HELO_PASS -0.001
  # <gen:mutable>
  score SPF_FAIL 2 2.919 2 2.001 # n=0 n=2
  score SPF_HELO_FAIL 2 2.001 2 2.001 # n=0 n=2
  score SPF_HELO_NEUTRAL 2 2.001 2 2.112 # n=0 n=2
  score SPF_HELO_SOFTFAIL 2 2.896 2 2.732 # n=0 n=2
  score SPF_NEUTRAL 2 2.652 2 2.779 # n=0 n=2
  score SPF_SOFTFAIL 2 2.972 2 2.665 # n=0 n=2
  # </gen:mutable>
  endif # Mail::SpamAssassin::Plugin::SPF
";}i:2;i:2956;}i:126;a:3:{i:0;s:7:"p_close";i:1;a:0:{}i:2;i:3470;}i:127;a:3:{i:0;s:6:"p_open";i:1;a:0:{}i:2;i:3470;}i:128;a:3:{i:0;s:5:"cdata";i:1;a:1:{i:0;s:63:"iii. Few more changes required to be done in 50_scores.cf file.";}i:2;i:3472;}i:129;a:3:{i:0;s:7:"p_close";i:1;a:0:{}i:2;i:3535;}i:130;a:3:{i:0;s:6:"p_open";i:1;a:0:{}i:2;i:3535;}i:131;a:3:{i:0;s:6:"plugin";i:1;a:4:{i:0;s:9:"code_code";i:1;a:4:{i:0;s:4:"code";i:1;N;i:2;s:0:"";i:3;s:122:"
score BAYES_00  0  0 -0.001 -0.001
score URIBL_BLOCKED 0 2.001 0 2.001
score FSL_HELO_NON_FQDN_1 2.361 2.001 1.783 2.001
";}i:2;i:3;i:3;s:123:">
score BAYES_00  0  0 -0.001 -0.001
score URIBL_BLOCKED 0 2.001 0 2.001
score FSL_HELO_NON_FQDN_1 2.361 2.001 1.783 2.001
";}i:2;i:3542;}i:132;a:3:{i:0;s:7:"p_close";i:1;a:0:{}i:2;i:3672;}i:133;a:3:{i:0;s:6:"p_open";i:1;a:0:{}i:2;i:3672;}i:134;a:3:{i:0;s:5:"cdata";i:1;a:1:{i:0;s:75:"iv. Now revert the file permission to back 444 and restart zimbra services.";}i:2;i:3674;}i:135;a:3:{i:0;s:7:"p_close";i:1;a:0:{}i:2;i:3749;}i:136;a:3:{i:0;s:6:"p_open";i:1;a:0:{}i:2;i:3749;}i:137;a:3:{i:0;s:11:"strong_open";i:1;a:0:{}i:2;i:3751;}i:138;a:3:{i:0;s:5:"cdata";i:1;a:1:{i:0;s:81:"6. Check if auto spam training running or not using below command as zimbra user.";}i:2;i:3753;}i:139;a:3:{i:0;s:12:"strong_close";i:1;a:0:{}i:2;i:3834;}i:140;a:3:{i:0;s:5:"cdata";i:1;a:1:{i:0;s:1:"
";}i:2;i:3836;}i:141;a:3:{i:0;s:6:"plugin";i:1;a:4:{i:0;s:9:"code_code";i:1;a:4:{i:0;s:4:"code";i:1;N;i:2;s:0:"";i:3;s:24:"
   zmtrainsa --cleanup
";}i:2;i:3;i:3;s:25:">
   zmtrainsa --cleanup
";}i:2;i:3842;}i:142;a:3:{i:0;s:7:"p_close";i:1;a:0:{}i:2;i:3874;}i:143;a:3:{i:0;s:6:"p_open";i:1;a:0:{}i:2;i:3874;}i:144;a:3:{i:0;s:5:"cdata";i:1;a:1:{i:0;s:13:"Useful links.";}i:2;i:3876;}i:145;a:3:{i:0;s:7:"p_close";i:1;a:0:{}i:2;i:3889;}i:146;a:3:{i:0;s:6:"p_open";i:1;a:0:{}i:2;i:3889;}i:147;a:3:{i:0;s:12:"externallink";i:1;a:2:{i:0;s:49:"https://wiki.zimbra.com/wiki/Anti-spam_Strategies";i:1;s:49:"https://wiki.zimbra.com/wiki/Anti-spam_Strategies";}i:2;i:3891;}i:148;a:3:{i:0;s:7:"p_close";i:1;a:0:{}i:2;i:3994;}i:149;a:3:{i:0;s:6:"p_open";i:1;a:0:{}i:2;i:3994;}i:150;a:3:{i:0;s:12:"externallink";i:1;a:2:{i:0;s:55:"https://wiki.zimbra.com/wiki/Improving_Anti-spam_system";i:1;s:55:"https://wiki.zimbra.com/wiki/Improving_Anti-spam_system";}i:2;i:3996;}i:151;a:3:{i:0;s:7:"p_close";i:1;a:0:{}i:2;i:4111;}i:152;a:3:{i:0;s:12:"document_end";i:1;a:0:{}i:2;i:4111;}}