a:23:{i:0;a:3:{i:0;s:14:"document_start";i:1;a:0:{}i:2;i:0;}i:1;a:3:{i:0;s:6:"header";i:1;a:3:{i:0;s:19:"Regenerate SSL Cert";i:1;i:1;i:2;i:1;}i:2;i:1;}i:2;a:3:{i:0;s:12:"section_open";i:1;a:1:{i:0;i:1;}i:2;i:1;}i:3;a:3:{i:0;s:12:"preformatted";i:1;a:1:{i:0;s:420:"su - zimbra -c 'zmcontrol stop'

rm -rf /opt/zimbra/ssl/*

rm -rf /opt/zimbra/ssl/.rnd

/opt/zimbra/java/bin/keytool -delete -alias my_ca -keystore /opt/zimbra/java/jre/lib/security/cacerts -   storepass changeit

/opt/zimbra/java/bin/keytool -delete -alias jetty -keystore /opt/zimbra/mailboxd/etc/keystore -storepass `su - zimbra -c 'zmlocalconfig -s -m nokey mailboxd_keystore_password'`

vi /opt/zimbra/bin/zmcertmgr";}i:2;i:35;}i:4;a:3:{i:0;s:6:"p_open";i:1;a:0:{}i:2;i:35;}i:5;a:3:{i:0;s:5:"cdata";i:1;a:1:{i:0;s:23:"# Find line 
# SUBJECT=";}i:2;i:480;}i:6;a:3:{i:0;s:18:"doublequoteopening";i:1;a:0:{}i:2;i:503;}i:7;a:3:{i:0;s:5:"cdata";i:1;a:1:{i:0;s:108:"/C=US/ST=N\/A/L=N\/A/O=Zimbra Collaboration Suite/OU=Zimbra Collaboration Suite/CN=${zimbra_server_hostname}";}i:2;i:504;}i:8;a:3:{i:0;s:18:"doublequoteclosing";i:1;a:0:{}i:2;i:612;}i:9;a:3:{i:0;s:5:"cdata";i:1;a:1:{i:0;s:34:"
# and change to your company name";}i:2;i:613;}i:10;a:3:{i:0;s:7:"p_close";i:1;a:0:{}i:2;i:648;}i:11;a:3:{i:0;s:6:"p_open";i:1;a:0:{}i:2;i:648;}i:12;a:3:{i:0;s:5:"cdata";i:1;a:1:{i:0;s:131:"# then find and change you want value days expire cert validation_days=365 to validation_days=3650
# save /opt/zimbra/bin/zmcertmgr";}i:2;i:650;}i:13;a:3:{i:0;s:7:"p_close";i:1;a:0:{}i:2;i:782;}i:14;a:3:{i:0;s:12:"preformatted";i:1;a:1:{i:0;s:175:"/opt/zimbra/bin/zmcertmgr createca -new

/opt/zimbra/bin/zmcertmgr deployca -localonly

/opt/zimbra/bin/zmcertmgr createcrt self -new

/opt/zimbra/bin/zmcertmgr deploycrt self";}i:2;i:782;}i:15;a:3:{i:0;s:12:"preformatted";i:1;a:1:{i:0;s:32:"su - zimbra -c 'zmcontrol start'";}i:2;i:973;}i:16;a:3:{i:0;s:12:"preformatted";i:1;a:1:{i:0;s:76:"/opt/zimbra/bin/zmcertmgr deploycrt self

/opt/zimbra/bin/zmcertmgr deployca";}i:2;i:1009;}i:17;a:3:{i:0;s:12:"preformatted";i:1;a:1:{i:0;s:76:"su - zimbra -c 'zmupdateauthkeys'

/opt/zimbra/bin/zmcertmgr viewdeployedcrt";}i:2;i:1093;}i:18;a:3:{i:0;s:6:"p_open";i:1;a:0:{}i:2;i:1093;}i:19;a:3:{i:0;s:5:"cdata";i:1;a:1:{i:0;s:98:"################################################## ###############################################";}i:2;i:1178;}i:20;a:3:{i:0;s:7:"p_close";i:1;a:0:{}i:2;i:1276;}i:21;a:3:{i:0;s:13:"section_close";i:1;a:0:{}i:2;i:1276;}i:22;a:3:{i:0;s:12:"document_end";i:1;a:0:{}i:2;i:1276;}}