a:117:{i:0;a:3:{i:0;s:14:"document_start";i:1;a:0:{}i:2;i:0;}i:1;a:3:{i:0;s:6:"header";i:1;a:3:{i:0;s:9:"Setup CSF";i:1;i:1;i:2;i:1;}i:2;i:1;}i:2;a:3:{i:0;s:12:"section_open";i:1;a:1:{i:0;i:1;}i:2;i:1;}i:3;a:3:{i:0;s:6:"p_open";i:1;a:0:{}i:2;i:1;}i:4;a:3:{i:0;s:5:"cdata";i:1;a:1:{i:0;s:47:"1. In whm got config server security & firewall";}i:2;i:28;}i:5;a:3:{i:0;s:7:"p_close";i:1;a:0:{}i:2;i:75;}i:6;a:3:{i:0;s:6:"p_open";i:1;a:0:{}i:2;i:75;}i:7;a:3:{i:0;s:5:"cdata";i:1;a:1:{i:0;s:61:"2. Click on firewall configuration and change the following:
";}i:2;i:77;}i:8;a:3:{i:0;s:6:"plugin";i:1;a:4:{i:0;s:9:"code_code";i:1;a:4:{i:0;s:4:"code";i:1;N;i:2;s:0:"";i:3;s:100:"
    TESTING =0 

     TCP_IN add 3306, 21000:65000

     TCP_OUT add 3306

     ICMP_IN_RATE= 30/s ";}i:2;i:3;i:3;s:101:">
    TESTING =0 

     TCP_IN add 3306, 21000:65000

     TCP_OUT add 3306

     ICMP_IN_RATE= 30/s ";}i:2;i:143;}i:9;a:3:{i:0;s:7:"p_close";i:1;a:0:{}i:2;i:251;}i:10;a:3:{i:0;s:6:"p_open";i:1;a:0:{}i:2;i:251;}i:11;a:3:{i:0;s:5:"cdata";i:1;a:1:{i:0;s:32:"3. Disable email alerts from LFD";}i:2;i:258;}i:12;a:3:{i:0;s:7:"p_close";i:1;a:0:{}i:2;i:290;}i:13;a:3:{i:0;s:6:"p_open";i:1;a:0:{}i:2;i:290;}i:14;a:3:{i:0;s:5:"cdata";i:1;a:1:{i:0;s:23:"# vim /etc/csf/csf.conf";}i:2;i:292;}i:15;a:3:{i:0;s:7:"p_close";i:1;a:0:{}i:2;i:315;}i:16;a:3:{i:0;s:6:"p_open";i:1;a:0:{}i:2;i:315;}i:17;a:3:{i:0;s:5:"cdata";i:1;a:1:{i:0;s:17:"LF_EMAIL_ALERT = ";}i:2;i:317;}i:18;a:3:{i:0;s:18:"doublequoteopening";i:1;a:0:{}i:2;i:334;}i:19;a:3:{i:0;s:5:"cdata";i:1;a:1:{i:0;s:1:"0";}i:2;i:335;}i:20;a:3:{i:0;s:18:"doublequoteclosing";i:1;a:0:{}i:2;i:336;}i:21;a:3:{i:0;s:7:"p_close";i:1;a:0:{}i:2;i:337;}i:22;a:3:{i:0;s:6:"p_open";i:1;a:0:{}i:2;i:337;}i:23;a:3:{i:0;s:5:"cdata";i:1;a:1:{i:0;s:21:"LF_SSH_EMAIL_ALERT = ";}i:2;i:339;}i:24;a:3:{i:0;s:18:"doublequoteopening";i:1;a:0:{}i:2;i:360;}i:25;a:3:{i:0;s:5:"cdata";i:1;a:1:{i:0;s:1:"0";}i:2;i:361;}i:26;a:3:{i:0;s:18:"doublequoteclosing";i:1;a:0:{}i:2;i:362;}i:27;a:3:{i:0;s:7:"p_close";i:1;a:0:{}i:2;i:363;}i:28;a:3:{i:0;s:6:"p_open";i:1;a:0:{}i:2;i:363;}i:29;a:3:{i:0;s:5:"cdata";i:1;a:1:{i:0;s:20:"LF_SU_EMAIL_ALERT = ";}i:2;i:365;}i:30;a:3:{i:0;s:18:"doublequoteopening";i:1;a:0:{}i:2;i:385;}i:31;a:3:{i:0;s:5:"cdata";i:1;a:1:{i:0;s:1:"0";}i:2;i:386;}i:32;a:3:{i:0;s:18:"doublequoteclosing";i:1;a:0:{}i:2;i:387;}i:33;a:3:{i:0;s:7:"p_close";i:1;a:0:{}i:2;i:388;}i:34;a:3:{i:0;s:6:"p_open";i:1;a:0:{}i:2;i:388;}i:35;a:3:{i:0;s:5:"cdata";i:1;a:1:{i:0;s:11:"PT_LIMIT = ";}i:2;i:390;}i:36;a:3:{i:0;s:18:"doublequoteopening";i:1;a:0:{}i:2;i:401;}i:37;a:3:{i:0;s:5:"cdata";i:1;a:1:{i:0;s:1:"0";}i:2;i:402;}i:38;a:3:{i:0;s:18:"doublequoteclosing";i:1;a:0:{}i:2;i:403;}i:39;a:3:{i:0;s:7:"p_close";i:1;a:0:{}i:2;i:404;}i:40;a:3:{i:0;s:6:"p_open";i:1;a:0:{}i:2;i:404;}i:41;a:3:{i:0;s:5:"cdata";i:1;a:1:{i:0;s:24:"LF_WEBMIN_EMAIL_ALERT = ";}i:2;i:406;}i:42;a:3:{i:0;s:18:"doublequoteopening";i:1;a:0:{}i:2;i:430;}i:43;a:3:{i:0;s:5:"cdata";i:1;a:1:{i:0;s:1:"0";}i:2;i:431;}i:44;a:3:{i:0;s:18:"doublequoteclosing";i:1;a:0:{}i:2;i:432;}i:45;a:3:{i:0;s:7:"p_close";i:1;a:0:{}i:2;i:433;}i:46;a:3:{i:0;s:6:"p_open";i:1;a:0:{}i:2;i:433;}i:47;a:3:{i:0;s:5:"cdata";i:1;a:1:{i:0;s:25:"LF_CONSOLE_EMAIL_ALERT = ";}i:2;i:435;}i:48;a:3:{i:0;s:18:"doublequoteopening";i:1;a:0:{}i:2;i:460;}i:49;a:3:{i:0;s:5:"cdata";i:1;a:1:{i:0;s:1:"0";}i:2;i:461;}i:50;a:3:{i:0;s:18:"doublequoteclosing";i:1;a:0:{}i:2;i:462;}i:51;a:3:{i:0;s:7:"p_close";i:1;a:0:{}i:2;i:463;}i:52;a:3:{i:0;s:6:"p_open";i:1;a:0:{}i:2;i:463;}i:53;a:3:{i:0;s:5:"cdata";i:1;a:1:{i:0;s:17:"CT_EMAIL_ALERT = ";}i:2;i:465;}i:54;a:3:{i:0;s:18:"doublequoteopening";i:1;a:0:{}i:2;i:482;}i:55;a:3:{i:0;s:5:"cdata";i:1;a:1:{i:0;s:1:"0";}i:2;i:483;}i:56;a:3:{i:0;s:18:"doublequoteclosing";i:1;a:0:{}i:2;i:484;}i:57;a:3:{i:0;s:7:"p_close";i:1;a:0:{}i:2;i:485;}i:58;a:3:{i:0;s:6:"p_open";i:1;a:0:{}i:2;i:485;}i:59;a:3:{i:0;s:5:"cdata";i:1;a:1:{i:0;s:17:"PS_EMAIL_ALERT = ";}i:2;i:487;}i:60;a:3:{i:0;s:18:"doublequoteopening";i:1;a:0:{}i:2;i:504;}i:61;a:3:{i:0;s:5:"cdata";i:1;a:1:{i:0;s:1:"0";}i:2;i:505;}i:62;a:3:{i:0;s:18:"doublequoteclosing";i:1;a:0:{}i:2;i:506;}i:63;a:3:{i:0;s:7:"p_close";i:1;a:0:{}i:2;i:507;}i:64;a:3:{i:0;s:6:"p_open";i:1;a:0:{}i:2;i:507;}i:65;a:3:{i:0;s:5:"cdata";i:1;a:1:{i:0;s:17:"LT_EMAIL_ALERT = ";}i:2;i:509;}i:66;a:3:{i:0;s:18:"doublequoteopening";i:1;a:0:{}i:2;i:526;}i:67;a:3:{i:0;s:5:"cdata";i:1;a:1:{i:0;s:1:"0";}i:2;i:527;}i:68;a:3:{i:0;s:18:"doublequoteclosing";i:1;a:0:{}i:2;i:528;}i:69;a:3:{i:0;s:7:"p_close";i:1;a:0:{}i:2;i:529;}i:70;a:3:{i:0;s:6:"p_open";i:1;a:0:{}i:2;i:529;}i:71;a:3:{i:0;s:5:"cdata";i:1;a:1:{i:0;s:14:"PT_USERPROC = ";}i:2;i:531;}i:72;a:3:{i:0;s:18:"doublequoteopening";i:1;a:0:{}i:2;i:545;}i:73;a:3:{i:0;s:5:"cdata";i:1;a:1:{i:0;s:1:"0";}i:2;i:546;}i:74;a:3:{i:0;s:18:"doublequoteclosing";i:1;a:0:{}i:2;i:547;}i:75;a:3:{i:0;s:7:"p_close";i:1;a:0:{}i:2;i:548;}i:76;a:3:{i:0;s:6:"p_open";i:1;a:0:{}i:2;i:548;}i:77;a:3:{i:0;s:5:"cdata";i:1;a:1:{i:0;s:13:"PT_USERMEM = ";}i:2;i:550;}i:78;a:3:{i:0;s:18:"doublequoteopening";i:1;a:0:{}i:2;i:563;}i:79;a:3:{i:0;s:5:"cdata";i:1;a:1:{i:0;s:1:"0";}i:2;i:564;}i:80;a:3:{i:0;s:18:"doublequoteclosing";i:1;a:0:{}i:2;i:565;}i:81;a:3:{i:0;s:7:"p_close";i:1;a:0:{}i:2;i:566;}i:82;a:3:{i:0;s:6:"p_open";i:1;a:0:{}i:2;i:566;}i:83;a:3:{i:0;s:5:"cdata";i:1;a:1:{i:0;s:14:"PT_USERTIME = ";}i:2;i:569;}i:84;a:3:{i:0;s:18:"doublequoteopening";i:1;a:0:{}i:2;i:583;}i:85;a:3:{i:0;s:5:"cdata";i:1;a:1:{i:0;s:1:"0";}i:2;i:584;}i:86;a:3:{i:0;s:18:"doublequoteclosing";i:1;a:0:{}i:2;i:585;}i:87;a:3:{i:0;s:7:"p_close";i:1;a:0:{}i:2;i:586;}i:88;a:3:{i:0;s:6:"p_open";i:1;a:0:{}i:2;i:586;}i:89;a:3:{i:0;s:5:"cdata";i:1;a:1:{i:0;s:14:"PT_USERKILL = ";}i:2;i:588;}i:90;a:3:{i:0;s:18:"doublequoteopening";i:1;a:0:{}i:2;i:602;}i:91;a:3:{i:0;s:5:"cdata";i:1;a:1:{i:0;s:1:"0";}i:2;i:603;}i:92;a:3:{i:0;s:18:"doublequoteclosing";i:1;a:0:{}i:2;i:604;}i:93;a:3:{i:0;s:7:"p_close";i:1;a:0:{}i:2;i:605;}i:94;a:3:{i:0;s:6:"p_open";i:1;a:0:{}i:2;i:605;}i:95;a:3:{i:0;s:5:"cdata";i:1;a:1:{i:0;s:20:"PT_USERKILL_ALERT = ";}i:2;i:607;}i:96;a:3:{i:0;s:18:"doublequoteopening";i:1;a:0:{}i:2;i:627;}i:97;a:3:{i:0;s:5:"cdata";i:1;a:1:{i:0;s:1:"0";}i:2;i:628;}i:98;a:3:{i:0;s:18:"doublequoteclosing";i:1;a:0:{}i:2;i:629;}i:99;a:3:{i:0;s:7:"p_close";i:1;a:0:{}i:2;i:630;}i:100;a:3:{i:0;s:6:"p_open";i:1;a:0:{}i:2;i:630;}i:101;a:3:{i:0;s:5:"cdata";i:1;a:1:{i:0;s:22:"RT_LOCALRELAY_ALERT = ";}i:2;i:632;}i:102;a:3:{i:0;s:18:"doublequoteopening";i:1;a:0:{}i:2;i:654;}i:103;a:3:{i:0;s:5:"cdata";i:1;a:1:{i:0;s:1:"0";}i:2;i:655;}i:104;a:3:{i:0;s:18:"doublequoteclosing";i:1;a:0:{}i:2;i:656;}i:105;a:3:{i:0;s:7:"p_close";i:1;a:0:{}i:2;i:657;}i:106;a:3:{i:0;s:6:"p_open";i:1;a:0:{}i:2;i:657;}i:107;a:3:{i:0;s:5:"cdata";i:1;a:1:{i:0;s:20:"4. Restart LFD & CSF";}i:2;i:662;}i:108;a:3:{i:0;s:7:"p_close";i:1;a:0:{}i:2;i:682;}i:109;a:3:{i:0;s:6:"p_open";i:1;a:0:{}i:2;i:682;}i:110;a:3:{i:0;s:5:"cdata";i:1;a:1:{i:0;s:25:"# /etc/init.d/lfd restart";}i:2;i:684;}i:111;a:3:{i:0;s:7:"p_close";i:1;a:0:{}i:2;i:709;}i:112;a:3:{i:0;s:6:"p_open";i:1;a:0:{}i:2;i:709;}i:113;a:3:{i:0;s:5:"cdata";i:1;a:1:{i:0;s:8:"# csf -r";}i:2;i:711;}i:114;a:3:{i:0;s:7:"p_close";i:1;a:0:{}i:2;i:719;}i:115;a:3:{i:0;s:13:"section_close";i:1;a:0:{}i:2;i:720;}i:116;a:3:{i:0;s:12:"document_end";i:1;a:0:{}i:2;i:720;}}