a:10:{i:0;a:3:{i:0;s:14:"document_start";i:1;a:0:{}i:2;i:0;}i:1;a:3:{i:0;s:6:"header";i:1;a:3:{i:0;s:26:"configure rsync on windows";i:1;i:1;i:2;i:1;}i:2;i:1;}i:2;a:3:{i:0;s:12:"section_open";i:1;a:1:{i:0;i:1;}i:2;i:1;}i:3;a:3:{i:0;s:6:"p_open";i:1;a:0:{}i:2;i:1;}i:4;a:3:{i:0;s:5:"cdata";i:1;a:1:{i:0;s:32:"Windows backup on Linux (RSYNC)
";}i:2;i:44;}i:5;a:3:{i:0;s:6:"plugin";i:1;a:4:{i:0;s:9:"code_code";i:1;a:4:{i:0;s:4:"code";i:1;N;i:2;s:0:"";i:3;s:1118:"
Install cygwin on Winserver
Select packages-
Editor-nano
Net-rsync

Add C:\cygwin\bin; to the windows PATH statement
MyComputer Properties->Advance->Environmental Variables->PATH

Start Cygwin
nano /secret
enter password
chmod 600 /secret
chown Administrator:SYSTEM /secret

Create a BAT file
C:\Cygwin\bin\rsync.exe -vrtz password-file=c:\cygwin\secret delete /cygdrive/d/Data root@IP::rootbackup
save as C:\rsync.bat

Add to task scheduler

--------
In LINUX machine

sudo nano /etc/rsyncd.conf
update following:

rootbackup
path = /root/rootbackup
comment=Backup
uid=root
gid=root
read only=false
auth users=root
secrets file=/etc/rsyncd.secrets
hosts allow=*, localhost, 127.0.0.1, 184.154.216.62
log file=/var/log/rsyncd.log
transfer logging=yes
use chroot=false

test
path = /cygdrive/c/data
read only = false
transfer logging = yes

files
path = /cygdrive/v
read only = false
transfer logging = yes

sudo chmod 644 /etc/rsyncd.conf

Create a file named rsyncd.secrets in /etc
sudo nano /etc/rsyncd.secrets
add following- username:password

sudo chmod 600 /etc/rsyncd.secrets

RSYNC_ENABLE=true

rsync --daemon ";}i:2;i:3;i:3;s:1119:">
Install cygwin on Winserver
Select packages-
Editor-nano
Net-rsync

Add C:\cygwin\bin; to the windows PATH statement
MyComputer Properties->Advance->Environmental Variables->PATH

Start Cygwin
nano /secret
enter password
chmod 600 /secret
chown Administrator:SYSTEM /secret

Create a BAT file
C:\Cygwin\bin\rsync.exe -vrtz password-file=c:\cygwin\secret delete /cygdrive/d/Data root@IP::rootbackup
save as C:\rsync.bat

Add to task scheduler

--------
In LINUX machine

sudo nano /etc/rsyncd.conf
update following:

rootbackup
path = /root/rootbackup
comment=Backup
uid=root
gid=root
read only=false
auth users=root
secrets file=/etc/rsyncd.secrets
hosts allow=*, localhost, 127.0.0.1, 184.154.216.62
log file=/var/log/rsyncd.log
transfer logging=yes
use chroot=false

test
path = /cygdrive/c/data
read only = false
transfer logging = yes

files
path = /cygdrive/v
read only = false
transfer logging = yes

sudo chmod 644 /etc/rsyncd.conf

Create a file named rsyncd.secrets in /etc
sudo nano /etc/rsyncd.secrets
add following- username:password

sudo chmod 600 /etc/rsyncd.secrets

RSYNC_ENABLE=true

rsync --daemon ";}i:2;i:81;}i:6;a:3:{i:0;s:5:"cdata";i:1;a:1:{i:0;s:0:"";}i:2;i:1207;}i:7;a:3:{i:0;s:7:"p_close";i:1;a:0:{}i:2;i:1207;}i:8;a:3:{i:0;s:13:"section_close";i:1;a:0:{}i:2;i:1207;}i:9;a:3:{i:0;s:12:"document_end";i:1;a:0:{}i:2;i:1207;}}