a:19:{i:0;a:3:{i:0;s:14:"document_start";i:1;a:0:{}i:2;i:0;}i:1;a:3:{i:0;s:6:"p_open";i:1;a:0:{}i:2;i:0;}i:2;a:3:{i:0;s:5:"cdata";i:1;a:1:{i:0;s:44:"To implement a closed user group in Elastix:";}i:2;i:1;}i:3;a:3:{i:0;s:7:"p_close";i:1;a:0:{}i:2;i:45;}i:4;a:3:{i:0;s:6:"p_open";i:1;a:0:{}i:2;i:45;}i:5;a:3:{i:0;s:5:"cdata";i:1;a:1:{i:0;s:7:"Make a ";}i:2;i:48;}i:6;a:3:{i:0;s:18:"doublequoteopening";i:1;a:0:{}i:2;i:55;}i:7;a:3:{i:0;s:5:"cdata";i:1;a:1:{i:0;s:14:"custom context";}i:2;i:56;}i:8;a:3:{i:0;s:18:"doublequoteclosing";i:1;a:0:{}i:2;i:70;}i:9;a:3:{i:0;s:5:"cdata";i:1;a:1:{i:0;s:42:" (in /etc/asterisk/extensions_custom.conf)";}i:2;i:71;}i:10;a:3:{i:0;s:7:"p_close";i:1;a:0:{}i:2;i:113;}i:11;a:3:{i:0;s:6:"p_open";i:1;a:0:{}i:2;i:113;}i:12;a:3:{i:0;s:5:"cdata";i:1;a:1:{i:0;s:26:"That looks something like:";}i:2;i:115;}i:13;a:3:{i:0;s:7:"p_close";i:1;a:0:{}i:2;i:141;}i:14;a:3:{i:0;s:6:"p_open";i:1;a:0:{}i:2;i:141;}i:15;a:3:{i:0;s:6:"plugin";i:1;a:4:{i:0;s:9:"code_code";i:1;a:4:{i:0;s:4:"code";i:1;N;i:2;s:0:"";i:3;s:337:"

[internal-extension]
exten => _2XX,1,goto(from-internal,${EXTEN},1) 
; 2XX are the extensions it can dial

exten => _3XX,1,goto(from-internal,${EXTEN},1) 
; they can dial also 3XX extensions

exten => _011.,1,goto(from-internal,${EXTEN},1)
;same thing for the rest of the world

exten => _.,1,hangup() 
;reject any non matching calls

";}i:2;i:3;i:3;s:338:">

[internal-extension]
exten => _2XX,1,goto(from-internal,${EXTEN},1) 
; 2XX are the extensions it can dial

exten => _3XX,1,goto(from-internal,${EXTEN},1) 
; they can dial also 3XX extensions

exten => _011.,1,goto(from-internal,${EXTEN},1)
;same thing for the rest of the world

exten => _.,1,hangup() 
;reject any non matching calls

";}i:2;i:148;}i:16;a:3:{i:0;s:5:"cdata";i:1;a:1:{i:0;s:0:"";}i:2;i:493;}i:17;a:3:{i:0;s:7:"p_close";i:1;a:0:{}i:2;i:493;}i:18;a:3:{i:0;s:12:"document_end";i:1;a:0:{}i:2;i:493;}}