a:21:{i:0;a:3:{i:0;s:14:"document_start";i:1;a:0:{}i:2;i:0;}i:1;a:3:{i:0;s:6:"header";i:1;a:3:{i:0;s:21:"Install CSF on Webmin";i:1;i:1;i:2;i:1;}i:2;i:1;}i:2;a:3:{i:0;s:12:"section_open";i:1;a:1:{i:0;i:1;}i:2;i:1;}i:3;a:3:{i:0;s:6:"p_open";i:1;a:0:{}i:2;i:1;}i:4;a:3:{i:0;s:5:"cdata";i:1;a:1:{i:0;s:51:"Login as root into shell and run following command.";}i:2;i:38;}i:5;a:3:{i:0;s:7:"p_close";i:1;a:0:{}i:2;i:90;}i:6;a:3:{i:0;s:12:"preformatted";i:1;a:1:{i:0;s:299:"  wget http://www.configserver.com/free/csf.tgz
  
  tar -xzf csf.tgz
  
  cd csf
  
  sh install.sh
  
  
  Edit /etc/csf/csf.conf
  
  testing '0'
  
  Search for TCP_IN and TCP_OUT 
  and amend ports as below
  "20,21,22,25,53,80,110,143,443,465,587,993,995,10000,3306,10050,1167,40000:50000" 
  ";}i:2;i:90;}i:7;a:3:{i:0;s:6:"p_open";i:1;a:0:{}i:2;i:90;}i:8;a:3:{i:0;s:5:"cdata";i:1;a:1:{i:0;s:5:"Go to";}i:2;i:425;}i:9;a:3:{i:0;s:7:"p_close";i:1;a:0:{}i:2;i:430;}i:10;a:3:{i:0;s:6:"p_open";i:1;a:0:{}i:2;i:430;}i:11;a:3:{i:0;s:5:"cdata";i:1;a:1:{i:0;s:106:"Webmin > Webmin Configuration > Webmin Modules > From local file > /etc/csf/csfwebmin.tgz > Install Module";}i:2;i:432;}i:12;a:3:{i:0;s:7:"p_close";i:1;a:0:{}i:2;i:538;}i:13;a:3:{i:0;s:6:"p_open";i:1;a:0:{}i:2;i:538;}i:14;a:3:{i:0;s:5:"cdata";i:1;a:1:{i:0;s:14:"To access CSF:";}i:2;i:540;}i:15;a:3:{i:0;s:7:"p_close";i:1;a:0:{}i:2;i:554;}i:16;a:3:{i:0;s:6:"p_open";i:1;a:0:{}i:2;i:554;}i:17;a:3:{i:0;s:5:"cdata";i:1;a:1:{i:0;s:50:"Webmin > System > ConfigServer Security & Firewall";}i:2;i:556;}i:18;a:3:{i:0;s:7:"p_close";i:1;a:0:{}i:2;i:606;}i:19;a:3:{i:0;s:13:"section_close";i:1;a:0:{}i:2;i:606;}i:20;a:3:{i:0;s:12:"document_end";i:1;a:0:{}i:2;i:606;}}