a:40:{i:0;a:3:{i:0;s:14:"document_start";i:1;a:0:{}i:2;i:0;}i:1;a:3:{i:0;s:6:"header";i:1;a:3:{i:0;s:27:"Install CDP Agent in Ubuntu";i:1;i:1;i:2;i:1;}i:2;i:1;}i:2;a:3:{i:0;s:12:"section_open";i:1;a:1:{i:0;i:1;}i:2;i:1;}i:3;a:3:{i:0;s:6:"p_open";i:1;a:0:{}i:2;i:1;}i:4;a:3:{i:0;s:5:"cdata";i:1;a:1:{i:0;s:63:"1. Login to Ansible master and add the VM IP to ansible hosts. ";}i:2;i:44;}i:5;a:3:{i:0;s:9:"linebreak";i:1;a:0:{}i:2;i:107;}i:6;a:3:{i:0;s:7:"p_close";i:1;a:0:{}i:2;i:109;}i:7;a:3:{i:0;s:6:"p_open";i:1;a:0:{}i:2;i:109;}i:8;a:3:{i:0;s:5:"cdata";i:1;a:1:{i:0;s:67:"2. Run screen on ansible master and then run the following command:";}i:2;i:111;}i:9;a:3:{i:0;s:9:"linebreak";i:1;a:0:{}i:2;i:178;}i:10;a:3:{i:0;s:7:"p_close";i:1;a:0:{}i:2;i:180;}i:11;a:3:{i:0;s:6:"p_open";i:1;a:0:{}i:2;i:180;}i:12;a:3:{i:0;s:6:"plugin";i:1;a:4:{i:0;s:9:"code_code";i:1;a:4:{i:0;s:4:"code";i:1;N;i:2;s:0:"";i:3;s:96:"
ansible-playbook -l <IP> /scripts/cdp_agent_ubuntu.yml --extra-vars "key=<CDP Key>" --ask-pass
";}i:2;i:3;i:3;s:97:">
ansible-playbook -l <IP> /scripts/cdp_agent_ubuntu.yml --extra-vars "key=<CDP Key>" --ask-pass
";}i:2;i:187;}i:13;a:3:{i:0;s:7:"p_close";i:1;a:0:{}i:2;i:291;}i:14;a:3:{i:0;s:6:"p_open";i:1;a:0:{}i:2;i:291;}i:15;a:3:{i:0;s:5:"cdata";i:1;a:1:{i:0;s:12:"3. Example 
";}i:2;i:293;}i:16;a:3:{i:0;s:6:"plugin";i:1;a:4:{i:0;s:9:"code_code";i:1;a:4:{i:0;s:4:"code";i:1;N;i:2;s:0:"";i:3;s:120:"
ansible-playbook -l 43.252.89.164 /scripts/cdp_agent_ubuntu.yml --extra-vars "key=http://176.9.52.137:8080" --ask-pass
";}i:2;i:3;i:3;s:121:">
ansible-playbook -l 43.252.89.164 /scripts/cdp_agent_ubuntu.yml --extra-vars "key=http://176.9.52.137:8080" --ask-pass
";}i:2;i:310;}i:17;a:3:{i:0;s:7:"p_close";i:1;a:0:{}i:2;i:438;}i:18;a:3:{i:0;s:6:"p_open";i:1;a:0:{}i:2;i:438;}i:19;a:3:{i:0;s:5:"cdata";i:1;a:1:{i:0;s:28:"This will do the following: ";}i:2;i:440;}i:20;a:3:{i:0;s:7:"p_close";i:1;a:0:{}i:2;i:469;}i:21;a:3:{i:0;s:10:"listu_open";i:1;a:0:{}i:2;i:469;}i:22;a:3:{i:0;s:13:"listitem_open";i:1;a:1:{i:0;i:1;}i:2;i:469;}i:23;a:3:{i:0;s:16:"listcontent_open";i:1;a:0:{}i:2;i:469;}i:24;a:3:{i:0;s:5:"cdata";i:1;a:1:{i:0;s:18:" Install CDP Agent";}i:2;i:473;}i:25;a:3:{i:0;s:17:"listcontent_close";i:1;a:0:{}i:2;i:491;}i:26;a:3:{i:0;s:14:"listitem_close";i:1;a:0:{}i:2;i:491;}i:27;a:3:{i:0;s:13:"listitem_open";i:1;a:1:{i:0;i:1;}i:2;i:491;}i:28;a:3:{i:0;s:16:"listcontent_open";i:1;a:0:{}i:2;i:491;}i:29;a:3:{i:0;s:5:"cdata";i:1;a:1:{i:0;s:26:" Compile the kernel module";}i:2;i:495;}i:30;a:3:{i:0;s:17:"listcontent_close";i:1;a:0:{}i:2;i:521;}i:31;a:3:{i:0;s:14:"listitem_close";i:1;a:0:{}i:2;i:521;}i:32;a:3:{i:0;s:13:"listitem_open";i:1;a:1:{i:0;i:1;}i:2;i:521;}i:33;a:3:{i:0;s:16:"listcontent_open";i:1;a:0:{}i:2;i:521;}i:34;a:3:{i:0;s:5:"cdata";i:1;a:1:{i:0;s:32:" Add CDP server key to the agent";}i:2;i:525;}i:35;a:3:{i:0;s:17:"listcontent_close";i:1;a:0:{}i:2;i:557;}i:36;a:3:{i:0;s:14:"listitem_close";i:1;a:0:{}i:2;i:557;}i:37;a:3:{i:0;s:11:"listu_close";i:1;a:0:{}i:2;i:557;}i:38;a:3:{i:0;s:13:"section_close";i:1;a:0:{}i:2;i:558;}i:39;a:3:{i:0;s:12:"document_end";i:1;a:0:{}i:2;i:558;}}