a:9:{i:0;a:3:{i:0;s:14:"document_start";i:1;a:0:{}i:2;i:0;}i:1;a:3:{i:0;s:6:"p_open";i:1;a:0:{}i:2;i:0;}i:2;a:3:{i:0;s:5:"cdata";i:1;a:1:{i:0;s:68:"Add this code in the particular Virtual host section in NginX config";}i:2;i:3;}i:3;a:3:{i:0;s:7:"p_close";i:1;a:0:{}i:2;i:71;}i:4;a:3:{i:0;s:6:"p_open";i:1;a:0:{}i:2;i:71;}i:5;a:3:{i:0;s:6:"plugin";i:1;a:4:{i:0;s:9:"code_code";i:1;a:4:{i:0;s:4:"code";i:1;N;i:2;s:0:"";i:3;s:2093:"
location / {

        index index.html index.php; ## Allow a static html file to be shown first
        try_files $uri $uri/ @handler; ## If missing pass the URI to Magento's front handler
        expires 30d; ## Assume all files are cachable

        }

        location /minify/ { ## Needed for Fooman Speedster
        rewrite ^/minify/([0-9]+)(/.*\.(js|css))$ /lib/minify/m.php?f=$2&d=$1 last;
    }

                location ^~ /app/                { deny all; }
    location ^~ /includes/           { deny all; }
    location ^~ /lib/                { deny all; }
    location ^~ /media/downloadable/ { deny all; }
    location ^~ /pkginfo/            { deny all; }
    location ^~ /report/config.xml   { deny all; }
    location ^~ /var/                { deny all; }
                location /var/export/ { ## Allow admins only to view export folder
        auth_basic           "Restricted"; ## Message shown in login window
        auth_basic_user_file htpasswd; ## See /etc/nginx/htpassword
        autoindex            on;
    }

    location ~* \.(js|css|png|jpg|jpeg|gif|ico)$ {
    expires 144h;
log_not_found off;
}

    location  /. { ## Disable .htaccess and other hidden files
        return 404;
    }

    location @handler { ## Magento uses a common front handler
        rewrite / /index.php;
   }

    location ~ .php/ { ## Forward paths like /js/index.php/x.js to relevant handler
        rewrite ^(.*.php)/ $1 last;
    }

#Don't cache uris containing the following segments
    if ($request_uri ~* "(\/wp-admin\/|\/xmlrpc.php|\/wp-(app|cron|login|register|mail)\.php|wp-.*\.php|index\.php|wp\-comments\-popup\.php|wp\-links\-opml\.php|wp\-locations\.php)") {
        set $cache_uri "no cache";
        }

  #if (req.url ~ "^/(media|js|skin)/.*\.(png|jpg|jpeg|gif|css|js|swf|ico)$") {
  #      unset req.http.Https;
  #      unset req.http.Cookie;
  #  }
# Don't use the cache for logged in users or recent commenters
    if ($http_cookie ~* "comment_author|wordpress_[a-f0-9]+|wp\-postpass|wordpress_logged_in") {
        set $cache_uri 'no cache';
    }
        }

";}i:2;i:3;i:3;s:2094:">
location / {

        index index.html index.php; ## Allow a static html file to be shown first
        try_files $uri $uri/ @handler; ## If missing pass the URI to Magento's front handler
        expires 30d; ## Assume all files are cachable

        }

        location /minify/ { ## Needed for Fooman Speedster
        rewrite ^/minify/([0-9]+)(/.*\.(js|css))$ /lib/minify/m.php?f=$2&d=$1 last;
    }

                location ^~ /app/                { deny all; }
    location ^~ /includes/           { deny all; }
    location ^~ /lib/                { deny all; }
    location ^~ /media/downloadable/ { deny all; }
    location ^~ /pkginfo/            { deny all; }
    location ^~ /report/config.xml   { deny all; }
    location ^~ /var/                { deny all; }
                location /var/export/ { ## Allow admins only to view export folder
        auth_basic           "Restricted"; ## Message shown in login window
        auth_basic_user_file htpasswd; ## See /etc/nginx/htpassword
        autoindex            on;
    }

    location ~* \.(js|css|png|jpg|jpeg|gif|ico)$ {
    expires 144h;
log_not_found off;
}

    location  /. { ## Disable .htaccess and other hidden files
        return 404;
    }

    location @handler { ## Magento uses a common front handler
        rewrite / /index.php;
   }

    location ~ .php/ { ## Forward paths like /js/index.php/x.js to relevant handler
        rewrite ^(.*.php)/ $1 last;
    }

#Don't cache uris containing the following segments
    if ($request_uri ~* "(\/wp-admin\/|\/xmlrpc.php|\/wp-(app|cron|login|register|mail)\.php|wp-.*\.php|index\.php|wp\-comments\-popup\.php|wp\-links\-opml\.php|wp\-locations\.php)") {
        set $cache_uri "no cache";
        }

  #if (req.url ~ "^/(media|js|skin)/.*\.(png|jpg|jpeg|gif|css|js|swf|ico)$") {
  #      unset req.http.Https;
  #      unset req.http.Cookie;
  #  }
# Don't use the cache for logged in users or recent commenters
    if ($http_cookie ~* "comment_author|wordpress_[a-f0-9]+|wp\-postpass|wordpress_logged_in") {
        set $cache_uri 'no cache';
    }
        }

";}i:2;i:78;}i:6;a:3:{i:0;s:5:"cdata";i:1;a:1:{i:0;s:0:"";}i:2;i:2179;}i:7;a:3:{i:0;s:7:"p_close";i:1;a:0:{}i:2;i:2179;}i:8;a:3:{i:0;s:12:"document_end";i:1;a:0:{}i:2;i:2179;}}