a:67:{i:0;a:3:{i:0;s:14:"document_start";i:1;a:0:{}i:2;i:0;}i:1;a:3:{i:0;s:6:"p_open";i:1;a:0:{}i:2;i:0;}i:2;a:3:{i:0;s:5:"cdata";i:1;a:1:{i:0;s:113:"Step 1. First, you need to enable EPEL repository on your system and start by ensuring your system is up-to-date.";}i:2;i:1;}i:3;a:3:{i:0;s:7:"p_close";i:1;a:0:{}i:2;i:114;}i:4;a:3:{i:0;s:6:"p_open";i:1;a:0:{}i:2;i:114;}i:5;a:3:{i:0;s:5:"cdata";i:1;a:1:{i:0;s:42:"yum -y install git python-tools python-pip";}i:2;i:116;}i:6;a:3:{i:0;s:7:"p_close";i:1;a:0:{}i:2;i:158;}i:7;a:3:{i:0;s:6:"p_open";i:1;a:0:{}i:2;i:158;}i:8;a:3:{i:0;s:5:"cdata";i:1;a:1:{i:0;s:36:"Step 2 . Installing LetsEncrypt SSL.";}i:2;i:160;}i:9;a:3:{i:0;s:7:"p_close";i:1;a:0:{}i:2;i:196;}i:10;a:3:{i:0;s:6:"p_open";i:1;a:0:{}i:2;i:196;}i:11;a:3:{i:0;s:5:"cdata";i:1;a:1:{i:0;s:10:"git clone ";}i:2;i:198;}i:12;a:3:{i:0;s:12:"externallink";i:1;a:2:{i:0;s:42:"https://github.com/letsencrypt/letsencrypt";i:1;s:42:"https://github.com/letsencrypt/letsencrypt";}i:2;i:208;}i:13;a:3:{i:0;s:5:"cdata";i:1;a:1:{i:0;s:1:".";}i:2;i:297;}i:14;a:3:{i:0;s:9:"linebreak";i:1;a:0:{}i:2;i:298;}i:15;a:3:{i:0;s:5:"cdata";i:1;a:1:{i:0;s:15:"
cd letsencrypt";}i:2;i:300;}i:16;a:3:{i:0;s:9:"linebreak";i:1;a:0:{}i:2;i:315;}i:17;a:3:{i:0;s:5:"cdata";i:1;a:1:{i:0;s:64:"
./letsencrypt-auto certonly -a standalone -d yourdomain.com -d ";}i:2;i:317;}i:18;a:3:{i:0;s:12:"externallink";i:1;a:2:{i:0;s:25:"http://www.yourdomain.com";i:1;s:18:"www.yourdomain.com";}i:2;i:381;}i:19;a:3:{i:0;s:9:"linebreak";i:1;a:0:{}i:2;i:429;}i:20;a:3:{i:0;s:5:"cdata";i:1;a:1:{i:0;s:61:"
LetsEncrypt puts its keys in this directory /etc/letsencrypt";}i:2;i:431;}i:21;a:3:{i:0;s:9:"linebreak";i:1;a:0:{}i:2;i:492;}i:22;a:3:{i:0;s:5:"cdata";i:1;a:1:{i:0;s:58:"
First create SSL directory to host your SSL certificates.";}i:2;i:494;}i:23;a:3:{i:0;s:9:"linebreak";i:1;a:0:{}i:2;i:552;}i:24;a:3:{i:0;s:5:"cdata";i:1;a:1:{i:0;s:21:"
mkdir /etc/nginx/ssl";}i:2;i:554;}i:25;a:3:{i:0;s:9:"linebreak";i:1;a:0:{}i:2;i:575;}i:26;a:3:{i:0;s:5:"cdata";i:1;a:1:{i:0;s:18:"
cd /etc/nginx/ssl";}i:2;i:577;}i:27;a:3:{i:0;s:7:"p_close";i:1;a:0:{}i:2;i:595;}i:28;a:3:{i:0;s:6:"p_open";i:1;a:0:{}i:2;i:595;}i:29;a:3:{i:0;s:5:"cdata";i:1;a:1:{i:0;s:40:"Step 3. Generating Your SSL Key and CSR.";}i:2;i:597;}i:30;a:3:{i:0;s:9:"linebreak";i:1;a:0:{}i:2;i:637;}i:31;a:3:{i:0;s:5:"cdata";i:1;a:1:{i:0;s:23:"
1 mkdir /etc/nginx/ssl";}i:2;i:639;}i:32;a:3:{i:0;s:9:"linebreak";i:1;a:0:{}i:2;i:662;}i:33;a:3:{i:0;s:5:"cdata";i:1;a:1:{i:0;s:20:"
2 cd /etc/nginx/ssl";}i:2;i:664;}i:34;a:3:{i:0;s:9:"linebreak";i:1;a:0:{}i:2;i:684;}i:35;a:3:{i:0;s:5:"cdata";i:1;a:1:{i:0;s:42:"
openssl genrsa -des3 -out server.key 2048";}i:2;i:686;}i:36;a:3:{i:0;s:9:"linebreak";i:1;a:0:{}i:2;i:728;}i:37;a:3:{i:0;s:5:"cdata";i:1;a:1:{i:0;s:49:"
openssl req -new -key server.key -out server.csr";}i:2;i:730;}i:38;a:3:{i:0;s:7:"p_close";i:1;a:0:{}i:2;i:779;}i:39;a:3:{i:0;s:6:"p_open";i:1;a:0:{}i:2;i:779;}i:40;a:3:{i:0;s:5:"cdata";i:1;a:1:{i:0;s:88:"Step 4. Configure the Certificate for Nginx. Add following entries in your .conf file :-";}i:2;i:781;}i:41;a:3:{i:0;s:7:"p_close";i:1;a:0:{}i:2;i:869;}i:42;a:3:{i:0;s:6:"p_open";i:1;a:0:{}i:2;i:869;}i:43;a:3:{i:0;s:5:"cdata";i:1;a:1:{i:0;s:19:"# SSL configuration";}i:2;i:871;}i:44;a:3:{i:0;s:9:"linebreak";i:1;a:0:{}i:2;i:890;}i:45;a:3:{i:0;s:5:"cdata";i:1;a:1:{i:0;s:31:"
listen 443 ssl default_server;";}i:2;i:892;}i:46;a:3:{i:0;s:9:"linebreak";i:1;a:0:{}i:2;i:923;}i:47;a:3:{i:0;s:5:"cdata";i:1;a:1:{i:0;s:69:"
ssl_certificate /etc/letsencrypt/live/your_domain.tld/fullchain.pem;";}i:2;i:925;}i:48;a:3:{i:0;s:9:"linebreak";i:1;a:0:{}i:2;i:994;}i:49;a:3:{i:0;s:5:"cdata";i:1;a:1:{i:0;s:71:"
ssl_certificate_key /etc/letsencrypt/live/your_domain.tld/privkey.pem;";}i:2;i:996;}i:50;a:3:{i:0;s:9:"linebreak";i:1;a:0:{}i:2;i:1067;}i:51;a:3:{i:0;s:5:"cdata";i:1;a:1:{i:0;s:37:"
ssl_protocols TLSv1 TLSv1.1 TLSv1.2;";}i:2;i:1069;}i:52;a:3:{i:0;s:9:"linebreak";i:1;a:0:{}i:2;i:1106;}i:53;a:3:{i:0;s:5:"cdata";i:1;a:1:{i:0;s:30:"
ssl_prefer_server_ciphers on;";}i:2;i:1108;}i:54;a:3:{i:0;s:9:"linebreak";i:1;a:0:{}i:2;i:1138;}i:55;a:3:{i:0;s:5:"cdata";i:1;a:1:{i:0;s:63:"
ssl_ciphers 'EECDH+AESGCM:EDH+AESGCM:AES256+EECDH:AES256+EDH';";}i:2;i:1140;}i:56;a:3:{i:0;s:7:"p_close";i:1;a:0:{}i:2;i:1203;}i:57;a:3:{i:0;s:6:"p_open";i:1;a:0:{}i:2;i:1203;}i:58;a:3:{i:0;s:5:"cdata";i:1;a:1:{i:0;s:8:"nginx -t";}i:2;i:1205;}i:59;a:3:{i:0;s:9:"linebreak";i:1;a:0:{}i:2;i:1213;}i:60;a:3:{i:0;s:5:"cdata";i:1;a:1:{i:0;s:22:"
service nginx restart";}i:2;i:1215;}i:61;a:3:{i:0;s:7:"p_close";i:1;a:0:{}i:2;i:1237;}i:62;a:3:{i:0;s:6:"p_open";i:1;a:0:{}i:2;i:1237;}i:63;a:3:{i:0;s:12:"externallink";i:1;a:2:{i:0;s:22:"https://yourdomain.com";i:1;s:22:"https://yourdomain.com";}i:2;i:1239;}i:64;a:3:{i:0;s:5:"cdata";i:1;a:1:{i:0;s:1:".";}i:2;i:1288;}i:65;a:3:{i:0;s:7:"p_close";i:1;a:0:{}i:2;i:1289;}i:66;a:3:{i:0;s:12:"document_end";i:1;a:0:{}i:2;i:1289;}}