a:60:{i:0;a:3:{i:0;s:14:"document_start";i:1;a:0:{}i:2;i:0;}i:1;a:3:{i:0;s:6:"p_open";i:1;a:0:{}i:2;i:0;}i:2;a:3:{i:0;s:5:"cdata";i:1;a:1:{i:0;s:25:"It is recommended to use ";}i:2;i:1;}i:3;a:3:{i:0;s:11:"strong_open";i:1;a:0:{}i:2;i:26;}i:4;a:3:{i:0;s:5:"cdata";i:1;a:1:{i:0;s:8:"CentOS 6";}i:2;i:28;}i:5;a:3:{i:0;s:12:"strong_close";i:1;a:0:{}i:2;i:36;}i:6;a:3:{i:0;s:5:"cdata";i:1;a:1:{i:0;s:59:" to install Zimbra collaboration Suite through this Script.";}i:2;i:38;}i:7;a:3:{i:0;s:7:"p_close";i:1;a:0:{}i:2;i:97;}i:8;a:3:{i:0;s:6:"p_open";i:1;a:0:{}i:2;i:97;}i:9;a:3:{i:0;s:5:"cdata";i:1;a:1:{i:0;s:68:"Login as root user. Install vim and screen if not already installed.";}i:2;i:99;}i:10;a:3:{i:0;s:7:"p_close";i:1;a:0:{}i:2;i:167;}i:11;a:3:{i:0;s:6:"p_open";i:1;a:0:{}i:2;i:167;}i:12;a:3:{i:0;s:6:"plugin";i:1;a:4:{i:0;s:9:"code_code";i:1;a:4:{i:0;s:4:"code";i:1;N;i:2;s:0:"";i:3;s:68:"
cd /root

touch /root/alloutput.txt

chmod 777 /root/alloutput.txt
";}i:2;i:3;i:3;s:69:">
cd /root

touch /root/alloutput.txt

chmod 777 /root/alloutput.txt
";}i:2;i:174;}i:13;a:3:{i:0;s:7:"p_close";i:1;a:0:{}i:2;i:250;}i:14;a:3:{i:0;s:6:"p_open";i:1;a:0:{}i:2;i:250;}i:15;a:3:{i:0;s:5:"cdata";i:1;a:1:{i:0;s:64:"Create a file zimbra.sh and copy shell script code in this file.";}i:2;i:252;}i:16;a:3:{i:0;s:7:"p_close";i:1;a:0:{}i:2;i:316;}i:17;a:3:{i:0;s:6:"p_open";i:1;a:0:{}i:2;i:316;}i:18;a:3:{i:0;s:6:"plugin";i:1;a:4:{i:0;s:9:"code_code";i:1;a:4:{i:0;s:4:"code";i:1;N;i:2;s:0:"";i:3;s:15:"
vim zimbra.sh
";}i:2;i:3;i:3;s:16:">
vim zimbra.sh
";}i:2;i:323;}i:19;a:3:{i:0;s:7:"p_close";i:1;a:0:{}i:2;i:346;}i:20;a:3:{i:0;s:6:"p_open";i:1;a:0:{}i:2;i:346;}i:21;a:3:{i:0;s:5:"cdata";i:1;a:1:{i:0;s:18:"Go to insert mode.";}i:2;i:348;}i:22;a:3:{i:0;s:7:"p_close";i:1;a:0:{}i:2;i:366;}i:23;a:3:{i:0;s:6:"p_open";i:1;a:0:{}i:2;i:366;}i:24;a:3:{i:0;s:5:"cdata";i:1;a:1:{i:0;s:23:"Copy whole script from ";}i:2;i:368;}i:25;a:3:{i:0;s:12:"externallink";i:1;a:2:{i:0;s:64:"http://wiki.mantraventures.com/zimbra/auto_zimbra_install_script";i:1;s:64:"http://wiki.mantraventures.com/zimbra/auto_zimbra_install_script";}i:2;i:391;}i:26;a:3:{i:0;s:5:"cdata";i:1;a:1:{i:0;s:46:" and paste it in the file (zimbra.sh) created.";}i:2;i:524;}i:27;a:3:{i:0;s:7:"p_close";i:1;a:0:{}i:2;i:570;}i:28;a:3:{i:0;s:6:"p_open";i:1;a:0:{}i:2;i:570;}i:29;a:3:{i:0;s:5:"cdata";i:1;a:1:{i:0;s:19:"Save and exit (:wq)";}i:2;i:572;}i:30;a:3:{i:0;s:7:"p_close";i:1;a:0:{}i:2;i:591;}i:31;a:3:{i:0;s:6:"p_open";i:1;a:0:{}i:2;i:591;}i:32;a:3:{i:0;s:6:"plugin";i:1;a:4:{i:0;s:9:"code_code";i:1;a:4:{i:0;s:4:"code";i:1;N;i:2;s:0:"";i:3;s:71:"
chmod +x zimbra.sh

screen

sh zimbra.sh | tee -a /root/alloutput.txt
";}i:2;i:3;i:3;s:72:">
chmod +x zimbra.sh

screen

sh zimbra.sh | tee -a /root/alloutput.txt
";}i:2;i:598;}i:33;a:3:{i:0;s:7:"p_close";i:1;a:0:{}i:2;i:677;}i:34;a:3:{i:0;s:6:"p_open";i:1;a:0:{}i:2;i:677;}i:35;a:3:{i:0;s:5:"cdata";i:1;a:1:{i:0;s:18:"Enter domain name.";}i:2;i:679;}i:36;a:3:{i:0;s:7:"p_close";i:1;a:0:{}i:2;i:697;}i:37;a:3:{i:0;s:6:"p_open";i:1;a:0:{}i:2;i:697;}i:38;a:3:{i:0;s:6:"plugin";i:1;a:4:{i:0;s:9:"code_code";i:1;a:4:{i:0;s:4:"code";i:1;N;i:2;s:0:"";i:3;s:56:"
Are above mentioned settings correct?[yes/no]: **yes**
";}i:2;i:3;i:3;s:57:">
Are above mentioned settings correct?[yes/no]: **yes**
";}i:2;i:704;}i:39;a:3:{i:0;s:5:"cdata";i:1;a:1:{i:0;s:58:"
Next it will ask some settings. Configure it as follows -";}i:2;i:768;}i:40;a:3:{i:0;s:7:"p_close";i:1;a:0:{}i:2;i:826;}i:41;a:3:{i:0;s:6:"p_open";i:1;a:0:{}i:2;i:826;}i:42;a:3:{i:0;s:6:"plugin";i:1;a:4:{i:0;s:9:"code_code";i:1;a:4:{i:0;s:4:"code";i:1;N;i:2;s:0:"";i:3;s:450:"
Do you agree with the terms of the software license agreement? [N] **y**

Install zimbra-ldap [Y] **y**

Install zimbra-logger [Y] **y**

Install zimbra-mta [Y] **y**

Install zimbra-dnscache [Y] **y**

Install zimbra-snmp [Y] **y**

Install zimbra-store [Y] **y**

Install zimbra-apache [Y] **y**

Install zimbra-spell [Y] **y**

Install zimbra-memcached [Y] **y**

Install zimbra-proxy [Y] **y**

The system will be modified.  Continue? [N] **y**
";}i:2;i:3;i:3;s:451:">
Do you agree with the terms of the software license agreement? [N] **y**

Install zimbra-ldap [Y] **y**

Install zimbra-logger [Y] **y**

Install zimbra-mta [Y] **y**

Install zimbra-dnscache [Y] **y**

Install zimbra-snmp [Y] **y**

Install zimbra-store [Y] **y**

Install zimbra-apache [Y] **y**

Install zimbra-spell [Y] **y**

Install zimbra-memcached [Y] **y**

Install zimbra-proxy [Y] **y**

The system will be modified.  Continue? [N] **y**
";}i:2;i:833;}i:43;a:3:{i:0;s:7:"p_close";i:1;a:0:{}i:2;i:1291;}i:44;a:3:{i:0;s:6:"p_open";i:1;a:0:{}i:2;i:1291;}i:45;a:3:{i:0;s:5:"cdata";i:1;a:1:{i:0;s:84:"Let it install packages. It will take few minutes depending on server configuration.";}i:2;i:1293;}i:46;a:3:{i:0;s:7:"p_close";i:1;a:0:{}i:2;i:1377;}i:47;a:3:{i:0;s:6:"p_open";i:1;a:0:{}i:2;i:1377;}i:48;a:3:{i:0;s:6:"plugin";i:1;a:4:{i:0;s:9:"code_code";i:1;a:4:{i:0;s:4:"code";i:1;N;i:2;s:0:"";i:3;s:647:"

Change hostname [Yes] **no**

Change domain name? [Yes] **no**

Address unconfigured (**) items  (? - help) **7**

Select, or 'r' for previous menu [r] **4**

Password for admin@server.zeeshantestvm.com (min 6 characters): [E0MFdxFu] **anypassword**

Select, or 'r' for previous menu [r] **r**

Select from menu, or press 'a' to apply config (? - help) **a**

Save configuration data to a file? [Yes] **yes**

Save config in file: [/opt/zimbra/config.12806] **(Press Enter)**

The system will be modified - continue? [No] **yes**

Notify Zimbra of your installation? [Yes] **no**

Configuration complete - press return to exit **(Press Enter)**
";}i:2;i:3;i:3;s:648:">

Change hostname [Yes] **no**

Change domain name? [Yes] **no**

Address unconfigured (**) items  (? - help) **7**

Select, or 'r' for previous menu [r] **4**

Password for admin@server.zeeshantestvm.com (min 6 characters): [E0MFdxFu] **anypassword**

Select, or 'r' for previous menu [r] **r**

Select from menu, or press 'a' to apply config (? - help) **a**

Save configuration data to a file? [Yes] **yes**

Save config in file: [/opt/zimbra/config.12806] **(Press Enter)**

The system will be modified - continue? [No] **yes**

Notify Zimbra of your installation? [Yes] **no**

Configuration complete - press return to exit **(Press Enter)**
";}i:2;i:1384;}i:49;a:3:{i:0;s:7:"p_close";i:1;a:0:{}i:2;i:2039;}i:50;a:3:{i:0;s:6:"p_open";i:1;a:0:{}i:2;i:2039;}i:51;a:3:{i:0;s:5:"cdata";i:1;a:1:{i:0;s:55:"Let the installation complete. Details will be emailed.";}i:2;i:2041;}i:52;a:3:{i:0;s:7:"p_close";i:1;a:0:{}i:2;i:2096;}i:53;a:3:{i:0;s:6:"p_open";i:1;a:0:{}i:2;i:2096;}i:54;a:3:{i:0;s:5:"cdata";i:1;a:1:{i:0;s:96:"If there is some problem in getting email, you can also check the details by following command -";}i:2;i:2098;}i:55;a:3:{i:0;s:7:"p_close";i:1;a:0:{}i:2;i:2194;}i:56;a:3:{i:0;s:6:"p_open";i:1;a:0:{}i:2;i:2194;}i:57;a:3:{i:0;s:6:"plugin";i:1;a:4:{i:0;s:9:"code_code";i:1;a:4:{i:0;s:4:"code";i:1;N;i:2;s:0:"";i:3;s:29:"
tail -6 /root/alloutput.txt
";}i:2;i:3;i:3;s:30:">
tail -6 /root/alloutput.txt
";}i:2;i:2201;}i:58;a:3:{i:0;s:7:"p_close";i:1;a:0:{}i:2;i:2238;}i:59;a:3:{i:0;s:12:"document_end";i:1;a:0:{}i:2;i:2238;}}