a:72:{i:0;a:3:{i:0;s:14:"document_start";i:1;a:0:{}i:2;i:0;}i:1;a:3:{i:0;s:6:"p_open";i:1;a:0:{}i:2;i:0;}i:2;a:3:{i:0;s:5:"cdata";i:1;a:1:{i:0;s:17:"Open PolicyD Web ";}i:2;i:1;}i:3;a:3:{i:0;s:7:"acronym";i:1;a:1:{i:0;s:3:"GUI";}i:2;i:18;}i:4;a:3:{i:0;s:5:"cdata";i:1;a:1:{i:0;s:2:". ";}i:2;i:21;}i:5;a:3:{i:0;s:7:"acronym";i:1;a:1:{i:0;s:3:"URL";}i:2;i:23;}i:6;a:3:{i:0;s:5:"cdata";i:1;a:1:{i:0;s:2:": ";}i:2;i:26;}i:7;a:3:{i:0;s:12:"externallink";i:1;a:2:{i:0;s:41:"http://43.252.89.206:7780/webui/index.php";i:1;s:41:"http://43.252.89.206:7780/webui/index.php";}i:2;i:28;}i:8;a:3:{i:0;s:5:"cdata";i:1;a:1:{i:0;s:89:" Navigate to Policies –> group –> select action –> add > Name: Disabled: peruser no";}i:2;i:115;}i:9;a:3:{i:0;s:7:"p_close";i:1;a:0:{}i:2;i:204;}i:10;a:3:{i:0;s:6:"p_open";i:1;a:0:{}i:2;i:204;}i:11;a:3:{i:0;s:5:"cdata";i:1;a:1:{i:0;s:22:"#Name can be anything.";}i:2;i:206;}i:12;a:3:{i:0;s:9:"linebreak";i:1;a:0:{}i:2;i:228;}i:13;a:3:{i:0;s:5:"cdata";i:1;a:1:{i:0;s:24:"
#Disabled should be no.";}i:2;i:230;}i:14;a:3:{i:0;s:7:"p_close";i:1;a:0:{}i:2;i:254;}i:15;a:3:{i:0;s:6:"p_open";i:1;a:0:{}i:2;i:254;}i:16;a:3:{i:0;s:5:"cdata";i:1;a:1:{i:0;s:23:"Back to policies group.";}i:2;i:256;}i:17;a:3:{i:0;s:9:"linebreak";i:1;a:0:{}i:2;i:279;}i:18;a:3:{i:0;s:5:"cdata";i:1;a:1:{i:0;s:101:"
Select policy group you have created by using above members –> select action –> members –> add";}i:2;i:281;}i:19;a:3:{i:0;s:9:"linebreak";i:1;a:0:{}i:2;i:382;}i:20;a:3:{i:0;s:7:"p_close";i:1;a:0:{}i:2;i:384;}i:21;a:3:{i:0;s:10:"quote_open";i:1;a:0:{}i:2;i:384;}i:22;a:3:{i:0;s:5:"cdata";i:1;a:1:{i:0;s:48:" Member Disabled user1@mohit1.mantravault.com no";}i:2;i:386;}i:23;a:3:{i:0;s:11:"quote_close";i:1;a:0:{}i:2;i:434;}i:24;a:3:{i:0;s:6:"p_open";i:1;a:0:{}i:2;i:434;}i:25;a:3:{i:0;s:5:"cdata";i:1;a:1:{i:0;s:40:"#Member name should be user1@domainname.";}i:2;i:436;}i:26;a:3:{i:0;s:9:"linebreak";i:1;a:0:{}i:2;i:476;}i:27;a:3:{i:0;s:5:"cdata";i:1;a:1:{i:0;s:24:"
#Disabled should be no.";}i:2;i:478;}i:28;a:3:{i:0;s:7:"p_close";i:1;a:0:{}i:2;i:502;}i:29;a:3:{i:0;s:6:"p_open";i:1;a:0:{}i:2;i:502;}i:30;a:3:{i:0;s:5:"cdata";i:1;a:1:{i:0;s:30:"Navigate to policies –> Main";}i:2;i:504;}i:31;a:3:{i:0;s:9:"linebreak";i:1;a:0:{}i:2;i:534;}i:32;a:3:{i:0;s:7:"p_close";i:1;a:0:{}i:2;i:536;}i:33;a:3:{i:0;s:10:"quote_open";i:1;a:0:{}i:2;i:536;}i:34;a:3:{i:0;s:5:"cdata";i:1;a:1:{i:0;s:56:" Name Priority Description Disabled peruser 0 peruser no";}i:2;i:538;}i:35;a:3:{i:0;s:11:"quote_close";i:1;a:0:{}i:2;i:594;}i:36;a:3:{i:0;s:6:"p_open";i:1;a:0:{}i:2;i:594;}i:37;a:3:{i:0;s:5:"cdata";i:1;a:1:{i:0;s:22:"#Name can be anything.";}i:2;i:596;}i:38;a:3:{i:0;s:9:"linebreak";i:1;a:0:{}i:2;i:618;}i:39;a:3:{i:0;s:5:"cdata";i:1;a:1:{i:0;s:43:"
#Priority: 0 is highest and 100 is lowest.";}i:2;i:620;}i:40;a:3:{i:0;s:9:"linebreak";i:1;a:0:{}i:2;i:663;}i:41;a:3:{i:0;s:5:"cdata";i:1;a:1:{i:0;s:36:"
#Description should not be blanked.";}i:2;i:665;}i:42;a:3:{i:0;s:9:"linebreak";i:1;a:0:{}i:2;i:701;}i:43;a:3:{i:0;s:5:"cdata";i:1;a:1:{i:0;s:24:"
#Disabled should be no.";}i:2;i:703;}i:44;a:3:{i:0;s:7:"p_close";i:1;a:0:{}i:2;i:727;}i:45;a:3:{i:0;s:6:"p_open";i:1;a:0:{}i:2;i:727;}i:46;a:3:{i:0;s:5:"cdata";i:1;a:1:{i:0;s:27:"Back to policies –> main.";}i:2;i:729;}i:47;a:3:{i:0;s:9:"linebreak";i:1;a:0:{}i:2;i:756;}i:48;a:3:{i:0;s:5:"cdata";i:1;a:1:{i:0;s:83:"
select your policy you have created in above step. –> select action –> Members";}i:2;i:758;}i:49;a:3:{i:0;s:9:"linebreak";i:1;a:0:{}i:2;i:841;}i:50;a:3:{i:0;s:7:"p_close";i:1;a:0:{}i:2;i:843;}i:51;a:3:{i:0;s:10:"quote_open";i:1;a:0:{}i:2;i:843;}i:52;a:3:{i:0;s:5:"cdata";i:1;a:1:{i:0;s:47:" Source Destination Disabled %domainwise any no";}i:2;i:845;}i:53;a:3:{i:0;s:11:"quote_close";i:1;a:0:{}i:2;i:892;}i:54;a:3:{i:0;s:6:"p_open";i:1;a:0:{}i:2;i:892;}i:55;a:3:{i:0;s:5:"cdata";i:1;a:1:{i:0;s:61:"Navigate to Quotas –> Configure –> Select action –> Add";}i:2;i:894;}i:56;a:3:{i:0;s:9:"linebreak";i:1;a:0:{}i:2;i:955;}i:57;a:3:{i:0;s:7:"p_close";i:1;a:0:{}i:2;i:957;}i:58;a:3:{i:0;s:10:"quote_open";i:1;a:0:{}i:2;i:957;}i:59;a:3:{i:0;s:5:"cdata";i:1;a:1:{i:0;s:95:" Policy Name Track Period Verdict Data Disabled peruser peruser Sender:@domain 3600 REJECT 0 no";}i:2;i:959;}i:60;a:3:{i:0;s:11:"quote_close";i:1;a:0:{}i:2;i:1054;}i:61;a:3:{i:0;s:6:"p_open";i:1;a:0:{}i:2;i:1054;}i:62;a:3:{i:0;s:5:"cdata";i:1;a:1:{i:0;s:75:"Select quota you have added using above step –> select action –> limits";}i:2;i:1056;}i:63;a:3:{i:0;s:9:"linebreak";i:1;a:0:{}i:2;i:1131;}i:64;a:3:{i:0;s:7:"p_close";i:1;a:0:{}i:2;i:1133;}i:65;a:3:{i:0;s:10:"quote_open";i:1;a:0:{}i:2;i:1133;}i:66;a:3:{i:0;s:5:"cdata";i:1;a:1:{i:0;s:46:" Type Counter Limit Disabled MessageCount 5 no";}i:2;i:1135;}i:67;a:3:{i:0;s:11:"quote_close";i:1;a:0:{}i:2;i:1181;}i:68;a:3:{i:0;s:10:"quote_open";i:1;a:0:{}i:2;i:1182;}i:69;a:3:{i:0;s:5:"cdata";i:1;a:1:{i:0;s:33:" su zimbra zmcbpolicydctl restart";}i:2;i:1184;}i:70;a:3:{i:0;s:11:"quote_close";i:1;a:0:{}i:2;i:1217;}i:71;a:3:{i:0;s:12:"document_end";i:1;a:0:{}i:2;i:1217;}}