a:16:{i:0;a:3:{i:0;s:14:"document_start";i:1;a:0:{}i:2;i:0;}i:1;a:3:{i:0;s:6:"p_open";i:1;a:0:{}i:2;i:0;}i:2;a:3:{i:0;s:5:"cdata";i:1;a:1:{i:0;s:101:"1. Go to Global settings or Server settings MTA tab and add the relay server hostname and port there.";}i:2;i:1;}i:3;a:3:{i:0;s:7:"p_close";i:1;a:0:{}i:2;i:102;}i:4;a:3:{i:0;s:6:"p_open";i:1;a:0:{}i:2;i:102;}i:5;a:3:{i:0;s:5:"cdata";i:1;a:1:{i:0;s:46:"2. Add relay server IP to MTA trusted network.";}i:2;i:104;}i:6;a:3:{i:0;s:7:"p_close";i:1;a:0:{}i:2;i:150;}i:7;a:3:{i:0;s:6:"p_open";i:1;a:0:{}i:2;i:150;}i:8;a:3:{i:0;s:5:"cdata";i:1;a:1:{i:0;s:77:"3. Then edit the file /opt/zimbra/conf/relay_password and add the following:
";}i:2;i:152;}i:9;a:3:{i:0;s:6:"plugin";i:1;a:4:{i:0;s:9:"code_code";i:1;a:4:{i:0;s:4:"code";i:1;N;i:2;s:0:"";i:3;s:49:"
<Relay server hostname>   <username>:<password>
";}i:2;i:3;i:3;s:50:">
<Relay server hostname>   <username>:<password>
";}i:2;i:234;}i:10;a:3:{i:0;s:7:"p_close";i:1;a:0:{}i:2;i:291;}i:11;a:3:{i:0;s:6:"p_open";i:1;a:0:{}i:2;i:291;}i:12;a:3:{i:0;s:5:"cdata";i:1;a:1:{i:0;s:12:"4. The run:
";}i:2;i:293;}i:13;a:3:{i:0;s:6:"plugin";i:1;a:4:{i:0;s:9:"code_code";i:1;a:4:{i:0;s:4:"code";i:1;N;i:2;s:0:"";i:3;s:141:"
postconf -e smtp_sasl_password_maps=hash:/opt/zimbra/conf/relay_password
postmap /opt/zimbra/conf/relay_password
/etc/init.d/zimbra restart
";}i:2;i:3;i:3;s:142:">
postconf -e smtp_sasl_password_maps=hash:/opt/zimbra/conf/relay_password
postmap /opt/zimbra/conf/relay_password
/etc/init.d/zimbra restart
";}i:2;i:310;}i:14;a:3:{i:0;s:7:"p_close";i:1;a:0:{}i:2;i:459;}i:15;a:3:{i:0;s:12:"document_end";i:1;a:0:{}i:2;i:459;}}