a:26:{i:0;a:3:{i:0;s:14:"document_start";i:1;a:0:{}i:2;i:0;}i:1;a:3:{i:0;s:6:"header";i:1;a:3:{i:0;s:30:"Migrate HyperVM VPS to SolusVM";i:1;i:1;i:2;i:1;}i:2;i:1;}i:2;a:3:{i:0;s:12:"section_open";i:1;a:1:{i:0;i:1;}i:2;i:1;}i:3;a:3:{i:0;s:6:"p_open";i:1;a:0:{}i:2;i:1;}i:4;a:3:{i:0;s:5:"cdata";i:1;a:1:{i:0;s:62:"On the node that hosts the container you want to migrate, do:
";}i:2;i:48;}i:5;a:3:{i:0;s:6:"plugin";i:1;a:4:{i:0;s:9:"code_code";i:1;a:4:{i:0;s:4:"code";i:1;N;i:2;s:0:"";i:3;s:137:"
wget http://files.soluslabs.com/solusvm/scripts/keyput.sh
chmod a+x keyput.sh
./keyput.sh <destination_node_ip> <destination_node_port> ";}i:2;i:3;i:3;s:138:">
wget http://files.soluslabs.com/solusvm/scripts/keyput.sh
chmod a+x keyput.sh
./keyput.sh <destination_node_ip> <destination_node_port> ";}i:2;i:115;}i:6;a:3:{i:0;s:7:"p_close";i:1;a:0:{}i:2;i:260;}i:7;a:3:{i:0;s:6:"p_open";i:1;a:0:{}i:2;i:260;}i:8;a:3:{i:0;s:5:"cdata";i:1;a:1:{i:0;s:141:"Now you need to know the container id you want to move, you can get this by doing the following on the node that contains the virtual server:";}i:2;i:262;}i:9;a:3:{i:0;s:7:"p_close";i:1;a:0:{}i:2;i:404;}i:10;a:3:{i:0;s:12:"preformatted";i:1;a:1:{i:0;s:9:"vzlist -a";}i:2;i:404;}i:11;a:3:{i:0;s:6:"p_open";i:1;a:0:{}i:2;i:404;}i:12;a:3:{i:0;s:5:"cdata";i:1;a:1:{i:0;s:122:"When you know the container id you can start the migration. Do the following on the node that contains the virtual server:";}i:2;i:418;}i:13;a:3:{i:0;s:7:"p_close";i:1;a:0:{}i:2;i:541;}i:14;a:3:{i:0;s:12:"preformatted";i:1;a:1:{i:0;s:84:"vzmigrate -v --ssh="-p <destination_node_port>" <destination_node_ip> <container_id>";}i:2;i:541;}i:15;a:3:{i:0;s:6:"p_open";i:1;a:0:{}i:2;i:541;}i:16;a:3:{i:0;s:5:"cdata";i:1;a:1:{i:0;s:102:"Last but not least you need to update the information in SolusVM. On the master node do the following:";}i:2;i:630;}i:17;a:3:{i:0;s:7:"p_close";i:1;a:0:{}i:2;i:732;}i:18;a:3:{i:0;s:6:"p_open";i:1;a:0:{}i:2;i:732;}i:19;a:3:{i:0;s:5:"cdata";i:1;a:1:{i:0;s:103:"php /usr/local/solusvm/scripts/migrate.php mode=vs type=openvz ctid=<container_id> nodeid=<new_node_id>";}i:2;i:734;}i:20;a:3:{i:0;s:7:"p_close";i:1;a:0:{}i:2;i:837;}i:21;a:3:{i:0;s:6:"p_open";i:1;a:0:{}i:2;i:837;}i:22;a:3:{i:0;s:5:"cdata";i:1;a:1:{i:0;s:133:"<new_node_id> = the node id of the node the virtual server has been transfered to. You can find this by viewing the nodes in SolusVM.";}i:2;i:839;}i:23;a:3:{i:0;s:7:"p_close";i:1;a:0:{}i:2;i:972;}i:24;a:3:{i:0;s:13:"section_close";i:1;a:0:{}i:2;i:972;}i:25;a:3:{i:0;s:12:"document_end";i:1;a:0:{}i:2;i:972;}}