a:42:{i:0;a:3:{i:0;s:14:"document_start";i:1;a:0:{}i:2;i:0;}i:1;a:3:{i:0;s:6:"p_open";i:1;a:0:{}i:2;i:0;}i:2;a:3:{i:0;s:11:"strong_open";i:1;a:0:{}i:2;i:1;}i:3;a:3:{i:0;s:5:"cdata";i:1;a:1:{i:0;s:32:"IP/Domain Based Restriction for ";}i:2;i:3;}i:4;a:3:{i:0;s:7:"acronym";i:1;a:1:{i:0;s:3:"FTP";}i:2;i:35;}i:5;a:3:{i:0;s:5:"cdata";i:1;a:1:{i:0;s:17:" Access in proFTP";}i:2;i:38;}i:6;a:3:{i:0;s:12:"strong_close";i:1;a:0:{}i:2;i:55;}i:7;a:3:{i:0;s:5:"cdata";i:1;a:1:{i:0;s:0:"";}i:2;i:57;}i:8;a:3:{i:0;s:7:"p_close";i:1;a:0:{}i:2;i:58;}i:9;a:3:{i:0;s:10:"listu_open";i:1;a:0:{}i:2;i:58;}i:10;a:3:{i:0;s:13:"listitem_open";i:1;a:1:{i:0;i:1;}i:2;i:58;}i:11;a:3:{i:0;s:16:"listcontent_open";i:1;a:0:{}i:2;i:58;}i:12;a:3:{i:0;s:5:"cdata";i:1;a:1:{i:0;s:56:" Edit the proFTPD configuration file (/etc/proftpd.conf)";}i:2;i:62;}i:13;a:3:{i:0;s:17:"listcontent_close";i:1;a:0:{}i:2;i:118;}i:14;a:3:{i:0;s:14:"listitem_close";i:1;a:0:{}i:2;i:118;}i:15;a:3:{i:0;s:11:"listu_close";i:1;a:0:{}i:2;i:118;}i:16;a:3:{i:0;s:6:"p_open";i:1;a:0:{}i:2;i:118;}i:17;a:3:{i:0;s:5:"cdata";i:1;a:1:{i:0;s:75:"          NOTE:- Don't forget to make a backup file of same before editing.";}i:2;i:119;}i:18;a:3:{i:0;s:7:"p_close";i:1;a:0:{}i:2;i:194;}i:19;a:3:{i:0;s:10:"listu_open";i:1;a:0:{}i:2;i:194;}i:20;a:3:{i:0;s:13:"listitem_open";i:1;a:2:{i:0;i:1;i:1;i:1;}i:2;i:194;}i:21;a:3:{i:0;s:16:"listcontent_open";i:1;a:0:{}i:2;i:194;}i:22;a:3:{i:0;s:5:"cdata";i:1;a:1:{i:0;s:18:" Find the section ";}i:2;i:198;}i:23;a:3:{i:0;s:18:"doublequoteopening";i:1;a:0:{}i:2;i:216;}i:24;a:3:{i:0;s:5:"cdata";i:1;a:1:{i:0;s:8:"<Global>";}i:2;i:217;}i:25;a:3:{i:0;s:18:"doublequoteclosing";i:1;a:0:{}i:2;i:225;}i:26;a:3:{i:0;s:5:"cdata";i:1;a:1:{i:0;s:43:" in the file and add following as required.";}i:2;i:226;}i:27;a:3:{i:0;s:17:"listcontent_close";i:1;a:0:{}i:2;i:269;}i:28;a:3:{i:0;s:10:"listu_open";i:1;a:0:{}i:2;i:269;}i:29;a:3:{i:0;s:13:"listitem_open";i:1;a:1:{i:0;i:8;}i:2;i:269;}i:30;a:3:{i:0;s:16:"listcontent_open";i:1;a:0:{}i:2;i:269;}i:31;a:3:{i:0;s:5:"cdata";i:1;a:1:{i:0;s:52:" For Allowing only from specific IP's add following.";}i:2;i:287;}i:32;a:3:{i:0;s:17:"listcontent_close";i:1;a:0:{}i:2;i:339;}i:33;a:3:{i:0;s:14:"listitem_close";i:1;a:0:{}i:2;i:339;}i:34;a:3:{i:0;s:11:"listu_close";i:1;a:0:{}i:2;i:339;}i:35;a:3:{i:0;s:14:"listitem_close";i:1;a:0:{}i:2;i:339;}i:36;a:3:{i:0;s:11:"listu_close";i:1;a:0:{}i:2;i:339;}i:37;a:3:{i:0;s:6:"p_open";i:1;a:0:{}i:2;i:339;}i:38;a:3:{i:0;s:5:"cdata";i:1;a:1:{i:0;s:33:"                    <Limit LOGIN>";}i:2;i:340;}i:39;a:3:{i:0;s:7:"p_close";i:1;a:0:{}i:2;i:373;}i:40;a:3:{i:0;s:12:"preformatted";i:1;a:1:{i:0;s:1493:"                        Order allow,deny
                        Allow from **<IP to Allow>**, **<IP to Allow>**
                        Deny from all
                  </Limit>
                  
                  //Note:- You can add many IP's to allow separated by comma//
                  
                  
         
              * For Allowing only from specific reverse IP's domain name add following.
                    <Limit LOGIN>
                        Order allow,deny
                        Allow from <.End Domain to allow (eg .your.isp.com)>
                        Deny from all
                    </Limit> 
                    
               * To Deny a specific IP to access add following. 
                    <Limit LOGIN>
                         Order deny,allow
                         Deny from **<IP to Deny>**
                         Allow from all
                    </Limit>
                      
               * To Deny only from specific reverse IP's domain name add following.
                   <Limit LOGIN>
                        Order allow,deny
                        Deny from <.End Domain to allow (eg .your.isp.com)>
                        Allow from all
                   </Limit>      
                    
                    
          **//Note:- You can add many IP's/Domain to allow/deny list separated by comma.//**
        
        </>                      
* Now restart the proftpd by excuting " /etc/init.d/proftpd restart ".";}i:2;i:373;}i:41;a:3:{i:0;s:12:"document_end";i:1;a:0:{}i:2;i:373;}}