a:17:{i:0;a:3:{i:0;s:14:"document_start";i:1;a:0:{}i:2;i:0;}i:1;a:3:{i:0;s:6:"p_open";i:1;a:0:{}i:2;i:0;}i:2;a:3:{i:0;s:5:"cdata";i:1;a:1:{i:0;s:47:"# For taking backup of Email account in zimbra:";}i:2;i:1;}i:3;a:3:{i:0;s:7:"p_close";i:1;a:0:{}i:2;i:48;}i:4;a:3:{i:0;s:6:"p_open";i:1;a:0:{}i:2;i:48;}i:5;a:3:{i:0;s:6:"plugin";i:1;a:4:{i:0;s:9:"code_code";i:1;a:4:{i:0;s:4:"code";i:1;N;i:2;s:0:"";i:3;s:114:"
/opt/zimbra/bin/zmmailbox -z -m corre2@bsmtruck.com getRestURL "//?fmt=tgz" > /backup/corre2@bsmtruck.com.tar.gz
";}i:2;i:3;i:3;s:115:">
/opt/zimbra/bin/zmmailbox -z -m corre2@bsmtruck.com getRestURL "//?fmt=tgz" > /backup/corre2@bsmtruck.com.tar.gz
";}i:2;i:55;}i:6;a:3:{i:0;s:7:"p_close";i:1;a:0:{}i:2;i:177;}i:7;a:3:{i:0;s:6:"p_open";i:1;a:0:{}i:2;i:177;}i:8;a:3:{i:0;s:5:"cdata";i:1;a:1:{i:0;s:51:"# For restore the above backup in another Email-id:";}i:2;i:179;}i:9;a:3:{i:0;s:7:"p_close";i:1;a:0:{}i:2;i:230;}i:10;a:3:{i:0;s:6:"p_open";i:1;a:0:{}i:2;i:230;}i:11;a:3:{i:0;s:6:"plugin";i:1;a:4:{i:0;s:9:"code_code";i:1;a:4:{i:0;s:4:"code";i:1;N;i:2;s:0:"";i:3;s:113:"
/opt/zimbra/bin/zmmailbox -z -m corre3@bsmtruck.com postRestURL "//?fmt=tgz" /backup/corre2@bsmtruck.com.tar.gz
";}i:2;i:3;i:3;s:114:">
/opt/zimbra/bin/zmmailbox -z -m corre3@bsmtruck.com postRestURL "//?fmt=tgz" /backup/corre2@bsmtruck.com.tar.gz
";}i:2;i:237;}i:12;a:3:{i:0;s:7:"p_close";i:1;a:0:{}i:2;i:358;}i:13;a:3:{i:0;s:6:"p_open";i:1;a:0:{}i:2;i:358;}i:14;a:3:{i:0;s:5:"cdata";i:1;a:1:{i:0;s:40:"Note: Change the Email-ID's accordingly.";}i:2;i:362;}i:15;a:3:{i:0;s:7:"p_close";i:1;a:0:{}i:2;i:402;}i:16;a:3:{i:0;s:12:"document_end";i:1;a:0:{}i:2;i:402;}}