a:57:{i:0;a:3:{i:0;s:14:"document_start";i:1;a:0:{}i:2;i:0;}i:1;a:3:{i:0;s:6:"header";i:1;a:3:{i:0;s:21:"POLICYD Configuration";i:1;i:1;i:2;i:1;}i:2;i:1;}i:2;a:3:{i:0;s:12:"section_open";i:1;a:1:{i:0;i:1;}i:2;i:1;}i:3;a:3:{i:0;s:6:"p_open";i:1;a:0:{}i:2;i:1;}i:4;a:3:{i:0;s:5:"cdata";i:1;a:1:{i:0;s:3:"1. ";}i:2;i:39;}i:5;a:3:{i:0;s:11:"strong_open";i:1;a:0:{}i:2;i:42;}i:6;a:3:{i:0;s:5:"cdata";i:1;a:1:{i:0;s:42:"Run Following commands to activate policyd";}i:2;i:44;}i:7;a:3:{i:0;s:12:"strong_close";i:1;a:0:{}i:2;i:86;}i:8;a:3:{i:0;s:5:"cdata";i:1;a:1:{i:0;s:0:"";}i:2;i:88;}i:9;a:3:{i:0;s:7:"p_close";i:1;a:0:{}i:2;i:89;}i:10;a:3:{i:0;s:12:"preformatted";i:1;a:1:{i:0;s:11:"su - zimbra";}i:2;i:89;}i:11;a:3:{i:0;s:12:"preformatted";i:1;a:1:{i:0;s:88:"zmprov ms `zmhostname` +zimbraServiceInstalled cbpolicyd +zimbraServiceEnabled cbpolicyd";}i:2;i:104;}i:12;a:3:{i:0;s:12:"preformatted";i:1;a:1:{i:0;s:49:"zmlocalconfig -e postfix_enable_smtpd_policyd=yes";}i:2;i:196;}i:13;a:3:{i:0;s:12:"preformatted";i:1;a:1:{i:0;s:76:"zmprov mcf +zimbraMtaRestriction "check_policy_service inet:127.0.0.1:10031"";}i:2;i:249;}i:14;a:3:{i:0;s:12:"preformatted";i:1;a:1:{i:0;s:268:"zmlocalconfig -e cbpolicyd_log_level=4; zmlocalconfig -e cbpolicyd_log_detail=modules,tracking,policies; zmlocalconfig -e cbpolicyd_module_accesscontrol=1 cbpolicyd_module_checkhelo=1 cbpolicyd_module_checkspf=1 cbpolicyd_module_greylisting=1 cbpolicyd_module_quotas=1";}i:2;i:329;}i:15;a:3:{i:0;s:12:"preformatted";i:1;a:1:{i:0;s:17:"zmcontrol restart";}i:2;i:601;}i:16;a:3:{i:0;s:12:"preformatted";i:1;a:1:{i:0;s:4:"exit";}i:2;i:622;}i:17;a:3:{i:0;s:6:"p_open";i:1;a:0:{}i:2;i:622;}i:18;a:3:{i:0;s:5:"cdata";i:1;a:1:{i:0;s:3:"2. ";}i:2;i:631;}i:19;a:3:{i:0;s:11:"strong_open";i:1;a:0:{}i:2;i:634;}i:20;a:3:{i:0;s:5:"cdata";i:1;a:1:{i:0;s:40:"WEB UI ACTIVATION FOR POLICYD MANAGEMENT";}i:2;i:636;}i:21;a:3:{i:0;s:12:"strong_close";i:1;a:0:{}i:2;i:676;}i:22;a:3:{i:0;s:7:"p_close";i:1;a:0:{}i:2;i:678;}i:23;a:3:{i:0;s:6:"p_open";i:1;a:0:{}i:2;i:678;}i:24;a:3:{i:0;s:5:"cdata";i:1;a:1:{i:0;s:50:"Run the following command by using root permission";}i:2;i:680;}i:25;a:3:{i:0;s:7:"p_close";i:1;a:0:{}i:2;i:731;}i:26;a:3:{i:0;s:12:"preformatted";i:1;a:1:{i:0;s:65:"cd /opt/zimbra/httpd/htdocs/ && ln -s ../../cbpolicyd/share/webui";}i:2;i:731;}i:27;a:3:{i:0;s:6:"p_open";i:1;a:0:{}i:2;i:731;}i:28;a:3:{i:0;s:5:"cdata";i:1;a:1:{i:0;s:198:"Modify file /opt/zimbra/cbpolicyd-2.1.0-beta/share/webui/includes/config.php and mark a comment (#) to the line begining with: $DB_DSN and add the following code before line begining with : $DB_USER";}i:2;i:801;}i:29;a:3:{i:0;s:7:"p_close";i:1;a:0:{}i:2;i:1000;}i:30;a:3:{i:0;s:12:"preformatted";i:1;a:1:{i:0;s:66:"$DB_DSN="sqlite:/opt/zimbra/data/cbpolicyd/db/cbpolicyd.sqlitedb";";}i:2;i:1000;}i:31;a:3:{i:0;s:6:"p_open";i:1;a:0:{}i:2;i:1000;}i:32;a:3:{i:0;s:5:"cdata";i:1;a:1:{i:0;s:57:"Reload Web UI (http) service with the following command :";}i:2;i:1071;}i:33;a:3:{i:0;s:7:"p_close";i:1;a:0:{}i:2;i:1129;}i:34;a:3:{i:0;s:12:"preformatted";i:1;a:1:{i:0;s:8:"cd /srv/";}i:2;i:1129;}i:35;a:3:{i:0;s:12:"preformatted";i:1;a:1:{i:0;s:102:"wget -c http://download.policyd.org/v2.1.x-201205100639/cluebringer-snapshot-2.1.x-201205100639.tar.gz";}i:2;i:1141;}i:36;a:3:{i:0;s:12:"preformatted";i:1;a:1:{i:0;s:56:"tar -zxvf cluebringer-snapshot-2.1.x-201205100639.tar.gz";}i:2;i:1247;}i:37;a:3:{i:0;s:12:"preformatted";i:1;a:1:{i:0;s:49:"cd cluebringer-snapshot-2.1.x-201205100639/webui/";}i:2;i:1307;}i:38;a:3:{i:0;s:12:"preformatted";i:1;a:1:{i:0;s:49:"cp *.php *.css /opt/zimbra/cbpolicyd/share/webui/";}i:2;i:1360;}i:39;a:3:{i:0;s:12:"preformatted";i:1;a:1:{i:0;s:38:"su - zimbra -c "zmapachectl restart"  ";}i:2;i:1413;}i:40;a:3:{i:0;s:6:"p_open";i:1;a:0:{}i:2;i:1413;}i:41;a:3:{i:0;s:5:"cdata";i:1;a:1:{i:0;s:62:"Try to open PolicyD web management by accessing the following ";}i:2;i:1456;}i:42;a:3:{i:0;s:7:"acronym";i:1;a:1:{i:0;s:3:"URL";}i:2;i:1518;}i:43;a:3:{i:0;s:7:"p_close";i:1;a:0:{}i:2;i:1521;}i:44;a:3:{i:0;s:6:"p_open";i:1;a:0:{}i:2;i:1521;}i:45;a:3:{i:0;s:5:"cdata";i:1;a:1:{i:0;s:10:"     http:";}i:2;i:1524;}i:46;a:3:{i:0;s:13:"emphasis_open";i:1;a:0:{}i:2;i:1534;}i:47;a:3:{i:0;s:5:"cdata";i:1;a:1:{i:0;s:53:"<IpAddressOfZimbra>:7780/webui/index.php
        

  ";}i:2;i:1536;}i:48;a:3:{i:0;s:11:"strong_open";i:1;a:0:{}i:2;i:1589;}i:49;a:3:{i:0;s:5:"cdata";i:1;a:1:{i:0;s:58:"Note: Make sure tcp port 7780 is opened in server firewall";}i:2;i:1591;}i:50;a:3:{i:0;s:12:"strong_close";i:1;a:0:{}i:2;i:1649;}i:51;a:3:{i:0;s:5:"cdata";i:1;a:1:{i:0;s:8:"     


";}i:2;i:1651;}i:52;a:3:{i:0;s:12:"externallink";i:1;a:2:{i:0;s:77:"http://vavai.net/2014/02/zimbra-tips-rate-limit-sending-message-with-policyd/";i:1;N;}i:2;i:1659;}i:53;a:3:{i:0;s:5:"cdata";i:1;a:1:{i:0;s:0:"";}i:2;i:1736;}i:54;a:3:{i:0;s:7:"p_close";i:1;a:0:{}i:2;i:1736;}i:55;a:3:{i:0;s:13:"section_close";i:1;a:0:{}i:2;i:1736;}i:56;a:3:{i:0;s:12:"document_end";i:1;a:0:{}i:2;i:1736;}}