a:40:{i:0;a:3:{i:0;s:14:"document_start";i:1;a:0:{}i:2;i:0;}i:1;a:3:{i:0;s:6:"header";i:1;a:3:{i:0;s:30:"Provision CDP Server in Ubuntu";i:1;i:1;i:2;i:1;}i:2;i:1;}i:2;a:3:{i:0;s:12:"section_open";i:1;a:1:{i:0;i:1;}i:2;i:1;}i:3;a:3:{i:0;s:6:"p_open";i:1;a:0:{}i:2;i:1;}i:4;a:3:{i:0;s:5:"cdata";i:1;a:1:{i:0;s:63:"1. Login to Ansible master and add the VM IP to ansible hosts. ";}i:2;i:47;}i:5;a:3:{i:0;s:9:"linebreak";i:1;a:0:{}i:2;i:110;}i:6;a:3:{i:0;s:7:"p_close";i:1;a:0:{}i:2;i:112;}i:7;a:3:{i:0;s:6:"p_open";i:1;a:0:{}i:2;i:112;}i:8;a:3:{i:0;s:5:"cdata";i:1;a:1:{i:0;s:67:"2. Run screen on ansible master and then run the following command:";}i:2;i:114;}i:9;a:3:{i:0;s:9:"linebreak";i:1;a:0:{}i:2;i:181;}i:10;a:3:{i:0;s:7:"p_close";i:1;a:0:{}i:2;i:183;}i:11;a:3:{i:0;s:6:"p_open";i:1;a:0:{}i:2;i:183;}i:12;a:3:{i:0;s:6:"plugin";i:1;a:4:{i:0;s:9:"code_code";i:1;a:4:{i:0;s:4:"code";i:1;N;i:2;s:0:"";i:3;s:112:"
ansible-playbook -l <IP> /scripts/cdp_server_install.yml --extra-vars "password=<cdppanelpassword>" --ask-pass
";}i:2;i:3;i:3;s:113:">
ansible-playbook -l <IP> /scripts/cdp_server_install.yml --extra-vars "password=<cdppanelpassword>" --ask-pass
";}i:2;i:190;}i:13;a:3:{i:0;s:7:"p_close";i:1;a:0:{}i:2;i:310;}i:14;a:3:{i:0;s:6:"p_open";i:1;a:0:{}i:2;i:310;}i:15;a:3:{i:0;s:5:"cdata";i:1;a:1:{i:0;s:12:"3. Example 
";}i:2;i:312;}i:16;a:3:{i:0;s:6:"plugin";i:1;a:4:{i:0;s:9:"code_code";i:1;a:4:{i:0;s:4:"code";i:1;N;i:2;s:0:"";i:3;s:114:"
ansible-playbook -l 43.252.89.164 /scripts/cdp_server_install.yml --extra-vars "password=ubuntu12svm" --ask-pass
";}i:2;i:3;i:3;s:115:">
ansible-playbook -l 43.252.89.164 /scripts/cdp_server_install.yml --extra-vars "password=ubuntu12svm" --ask-pass
";}i:2;i:329;}i:17;a:3:{i:0;s:7:"p_close";i:1;a:0:{}i:2;i:451;}i:18;a:3:{i:0;s:6:"p_open";i:1;a:0:{}i:2;i:451;}i:19;a:3:{i:0;s:5:"cdata";i:1;a:1:{i:0;s:28:"This will do the following: ";}i:2;i:453;}i:20;a:3:{i:0;s:7:"p_close";i:1;a:0:{}i:2;i:482;}i:21;a:3:{i:0;s:10:"listu_open";i:1;a:0:{}i:2;i:482;}i:22;a:3:{i:0;s:13:"listitem_open";i:1;a:1:{i:0;i:1;}i:2;i:482;}i:23;a:3:{i:0;s:16:"listcontent_open";i:1;a:0:{}i:2;i:482;}i:24;a:3:{i:0;s:5:"cdata";i:1;a:1:{i:0;s:19:" Install CDP Server";}i:2;i:486;}i:25;a:3:{i:0;s:17:"listcontent_close";i:1;a:0:{}i:2;i:505;}i:26;a:3:{i:0;s:14:"listitem_close";i:1;a:0:{}i:2;i:505;}i:27;a:3:{i:0;s:13:"listitem_open";i:1;a:1:{i:0;i:1;}i:2;i:505;}i:28;a:3:{i:0;s:16:"listcontent_open";i:1;a:0:{}i:2;i:505;}i:29;a:3:{i:0;s:5:"cdata";i:1;a:1:{i:0;s:39:" Setup CDP server username and password";}i:2;i:509;}i:30;a:3:{i:0;s:17:"listcontent_close";i:1;a:0:{}i:2;i:548;}i:31;a:3:{i:0;s:14:"listitem_close";i:1;a:0:{}i:2;i:548;}i:32;a:3:{i:0;s:13:"listitem_open";i:1;a:1:{i:0;i:1;}i:2;i:548;}i:33;a:3:{i:0;s:16:"listcontent_open";i:1;a:0:{}i:2;i:548;}i:34;a:3:{i:0;s:5:"cdata";i:1;a:1:{i:0;s:41:" configure CDP server to run on port 8080";}i:2;i:552;}i:35;a:3:{i:0;s:17:"listcontent_close";i:1;a:0:{}i:2;i:593;}i:36;a:3:{i:0;s:14:"listitem_close";i:1;a:0:{}i:2;i:593;}i:37;a:3:{i:0;s:11:"listu_close";i:1;a:0:{}i:2;i:593;}i:38;a:3:{i:0;s:13:"section_close";i:1;a:0:{}i:2;i:594;}i:39;a:3:{i:0;s:12:"document_end";i:1;a:0:{}i:2;i:594;}}