a:93:{i:0;a:3:{i:0;s:14:"document_start";i:1;a:0:{}i:2;i:0;}i:1;a:3:{i:0;s:6:"header";i:1;a:3:{i:0;s:22:"Prepare Magento server";i:1;i:1;i:2;i:1;}i:2;i:1;}i:2;a:3:{i:0;s:12:"section_open";i:1;a:1:{i:0;i:1;}i:2;i:1;}i:3;a:3:{i:0;s:6:"p_open";i:1;a:0:{}i:2;i:1;}i:4;a:3:{i:0;s:5:"cdata";i:1;a:1:{i:0;s:62:"1. Login to VM and disable Selinux. Reboot VM after disabling.";}i:2;i:39;}i:5;a:3:{i:0;s:9:"linebreak";i:1;a:0:{}i:2;i:101;}i:6;a:3:{i:0;s:7:"p_close";i:1;a:0:{}i:2;i:103;}i:7;a:3:{i:0;s:6:"p_open";i:1;a:0:{}i:2;i:103;}i:8;a:3:{i:0;s:5:"cdata";i:1;a:1:{i:0;s:63:"2. Login to Ansible master and add the VM IP to ansible hosts. ";}i:2;i:105;}i:9;a:3:{i:0;s:9:"linebreak";i:1;a:0:{}i:2;i:168;}i:10;a:3:{i:0;s:7:"p_close";i:1;a:0:{}i:2;i:170;}i:11;a:3:{i:0;s:6:"p_open";i:1;a:0:{}i:2;i:170;}i:12;a:3:{i:0;s:5:"cdata";i:1;a:1:{i:0;s:67:"3. Run screen on ansible master and then run the following command:";}i:2;i:172;}i:13;a:3:{i:0;s:9:"linebreak";i:1;a:0:{}i:2;i:239;}i:14;a:3:{i:0;s:5:"cdata";i:1;a:1:{i:0;s:1:"
";}i:2;i:241;}i:15;a:3:{i:0;s:6:"plugin";i:1;a:4:{i:0;s:9:"code_code";i:1;a:4:{i:0;s:4:"code";i:1;N;i:2;s:0:"";i:3;s:74:"ansible-playbook -l <VM_IP> /scripts/magento_server_prepare.yml --ask-pass";}i:2;i:3;i:3;s:75:">ansible-playbook -l <VM_IP> /scripts/magento_server_prepare.yml --ask-pass";}i:2;i:247;}i:16;a:3:{i:0;s:5:"cdata";i:1;a:1:{i:0;s:28:"
This will do the following:";}i:2;i:329;}i:17;a:3:{i:0;s:7:"p_close";i:1;a:0:{}i:2;i:357;}i:18;a:3:{i:0;s:10:"listu_open";i:1;a:0:{}i:2;i:357;}i:19;a:3:{i:0;s:13:"listitem_open";i:1;a:1:{i:0;i:1;}i:2;i:357;}i:20;a:3:{i:0;s:16:"listcontent_open";i:1;a:0:{}i:2;i:357;}i:21;a:3:{i:0;s:5:"cdata";i:1;a:1:{i:0;s:19:" Install Virtualmin";}i:2;i:362;}i:22;a:3:{i:0;s:17:"listcontent_close";i:1;a:0:{}i:2;i:381;}i:23;a:3:{i:0;s:14:"listitem_close";i:1;a:0:{}i:2;i:381;}i:24;a:3:{i:0;s:13:"listitem_open";i:1;a:1:{i:0;i:1;}i:2;i:381;}i:25;a:3:{i:0;s:16:"listcontent_open";i:1;a:0:{}i:2;i:381;}i:26;a:3:{i:0;s:5:"cdata";i:1;a:1:{i:0;s:19:" Install php-mcrypt";}i:2;i:386;}i:27;a:3:{i:0;s:17:"listcontent_close";i:1;a:0:{}i:2;i:405;}i:28;a:3:{i:0;s:14:"listitem_close";i:1;a:0:{}i:2;i:405;}i:29;a:3:{i:0;s:13:"listitem_open";i:1;a:1:{i:0;i:1;}i:2;i:405;}i:30;a:3:{i:0;s:16:"listcontent_open";i:1;a:0:{}i:2;i:405;}i:31;a:3:{i:0;s:5:"cdata";i:1;a:1:{i:0;s:26:" Install and configure APC";}i:2;i:410;}i:32;a:3:{i:0;s:17:"listcontent_close";i:1;a:0:{}i:2;i:436;}i:33;a:3:{i:0;s:14:"listitem_close";i:1;a:0:{}i:2;i:436;}i:34;a:3:{i:0;s:13:"listitem_open";i:1;a:1:{i:0;i:1;}i:2;i:436;}i:35;a:3:{i:0;s:16:"listcontent_open";i:1;a:0:{}i:2;i:436;}i:36;a:3:{i:0;s:5:"cdata";i:1;a:1:{i:0;s:21:" Install Zabbix agent";}i:2;i:441;}i:37;a:3:{i:0;s:17:"listcontent_close";i:1;a:0:{}i:2;i:462;}i:38;a:3:{i:0;s:14:"listitem_close";i:1;a:0:{}i:2;i:462;}i:39;a:3:{i:0;s:13:"listitem_open";i:1;a:1:{i:0;i:1;}i:2;i:462;}i:40;a:3:{i:0;s:16:"listcontent_open";i:1;a:0:{}i:2;i:462;}i:41;a:3:{i:0;s:5:"cdata";i:1;a:1:{i:0;s:32:" Install and configure PageSpeed";}i:2;i:467;}i:42;a:3:{i:0;s:17:"listcontent_close";i:1;a:0:{}i:2;i:499;}i:43;a:3:{i:0;s:14:"listitem_close";i:1;a:0:{}i:2;i:499;}i:44;a:3:{i:0;s:13:"listitem_open";i:1;a:1:{i:0;i:1;}i:2;i:499;}i:45;a:3:{i:0;s:16:"listcontent_open";i:1;a:0:{}i:2;i:499;}i:46;a:3:{i:0;s:5:"cdata";i:1;a:1:{i:0;s:81:" Increase default php execution time to 360 seconds (Both php.ini and fcgid.conf)";}i:2;i:504;}i:47;a:3:{i:0;s:17:"listcontent_close";i:1;a:0:{}i:2;i:585;}i:48;a:3:{i:0;s:14:"listitem_close";i:1;a:0:{}i:2;i:585;}i:49;a:3:{i:0;s:11:"listu_close";i:1;a:0:{}i:2;i:585;}i:50;a:3:{i:0;s:6:"p_open";i:1;a:0:{}i:2;i:585;}i:51;a:3:{i:0;s:5:"cdata";i:1;a:1:{i:0;s:85:"4. Create the Magento domain in Virtualmin: (By default Mail for domain is disabled)
";}i:2;i:587;}i:52;a:3:{i:0;s:6:"plugin";i:1;a:4:{i:0;s:9:"code_code";i:1;a:4:{i:0;s:4:"code";i:1;N;i:2;s:0:"";i:3;s:160:"
ansible-playbook -l <VM_IP> /scripts/magento_create_domain.yml --extra-vars "domain=<Virtualmin_domain> user=<Virtualmin_User> pass=<Set_password>" --ask-pass
";}i:2;i:3;i:3;s:161:">
ansible-playbook -l <VM_IP> /scripts/magento_create_domain.yml --extra-vars "domain=<Virtualmin_domain> user=<Virtualmin_User> pass=<Set_password>" --ask-pass
";}i:2;i:677;}i:53;a:3:{i:0;s:7:"p_close";i:1;a:0:{}i:2;i:845;}i:54;a:3:{i:0;s:6:"p_open";i:1;a:0:{}i:2;i:845;}i:55;a:3:{i:0;s:5:"cdata";i:1;a:1:{i:0;s:23:"5. Manually to be done:";}i:2;i:847;}i:56;a:3:{i:0;s:7:"p_close";i:1;a:0:{}i:2;i:870;}i:57;a:3:{i:0;s:10:"listu_open";i:1;a:0:{}i:2;i:870;}i:58;a:3:{i:0;s:13:"listitem_open";i:1;a:1:{i:0;i:1;}i:2;i:870;}i:59;a:3:{i:0;s:16:"listcontent_open";i:1;a:0:{}i:2;i:870;}i:60;a:3:{i:0;s:5:"cdata";i:1;a:1:{i:0;s:64:" Login to Virtualmin panel and complete Post-Installation Steps.";}i:2;i:875;}i:61;a:3:{i:0;s:17:"listcontent_close";i:1;a:0:{}i:2;i:939;}i:62;a:3:{i:0;s:14:"listitem_close";i:1;a:0:{}i:2;i:939;}i:63;a:3:{i:0;s:13:"listitem_open";i:1;a:1:{i:0;i:1;}i:2;i:939;}i:64;a:3:{i:0;s:16:"listcontent_open";i:1;a:0:{}i:2;i:939;}i:65;a:3:{i:0;s:5:"cdata";i:1;a:1:{i:0;s:24:" Configure Zabbix agent ";}i:2;i:944;}i:66;a:3:{i:0;s:17:"listcontent_close";i:1;a:0:{}i:2;i:968;}i:67;a:3:{i:0;s:14:"listitem_close";i:1;a:0:{}i:2;i:968;}i:68;a:3:{i:0;s:13:"listitem_open";i:1;a:1:{i:0;i:1;}i:2;i:968;}i:69;a:3:{i:0;s:16:"listcontent_open";i:1;a:0:{}i:2;i:968;}i:70;a:3:{i:0;s:5:"cdata";i:1;a:1:{i:0;s:81:" Install and configure R1Soft agent (Version will keep changing so not automated)";}i:2;i:973;}i:71;a:3:{i:0;s:17:"listcontent_close";i:1;a:0:{}i:2;i:1054;}i:72;a:3:{i:0;s:14:"listitem_close";i:1;a:0:{}i:2;i:1054;}i:73;a:3:{i:0;s:13:"listitem_open";i:1;a:1:{i:0;i:1;}i:2;i:1054;}i:74;a:3:{i:0;s:16:"listcontent_open";i:1;a:0:{}i:2;i:1054;}i:75;a:3:{i:0;s:5:"cdata";i:1;a:1:{i:0;s:19:" Install Phpmyadmin";}i:2;i:1059;}i:76;a:3:{i:0;s:17:"listcontent_close";i:1;a:0:{}i:2;i:1078;}i:77;a:3:{i:0;s:14:"listitem_close";i:1;a:0:{}i:2;i:1078;}i:78;a:3:{i:0;s:13:"listitem_open";i:1;a:1:{i:0;i:1;}i:2;i:1078;}i:79;a:3:{i:0;s:16:"listcontent_open";i:1;a:0:{}i:2;i:1078;}i:80;a:3:{i:0;s:5:"cdata";i:1;a:1:{i:0;s:55:" Add database and username with permissions to database";}i:2;i:1083;}i:81;a:3:{i:0;s:17:"listcontent_close";i:1;a:0:{}i:2;i:1138;}i:82;a:3:{i:0;s:14:"listitem_close";i:1;a:0:{}i:2;i:1138;}i:83;a:3:{i:0;s:13:"listitem_open";i:1;a:1:{i:0;i:1;}i:2;i:1138;}i:84;a:3:{i:0;s:16:"listcontent_open";i:1;a:0:{}i:2;i:1138;}i:85;a:3:{i:0;s:5:"cdata";i:1;a:1:{i:0;s:19:" Share Virtualmin, ";}i:2;i:1143;}i:86;a:3:{i:0;s:7:"acronym";i:1;a:1:{i:0;s:3:"FTP";}i:2;i:1162;}i:87;a:3:{i:0;s:5:"cdata";i:1;a:1:{i:0;s:41:" and phpmyadmin login details with client";}i:2;i:1165;}i:88;a:3:{i:0;s:17:"listcontent_close";i:1;a:0:{}i:2;i:1206;}i:89;a:3:{i:0;s:14:"listitem_close";i:1;a:0:{}i:2;i:1206;}i:90;a:3:{i:0;s:11:"listu_close";i:1;a:0:{}i:2;i:1206;}i:91;a:3:{i:0;s:13:"section_close";i:1;a:0:{}i:2;i:1206;}i:92;a:3:{i:0;s:12:"document_end";i:1;a:0:{}i:2;i:1206;}}