a:71:{i:0;a:3:{i:0;s:14:"document_start";i:1;a:0:{}i:2;i:0;}i:1;a:3:{i:0;s:6:"p_open";i:1;a:0:{}i:2;i:0;}i:2;a:3:{i:0;s:11:"strong_open";i:1;a:0:{}i:2;i:1;}i:3;a:3:{i:0;s:5:"cdata";i:1;a:1:{i:0;s:45:"Note : only for centos 6 initd based systems.";}i:2;i:3;}i:4;a:3:{i:0;s:12:"strong_close";i:1;a:0:{}i:2;i:48;}i:5;a:3:{i:0;s:5:"cdata";i:1;a:1:{i:0;s:1:" ";}i:2;i:50;}i:6;a:3:{i:0;s:9:"linebreak";i:1;a:0:{}i:2;i:51;}i:7;a:3:{i:0;s:5:"cdata";i:1;a:1:{i:0;s:1:"
";}i:2;i:53;}i:8;a:3:{i:0;s:9:"linebreak";i:1;a:0:{}i:2;i:54;}i:9;a:3:{i:0;s:5:"cdata";i:1;a:1:{i:0;s:93:"
It is a good and life saving practice to take backup before you proceeding towards process. ";}i:2;i:56;}i:10;a:3:{i:0;s:9:"linebreak";i:1;a:0:{}i:2;i:149;}i:11;a:3:{i:0;s:5:"cdata";i:1;a:1:{i:0;s:41:"
Take database dump using below command :";}i:2;i:151;}i:12;a:3:{i:0;s:9:"linebreak";i:1;a:0:{}i:2;i:192;}i:13;a:3:{i:0;s:5:"cdata";i:1;a:1:{i:0;s:1:"
";}i:2;i:194;}i:14;a:3:{i:0;s:6:"plugin";i:1;a:4:{i:0;s:9:"code_code";i:1;a:4:{i:0;s:4:"code";i:1;N;i:2;s:0:"";i:3;s:81:"mysqldump -u [user] -p[user password] [--all-databases] [database] > dumpfile.sql";}i:2;i:3;i:3;s:82:">mysqldump -u [user] -p[user password] [--all-databases] [database] > dumpfile.sql";}i:2;i:200;}i:15;a:3:{i:0;s:9:"linebreak";i:1;a:0:{}i:2;i:289;}i:16;a:3:{i:0;s:7:"p_close";i:1;a:0:{}i:2;i:291;}i:17;a:3:{i:0;s:6:"p_open";i:1;a:0:{}i:2;i:291;}i:18;a:3:{i:0;s:5:"cdata";i:1;a:1:{i:0;s:37:"You can either take dump of specific ";}i:2;i:293;}i:19;a:3:{i:0;s:13:"emphasis_open";i:1;a:0:{}i:2;i:330;}i:20;a:3:{i:0;s:5:"cdata";i:1;a:1:{i:0;s:10:"[database]";}i:2;i:332;}i:21;a:3:{i:0;s:14:"emphasis_close";i:1;a:0:{}i:2;i:342;}i:22;a:3:{i:0;s:5:"cdata";i:1;a:1:{i:0;s:49:" on priority by specifying their name or can use ";}i:2;i:344;}i:23;a:3:{i:0;s:13:"emphasis_open";i:1;a:0:{}i:2;i:393;}i:24;a:3:{i:0;s:5:"cdata";i:1;a:1:{i:0;s:1:"[";}i:2;i:395;}i:25;a:3:{i:0;s:6:"entity";i:1;a:1:{i:0;s:2:"--";}i:2;i:396;}i:26;a:3:{i:0;s:5:"cdata";i:1;a:1:{i:0;s:14:"all-databases]";}i:2;i:398;}i:27;a:3:{i:0;s:14:"emphasis_close";i:1;a:0:{}i:2;i:412;}i:28;a:3:{i:0;s:5:"cdata";i:1;a:1:{i:0;s:51:" option to take dump of all databases in one file. ";}i:2;i:414;}i:29;a:3:{i:0;s:7:"p_close";i:1;a:0:{}i:2;i:465;}i:30;a:3:{i:0;s:6:"p_open";i:1;a:0:{}i:2;i:465;}i:31;a:3:{i:0;s:6:"plugin";i:1;a:4:{i:0;s:9:"code_code";i:1;a:4:{i:0;s:4:"code";i:1;N;i:2;s:0:"";i:3;s:59:"stop mysql service
service mysqld stop
chkconfig mysqld off";}i:2;i:3;i:3;s:60:">stop mysql service
service mysqld stop
chkconfig mysqld off";}i:2;i:472;}i:32;a:3:{i:0;s:7:"p_close";i:1;a:0:{}i:2;i:539;}i:33;a:3:{i:0;s:6:"p_open";i:1;a:0:{}i:2;i:539;}i:34;a:3:{i:0;s:5:"cdata";i:1;a:1:{i:0;s:61:"2. Remove mysql packages without removing their dependencies.";}i:2;i:541;}i:35;a:3:{i:0;s:9:"linebreak";i:1;a:0:{}i:2;i:602;}i:36;a:3:{i:0;s:5:"cdata";i:1;a:1:{i:0;s:1:"
";}i:2;i:604;}i:37;a:3:{i:0;s:6:"plugin";i:1;a:4:{i:0;s:9:"code_code";i:1;a:4:{i:0;s:4:"code";i:1;N;i:2;s:0:"";i:3;s:34:"rpm -e --nodeps mysql mysql-server";}i:2;i:3;i:3;s:35:">rpm -e --nodeps mysql mysql-server";}i:2;i:610;}i:38;a:3:{i:0;s:9:"linebreak";i:1;a:0:{}i:2;i:652;}i:39;a:3:{i:0;s:7:"p_close";i:1;a:0:{}i:2;i:654;}i:40;a:3:{i:0;s:6:"p_open";i:1;a:0:{}i:2;i:654;}i:41;a:3:{i:0;s:5:"cdata";i:1;a:1:{i:0;s:31:"3. Install repo for Percona DB.";}i:2;i:656;}i:42;a:3:{i:0;s:9:"linebreak";i:1;a:0:{}i:2;i:687;}i:43;a:3:{i:0;s:5:"cdata";i:1;a:1:{i:0;s:1:"
";}i:2;i:689;}i:44;a:3:{i:0;s:6:"plugin";i:1;a:4:{i:0;s:9:"code_code";i:1;a:4:{i:0;s:4:"code";i:1;N;i:2;s:0:"";i:3;s:96:"yum install -y http://www.percona.com/downloads/percona-release/percona-release-0.0-1.x86_64.rpm";}i:2;i:3;i:3;s:97:">yum install -y http://www.percona.com/downloads/percona-release/percona-release-0.0-1.x86_64.rpm";}i:2;i:695;}i:45;a:3:{i:0;s:9:"linebreak";i:1;a:0:{}i:2;i:799;}i:46;a:3:{i:0;s:7:"p_close";i:1;a:0:{}i:2;i:802;}i:47;a:3:{i:0;s:6:"p_open";i:1;a:0:{}i:2;i:802;}i:48;a:3:{i:0;s:5:"cdata";i:1;a:1:{i:0;s:58:"You can list out all Percona-Server DB versions available.";}i:2;i:804;}i:49;a:3:{i:0;s:9:"linebreak";i:1;a:0:{}i:2;i:862;}i:50;a:3:{i:0;s:5:"cdata";i:1;a:1:{i:0;s:1:"
";}i:2;i:864;}i:51;a:3:{i:0;s:6:"plugin";i:1;a:4:{i:0;s:9:"code_code";i:1;a:4:{i:0;s:4:"code";i:1;N;i:2;s:0:"";i:3;s:30:"yum list | grep Percona-Server";}i:2;i:3;i:3;s:31:">yum list | grep Percona-Server";}i:2;i:870;}i:52;a:3:{i:0;s:9:"linebreak";i:1;a:0:{}i:2;i:908;}i:53;a:3:{i:0;s:7:"p_close";i:1;a:0:{}i:2;i:910;}i:54;a:3:{i:0;s:6:"p_open";i:1;a:0:{}i:2;i:910;}i:55;a:3:{i:0;s:5:"cdata";i:1;a:1:{i:0;s:20:"4. Install PerconaDB";}i:2;i:912;}i:56;a:3:{i:0;s:9:"linebreak";i:1;a:0:{}i:2;i:932;}i:57;a:3:{i:0;s:5:"cdata";i:1;a:1:{i:0;s:1:"
";}i:2;i:934;}i:58;a:3:{i:0;s:6:"plugin";i:1;a:4:{i:0;s:9:"code_code";i:1;a:4:{i:0;s:4:"code";i:1;N;i:2;s:0:"";i:3;s:152:"yum install Percona-Server-client-56 Percona-Server-server-56 Percona-Server-shared-56 -y \\
yum install Percona-Server-devel-56 -y (**only if required)";}i:2;i:3;i:3;s:153:">yum install Percona-Server-client-56 Percona-Server-server-56 Percona-Server-shared-56 -y \\
yum install Percona-Server-devel-56 -y (**only if required)";}i:2;i:940;}i:59;a:3:{i:0;s:5:"cdata";i:1;a:1:{i:0;s:1:" ";}i:2;i:1100;}i:60;a:3:{i:0;s:9:"linebreak";i:1;a:0:{}i:2;i:1101;}i:61;a:3:{i:0;s:7:"p_close";i:1;a:0:{}i:2;i:1103;}i:62;a:3:{i:0;s:6:"p_open";i:1;a:0:{}i:2;i:1103;}i:63;a:3:{i:0;s:5:"cdata";i:1;a:1:{i:0;s:27:"5. Start Percona DB daemon.";}i:2;i:1105;}i:64;a:3:{i:0;s:9:"linebreak";i:1;a:0:{}i:2;i:1132;}i:65;a:3:{i:0;s:5:"cdata";i:1;a:1:{i:0;s:1:"
";}i:2;i:1135;}i:66;a:3:{i:0;s:6:"plugin";i:1;a:4:{i:0;s:9:"code_code";i:1;a:4:{i:0;s:4:"code";i:1;N;i:2;s:0:"";i:3;s:40:"service mysql start\\
chkconfig mysql on";}i:2;i:3;i:3;s:41:">service mysql start\\
chkconfig mysql on";}i:2;i:1141;}i:67;a:3:{i:0;s:9:"linebreak";i:1;a:0:{}i:2;i:1189;}i:68;a:3:{i:0;s:5:"cdata";i:1;a:1:{i:0;s:0:"";}i:2;i:1191;}i:69;a:3:{i:0;s:7:"p_close";i:1;a:0:{}i:2;i:1191;}i:70;a:3:{i:0;s:12:"document_end";i:1;a:0:{}i:2;i:1191;}}