a:19:{i:0;a:3:{i:0;s:14:"document_start";i:1;a:0:{}i:2;i:0;}i:1;a:3:{i:0;s:6:"p_open";i:1;a:0:{}i:2;i:0;}i:2;a:3:{i:0;s:5:"cdata";i:1;a:1:{i:0;s:16:"Python on cPanel";}i:2;i:1;}i:3;a:3:{i:0;s:7:"p_close";i:1;a:0:{}i:2;i:17;}i:4;a:3:{i:0;s:6:"p_open";i:1;a:0:{}i:2;i:17;}i:5;a:3:{i:0;s:5:"cdata";i:1;a:1:{i:0;s:262:"Find the cPanel's python on the server. Normally, cPanel's python is located at /usr/bin/python, but you can run whereis python to ensure it is /usr/bin/python rather than /usr/local/bin/python.
Create the file hello.py in public_html with the following content.";}i:2;i:19;}i:6;a:3:{i:0;s:7:"p_close";i:1;a:0:{}i:2;i:281;}i:7;a:3:{i:0;s:6:"p_open";i:1;a:0:{}i:2;i:281;}i:8;a:3:{i:0;s:6:"plugin";i:1;a:4:{i:0;s:9:"code_code";i:1;a:4:{i:0;s:4:"code";i:1;s:3:"php";i:2;s:8:"hello.py";i:3;s:78:"
#!/usr/bin/python 
print "Content-Type: text/plain\n\n"
print "Hello World" 
";}i:2;i:3;i:3;s:94:" php | hello.py>
#!/usr/bin/python 
print "Content-Type: text/plain\n\n"
print "Hello World" 
";}i:2;i:290;}i:9;a:3:{i:0;s:7:"p_close";i:1;a:0:{}i:2;i:391;}i:10;a:3:{i:0;s:6:"p_open";i:1;a:0:{}i:2;i:391;}i:11;a:3:{i:0;s:5:"cdata";i:1;a:1:{i:0;s:101:"Change the permission of script to 755 .
Place the following content into public_html/.htaccess file:";}i:2;i:393;}i:12;a:3:{i:0;s:7:"p_close";i:1;a:0:{}i:2;i:494;}i:13;a:3:{i:0;s:6:"p_open";i:1;a:0:{}i:2;i:494;}i:14;a:3:{i:0;s:6:"plugin";i:1;a:4:{i:0;s:9:"code_code";i:1;a:4:{i:0;s:4:"code";i:1;N;i:2;s:5:"Code:";i:3;s:46:"

Options +ExecCGI
AddHandler cgi-script .py 
";}i:2;i:3;i:3;s:55:" | Code:>

Options +ExecCGI
AddHandler cgi-script .py 
";}i:2;i:503;}i:15;a:3:{i:0;s:5:"cdata";i:1;a:1:{i:0;s:25:"
Now check the script at ";}i:2;i:565;}i:16;a:3:{i:0;s:12:"externallink";i:1;a:2:{i:0;s:26:"http://domain.com/hello.py";i:1;N;}i:2;i:590;}i:17;a:3:{i:0;s:7:"p_close";i:1;a:0:{}i:2;i:616;}i:18;a:3:{i:0;s:12:"document_end";i:1;a:0:{}i:2;i:616;}}