a:18:{i:0;a:3:{i:0;s:14:"document_start";i:1;a:0:{}i:2;i:0;}i:1;a:3:{i:0;s:6:"header";i:1;a:3:{i:0;s:40:"Setup IP based authentication in Elastix";i:1;i:1;i:2;i:1;}i:2;i:1;}i:2;a:3:{i:0;s:12:"section_open";i:1;a:1:{i:0;i:1;}i:2;i:1;}i:3;a:3:{i:0;s:6:"p_open";i:1;a:0:{}i:2;i:1;}i:4;a:3:{i:0;s:5:"cdata";i:1;a:1:{i:0;s:111:"1) Firstly, go to your VOIP provider and change the authentication method to IP instead of username & password.";}i:2;i:58;}i:5;a:3:{i:0;s:7:"p_close";i:1;a:0:{}i:2;i:169;}i:6;a:3:{i:0;s:6:"p_open";i:1;a:0:{}i:2;i:169;}i:7;a:3:{i:0;s:5:"cdata";i:1;a:1:{i:0;s:83:"2) Login to elastix and edit the trunk for which you want to change authentication.";}i:2;i:174;}i:8;a:3:{i:0;s:7:"p_close";i:1;a:0:{}i:2;i:257;}i:9;a:3:{i:0;s:6:"p_open";i:1;a:0:{}i:2;i:257;}i:10;a:3:{i:0;s:5:"cdata";i:1;a:1:{i:0;s:41:"3) Change the PEER Details to following:
";}i:2;i:262;}i:11;a:3:{i:0;s:6:"plugin";i:1;a:4:{i:0;s:9:"code_code";i:1;a:4:{i:0;s:4:"code";i:1;N;i:2;s:0:"";i:3;s:222:"
canreinvite=nonat

context=from-trunk

host=<Hostname/IP of your VOIP provider>

type=peer

username=<extension/username given by provider>

disallow=all

allow=ulaw

; allow=g729 ; uncomment if you support g729

nat=yes
";}i:2;i:3;i:3;s:223:">
canreinvite=nonat

context=from-trunk

host=<Hostname/IP of your VOIP provider>

type=peer

username=<extension/username given by provider>

disallow=all

allow=ulaw

; allow=g729 ; uncomment if you support g729

nat=yes
";}i:2;i:308;}i:12;a:3:{i:0;s:7:"p_close";i:1;a:0:{}i:2;i:538;}i:13;a:3:{i:0;s:6:"p_open";i:1;a:0:{}i:2;i:538;}i:14;a:3:{i:0;s:5:"cdata";i:1;a:1:{i:0;s:18:"Save and its done!";}i:2;i:542;}i:15;a:3:{i:0;s:7:"p_close";i:1;a:0:{}i:2;i:560;}i:16;a:3:{i:0;s:13:"section_close";i:1;a:0:{}i:2;i:560;}i:17;a:3:{i:0;s:12:"document_end";i:1;a:0:{}i:2;i:560;}}