a:20:{i:0;a:3:{i:0;s:14:"document_start";i:1;a:0:{}i:2;i:0;}i:1;a:3:{i:0;s:6:"p_open";i:1;a:0:{}i:2;i:0;}i:2;a:3:{i:0;s:5:"cdata";i:1;a:1:{i:0;s:3:"1. ";}i:2;i:1;}i:3;a:3:{i:0;s:12:"internallink";i:1;a:2:{i:0;s:16:"interspire_setup";i:1;s:16:"Interspire Setup";}i:2;i:4;}i:4;a:3:{i:0;s:5:"cdata";i:1;a:1:{i:0;s:1:" ";}i:2;i:41;}i:5;a:3:{i:0;s:9:"linebreak";i:1;a:0:{}i:2;i:42;}i:6;a:3:{i:0;s:5:"cdata";i:1;a:1:{i:0;s:20:"
2. Multi-IP script ";}i:2;i:44;}i:7;a:3:{i:0;s:9:"linebreak";i:1;a:0:{}i:2;i:64;}i:8;a:3:{i:0;s:5:"cdata";i:1;a:1:{i:0;s:20:"
3. rDNS of the IPs ";}i:2;i:66;}i:9;a:3:{i:0;s:9:"linebreak";i:1;a:0:{}i:2;i:86;}i:10;a:3:{i:0;s:5:"cdata";i:1;a:1:{i:0;s:24:"
4. SPF / DKIM settings ";}i:2;i:88;}i:11;a:3:{i:0;s:9:"linebreak";i:1;a:0:{}i:2;i:112;}i:12;a:3:{i:0;s:5:"cdata";i:1;a:1:{i:0;s:34:"
5. For DirectAdmin, Make sure in ";}i:2;i:114;}i:13;a:3:{i:0;s:18:"doublequoteopening";i:1;a:0:{}i:2;i:148;}i:14;a:3:{i:0;s:5:"cdata";i:1;a:1:{i:0;s:13:"Show original";}i:2;i:149;}i:15;a:3:{i:0;s:18:"doublequoteclosing";i:1;a:0:{}i:2;i:162;}i:16;a:3:{i:0;s:5:"cdata";i:1;a:1:{i:0;s:89:" mails doesn't go from user@hostname, if so, add following lines in startup of exim.conf.";}i:2;i:163;}i:17;a:3:{i:0;s:7:"p_close";i:1;a:0:{}i:2;i:253;}i:18;a:3:{i:0;s:12:"preformatted";i:1;a:1:{i:0;s:46:" untrusted_set_sender = *
 no_local_from_check";}i:2;i:253;}i:19;a:3:{i:0;s:12:"document_end";i:1;a:0:{}i:2;i:253;}}