a:71:{i:0;a:3:{i:0;s:14:"document_start";i:1;a:0:{}i:2;i:0;}i:1;a:3:{i:0;s:6:"p_open";i:1;a:0:{}i:2;i:0;}i:2;a:3:{i:0;s:11:"strong_open";i:1;a:0:{}i:2;i:3;}i:3;a:3:{i:0;s:5:"cdata";i:1;a:1:{i:0;s:21:"IP Rotation in Zimbra";}i:2;i:5;}i:4;a:3:{i:0;s:12:"strong_close";i:1;a:0:{}i:2;i:26;}i:5;a:3:{i:0;s:7:"p_close";i:1;a:0:{}i:2;i:28;}i:6;a:3:{i:0;s:6:"p_open";i:1;a:0:{}i:2;i:28;}i:7;a:3:{i:0;s:5:"cdata";i:1;a:1:{i:0;s:54:"–> Using 2 Additional IPs(Including Main Server IPs)";}i:2;i:30;}i:8;a:3:{i:0;s:9:"linebreak";i:1;a:0:{}i:2;i:84;}i:9;a:3:{i:0;s:5:"cdata";i:1;a:1:{i:0;s:79:"
iptables -t nat -A POSTROUTING -o eth0 -p tcp -m state –state NEW -m tcp –";}i:2;i:86;}i:10;a:3:{i:0;s:7:"p_close";i:1;a:0:{}i:2;i:165;}i:11;a:3:{i:0;s:6:"p_open";i:1;a:0:{}i:2;i:165;}i:12;a:3:{i:0;s:5:"cdata";i:1;a:1:{i:0;s:78:"dport 25 -m statistic –mode nth –every 3 -j SNAT –to-source 43.252.89.48";}i:2;i:167;}i:13;a:3:{i:0;s:9:"linebreak";i:1;a:0:{}i:2;i:245;}i:14;a:3:{i:0;s:5:"cdata";i:1;a:1:{i:0;s:157:"
iptables -t nat -A POSTROUTING -o eth0 -p tcp -m state –state NEW -m tcp –dport 25 -m statistic –mode nth –every 5 -j SNAT –to-source 43.252.89.42";}i:2;i:247;}i:15;a:3:{i:0;s:7:"p_close";i:1;a:0:{}i:2;i:404;}i:16;a:3:{i:0;s:6:"p_open";i:1;a:0:{}i:2;i:404;}i:17;a:3:{i:0;s:5:"cdata";i:1;a:1:{i:0;s:10:"For Ubuntu";}i:2;i:406;}i:18;a:3:{i:0;s:7:"p_close";i:1;a:0:{}i:2;i:416;}i:19;a:3:{i:0;s:6:"p_open";i:1;a:0:{}i:2;i:416;}i:20;a:3:{i:0;s:5:"cdata";i:1;a:1:{i:0;s:169:"iptables -t nat -A POSTROUTING -o eth0 -p tcp -m state –state NEW -m tcp –dport 25 -m statistic –mode nth –every 1 –packet 0 -j SNAT –to-source 43.252.88.109";}i:2;i:418;}i:21;a:3:{i:0;s:7:"p_close";i:1;a:0:{}i:2;i:587;}i:22;a:3:{i:0;s:6:"p_open";i:1;a:0:{}i:2;i:587;}i:23;a:3:{i:0;s:5:"cdata";i:1;a:1:{i:0;s:80:"–> Using Only 2 Additional IP to send mails(Excluding Primary/Main Server IP).";}i:2;i:589;}i:24;a:3:{i:0;s:9:"linebreak";i:1;a:0:{}i:2;i:669;}i:25;a:3:{i:0;s:5:"cdata";i:1;a:1:{i:0;s:150:"
iptables -A POSTROUTING -o eth0 -p tcp -m state –state NEW -m tcp –dport 25 -m statistic –mode nth –every 2 -j SNAT –to-source 43.252.89.48";}i:2;i:671;}i:26;a:3:{i:0;s:9:"linebreak";i:1;a:0:{}i:2;i:821;}i:27;a:3:{i:0;s:5:"cdata";i:1;a:1:{i:0;s:150:"
iptables -A POSTROUTING -o eth0 -p tcp -m state –state NEW -m tcp –dport 25 -m statistic –mode nth –every 1 -j SNAT –to-source 43.252.89.42";}i:2;i:823;}i:28;a:3:{i:0;s:7:"p_close";i:1;a:0:{}i:2;i:973;}i:29;a:3:{i:0;s:6:"p_open";i:1;a:0:{}i:2;i:973;}i:30;a:3:{i:0;s:5:"cdata";i:1;a:1:{i:0;s:37:"[Note: Kindly change IP accordingly.]";}i:2;i:975;}i:31;a:3:{i:0;s:7:"p_close";i:1;a:0:{}i:2;i:1012;}i:32;a:3:{i:0;s:6:"p_open";i:1;a:0:{}i:2;i:1012;}i:33;a:3:{i:0;s:5:"cdata";i:1;a:1:{i:0;s:18:"-t nat (Table NAT)";}i:2;i:1014;}i:34;a:3:{i:0;s:9:"linebreak";i:1;a:0:{}i:2;i:1032;}i:35;a:3:{i:0;s:5:"cdata";i:1;a:1:{i:0;s:105:"
-I POSTROUTING ( -I Chain Name - Packets enter this chain just before handing them off to the hardware.)";}i:2;i:1034;}i:36;a:3:{i:0;s:9:"linebreak";i:1;a:0:{}i:2;i:1139;}i:37;a:3:{i:0;s:5:"cdata";i:1;a:1:{i:0;s:34:"
-m state ( Matching module name )";}i:2;i:1141;}i:38;a:3:{i:0;s:9:"linebreak";i:1;a:0:{}i:2;i:1175;}i:39;a:3:{i:0;s:5:"cdata";i:1;a:1:{i:0;s:147:"
–state NEW ( –state allows access to the connection tracking state for this packet. NEW meaning that the packet has started a new connection )";}i:2;i:1177;}i:40;a:3:{i:0;s:9:"linebreak";i:1;a:0:{}i:2;i:1324;}i:41;a:3:{i:0;s:5:"cdata";i:1;a:1:{i:0;s:23:"
-p tcp ( -p Protocol )";}i:2;i:1326;}i:42;a:3:{i:0;s:9:"linebreak";i:1;a:0:{}i:2;i:1349;}i:43;a:3:{i:0;s:5:"cdata";i:1;a:1:{i:0;s:42:"
–dport 25 ( –dport Destination Port )";}i:2;i:1351;}i:44;a:3:{i:0;s:9:"linebreak";i:1;a:0:{}i:2;i:1393;}i:45;a:3:{i:0;s:5:"cdata";i:1;a:1:{i:0;s:135:"
-o eth0 ( -o Out Interface - name of an interface via which a packet is going to be sent outside.) -m statistic –mode nth –every 5";}i:2;i:1395;}i:46;a:3:{i:0;s:9:"linebreak";i:1;a:0:{}i:2;i:1530;}i:47;a:3:{i:0;s:5:"cdata";i:1;a:1:{i:0;s:50:"
( -m matching module, –mode nth –every value)";}i:2;i:1532;}i:48;a:3:{i:0;s:9:"linebreak";i:1;a:0:{}i:2;i:1582;}i:49;a:3:{i:0;s:5:"cdata";i:1;a:1:{i:0;s:284:"
(This module matches packet based on same statistic conditions i.e. random, nth) (–every 5 Match one packet every nth packet. It work with the nth mode.) -j SNAT –to-source 43.252.89.42 (-j jump to the specific target rule, SNAT is used only with POSTROUTING & –to-source IP. )";}i:2;i:1584;}i:50;a:3:{i:0;s:7:"p_close";i:1;a:0:{}i:2;i:1868;}i:51;a:3:{i:0;s:6:"p_open";i:1;a:0:{}i:2;i:1868;}i:52;a:3:{i:0;s:6:"plugin";i:1;a:4:{i:0;s:9:"code_code";i:1;a:4:{i:0;s:4:"code";i:1;N;i:2;s:0:"";i:3;s:163:" iptables -t nat -A POSTROUTING -o eth0 -p tcp -m state --state NEW -m tcp --dport 25 -m statistic --mode nth --every 1 --packet 0 -j SNAT --to-source 146.88.26.64";}i:2;i:3;i:3;s:164:"> iptables -t nat -A POSTROUTING -o eth0 -p tcp -m state --state NEW -m tcp --dport 25 -m statistic --mode nth --every 1 --packet 0 -j SNAT --to-source 146.88.26.64";}i:2;i:1875;}i:53;a:3:{i:0;s:7:"p_close";i:1;a:0:{}i:2;i:2046;}i:54;a:3:{i:0;s:6:"p_open";i:1;a:0:{}i:2;i:2046;}i:55;a:3:{i:0;s:11:"strong_open";i:1;a:0:{}i:2;i:2048;}i:56;a:3:{i:0;s:5:"cdata";i:1;a:1:{i:0;s:24:"How to remove the rules?";}i:2;i:2050;}i:57;a:3:{i:0;s:12:"strong_close";i:1;a:0:{}i:2;i:2074;}i:58;a:3:{i:0;s:5:"cdata";i:1;a:1:{i:0;s:1:" ";}i:2;i:2076;}i:59;a:3:{i:0;s:9:"linebreak";i:1;a:0:{}i:2;i:2077;}i:60;a:3:{i:0;s:5:"cdata";i:1;a:1:{i:0;s:47:"
Delete any rule defined in configuration file.";}i:2;i:2079;}i:61;a:3:{i:0;s:9:"linebreak";i:1;a:0:{}i:2;i:2126;}i:62;a:3:{i:0;s:5:"cdata";i:1;a:1:{i:0;s:28:"
vim /etc/sysconfig/iptables";}i:2;i:2128;}i:63;a:3:{i:0;s:9:"linebreak";i:1;a:0:{}i:2;i:2156;}i:64;a:3:{i:0;s:5:"cdata";i:1;a:1:{i:0;s:48:"
Or iptables -t nat -F iptables -F Save the file";}i:2;i:2158;}i:65;a:3:{i:0;s:9:"linebreak";i:1;a:0:{}i:2;i:2206;}i:66;a:3:{i:0;s:5:"cdata";i:1;a:1:{i:0;s:17:"
Restart iptables";}i:2;i:2208;}i:67;a:3:{i:0;s:9:"linebreak";i:1;a:0:{}i:2;i:2225;}i:68;a:3:{i:0;s:5:"cdata";i:1;a:1:{i:0;s:25:"
service iptables restart";}i:2;i:2227;}i:69;a:3:{i:0;s:7:"p_close";i:1;a:0:{}i:2;i:2252;}i:70;a:3:{i:0;s:12:"document_end";i:1;a:0:{}i:2;i:2252;}}