a:25:{i:0;a:3:{i:0;s:14:"document_start";i:1;a:0:{}i:2;i:0;}i:1;a:3:{i:0;s:6:"p_open";i:1;a:0:{}i:2;i:0;}i:2;a:3:{i:0;s:5:"cdata";i:1;a:1:{i:0;s:34:"Edit the Spamassassin config file ";}i:2;i:1;}i:3;a:3:{i:0;s:18:"doublequoteopening";i:1;a:0:{}i:2;i:35;}i:4;a:3:{i:0;s:5:"cdata";i:1;a:1:{i:0;s:30:"/opt/zimbra/conf/salocal.cf.in";}i:2;i:36;}i:5;a:3:{i:0;s:18:"doublequoteclosing";i:1;a:0:{}i:2;i:66;}i:6;a:3:{i:0;s:5:"cdata";i:1;a:1:{i:0;s:88:" add below lines to the end of the file to whitelist a complete domain or specific user.";}i:2;i:67;}i:7;a:3:{i:0;s:7:"p_close";i:1;a:0:{}i:2;i:156;}i:8;a:3:{i:0;s:12:"preformatted";i:1;a:1:{i:0;s:60:"whitelist_from *@domain.com 
whitelist_from user@domain.com ";}i:2;i:156;}i:9;a:3:{i:0;s:6:"p_open";i:1;a:0:{}i:2;i:156;}i:10;a:3:{i:0;s:5:"cdata";i:1;a:1:{i:0;s:87:"After the above changes restart zmmtactl and zmamaviasdctl services and test the issue.";}i:2;i:223;}i:11;a:3:{i:0;s:7:"p_close";i:1;a:0:{}i:2;i:311;}i:12;a:3:{i:0;s:12:"preformatted";i:1;a:1:{i:0;s:40:"zmmtactl restart && zmamavisdctl restart";}i:2;i:311;}i:13;a:3:{i:0;s:6:"p_open";i:1;a:0:{}i:2;i:311;}i:14;a:3:{i:0;s:5:"cdata";i:1;a:1:{i:0;s:92:"Also, edit the file /opt/zimbra/conf/amavisd.conf.in to blacklist and look for this section:";}i:2;i:356;}i:15;a:3:{i:0;s:7:"p_close";i:1;a:0:{}i:2;i:449;}i:16;a:3:{i:0;s:12:"preformatted";i:1;a:1:{i:0;s:204:"{ # a hash-type lookup table (associative array)
  'nobody@cert.org'                        => -3.0,
  'cert-advisory@us-cert.gov'              => -3.0,
  'owner-alert@iss.net'                    => -3.0,";}i:2;i:449;}i:17;a:3:{i:0;s:6:"p_open";i:1;a:0:{}i:2;i:449;}i:18;a:3:{i:0;s:5:"cdata";i:1;a:1:{i:0;s:50:"To whitelist enter values without  (-) minus sign.";}i:2;i:664;}i:19;a:3:{i:0;s:7:"p_close";i:1;a:0:{}i:2;i:714;}i:20;a:3:{i:0;s:6:"p_open";i:1;a:0:{}i:2;i:714;}i:21;a:3:{i:0;s:12:"externallink";i:1;a:2:{i:0;s:55:"https://wiki.zimbra.com/wiki/Improving_Anti-spam_system";i:1;N;}i:2;i:716;}i:22;a:3:{i:0;s:5:"cdata";i:1;a:1:{i:0;s:0:"";}i:2;i:771;}i:23;a:3:{i:0;s:7:"p_close";i:1;a:0:{}i:2;i:771;}i:24;a:3:{i:0;s:12:"document_end";i:1;a:0:{}i:2;i:771;}}