a:118:{i:0;a:3:{i:0;s:14:"document_start";i:1;a:0:{}i:2;i:0;}i:1;a:3:{i:0;s:6:"plugin";i:1;a:4:{i:0;s:7:"tag_tag";i:1;a:1:{i:0;s:7:"magento";}i:2;i:5;i:3;s:15:"{{tag>magento}}";}i:2;i:1;}i:2;a:3:{i:0;s:6:"header";i:1;a:3:{i:0;s:63:"Aoe_Profiler : Simply better than conventional Magento profiler";i:1;i:2;i:2;i:18;}i:2;i:18;}i:3;a:3:{i:0;s:12:"section_open";i:1;a:1:{i:0;i:2;}i:2;i:18;}i:4;a:3:{i:0;s:2:"hr";i:1;a:0:{}i:2;i:94;}i:5;a:3:{i:0;s:6:"p_open";i:1;a:0:{}i:2;i:94;}i:6;a:3:{i:0;s:5:"cdata";i:1;a:1:{i:0;s:18:"Steps to Install :";}i:2;i:101;}i:7;a:3:{i:0;s:7:"p_close";i:1;a:0:{}i:2;i:119;}i:8;a:3:{i:0;s:6:"p_open";i:1;a:0:{}i:2;i:119;}i:9;a:3:{i:0;s:5:"cdata";i:1;a:1:{i:0;s:36:"1. Clone the repository from github ";}i:2;i:121;}i:10;a:3:{i:0;s:12:"externallink";i:1;a:2:{i:0;s:41:"https://github.com/AOEpeople/Aoe_Profiler";i:1;s:41:"https://github.com/AOEpeople/Aoe_Profiler";}i:2;i:157;}i:11;a:3:{i:0;s:5:"cdata";i:1;a:1:{i:0;s:13:" using modman";}i:2;i:244;}i:12;a:3:{i:0;s:7:"p_close";i:1;a:0:{}i:2;i:257;}i:13;a:3:{i:0;s:6:"p_open";i:1;a:0:{}i:2;i:257;}i:14;a:3:{i:0;s:5:"cdata";i:1;a:1:{i:0;s:9:"Inshort :";}i:2;i:259;}i:15;a:3:{i:0;s:7:"p_close";i:1;a:0:{}i:2;i:268;}i:16;a:3:{i:0;s:6:"p_open";i:1;a:0:{}i:2;i:268;}i:17;a:3:{i:0;s:5:"cdata";i:1;a:1:{i:0;s:35:"a. Go to magento install directory.";}i:2;i:270;}i:18;a:3:{i:0;s:7:"p_close";i:1;a:0:{}i:2;i:305;}i:19;a:3:{i:0;s:6:"p_open";i:1;a:0:{}i:2;i:305;}i:20;a:3:{i:0;s:5:"cdata";i:1;a:1:{i:0;s:3:"b. ";}i:2;i:307;}i:21;a:3:{i:0;s:12:"externallink";i:1;a:2:{i:0;s:57:"http://webtise.com/an-introduction-to-modman-for-magento/";i:1;s:6:"modman";}i:2;i:310;}i:22;a:3:{i:0;s:5:"cdata";i:1;a:1:{i:0;s:5:" init";}i:2;i:378;}i:23;a:3:{i:0;s:7:"p_close";i:1;a:0:{}i:2;i:383;}i:24;a:3:{i:0;s:6:"p_open";i:1;a:0:{}i:2;i:383;}i:25;a:3:{i:0;s:5:"cdata";i:1;a:1:{i:0;s:16:"c. modman clone ";}i:2;i:385;}i:26;a:3:{i:0;s:12:"externallink";i:1;a:2:{i:0;s:45:"https://github.com/AOEpeople/Aoe_Profiler.git";i:1;s:45:"https://github.com/AOEpeople/Aoe_Profiler.git";}i:2;i:401;}i:27;a:3:{i:0;s:7:"p_close";i:1;a:0:{}i:2;i:496;}i:28;a:3:{i:0;s:6:"p_open";i:1;a:0:{}i:2;i:496;}i:29;a:3:{i:0;s:5:"cdata";i:1;a:1:{i:0;s:3:"d. ";}i:2;i:498;}i:30;a:3:{i:0;s:12:"externallink";i:1;a:2:{i:0;s:65:"http://wiki.mantraventures.com/magento/theory/symlinks_in_magento";i:1;s:15:"Enable Symlinks";}i:2;i:501;}i:31;a:3:{i:0;s:5:"cdata";i:1;a:1:{i:0;s:20:" from admin backend.";}i:2;i:586;}i:32;a:3:{i:0;s:7:"p_close";i:1;a:0:{}i:2;i:606;}i:33;a:3:{i:0;s:6:"p_open";i:1;a:0:{}i:2;i:606;}i:34;a:3:{i:0;s:5:"cdata";i:1;a:1:{i:0;s:29:"e. chown -R {USERNAME}: `pwd`";}i:2;i:608;}i:35;a:3:{i:0;s:7:"p_close";i:1;a:0:{}i:2;i:637;}i:36;a:3:{i:0;s:6:"p_open";i:1;a:0:{}i:2;i:637;}i:37;a:3:{i:0;s:5:"cdata";i:1;a:1:{i:0;s:84:"2. copy the .modman/Aoe_Profiler/var/aoe_profiler.xml.sample to var/aoe_profiler.xml";}i:2;i:639;}i:38;a:3:{i:0;s:7:"p_close";i:1;a:0:{}i:2;i:723;}i:39;a:3:{i:0;s:6:"p_open";i:1;a:0:{}i:2;i:723;}i:40;a:3:{i:0;s:5:"cdata";i:1;a:1:{i:0;s:77:"3. Add the below entry in the app/etc/local.xml file above </global> tag, to ";}i:2;i:725;}i:41;a:3:{i:0;s:11:"strong_open";i:1;a:0:{}i:2;i:802;}i:42;a:3:{i:0;s:5:"cdata";i:1;a:1:{i:0;s:25:"enable database profiling";}i:2;i:804;}i:43;a:3:{i:0;s:12:"strong_close";i:1;a:0:{}i:2;i:829;}i:44;a:3:{i:0;s:5:"cdata";i:1;a:1:{i:0;s:1:".";}i:2;i:831;}i:45;a:3:{i:0;s:7:"p_close";i:1;a:0:{}i:2;i:832;}i:46;a:3:{i:0;s:6:"p_open";i:1;a:0:{}i:2;i:832;}i:47;a:3:{i:0;s:14:"monospace_open";i:1;a:0:{}i:2;i:834;}i:48;a:3:{i:0;s:5:"cdata";i:1;a:1:{i:0;s:11:"<resources>";}i:2;i:836;}i:49;a:3:{i:0;s:9:"linebreak";i:1;a:0:{}i:2;i:847;}i:50;a:3:{i:0;s:5:"cdata";i:1;a:1:{i:0;s:16:"
<default_setup>";}i:2;i:849;}i:51;a:3:{i:0;s:9:"linebreak";i:1;a:0:{}i:2;i:865;}i:52;a:3:{i:0;s:5:"cdata";i:1;a:1:{i:0;s:13:"
<connection>";}i:2;i:867;}i:53;a:3:{i:0;s:9:"linebreak";i:1;a:0:{}i:2;i:880;}i:54;a:3:{i:0;s:5:"cdata";i:1;a:1:{i:0;s:23:"
<profiler>1</profiler>";}i:2;i:882;}i:55;a:3:{i:0;s:9:"linebreak";i:1;a:0:{}i:2;i:905;}i:56;a:3:{i:0;s:5:"cdata";i:1;a:1:{i:0;s:14:"
</connection>";}i:2;i:907;}i:57;a:3:{i:0;s:9:"linebreak";i:1;a:0:{}i:2;i:921;}i:58;a:3:{i:0;s:5:"cdata";i:1;a:1:{i:0;s:17:"
</default_setup>";}i:2;i:923;}i:59;a:3:{i:0;s:15:"monospace_close";i:1;a:0:{}i:2;i:940;}i:60;a:3:{i:0;s:7:"p_close";i:1;a:0:{}i:2;i:942;}i:61;a:3:{i:0;s:6:"p_open";i:1;a:0:{}i:2;i:942;}i:62;a:3:{i:0;s:14:"monospace_open";i:1;a:0:{}i:2;i:944;}i:63;a:3:{i:0;s:5:"cdata";i:1;a:1:{i:0;s:12:"</resources>";}i:2;i:946;}i:64;a:3:{i:0;s:15:"monospace_close";i:1;a:0:{}i:2;i:958;}i:65;a:3:{i:0;s:7:"p_close";i:1;a:0:{}i:2;i:960;}i:66;a:3:{i:0;s:6:"p_open";i:1;a:0:{}i:2;i:960;}i:67;a:3:{i:0;s:5:"cdata";i:1;a:1:{i:0;s:78:"4. Clear the compiler data if any, cache and sessions. Login to the cms admin.";}i:2;i:962;}i:68;a:3:{i:0;s:7:"p_close";i:1;a:0:{}i:2;i:1040;}i:69;a:3:{i:0;s:6:"p_open";i:1;a:0:{}i:2;i:1040;}i:70;a:3:{i:0;s:5:"cdata";i:1;a:1:{i:0;s:103:"5. Go to System > Configuration > ADVANCED > Developer > Debug for setting the Profiler configurations.";}i:2;i:1042;}i:71;a:3:{i:0;s:7:"p_close";i:1;a:0:{}i:2;i:1145;}i:72;a:3:{i:0;s:6:"p_open";i:1;a:0:{}i:2;i:1145;}i:73;a:3:{i:0;s:5:"cdata";i:1;a:1:{i:0;s:89:"6. Edit the {magento_install_directory}var/aoe_profiler.xml for additional configuration.";}i:2;i:1147;}i:74;a:3:{i:0;s:7:"p_close";i:1;a:0:{}i:2;i:1236;}i:75;a:3:{i:0;s:6:"p_open";i:1;a:0:{}i:2;i:1236;}i:76;a:3:{i:0;s:5:"cdata";i:1;a:1:{i:0;s:31:"Profiler, Modes of Operations: ";}i:2;i:1238;}i:77;a:3:{i:0;s:14:"monospace_open";i:1;a:0:{}i:2;i:1269;}i:78;a:3:{i:0;s:5:"cdata";i:1;a:1:{i:0;s:25:"<trigger>{mode}</trigger>";}i:2;i:1271;}i:79;a:3:{i:0;s:15:"monospace_close";i:1;a:0:{}i:2;i:1296;}i:80;a:3:{i:0;s:7:"p_close";i:1;a:0:{}i:2;i:1298;}i:81;a:3:{i:0;s:6:"p_open";i:1;a:0:{}i:2;i:1298;}i:82;a:3:{i:0;s:11:"strong_open";i:1;a:0:{}i:2;i:1300;}i:83;a:3:{i:0;s:13:"emphasis_open";i:1;a:0:{}i:2;i:1302;}i:84;a:3:{i:0;s:5:"cdata";i:1;a:1:{i:0;s:6:"always";}i:2;i:1304;}i:85;a:3:{i:0;s:14:"emphasis_close";i:1;a:0:{}i:2;i:1310;}i:86;a:3:{i:0;s:12:"strong_close";i:1;a:0:{}i:2;i:1312;}i:87;a:3:{i:0;s:5:"cdata";i:1;a:1:{i:0;s:32:" : Every request will be logged.";}i:2;i:1314;}i:88;a:3:{i:0;s:7:"p_close";i:1;a:0:{}i:2;i:1346;}i:89;a:3:{i:0;s:6:"p_open";i:1;a:0:{}i:2;i:1346;}i:90;a:3:{i:0;s:11:"strong_open";i:1;a:0:{}i:2;i:1348;}i:91;a:3:{i:0;s:13:"emphasis_open";i:1;a:0:{}i:2;i:1350;}i:92;a:3:{i:0;s:5:"cdata";i:1;a:1:{i:0;s:9:"parameter";}i:2;i:1352;}i:93;a:3:{i:0;s:14:"emphasis_close";i:1;a:0:{}i:2;i:1361;}i:94;a:3:{i:0;s:12:"strong_close";i:1;a:0:{}i:2;i:1363;}i:95;a:3:{i:0;s:5:"cdata";i:1;a:1:{i:0;s:122:" : [recommended] controlled via get parameter '?profile=1' or cookie (profile). Simply add '?profile=1' to the end of the ";}i:2;i:1365;}i:96;a:3:{i:0;s:7:"acronym";i:1;a:1:{i:0;s:3:"URL";}i:2;i:1487;}i:97;a:3:{i:0;s:5:"cdata";i:1;a:1:{i:0;s:17:" you want to log.";}i:2;i:1490;}i:98;a:3:{i:0;s:7:"p_close";i:1;a:0:{}i:2;i:1507;}i:99;a:3:{i:0;s:6:"p_open";i:1;a:0:{}i:2;i:1507;}i:100;a:3:{i:0;s:13:"emphasis_open";i:1;a:0:{}i:2;i:1509;}i:101;a:3:{i:0;s:11:"strong_open";i:1;a:0:{}i:2;i:1511;}i:102;a:3:{i:0;s:5:"cdata";i:1;a:1:{i:0;s:5:"never";}i:2;i:1513;}i:103;a:3:{i:0;s:12:"strong_close";i:1;a:0:{}i:2;i:1518;}i:104;a:3:{i:0;s:14:"emphasis_close";i:1;a:0:{}i:2;i:1520;}i:105;a:3:{i:0;s:5:"cdata";i:1;a:1:{i:0;s:31:" : Every request will be logged";}i:2;i:1522;}i:106;a:3:{i:0;s:7:"p_close";i:1;a:0:{}i:2;i:1553;}i:107;a:3:{i:0;s:6:"p_open";i:1;a:0:{}i:2;i:1553;}i:108;a:3:{i:0;s:5:"cdata";i:1;a:1:{i:0;s:17:"Reference Links :";}i:2;i:1555;}i:109;a:3:{i:0;s:7:"p_close";i:1;a:0:{}i:2;i:1572;}i:110;a:3:{i:0;s:6:"p_open";i:1;a:0:{}i:2;i:1572;}i:111;a:3:{i:0;s:12:"externallink";i:1;a:2:{i:0;s:41:"https://github.com/AOEpeople/Aoe_Profiler";i:1;s:41:"https://github.com/AOEpeople/Aoe_Profiler";}i:2;i:1574;}i:112;a:3:{i:0;s:7:"p_close";i:1;a:0:{}i:2;i:1661;}i:113;a:3:{i:0;s:6:"p_open";i:1;a:0:{}i:2;i:1661;}i:114;a:3:{i:0;s:12:"externallink";i:1;a:2:{i:0;s:52:"http://fbrnc.net/blog/2012/08/magento-profiler#hello";i:1;s:52:"http://fbrnc.net/blog/2012/08/magento-profiler#hello";}i:2;i:1663;}i:115;a:3:{i:0;s:7:"p_close";i:1;a:0:{}i:2;i:1772;}i:116;a:3:{i:0;s:13:"section_close";i:1;a:0:{}i:2;i:1773;}i:117;a:3:{i:0;s:12:"document_end";i:1;a:0:{}i:2;i:1773;}}