a:10:{i:0;a:3:{i:0;s:14:"document_start";i:1;a:0:{}i:2;i:0;}i:1;a:3:{i:0;s:6:"p_open";i:1;a:0:{}i:2;i:0;}i:2;a:3:{i:0;s:5:"cdata";i:1;a:1:{i:0;s:82:"1. Login to the zimbra server and retrieve the MySQL root password.               ";}i:2;i:1;}i:3;a:3:{i:0;s:7:"p_close";i:1;a:0:{}i:2;i:83;}i:4;a:3:{i:0;s:12:"preformatted";i:1;a:1:{i:0;s:90:" open /opt/zimbra/conf/localconfig.xml and search for mysql_root_password
                ";}i:2;i:83;}i:5;a:3:{i:0;s:6:"p_open";i:1;a:0:{}i:2;i:83;}i:6;a:3:{i:0;s:5:"cdata";i:1;a:1:{i:0;s:76:"2. Use Following credentials to create MySQL backup in R1soft.              ";}i:2;i:179;}i:7;a:3:{i:0;s:7:"p_close";i:1;a:0:{}i:2;i:255;}i:8;a:3:{i:0;s:12:"preformatted";i:1;a:1:{i:0;s:197:"             Port: 7306
             Data Directory: /opt/zimbra/db/data
             Base Directory: /opt/zimbra/db
             Username: root
             Password: <root_password>
             ";}i:2;i:255;}i:9;a:3:{i:0;s:12:"document_end";i:1;a:0:{}i:2;i:255;}}