a:60:{i:0;a:3:{i:0;s:14:"document_start";i:1;a:0:{}i:2;i:0;}i:1;a:3:{i:0;s:6:"p_open";i:1;a:0:{}i:2;i:0;}i:2;a:3:{i:0;s:11:"strong_open";i:1;a:0:{}i:2;i:1;}i:3;a:3:{i:0;s:5:"cdata";i:1;a:1:{i:0;s:45:"Wordpress Url Injection Issue / RRNU Vaccinne";}i:2;i:3;}i:4;a:3:{i:0;s:12:"strong_close";i:1;a:0:{}i:2;i:48;}i:5;a:3:{i:0;s:7:"p_close";i:1;a:0:{}i:2;i:50;}i:6;a:3:{i:0;s:6:"p_open";i:1;a:0:{}i:2;i:50;}i:7;a:3:{i:0;s:5:"cdata";i:1;a:1:{i:0;s:5:"<?php";}i:2;i:52;}i:8;a:3:{i:0;s:6:"plugin";i:1;a:4:{i:0;s:7:"comment";i:1;s:0:"";i:2;i:5;i:3;s:415:"
/**
 * Vaccine: Malware rr.nu
 * This simple script will read all file php recursivelly from directory and cleanup string defined by rr.nu
 * 
 * changelog: 
 * v0.2 - verification by Regex, based on idea: http://misc.wordherders.net/wp/wordpress-fix_php.txt
 * v0.1 - single string verification
 * 
 * @author Walker de Alencar <walkeralencar@gmail.com>
 * @link {https://github.com/walkeralencar/rrnuVaccine}
 */";}i:2;i:57;}i:9;a:3:{i:0;s:5:"cdata";i:1;a:1:{i:0;s:20:"
class rrnuVaccine {";}i:2;i:472;}i:10;a:3:{i:0;s:7:"p_close";i:1;a:0:{}i:2;i:493;}i:11;a:3:{i:0;s:12:"preformatted";i:1;a:1:{i:0;s:218:"  private $directory;
  private $counter;
  private $log = '';
  private $pattern = '(\<\?php \/\*\*\/ eval\(base64_decode\("aWYoZnVuY3Rpb25fZXhpc3RzKCdvYl9zdGFydCcpJiYhaXNzZXQoJF9TRVJWRVJbJ21yX25vJ10pKX.*"\)\);\?\>)';";}i:2;i:493;}i:12;a:3:{i:0;s:12:"preformatted";i:1;a:1:{i:0;s:45:"  private function __construct() {
      
  }";}i:2;i:721;}i:13;a:3:{i:0;s:12:"preformatted";i:1;a:1:{i:0;s:100:"  /**
   * @return rrnuVacine
   */
  public static function create() {
      return new self();
  }";}i:2;i:774;}i:14;a:3:{i:0;s:12:"preformatted";i:1;a:1:{i:0;s:234:"  /**
   * Define root directory to start the recursive search to Vacine all php files.
   * @param type $dir
   * @return rrnuVacine 
   */
  public function setDirectory($dir) {
      $this->directory = $dir;
      return $this;
  }";}i:2;i:888;}i:15;a:3:{i:0;s:12:"preformatted";i:1;a:1:{i:0;s:70:"  private function getDirectory() {
      return $this->directory;
  }";}i:2;i:1142;}i:16;a:3:{i:0;s:12:"preformatted";i:1;a:1:{i:0;s:158:"  private function validate() {
      if (is_null($this->getDirectory())) {
          throw new exception('Define the root directory to Vacine!');
      }
  }";}i:2;i:1220;}i:17;a:3:{i:0;s:12:"preformatted";i:1;a:1:{i:0;s:177:"  private function startup() {
      $this->counter = array(
          'free' => 0,
          'infected' => 0,
          'disinfected' => 0,
          'total' => 0,
      );
  }";}i:2;i:1390;}i:18;a:3:{i:0;s:12:"preformatted";i:1;a:1:{i:0;s:77:"  private function vaccine($directory) {
      $currentDir = dir($directory);";}i:2;i:1585;}i:19;a:3:{i:0;s:12:"preformatted";i:1;a:1:{i:0;s:117:"      while (false !== ($entry = $currentDir->read())) {
          $file = $directory . DIRECTORY_SEPARATOR . $entry;";}i:2;i:1668;}i:20;a:3:{i:0;s:12:"preformatted";i:1;a:1:{i:0;s:1008:"          if ($entry != "." && $entry != ".." && is_dir($file)) {
              $this->vaccine($file);
          } else if (pathinfo($entry, PATHINFO_EXTENSION) == 'php') {
              $fileContent = preg_replace($this->pattern, '', file_get_contents($file),-1,$detected);
              if($detected === 0){
                  $status = '<em style="color:darkblue">free</em>';
                  $this->counter['free']++;
              } else {
                  if (false === file_put_contents($file, $fileContent)) {
                      $status = '<em style="color:darkred">infected!</em>';
                      $this->counter['infected']++;
                  } else {
                      $status = '<em style="color:darkgreen">disinfected!</em>';
                      $this->counter['disinfected']++;
                  }
              }
              $this->counter['total']++;
              $this->log .= $file . "[" . $status . "]<br>\n";
          }
      }
      $currentDir->close();
      
  }";}i:2;i:1791;}i:21;a:3:{i:0;s:12:"preformatted";i:1;a:1:{i:0;s:261:"  public function execute() {
      $this->validate();
      $this->startup();
      $this->vaccine($this->getDirectory());
     
      $result = array();
      foreach($this->counter as $key => $value){
          $result[] = "<b>{$key}</b>({$value}) ";
      }";}i:2;i:2847;}i:22;a:3:{i:0;s:12:"preformatted";i:1;a:1:{i:0;s:69:"      return "<h2>".implode(' | ',$result)."</h2>\n". $this->log;
  }";}i:2;i:3128;}i:23;a:3:{i:0;s:6:"p_open";i:1;a:0:{}i:2;i:3128;}i:24;a:3:{i:0;s:5:"cdata";i:1;a:1:{i:0;s:1:"}";}i:2;i:3204;}i:25;a:3:{i:0;s:7:"p_close";i:1;a:0:{}i:2;i:3205;}i:26;a:3:{i:0;s:6:"p_open";i:1;a:0:{}i:2;i:3205;}i:27;a:3:{i:0;s:5:"cdata";i:1;a:1:{i:0;s:17:"echo '<div style=";}i:2;i:3207;}i:28;a:3:{i:0;s:18:"doublequoteopening";i:1;a:0:{}i:2;i:3224;}i:29;a:3:{i:0;s:5:"cdata";i:1;a:1:{i:0;s:48:"color:#333; font-family:Verdana; font-size:11px;";}i:2;i:3225;}i:30;a:3:{i:0;s:18:"doublequoteclosing";i:1;a:0:{}i:2;i:3273;}i:31;a:3:{i:0;s:5:"cdata";i:1;a:1:{i:0;s:22:">';
echo '<h1><a href=";}i:2;i:3274;}i:32;a:3:{i:0;s:18:"doublequoteopening";i:1;a:0:{}i:2;i:3296;}i:33;a:3:{i:0;s:12:"externallink";i:1;a:2:{i:0;s:44:"https://github.com/walkeralencar/rrnuVaccine";i:1;N;}i:2;i:3297;}i:34;a:3:{i:0;s:18:"doublequoteclosing";i:1;a:0:{}i:2;i:3341;}i:35;a:3:{i:0;s:5:"cdata";i:1;a:1:{i:0;s:59:">rr.nu Vaccine - v0.2 Beta</a></h1>';
echo '<h3>by <a href=";}i:2;i:3342;}i:36;a:3:{i:0;s:18:"doublequoteopening";i:1;a:0:{}i:2;i:3401;}i:37;a:3:{i:0;s:5:"cdata";i:1;a:1:{i:0;s:30:"mailto:walkeralencar@gmail.com";}i:2;i:3402;}i:38;a:3:{i:0;s:18:"doublequoteclosing";i:1;a:0:{}i:2;i:3432;}i:39;a:3:{i:0;s:5:"cdata";i:1;a:1:{i:0;s:61:">Walker de Alencar</a></h3><hr/>';
echo rrnuVaccine::create()";}i:2;i:3433;}i:40;a:3:{i:0;s:7:"p_close";i:1;a:0:{}i:2;i:3494;}i:41;a:3:{i:0;s:10:"listo_open";i:1;a:0:{}i:2;i:3494;}i:42;a:3:{i:0;s:13:"listitem_open";i:1;a:1:{i:0;i:1;}i:2;i:3494;}i:43;a:3:{i:0;s:16:"listcontent_open";i:1;a:0:{}i:2;i:3494;}i:44;a:3:{i:0;s:5:"cdata";i:1;a:1:{i:0;s:33:">setDirectory(realpath(getcwd()))";}i:2;i:3504;}i:45;a:3:{i:0;s:17:"listcontent_close";i:1;a:0:{}i:2;i:3537;}i:46;a:3:{i:0;s:14:"listitem_close";i:1;a:0:{}i:2;i:3537;}i:47;a:3:{i:0;s:13:"listitem_open";i:1;a:1:{i:0;i:4;}i:2;i:3537;}i:48;a:3:{i:0;s:16:"listcontent_open";i:1;a:0:{}i:2;i:3537;}i:49;a:3:{i:0;s:5:"cdata";i:1;a:1:{i:0;s:11:">execute();";}i:2;i:3547;}i:50;a:3:{i:0;s:17:"listcontent_close";i:1;a:0:{}i:2;i:3558;}i:51;a:3:{i:0;s:14:"listitem_close";i:1;a:0:{}i:2;i:3558;}i:52;a:3:{i:0;s:11:"listo_close";i:1;a:0:{}i:2;i:3558;}i:53;a:3:{i:0;s:6:"p_open";i:1;a:0:{}i:2;i:3558;}i:54;a:3:{i:0;s:5:"cdata";i:1;a:1:{i:0;s:14:"echo '</div>';";}i:2;i:3559;}i:55;a:3:{i:0;s:7:"p_close";i:1;a:0:{}i:2;i:3573;}i:56;a:3:{i:0;s:6:"p_open";i:1;a:0:{}i:2;i:3573;}i:57;a:3:{i:0;s:5:"cdata";i:1;a:1:{i:0;s:76:"this is a complete page is a php script needed to save in injection.php file";}i:2;i:3577;}i:58;a:3:{i:0;s:7:"p_close";i:1;a:0:{}i:2;i:3653;}i:59;a:3:{i:0;s:12:"document_end";i:1;a:0:{}i:2;i:3653;}}