a:24:{i:0;a:3:{i:0;s:14:"document_start";i:1;a:0:{}i:2;i:0;}i:1;a:3:{i:0;s:6:"p_open";i:1;a:0:{}i:2;i:0;}i:2;a:3:{i:0;s:12:"externallink";i:1;a:2:{i:0;s:69:"https://wiki.zimbra.com/wiki/Obtain_all_the_forwards_per_each_account";i:1;N;}i:2;i:1;}i:3;a:3:{i:0;s:7:"p_close";i:1;a:0:{}i:2;i:70;}i:4;a:3:{i:0;s:6:"p_open";i:1;a:0:{}i:2;i:70;}i:5;a:3:{i:0;s:6:"plugin";i:1;a:4:{i:0;s:9:"code_code";i:1;a:4:{i:0;s:4:"code";i:1;N;i:2;s:0:"";i:3;s:20:"vim checkforward.sh
";}i:2;i:3;i:3;s:21:">vim checkforward.sh
";}i:2;i:77;}i:6;a:3:{i:0;s:7:"p_close";i:1;a:0:{}i:2;i:105;}i:7;a:3:{i:0;s:10:"listu_open";i:1;a:0:{}i:2;i:105;}i:8;a:3:{i:0;s:13:"listitem_open";i:1;a:1:{i:0;i:1;}i:2;i:105;}i:9;a:3:{i:0;s:16:"listcontent_open";i:1;a:0:{}i:2;i:105;}i:10;a:3:{i:0;s:5:"cdata";i:1;a:1:{i:0;s:49:" Add the next simple script into the Script file:";}i:2;i:109;}i:11;a:3:{i:0;s:17:"listcontent_close";i:1;a:0:{}i:2;i:158;}i:12;a:3:{i:0;s:14:"listitem_close";i:1;a:0:{}i:2;i:158;}i:13;a:3:{i:0;s:11:"listu_close";i:1;a:0:{}i:2;i:158;}i:14;a:3:{i:0;s:6:"p_open";i:1;a:0:{}i:2;i:158;}i:15;a:3:{i:0;s:6:"plugin";i:1;a:4:{i:0;s:9:"code_code";i:1;a:4:{i:0;s:4:"code";i:1;N;i:2;s:0:"";i:3;s:344:"#!/bin/sh
# Script para visualizar redirecciones en Zimbra
for account in `zmprov -l gaa`; do
forwardingaddress=`zmprov ga $account |grep 'zimbraPrefMailForwardingAddress' |sed 's/zimbraPrefMailForwardingAddress: //'`
if [ "$forwardingaddress" != "" ]; then
echo "$account is forwarding to $forwardingaddress"
else
forwardingaddress=""
fi
done
";}i:2;i:3;i:3;s:345:">#!/bin/sh
# Script para visualizar redirecciones en Zimbra
for account in `zmprov -l gaa`; do
forwardingaddress=`zmprov ga $account |grep 'zimbraPrefMailForwardingAddress' |sed 's/zimbraPrefMailForwardingAddress: //'`
if [ "$forwardingaddress" != "" ]; then
echo "$account is forwarding to $forwardingaddress"
else
forwardingaddress=""
fi
done
";}i:2;i:165;}i:16;a:3:{i:0;s:5:"cdata";i:1;a:1:{i:0;s:1:"
";}i:2;i:517;}i:17;a:3:{i:0;s:6:"plugin";i:1;a:4:{i:0;s:9:"code_code";i:1;a:4:{i:0;s:4:"code";i:1;N;i:2;s:0:"";i:3;s:61:"chown zimbra:zimbra checkforward.sh
chmod +x checkforward.sh
";}i:2;i:3;i:3;s:62:">chown zimbra:zimbra checkforward.sh
chmod +x checkforward.sh
";}i:2;i:523;}i:18;a:3:{i:0;s:5:"cdata";i:1;a:1:{i:0;s:1:"
";}i:2;i:592;}i:19;a:3:{i:0;s:6:"plugin";i:1;a:4:{i:0;s:9:"code_code";i:1;a:4:{i:0;s:4:"code";i:1;N;i:2;s:0:"";i:3;s:166:"cp checkforward.sh /opt/zimbra
chown zimbra:zimbra /opt/zimbra/checkforward.sh
touch /opt/zimbra/forward-email.txt
chown zimbra:zimbra /opt/zimbra/forward-email.txt

";}i:2;i:3;i:3;s:167:">cp checkforward.sh /opt/zimbra
chown zimbra:zimbra /opt/zimbra/checkforward.sh
touch /opt/zimbra/forward-email.txt
chown zimbra:zimbra /opt/zimbra/forward-email.txt

";}i:2;i:598;}i:20;a:3:{i:0;s:5:"cdata";i:1;a:1:{i:0;s:1:"
";}i:2;i:772;}i:21;a:3:{i:0;s:6:"plugin";i:1;a:4:{i:0;s:9:"code_code";i:1;a:4:{i:0;s:4:"code";i:1;N;i:2;s:0:"";i:3;s:73:"su - zimbra
ls -l checkforward.sh
./checkforward.sh > forward-email.txt

";}i:2;i:3;i:3;s:74:">su - zimbra
ls -l checkforward.sh
./checkforward.sh > forward-email.txt

";}i:2;i:778;}i:22;a:3:{i:0;s:7:"p_close";i:1;a:0:{}i:2;i:859;}i:23;a:3:{i:0;s:12:"document_end";i:1;a:0:{}i:2;i:859;}}