a:20:{i:0;a:3:{i:0;s:14:"document_start";i:1;a:0:{}i:2;i:0;}i:1;a:3:{i:0;s:6:"p_open";i:1;a:0:{}i:2;i:0;}i:2;a:3:{i:0;s:5:"cdata";i:1;a:1:{i:0;s:40:"1. Do the following for Network tuning: ";}i:2;i:1;}i:3;a:3:{i:0;s:9:"linebreak";i:1;a:0:{}i:2;i:41;}i:4;a:3:{i:0;s:5:"cdata";i:1;a:1:{i:0;s:48:"
echo 1 > /proc/sys/net/ipv4/conf/all/arp_filter";}i:2;i:43;}i:5;a:3:{i:0;s:7:"p_close";i:1;a:0:{}i:2;i:91;}i:6;a:3:{i:0;s:6:"p_open";i:1;a:0:{}i:2;i:91;}i:7;a:3:{i:0;s:5:"cdata";i:1;a:1:{i:0;s:62:"For permanent change, edit the file /etc/sysctl.conf and add:
";}i:2;i:93;}i:8;a:3:{i:0;s:6:"plugin";i:1;a:4:{i:0;s:9:"code_code";i:1;a:4:{i:0;s:4:"code";i:1;N;i:2;s:0:"";i:3;s:34:"
net.ipv4.conf.all.arp_filter = 1
";}i:2;i:3;i:3;s:35:">
net.ipv4.conf.all.arp_filter = 1
";}i:2;i:160;}i:9;a:3:{i:0;s:7:"p_close";i:1;a:0:{}i:2;i:202;}i:10;a:3:{i:0;s:6:"p_open";i:1;a:0:{}i:2;i:202;}i:11;a:3:{i:0;s:5:"cdata";i:1;a:1:{i:0;s:71:"2. For KSM tuning, type these and add these to the file /etc/rc.local: ";}i:2;i:204;}i:12;a:3:{i:0;s:9:"linebreak";i:1;a:0:{}i:2;i:275;}i:13;a:3:{i:0;s:5:"cdata";i:1;a:1:{i:0;s:1:"
";}i:2;i:277;}i:14;a:3:{i:0;s:6:"plugin";i:1;a:4:{i:0;s:9:"code_code";i:1;a:4:{i:0;s:4:"code";i:1;N;i:2;s:0:"";i:3;s:79:"
echo 1 > /sys/kernel/mm/ksm/run
echo 200 > /sys/kernel/mm/ksm/sleep_millisecs
";}i:2;i:3;i:3;s:80:">
echo 1 > /sys/kernel/mm/ksm/run
echo 200 > /sys/kernel/mm/ksm/sleep_millisecs
";}i:2;i:283;}i:15;a:3:{i:0;s:7:"p_close";i:1;a:0:{}i:2;i:370;}i:16;a:3:{i:0;s:6:"p_open";i:1;a:0:{}i:2;i:370;}i:17;a:3:{i:0;s:5:"cdata";i:1;a:1:{i:0;s:2:"3.";}i:2;i:372;}i:18;a:3:{i:0;s:7:"p_close";i:1;a:0:{}i:2;i:372;}i:19;a:3:{i:0;s:12:"document_end";i:1;a:0:{}i:2;i:372;}}