a:39:{i:0;a:3:{i:0;s:14:"document_start";i:1;a:0:{}i:2;i:0;}i:1;a:3:{i:0;s:6:"p_open";i:1;a:0:{}i:2;i:0;}i:2;a:3:{i:0;s:5:"cdata";i:1;a:1:{i:0;s:14:"Login to shell";}i:2;i:1;}i:3;a:3:{i:0;s:7:"p_close";i:1;a:0:{}i:2;i:15;}i:4;a:3:{i:0;s:6:"p_open";i:1;a:0:{}i:2;i:15;}i:5;a:3:{i:0;s:5:"cdata";i:1;a:1:{i:0;s:23:"Find the spamming user.";}i:2;i:17;}i:6;a:3:{i:0;s:7:"p_close";i:1;a:0:{}i:2;i:40;}i:7;a:3:{i:0;s:6:"p_open";i:1;a:0:{}i:2;i:40;}i:8;a:3:{i:0;s:5:"cdata";i:1;a:1:{i:0;s:90:"Then edit the below command according to your need( Who's mail queue needs to be flushed).";}i:2;i:42;}i:9;a:3:{i:0;s:7:"p_close";i:1;a:0:{}i:2;i:132;}i:10;a:3:{i:0;s:6:"p_open";i:1;a:0:{}i:2;i:132;}i:11;a:3:{i:0;s:5:"cdata";i:1;a:1:{i:0;s:58:"/opt/zimbra/postfix/sbin/mailq | tail | awk 'BEGIN { RS = ";}i:2;i:134;}i:12;a:3:{i:0;s:18:"doublequoteopening";i:1;a:0:{}i:2;i:192;}i:13;a:3:{i:0;s:18:"doublequoteclosing";i:1;a:0:{}i:2;i:193;}i:14;a:3:{i:0;s:5:"cdata";i:1;a:1:{i:0;s:92:" } / update@mail\.com$/ { print $1 }' | tr -d '*!' | /opt/zimbra/postfix/sbin/postsuper -d -";}i:2;i:194;}i:15;a:3:{i:0;s:7:"p_close";i:1;a:0:{}i:2;i:286;}i:16;a:3:{i:0;s:6:"p_open";i:1;a:0:{}i:2;i:286;}i:17;a:3:{i:0;s:5:"cdata";i:1;a:1:{i:0;s:92:"In the above command update@mail.com is the user who's mail queue will be cleared. Mind the ";}i:2;i:288;}i:18;a:3:{i:0;s:18:"doublequoteopening";i:1;a:0:{}i:2;i:380;}i:19;a:3:{i:0;s:5:"cdata";i:1;a:1:{i:0;s:1:"-";}i:2;i:381;}i:20;a:3:{i:0;s:18:"doublequoteclosing";i:1;a:0:{}i:2;i:382;}i:21;a:3:{i:0;s:5:"cdata";i:1;a:1:{i:0;s:12:" in the end.";}i:2;i:383;}i:22;a:3:{i:0;s:7:"p_close";i:1;a:0:{}i:2;i:395;}i:23;a:3:{i:0;s:6:"header";i:1;a:3:{i:0;s:0:"";i:1;i:1;i:2;i:397;}i:2;i:397;}i:24;a:3:{i:0;s:12:"section_open";i:1;a:1:{i:0;i:1;}i:2;i:397;}i:25;a:3:{i:0;s:6:"p_open";i:1;a:0:{}i:2;i:397;}i:26;a:3:{i:0;s:5:"cdata";i:1;a:1:{i:0;s:18:"Ubuntu 14.04.4 LTS";}i:2;i:423;}i:27;a:3:{i:0;s:7:"p_close";i:1;a:0:{}i:2;i:441;}i:28;a:3:{i:0;s:6:"p_open";i:1;a:0:{}i:2;i:441;}i:29;a:3:{i:0;s:12:"externallink";i:1;a:2:{i:0;s:56:"https://wiki.zimbra.com/wiki/Managing-The-Postfix-Queues";i:1;N;}i:2;i:443;}i:30;a:3:{i:0;s:7:"p_close";i:1;a:0:{}i:2;i:499;}i:31;a:3:{i:0;s:6:"p_open";i:1;a:0:{}i:2;i:499;}i:32;a:3:{i:0;s:6:"plugin";i:1;a:4:{i:0;s:9:"code_code";i:1;a:4:{i:0;s:4:"code";i:1;N;i:2;s:0:"";i:3;s:196:"/opt/zimbra/postfix/sbin/postqueue -p | egrep -v '^ *\(|-Queue ID-' \
| awk 'BEGIN { RS = "" } { if ($7 == "email@domain.com") print $1} ' \
| tr -d '*!' | /opt/zimbra/postfix/sbin/postsuper -d -
";}i:2;i:3;i:3;s:197:">/opt/zimbra/postfix/sbin/postqueue -p | egrep -v '^ *\(|-Queue ID-' \
| awk 'BEGIN { RS = "" } { if ($7 == "email@domain.com") print $1} ' \
| tr -d '*!' | /opt/zimbra/postfix/sbin/postsuper -d -
";}i:2;i:506;}i:33;a:3:{i:0;s:7:"p_close";i:1;a:0:{}i:2;i:710;}i:34;a:3:{i:0;s:13:"section_close";i:1;a:0:{}i:2;i:712;}i:35;a:3:{i:0;s:6:"header";i:1;a:3:{i:0;s:0:"";i:1;i:1;i:2;i:712;}i:2;i:712;}i:36;a:3:{i:0;s:12:"section_open";i:1;a:1:{i:0;i:1;}i:2;i:712;}i:37;a:3:{i:0;s:13:"section_close";i:1;a:0:{}i:2;i:732;}i:38;a:3:{i:0;s:12:"document_end";i:1;a:0:{}i:2;i:732;}}