a:13:{i:0;a:3:{i:0;s:14:"document_start";i:1;a:0:{}i:2;i:0;}i:1;a:3:{i:0;s:6:"p_open";i:1;a:0:{}i:2;i:0;}i:2;a:3:{i:0;s:5:"cdata";i:1;a:1:{i:0;s:67:"First create the domain with the number of mailbox limit specified:";}i:2;i:1;}i:3;a:3:{i:0;s:7:"p_close";i:1;a:0:{}i:2;i:68;}i:4;a:3:{i:0;s:6:"p_open";i:1;a:0:{}i:2;i:68;}i:5;a:3:{i:0;s:6:"plugin";i:1;a:4:{i:0;s:9:"code_code";i:1;a:4:{i:0;s:4:"code";i:1;N;i:2;s:0:"";i:3;s:80:"
su - zimbra
zmprov cd <domain.com> zimbraDomainMaxAccounts <Max_users_allowed>
";}i:2;i:3;i:3;s:81:">
su - zimbra
zmprov cd <domain.com> zimbraDomainMaxAccounts <Max_users_allowed>
";}i:2;i:75;}i:6;a:3:{i:0;s:7:"p_close";i:1;a:0:{}i:2;i:163;}i:7;a:3:{i:0;s:6:"p_open";i:1;a:0:{}i:2;i:163;}i:8;a:3:{i:0;s:5:"cdata";i:1;a:1:{i:0;s:38:"Then create the Domain Administrator:
";}i:2;i:166;}i:9;a:3:{i:0;s:6:"plugin";i:1;a:4:{i:0;s:9:"code_code";i:1;a:4:{i:0;s:4:"code";i:1;N;i:2;s:0:"";i:3;s:692:"
zmprov ca xyz@domain.com <password>
zmprov ma xyz@domain.com +zimbraAdminConsoleUIComponents accountListView
zmprov ma xyz@domain.com zimbraIsDelegatedAdminAccount TRUE
zmprov grr domain domain.com usr xyz@domain.com +deleteAccount
zmprov grr domain domain.com usr xyz@domain.com +listAccount
zmprov grr domain domain.com usr xyz@domain.com +renameAccount
zmprov grr domain domain.com usr xyz@domain.com +setAccountPassword
zmprov grr domain domain.com usr xyz@domain.com createAccount
zmprov grr domain domain.com usr xyz@domain.com listDomain
zmprov grr domain domain.com usr xyz@domain.com set.account.zimbraAccountStatus
zmprov grr domain domain.com usr xyz@domain.com domainAdminRights
";}i:2;i:3;i:3;s:693:">
zmprov ca xyz@domain.com <password>
zmprov ma xyz@domain.com +zimbraAdminConsoleUIComponents accountListView
zmprov ma xyz@domain.com zimbraIsDelegatedAdminAccount TRUE
zmprov grr domain domain.com usr xyz@domain.com +deleteAccount
zmprov grr domain domain.com usr xyz@domain.com +listAccount
zmprov grr domain domain.com usr xyz@domain.com +renameAccount
zmprov grr domain domain.com usr xyz@domain.com +setAccountPassword
zmprov grr domain domain.com usr xyz@domain.com createAccount
zmprov grr domain domain.com usr xyz@domain.com listDomain
zmprov grr domain domain.com usr xyz@domain.com set.account.zimbraAccountStatus
zmprov grr domain domain.com usr xyz@domain.com domainAdminRights
";}i:2;i:209;}i:10;a:3:{i:0;s:5:"cdata";i:1;a:1:{i:0;s:0:"";}i:2;i:909;}i:11;a:3:{i:0;s:7:"p_close";i:1;a:0:{}i:2;i:909;}i:12;a:3:{i:0;s:12:"document_end";i:1;a:0:{}i:2;i:909;}}