a:14:{i:0;a:3:{i:0;s:14:"document_start";i:1;a:0:{}i:2;i:0;}i:1;a:3:{i:0;s:6:"p_open";i:1;a:0:{}i:2;i:0;}i:2;a:3:{i:0;s:5:"cdata";i:1;a:1:{i:0;s:58:"The Alter Database command to make the database online is:";}i:2;i:1;}i:3;a:3:{i:0;s:7:"p_close";i:1;a:0:{}i:2;i:59;}i:4;a:3:{i:0;s:6:"p_open";i:1;a:0:{}i:2;i:59;}i:5;a:3:{i:0;s:6:"plugin";i:1;a:4:{i:0;s:9:"code_code";i:1;a:4:{i:0;s:4:"code";i:1;N;i:2;s:0:"";i:3;s:64:"USE [master]
GO

ALTER DATABASE [DB_123_database] SET ONLINE
GO
";}i:2;i:3;i:3;s:65:">USE [master]
GO

ALTER DATABASE [DB_123_database] SET ONLINE
GO
";}i:2;i:66;}i:6;a:3:{i:0;s:7:"p_close";i:1;a:0:{}i:2;i:138;}i:7;a:3:{i:0;s:6:"p_open";i:1;a:0:{}i:2;i:138;}i:8;a:3:{i:0;s:5:"cdata";i:1;a:1:{i:0;s:59:"The Alter Database command to make the database offline is:";}i:2;i:140;}i:9;a:3:{i:0;s:7:"p_close";i:1;a:0:{}i:2;i:199;}i:10;a:3:{i:0;s:6:"p_open";i:1;a:0:{}i:2;i:199;}i:11;a:3:{i:0;s:6:"plugin";i:1;a:4:{i:0;s:9:"code_code";i:1;a:4:{i:0;s:4:"code";i:1;N;i:2;s:0:"";i:3;s:65:"USE [master]
GO

ALTER DATABASE [DB_123_database] SET OFFLINE
GO
";}i:2;i:3;i:3;s:66:">USE [master]
GO

ALTER DATABASE [DB_123_database] SET OFFLINE
GO
";}i:2;i:206;}i:12;a:3:{i:0;s:7:"p_close";i:1;a:0:{}i:2;i:279;}i:13;a:3:{i:0;s:12:"document_end";i:1;a:0:{}i:2;i:279;}}