a:92:{i:0;a:3:{i:0;s:14:"document_start";i:1;a:0:{}i:2;i:0;}i:1;a:3:{i:0;s:6:"p_open";i:1;a:0:{}i:2;i:0;}i:2;a:3:{i:0;s:5:"cdata";i:1;a:1:{i:0;s:16:"Open PolicD Web ";}i:2;i:1;}i:3;a:3:{i:0;s:7:"acronym";i:1;a:1:{i:0;s:3:"GUI";}i:2;i:17;}i:4;a:3:{i:0;s:5:"cdata";i:1;a:1:{i:0;s:2:". ";}i:2;i:20;}i:5;a:3:{i:0;s:9:"linebreak";i:1;a:0:{}i:2;i:22;}i:6;a:3:{i:0;s:5:"cdata";i:1;a:1:{i:0;s:1:"
";}i:2;i:24;}i:7;a:3:{i:0;s:6:"plugin";i:1;a:4:{i:0;s:9:"code_code";i:1;a:4:{i:0;s:4:"code";i:1;N;i:2;s:0:"";i:3;s:33:"
http://IP:7780/webui/index.php 
";}i:2;i:3;i:3;s:34:">
http://IP:7780/webui/index.php 
";}i:2;i:30;}i:8;a:3:{i:0;s:7:"p_close";i:1;a:0:{}i:2;i:71;}i:9;a:3:{i:0;s:6:"p_open";i:1;a:0:{}i:2;i:71;}i:10;a:3:{i:0;s:5:"cdata";i:1;a:1:{i:0;s:15:"Go to Policies ";}i:2;i:73;}i:11;a:3:{i:0;s:6:"entity";i:1;a:1:{i:0;s:2:"--";}i:2;i:88;}i:12;a:3:{i:0;s:5:"cdata";i:1;a:1:{i:0;s:8:"> Group ";}i:2;i:90;}i:13;a:3:{i:0;s:6:"entity";i:1;a:1:{i:0;s:2:"--";}i:2;i:98;}i:14;a:3:{i:0;s:5:"cdata";i:1;a:1:{i:0;s:16:"> Select Action ";}i:2;i:100;}i:15;a:3:{i:0;s:6:"entity";i:1;a:1:{i:0;s:2:"->";}i:2;i:116;}i:16;a:3:{i:0;s:5:"cdata";i:1;a:1:{i:0;s:5:" Add ";}i:2;i:118;}i:17;a:3:{i:0;s:9:"linebreak";i:1;a:0:{}i:2;i:123;}i:18;a:3:{i:0;s:5:"cdata";i:1;a:1:{i:0;s:1:"
";}i:2;i:125;}i:19;a:3:{i:0;s:9:"linebreak";i:1;a:0:{}i:2;i:126;}i:20;a:3:{i:0;s:5:"cdata";i:1;a:1:{i:0;s:36:"
Name: New_Group      
Disabled: No ";}i:2;i:128;}i:21;a:3:{i:0;s:9:"linebreak";i:1;a:0:{}i:2;i:164;}i:22;a:3:{i:0;s:5:"cdata";i:1;a:1:{i:0;s:23:"
#Name can be anything ";}i:2;i:166;}i:23;a:3:{i:0;s:9:"linebreak";i:1;a:0:{}i:2;i:189;}i:24;a:3:{i:0;s:5:"cdata";i:1;a:1:{i:0;s:1:"
";}i:2;i:191;}i:25;a:3:{i:0;s:9:"linebreak";i:1;a:0:{}i:2;i:192;}i:26;a:3:{i:0;s:5:"cdata";i:1;a:1:{i:0;s:10:"
Policies ";}i:2;i:194;}i:27;a:3:{i:0;s:6:"entity";i:1;a:1:{i:0;s:2:"--";}i:2;i:204;}i:28;a:3:{i:0;s:5:"cdata";i:1;a:1:{i:0;s:8:"> Group ";}i:2;i:206;}i:29;a:3:{i:0;s:6:"entity";i:1;a:1:{i:0;s:2:"--";}i:2;i:214;}i:30;a:3:{i:0;s:5:"cdata";i:1;a:1:{i:0;s:49:"> Select group you have created with above step. ";}i:2;i:216;}i:31;a:3:{i:0;s:6:"entity";i:1;a:1:{i:0;s:2:"--";}i:2;i:265;}i:32;a:3:{i:0;s:5:"cdata";i:1;a:1:{i:0;s:16:"> Select Action ";}i:2;i:267;}i:33;a:3:{i:0;s:6:"entity";i:1;a:1:{i:0;s:2:"--";}i:2;i:283;}i:34;a:3:{i:0;s:5:"cdata";i:1;a:1:{i:0;s:10:"> Members ";}i:2;i:285;}i:35;a:3:{i:0;s:9:"linebreak";i:1;a:0:{}i:2;i:295;}i:36;a:3:{i:0;s:5:"cdata";i:1;a:1:{i:0;s:18:"
Add your members ";}i:2;i:297;}i:37;a:3:{i:0;s:9:"linebreak";i:1;a:0:{}i:2;i:315;}i:38;a:3:{i:0;s:5:"cdata";i:1;a:1:{i:0;s:1:"
";}i:2;i:317;}i:39;a:3:{i:0;s:6:"plugin";i:1;a:4:{i:0;s:9:"code_code";i:1;a:4:{i:0;s:4:"code";i:1;N;i:2;s:0:"";i:3;s:118:"
Member Name:                 
user2@mohit1.mantragrid.com 
user3@mohit1.mantragrid.com 
user4@mohit1.mantragrid.com 
";}i:2;i:3;i:3;s:119:">
Member Name:                 
user2@mohit1.mantragrid.com 
user3@mohit1.mantragrid.com 
user4@mohit1.mantragrid.com 
";}i:2;i:323;}i:40;a:3:{i:0;s:5:"cdata";i:1;a:1:{i:0;s:56:"
#Member Name: it can be anything according to the need.";}i:2;i:449;}i:41;a:3:{i:0;s:9:"linebreak";i:1;a:0:{}i:2;i:505;}i:42;a:3:{i:0;s:5:"cdata";i:1;a:1:{i:0;s:15:"
#Disabled = no";}i:2;i:507;}i:43;a:3:{i:0;s:9:"linebreak";i:1;a:0:{}i:2;i:522;}i:44;a:3:{i:0;s:7:"p_close";i:1;a:0:{}i:2;i:524;}i:45;a:3:{i:0;s:6:"p_open";i:1;a:0:{}i:2;i:524;}i:46;a:3:{i:0;s:5:"cdata";i:1;a:1:{i:0;s:21:"Navigate to Policies ";}i:2;i:526;}i:47;a:3:{i:0;s:6:"entity";i:1;a:1:{i:0;s:2:"--";}i:2;i:547;}i:48;a:3:{i:0;s:5:"cdata";i:1;a:1:{i:0;s:7:"> Main ";}i:2;i:549;}i:49;a:3:{i:0;s:9:"linebreak";i:1;a:0:{}i:2;i:556;}i:50;a:3:{i:0;s:5:"cdata";i:1;a:1:{i:0;s:1:"
";}i:2;i:558;}i:51;a:3:{i:0;s:6:"plugin";i:1;a:4:{i:0;s:9:"code_code";i:1;a:4:{i:0;s:4:"code";i:1;N;i:2;s:0:"";i:3;s:78:"
Name: new_grp	 
Priorities: 10 
Description: new group policy 
Disabled: no 
";}i:2;i:3;i:3;s:79:">
Name: new_grp	 
Priorities: 10 
Description: new group policy 
Disabled: no 
";}i:2;i:564;}i:52;a:3:{i:0;s:5:"cdata";i:1;a:1:{i:0;s:37:"
#Name of the policy can be anything ";}i:2;i:650;}i:53;a:3:{i:0;s:9:"linebreak";i:1;a:0:{}i:2;i:687;}i:54;a:3:{i:0;s:5:"cdata";i:1;a:1:{i:0;s:55:"
#Description can be anything but should not be blank. ";}i:2;i:689;}i:55;a:3:{i:0;s:9:"linebreak";i:1;a:0:{}i:2;i:744;}i:56;a:3:{i:0;s:5:"cdata";i:1;a:1:{i:0;s:33:"
#Priority 0 Highest 100 Lowest. ";}i:2;i:746;}i:57;a:3:{i:0;s:9:"linebreak";i:1;a:0:{}i:2;i:779;}i:58;a:3:{i:0;s:5:"cdata";i:1;a:1:{i:0;s:16:"
#Disabled = No ";}i:2;i:781;}i:59;a:3:{i:0;s:9:"linebreak";i:1;a:0:{}i:2;i:797;}i:60;a:3:{i:0;s:7:"p_close";i:1;a:0:{}i:2;i:799;}i:61;a:3:{i:0;s:6:"p_open";i:1;a:0:{}i:2;i:799;}i:62;a:3:{i:0;s:5:"cdata";i:1;a:1:{i:0;s:7:"Quotas ";}i:2;i:801;}i:63;a:3:{i:0;s:6:"entity";i:1;a:1:{i:0;s:2:"--";}i:2;i:808;}i:64;a:3:{i:0;s:5:"cdata";i:1;a:1:{i:0;s:12:"> Configure ";}i:2;i:810;}i:65;a:3:{i:0;s:6:"entity";i:1;a:1:{i:0;s:2:"--";}i:2;i:822;}i:66;a:3:{i:0;s:5:"cdata";i:1;a:1:{i:0;s:16:"> Select action ";}i:2;i:824;}i:67;a:3:{i:0;s:6:"entity";i:1;a:1:{i:0;s:2:"--";}i:2;i:840;}i:68;a:3:{i:0;s:5:"cdata";i:1;a:1:{i:0;s:7:"> add  ";}i:2;i:842;}i:69;a:3:{i:0;s:9:"linebreak";i:1;a:0:{}i:2;i:849;}i:70;a:3:{i:0;s:5:"cdata";i:1;a:1:{i:0;s:1:"
";}i:2;i:851;}i:71;a:3:{i:0;s:6:"plugin";i:1;a:4:{i:0;s:9:"code_code";i:1;a:4:{i:0;s:4:"code";i:1;N;i:2;s:0:"";i:3;s:153:"
Name:     Policy Name:      Track           Time Period     Verdict   Data    Disabled 
new_grp	new_grp_policy	Sender:user@domain	3600	    REJECT	0	no 
";}i:2;i:3;i:3;s:154:">
Name:     Policy Name:      Track           Time Period     Verdict   Data    Disabled 
new_grp	new_grp_policy	Sender:user@domain	3600	    REJECT	0	no 
";}i:2;i:857;}i:72;a:3:{i:0;s:5:"cdata";i:1;a:1:{i:0;s:37:"
#Name of the policy can be anything ";}i:2;i:1018;}i:73;a:3:{i:0;s:9:"linebreak";i:1;a:0:{}i:2;i:1055;}i:74;a:3:{i:0;s:5:"cdata";i:1;a:1:{i:0;s:63:"
#Policy name should be same, you have created in above steps. ";}i:2;i:1057;}i:75;a:3:{i:0;s:9:"linebreak";i:1;a:0:{}i:2;i:1120;}i:76;a:3:{i:0;s:5:"cdata";i:1;a:1:{i:0;s:53:"
#Track should be where the mail check will counter. ";}i:2;i:1122;}i:77;a:3:{i:0;s:9:"linebreak";i:1;a:0:{}i:2;i:1175;}i:78;a:3:{i:0;s:7:"p_close";i:1;a:0:{}i:2;i:1177;}i:79;a:3:{i:0;s:6:"p_open";i:1;a:0:{}i:2;i:1177;}i:80;a:3:{i:0;s:5:"cdata";i:1;a:1:{i:0;s:7:"Quotas ";}i:2;i:1179;}i:81;a:3:{i:0;s:6:"entity";i:1;a:1:{i:0;s:2:"--";}i:2;i:1186;}i:82;a:3:{i:0;s:5:"cdata";i:1;a:1:{i:0;s:12:"> Configure ";}i:2;i:1188;}i:83;a:3:{i:0;s:6:"entity";i:1;a:1:{i:0;s:2:"--";}i:2;i:1200;}i:84;a:3:{i:0;s:5:"cdata";i:1;a:1:{i:0;s:16:"> Select Action ";}i:2;i:1202;}i:85;a:3:{i:0;s:6:"entity";i:1;a:1:{i:0;s:2:"--";}i:2;i:1218;}i:86;a:3:{i:0;s:5:"cdata";i:1;a:1:{i:0;s:9:"> Limits ";}i:2;i:1220;}i:87;a:3:{i:0;s:9:"linebreak";i:1;a:0:{}i:2;i:1229;}i:88;a:3:{i:0;s:5:"cdata";i:1;a:1:{i:0;s:1:"
";}i:2;i:1231;}i:89;a:3:{i:0;s:6:"plugin";i:1;a:4:{i:0;s:9:"code_code";i:1;a:4:{i:0;s:4:"code";i:1;N;i:2;s:0:"";i:3;s:68:"
Type	      Counter Limit	Disabled 
MessageCount	   4	          no 
";}i:2;i:3;i:3;s:69:">
Type	      Counter Limit	Disabled 
MessageCount	   4	          no 
";}i:2;i:1237;}i:90;a:3:{i:0;s:7:"p_close";i:1;a:0:{}i:2;i:1313;}i:91;a:3:{i:0;s:12:"document_end";i:1;a:0:{}i:2;i:1313;}}