a:134:{i:0;a:3:{i:0;s:14:"document_start";i:1;a:0:{}i:2;i:0;}i:1;a:3:{i:0;s:6:"header";i:1;a:3:{i:0;s:26:"Hardening Of Cpanel Server";i:1;i:1;i:2;i:1;}i:2;i:1;}i:2;a:3:{i:0;s:12:"section_open";i:1;a:1:{i:0;i:1;}i:2;i:1;}i:3;a:3:{i:0;s:6:"p_open";i:1;a:0:{}i:2;i:1;}i:4;a:3:{i:0;s:11:"strong_open";i:1;a:0:{}i:2;i:44;}i:5;a:3:{i:0;s:5:"cdata";i:1;a:1:{i:0;s:11:"1. In Home ";}i:2;i:46;}i:6;a:3:{i:0;s:6:"entity";i:1;a:1:{i:0;s:2:">>";}i:2;i:57;}i:7;a:3:{i:0;s:5:"cdata";i:1;a:1:{i:0;s:17:" Security Center:";}i:2;i:59;}i:8;a:3:{i:0;s:12:"strong_close";i:1;a:0:{}i:2;i:76;}i:9;a:3:{i:0;s:7:"p_close";i:1;a:0:{}i:2;i:78;}i:10;a:3:{i:0;s:6:"p_open";i:1;a:0:{}i:2;i:78;}i:11;a:3:{i:0;s:5:"cdata";i:1;a:1:{i:0;s:65:"- Password Strength Configuration - Set this value between 65-70.";}i:2;i:83;}i:12;a:3:{i:0;s:7:"p_close";i:1;a:0:{}i:2;i:148;}i:13;a:3:{i:0;s:6:"p_open";i:1;a:0:{}i:2;i:148;}i:14;a:3:{i:0;s:5:"cdata";i:1;a:1:{i:0;s:38:"- Shell Fork Bomb Protection - Enabled";}i:2;i:150;}i:15;a:3:{i:0;s:7:"p_close";i:1;a:0:{}i:2;i:188;}i:16;a:3:{i:0;s:6:"p_open";i:1;a:0:{}i:2;i:188;}i:17;a:3:{i:0;s:11:"strong_open";i:1;a:0:{}i:2;i:191;}i:18;a:3:{i:0;s:5:"cdata";i:1;a:1:{i:0;s:32:" 2. Install ClamAV from Plugins ";}i:2;i:193;}i:19;a:3:{i:0;s:12:"strong_close";i:1;a:0:{}i:2;i:225;}i:20;a:3:{i:0;s:7:"p_close";i:1;a:0:{}i:2;i:227;}i:21;a:3:{i:0;s:6:"p_open";i:1;a:0:{}i:2;i:227;}i:22;a:3:{i:0;s:5:"cdata";i:1;a:1:{i:0;s:74:" a. Set a cronjob to be run on each Saturday night with following command:";}i:2;i:229;}i:23;a:3:{i:0;s:7:"p_close";i:1;a:0:{}i:2;i:304;}i:24;a:3:{i:0;s:12:"preformatted";i:1;a:1:{i:0;s:168:"     "for i in `awk '!/nobody/{print $2 | "sort | uniq" }' /etc/userdomains | sort | uniq`; do /usr/bin/clamscan -i -r /home/$i 2>>/dev/null; done >> /root/infections&"";}i:2;i:304;}i:25;a:3:{i:0;s:6:"p_open";i:1;a:0:{}i:2;i:304;}i:26;a:3:{i:0;s:11:"strong_open";i:1;a:0:{}i:2;i:478;}i:27;a:3:{i:0;s:5:"cdata";i:1;a:1:{i:0;s:70:" 3. Disable these functions in PHP config: (Add this line in php.ini) ";}i:2;i:480;}i:28;a:3:{i:0;s:12:"strong_close";i:1;a:0:{}i:2;i:550;}i:29;a:3:{i:0;s:7:"p_close";i:1;a:0:{}i:2;i:552;}i:30;a:3:{i:0;s:6:"p_open";i:1;a:0:{}i:2;i:552;}i:31;a:3:{i:0;s:5:"cdata";i:1;a:1:{i:0;s:132:"- disable_functions = system, shell_exec, passthru, exec, popen, proc_open, show_source, escapeshellarg, escapeshellcmd, myshellexec";}i:2;i:554;}i:32;a:3:{i:0;s:7:"p_close";i:1;a:0:{}i:2;i:686;}i:33;a:3:{i:0;s:6:"p_open";i:1;a:0:{}i:2;i:686;}i:34;a:3:{i:0;s:11:"strong_open";i:1;a:0:{}i:2;i:688;}i:35;a:3:{i:0;s:5:"cdata";i:1;a:1:{i:0;s:4:" 4. ";}i:2;i:690;}i:36;a:3:{i:0;s:12:"internallink";i:1;a:2:{i:0;s:53:"cpanel_guide:munin_notifications_for_large_mail_queue";i:1;s:34:"Enable Munin alerts for mail queue";}i:2;i:694;}i:37;a:3:{i:0;s:5:"cdata";i:1;a:1:{i:0;s:2:". ";}i:2;i:786;}i:38;a:3:{i:0;s:12:"strong_close";i:1;a:0:{}i:2;i:788;}i:39;a:3:{i:0;s:7:"p_close";i:1;a:0:{}i:2;i:790;}i:40;a:3:{i:0;s:6:"p_open";i:1;a:0:{}i:2;i:790;}i:41;a:3:{i:0;s:11:"strong_open";i:1;a:0:{}i:2;i:792;}i:42;a:3:{i:0;s:5:"cdata";i:1;a:1:{i:0;s:15:" 5. Go to Home ";}i:2;i:794;}i:43;a:3:{i:0;s:6:"entity";i:1;a:1:{i:0;s:2:">>";}i:2;i:809;}i:44;a:3:{i:0;s:5:"cdata";i:1;a:1:{i:0;s:14:" SQL Services ";}i:2;i:811;}i:45;a:3:{i:0;s:6:"entity";i:1;a:1:{i:0;s:2:">>";}i:2;i:825;}i:46;a:3:{i:0;s:5:"cdata";i:1;a:1:{i:0;s:21:" MySQL Root Password ";}i:2;i:827;}i:47;a:3:{i:0;s:12:"strong_close";i:1;a:0:{}i:2;i:848;}i:48;a:3:{i:0;s:7:"p_close";i:1;a:0:{}i:2;i:850;}i:49;a:3:{i:0;s:6:"p_open";i:1;a:0:{}i:2;i:850;}i:50;a:3:{i:0;s:5:"cdata";i:1;a:1:{i:0;s:78:"- Set MySQL password (Don’t set the same password like for the root access).";}i:2;i:852;}i:51;a:3:{i:0;s:7:"p_close";i:1;a:0:{}i:2;i:930;}i:52;a:3:{i:0;s:6:"p_open";i:1;a:0:{}i:2;i:930;}i:53;a:3:{i:0;s:11:"strong_open";i:1;a:0:{}i:2;i:932;}i:54;a:3:{i:0;s:5:"cdata";i:1;a:1:{i:0;s:46:" 6. Disable these functions in Apache config: ";}i:2;i:934;}i:55;a:3:{i:0;s:12:"strong_close";i:1;a:0:{}i:2;i:980;}i:56;a:3:{i:0;s:7:"p_close";i:1;a:0:{}i:2;i:982;}i:57;a:3:{i:0;s:6:"p_open";i:1;a:0:{}i:2;i:982;}i:58;a:3:{i:0;s:5:"cdata";i:1;a:1:{i:0;s:36:"- Apache server signature turned off";}i:2;i:984;}i:59;a:3:{i:0;s:7:"p_close";i:1;a:0:{}i:2;i:1020;}i:60;a:3:{i:0;s:6:"p_open";i:1;a:0:{}i:2;i:1020;}i:61;a:3:{i:0;s:5:"cdata";i:1;a:1:{i:0;s:28:"- Disabled Directory Listing";}i:2;i:1022;}i:62;a:3:{i:0;s:7:"p_close";i:1;a:0:{}i:2;i:1051;}i:63;a:3:{i:0;s:12:"preformatted";i:1;a:1:{i:0;s:216:"  Log into WHM
  Service Configuration --> Apache Configuration
  Global Configuration
  Scroll down to Directory '/' Options
  Untick Indexes option
  Then save and Finally, rebuild by clicking rebuild apache conf
 ";}i:2;i:1051;}i:64;a:3:{i:0;s:6:"p_open";i:1;a:0:{}i:2;i:1051;}i:65;a:3:{i:0;s:11:"strong_open";i:1;a:0:{}i:2;i:1284;}i:66;a:3:{i:0;s:5:"cdata";i:1;a:1:{i:0;s:9:" 7. Home ";}i:2;i:1286;}i:67;a:3:{i:0;s:6:"entity";i:1;a:1:{i:0;s:2:">>";}i:2;i:1295;}i:68;a:3:{i:0;s:5:"cdata";i:1;a:1:{i:0;s:23:" Service Configuration ";}i:2;i:1297;}i:69;a:3:{i:0;s:6:"entity";i:1;a:1:{i:0;s:2:">>";}i:2;i:1320;}i:70;a:3:{i:0;s:7:"acronym";i:1;a:1:{i:0;s:3:"FTP";}i:2;i:1322;}i:71;a:3:{i:0;s:5:"cdata";i:1;a:1:{i:0;s:22:" Server Configuration ";}i:2;i:1325;}i:72;a:3:{i:0;s:12:"strong_close";i:1;a:0:{}i:2;i:1347;}i:73;a:3:{i:0;s:7:"p_close";i:1;a:0:{}i:2;i:1349;}i:74;a:3:{i:0;s:6:"p_open";i:1;a:0:{}i:2;i:1349;}i:75;a:3:{i:0;s:5:"cdata";i:1;a:1:{i:0;s:29:"- Allow Anonymous Logins - NO";}i:2;i:1351;}i:76;a:3:{i:0;s:7:"p_close";i:1;a:0:{}i:2;i:1380;}i:77;a:3:{i:0;s:6:"p_open";i:1;a:0:{}i:2;i:1380;}i:78;a:3:{i:0;s:5:"cdata";i:1;a:1:{i:0;s:30:"- Allow Anonymous Uploads - NO";}i:2;i:1382;}i:79;a:3:{i:0;s:7:"p_close";i:1;a:0:{}i:2;i:1412;}i:80;a:3:{i:0;s:6:"p_open";i:1;a:0:{}i:2;i:1412;}i:81;a:3:{i:0;s:11:"strong_open";i:1;a:0:{}i:2;i:1415;}i:82;a:3:{i:0;s:5:"cdata";i:1;a:1:{i:0;s:43:" 8. Change following in PHP configuration. ";}i:2;i:1417;}i:83;a:3:{i:0;s:12:"strong_close";i:1;a:0:{}i:2;i:1460;}i:84;a:3:{i:0;s:7:"p_close";i:1;a:0:{}i:2;i:1462;}i:85;a:3:{i:0;s:6:"p_open";i:1;a:0:{}i:2;i:1462;}i:86;a:3:{i:0;s:5:"cdata";i:1;a:1:{i:0;s:31:"- Enable suEXEC – suEXEC = On";}i:2;i:1464;}i:87;a:3:{i:0;s:7:"p_close";i:1;a:0:{}i:2;i:1495;}i:88;a:3:{i:0;s:6:"p_open";i:1;a:0:{}i:2;i:1495;}i:89;a:3:{i:0;s:5:"cdata";i:1;a:1:{i:0;s:18:"- expose_php = Off";}i:2;i:1497;}i:90;a:3:{i:0;s:7:"p_close";i:1;a:0:{}i:2;i:1515;}i:91;a:3:{i:0;s:6:"p_open";i:1;a:0:{}i:2;i:1515;}i:92;a:3:{i:0;s:5:"cdata";i:1;a:1:{i:0;s:16:"- Enable_dl= Off";}i:2;i:1517;}i:93;a:3:{i:0;s:7:"p_close";i:1;a:0:{}i:2;i:1533;}i:94;a:3:{i:0;s:6:"p_open";i:1;a:0:{}i:2;i:1533;}i:95;a:3:{i:0;s:5:"cdata";i:1;a:1:{i:0;s:24:"- register_globals = off";}i:2;i:1535;}i:96;a:3:{i:0;s:7:"p_close";i:1;a:0:{}i:2;i:1559;}i:97;a:3:{i:0;s:6:"p_open";i:1;a:0:{}i:2;i:1559;}i:98;a:3:{i:0;s:5:"cdata";i:1;a:1:{i:0;s:22:"- display_errors = off";}i:2;i:1561;}i:99;a:3:{i:0;s:7:"p_close";i:1;a:0:{}i:2;i:1583;}i:100;a:3:{i:0;s:6:"p_open";i:1;a:0:{}i:2;i:1583;}i:101;a:3:{i:0;s:11:"strong_open";i:1;a:0:{}i:2;i:1587;}i:102;a:3:{i:0;s:5:"cdata";i:1;a:1:{i:0;s:51:" 9. Recommended Security Tweak Settings Checklists ";}i:2;i:1589;}i:103;a:3:{i:0;s:12:"strong_close";i:1;a:0:{}i:2;i:1640;}i:104;a:3:{i:0;s:7:"p_close";i:1;a:0:{}i:2;i:1642;}i:105;a:3:{i:0;s:6:"p_open";i:1;a:0:{}i:2;i:1642;}i:106;a:3:{i:0;s:5:"cdata";i:1;a:1:{i:0;s:32:"- Blank referrer safety check On";}i:2;i:1644;}i:107;a:3:{i:0;s:7:"p_close";i:1;a:0:{}i:2;i:1676;}i:108;a:3:{i:0;s:6:"p_open";i:1;a:0:{}i:2;i:1676;}i:109;a:3:{i:0;s:5:"cdata";i:1;a:1:{i:0;s:32:"- Enable HTTP Authentication Off";}i:2;i:1678;}i:110;a:3:{i:0;s:7:"p_close";i:1;a:0:{}i:2;i:1710;}i:111;a:3:{i:0;s:6:"p_open";i:1;a:0:{}i:2;i:1710;}i:112;a:3:{i:0;s:5:"cdata";i:1;a:1:{i:0;s:20:"- Security Tokens On";}i:2;i:1712;}i:113;a:3:{i:0;s:7:"p_close";i:1;a:0:{}i:2;i:1732;}i:114;a:3:{i:0;s:6:"p_open";i:1;a:0:{}i:2;i:1732;}i:115;a:3:{i:0;s:5:"cdata";i:1;a:1:{i:0;s:25:"- Cookie IP Validation On";}i:2;i:1734;}i:116;a:3:{i:0;s:7:"p_close";i:1;a:0:{}i:2;i:1759;}i:117;a:3:{i:0;s:6:"p_open";i:1;a:0:{}i:2;i:1759;}i:118;a:3:{i:0;s:5:"cdata";i:1;a:1:{i:0;s:30:"- Proxy Subdomain Creation Off";}i:2;i:1761;}i:119;a:3:{i:0;s:7:"p_close";i:1;a:0:{}i:2;i:1791;}i:120;a:3:{i:0;s:6:"p_open";i:1;a:0:{}i:2;i:1791;}i:121;a:3:{i:0;s:5:"cdata";i:1;a:1:{i:0;s:31:"- Block Common Domains Usage On";}i:2;i:1793;}i:122;a:3:{i:0;s:7:"p_close";i:1;a:0:{}i:2;i:1824;}i:123;a:3:{i:0;s:6:"p_open";i:1;a:0:{}i:2;i:1824;}i:124;a:3:{i:0;s:5:"cdata";i:1;a:1:{i:0;s:54:"- Initial default/catch-all forwarder destination Fail";}i:2;i:1826;}i:125;a:3:{i:0;s:7:"p_close";i:1;a:0:{}i:2;i:1880;}i:126;a:3:{i:0;s:6:"p_open";i:1;a:0:{}i:2;i:1880;}i:127;a:3:{i:0;s:5:"cdata";i:1;a:1:{i:0;s:40:"- Max hourly emails per domain (150 set)";}i:2;i:1882;}i:128;a:3:{i:0;s:7:"p_close";i:1;a:0:{}i:2;i:1922;}i:129;a:3:{i:0;s:6:"p_open";i:1;a:0:{}i:2;i:1922;}i:130;a:3:{i:0;s:5:"cdata";i:1;a:1:{i:0;s:36:"- Enable SpamAssassin spam filter On";}i:2;i:1924;}i:131;a:3:{i:0;s:7:"p_close";i:1;a:0:{}i:2;i:1960;}i:132;a:3:{i:0;s:13:"section_close";i:1;a:0:{}i:2;i:1963;}i:133;a:3:{i:0;s:12:"document_end";i:1;a:0:{}i:2;i:1963;}}