a:163:{i:0;a:3:{i:0;s:14:"document_start";i:1;a:0:{}i:2;i:0;}i:1;a:3:{i:0;s:6:"p_open";i:1;a:0:{}i:2;i:0;}i:2;a:3:{i:0;s:13:"emphasis_open";i:1;a:0:{}i:2;i:1;}i:3;a:3:{i:0;s:5:"cdata";i:1;a:1:{i:0;s:54:"Note : these rules are not only restricted to magento ";}i:2;i:3;}i:4;a:3:{i:0;s:14:"emphasis_close";i:1;a:0:{}i:2;i:57;}i:5;a:3:{i:0;s:5:"cdata";i:1;a:1:{i:0;s:1:" ";}i:2;i:59;}i:6;a:3:{i:0;s:9:"linebreak";i:1;a:0:{}i:2;i:60;}i:7;a:3:{i:0;s:5:"cdata";i:1;a:1:{i:0;s:1:"
";}i:2;i:62;}i:8;a:3:{i:0;s:11:"strong_open";i:1;a:0:{}i:2;i:63;}i:9;a:3:{i:0;s:5:"cdata";i:1;a:1:{i:0;s:42:"What is the requirement of rewrite rules? ";}i:2;i:65;}i:10;a:3:{i:0;s:12:"strong_close";i:1;a:0:{}i:2;i:107;}i:11;a:3:{i:0;s:5:"cdata";i:1;a:1:{i:0;s:1:" ";}i:2;i:109;}i:12;a:3:{i:0;s:9:"linebreak";i:1;a:0:{}i:2;i:110;}i:13;a:3:{i:0;s:5:"cdata";i:1;a:1:{i:0;s:85:"
You must have to know answer of above question before proceeding to use below rules.";}i:2;i:112;}i:14;a:3:{i:0;s:9:"linebreak";i:1;a:0:{}i:2;i:197;}i:15;a:3:{i:0;s:5:"cdata";i:1;a:1:{i:0;s:50:"
First and foremost requirement is, Nginx is like ";}i:2;i:199;}i:16;a:3:{i:0;s:18:"doublequoteopening";i:1;a:0:{}i:2;i:249;}i:17;a:3:{i:0;s:5:"cdata";i:1;a:1:{i:0;s:13:"Narendra Modi";}i:2;i:250;}i:18;a:3:{i:0;s:18:"doublequoteclosing";i:1;a:0:{}i:2;i:263;}i:19;a:3:{i:0;s:5:"cdata";i:1;a:1:{i:0;s:643:" kind of web server! Not having much technical abilities but he know how to get his tasks done as well as he can manage intensive/concurrent amount of work load, efficiently. We need to tell him that how he could be react when an alien type of request come to him. Means modify or break down a huge request string into smaller parts, identify it and then passes it to another relevant element which is expertise in handling certain type of alien requests. So that it could simplifies that request and translate it into language which nginx understand and pass it back to nginx and later information generate is passes on to original requester.";}i:2;i:264;}i:20;a:3:{i:0;s:7:"p_close";i:1;a:0:{}i:2;i:907;}i:21;a:3:{i:0;s:6:"p_open";i:1;a:0:{}i:2;i:907;}i:22;a:3:{i:0;s:5:"cdata";i:1;a:1:{i:0;s:14:"# First block ";}i:2;i:909;}i:23;a:3:{i:0;s:18:"doublequoteopening";i:1;a:0:{}i:2;i:923;}i:24;a:3:{i:0;s:5:"cdata";i:1;a:1:{i:0;s:1:"/";}i:2;i:924;}i:25;a:3:{i:0;s:18:"doublequoteopening";i:1;a:0:{}i:2;i:925;}i:26;a:3:{i:0;s:9:"linebreak";i:1;a:0:{}i:2;i:926;}i:27;a:3:{i:0;s:5:"cdata";i:1;a:1:{i:0;s:37:"
A url can be broken into two parts :";}i:2;i:928;}i:28;a:3:{i:0;s:9:"linebreak";i:1;a:0:{}i:2;i:965;}i:29;a:3:{i:0;s:5:"cdata";i:1;a:1:{i:0;s:19:"
1. Base url. like ";}i:2;i:967;}i:30;a:3:{i:0;s:12:"externallink";i:1;a:2:{i:0;s:17:"http://domain.com";i:1;s:17:"http://domain.com";}i:2;i:986;}i:31;a:3:{i:0;s:9:"linebreak";i:1;a:0:{}i:2;i:1025;}i:32;a:3:{i:0;s:5:"cdata";i:1;a:1:{i:0;s:83:"
2. Request string, which concatenates after base url. like [Base Url]/$request_uri";}i:2;i:1027;}i:33;a:3:{i:0;s:7:"p_close";i:1;a:0:{}i:2;i:1110;}i:34;a:3:{i:0;s:6:"p_open";i:1;a:0:{}i:2;i:1110;}i:35;a:3:{i:0;s:13:"emphasis_open";i:1;a:0:{}i:2;i:1112;}i:36;a:3:{i:0;s:14:"underline_open";i:1;a:0:{}i:2;i:1114;}i:37;a:3:{i:0;s:18:"doublequoteopening";i:1;a:0:{}i:2;i:1116;}i:38;a:3:{i:0;s:5:"cdata";i:1;a:1:{i:0;s:23:"location /_ckgedit_QUOT";}i:2;i:1117;}i:39;a:3:{i:0;s:15:"underline_close";i:1;a:0:{}i:2;i:1140;}i:40;a:3:{i:0;s:5:"cdata";i:1;a:1:{i:0;s:1:"_";}i:2;i:1142;}i:41;a:3:{i:0;s:14:"emphasis_close";i:1;a:0:{}i:2;i:1143;}i:42;a:3:{i:0;s:5:"cdata";i:1;a:1:{i:0;s:131:" represent top level location in file system hierarchy of a web site data files. Which we call Document_Root in technical language.";}i:2;i:1145;}i:43;a:3:{i:0;s:9:"linebreak";i:1;a:0:{}i:2;i:1276;}i:44;a:3:{i:0;s:5:"cdata";i:1;a:1:{i:0;s:1:"
";}i:2;i:1278;}i:45;a:3:{i:0;s:13:"emphasis_open";i:1;a:0:{}i:2;i:1279;}i:46;a:3:{i:0;s:14:"underline_open";i:1;a:0:{}i:2;i:1281;}i:47;a:3:{i:0;s:18:"doublequoteopening";i:1;a:0:{}i:2;i:1283;}i:48;a:3:{i:0;s:5:"cdata";i:1;a:1:{i:0;s:29:"index [filename]_ckgedit_QUOT";}i:2;i:1284;}i:49;a:3:{i:0;s:15:"underline_close";i:1;a:0:{}i:2;i:1313;}i:50;a:3:{i:0;s:5:"cdata";i:1;a:1:{i:0;s:1:"_";}i:2;i:1315;}i:51;a:3:{i:0;s:14:"emphasis_close";i:1;a:0:{}i:2;i:1316;}i:52;a:3:{i:0;s:5:"cdata";i:1;a:1:{i:0;s:252:" this filename represents a bootstrap file. It task is to initiate any kind of task that needs to be accomplished by website code. Multiple filenames represents priority of bootstrap files which need to be access when file higher in priority not found.";}i:2;i:1318;}i:53;a:3:{i:0;s:9:"linebreak";i:1;a:0:{}i:2;i:1570;}i:54;a:3:{i:0;s:5:"cdata";i:1;a:1:{i:0;s:1:"
";}i:2;i:1572;}i:55;a:3:{i:0;s:13:"emphasis_open";i:1;a:0:{}i:2;i:1573;}i:56;a:3:{i:0;s:14:"underline_open";i:1;a:0:{}i:2;i:1575;}i:57;a:3:{i:0;s:18:"doublequoteopening";i:1;a:0:{}i:2;i:1577;}i:58;a:3:{i:0;s:5:"cdata";i:1;a:1:{i:0;s:22:"try_files_ckgedit_QUOT";}i:2;i:1578;}i:59;a:3:{i:0;s:15:"underline_close";i:1;a:0:{}i:2;i:1600;}i:60;a:3:{i:0;s:5:"cdata";i:1;a:1:{i:0;s:1:"_";}i:2;i:1602;}i:61;a:3:{i:0;s:14:"emphasis_close";i:1;a:0:{}i:2;i:1603;}i:62;a:3:{i:0;s:5:"cdata";i:1;a:1:{i:0;s:186:" is a flag or a switch that will try to broken down or simplify request_uri then again try to parse it from beginning of rewrite rules. when nothing works it will passes that request to ";}i:2;i:1605;}i:63;a:3:{i:0;s:14:"underline_open";i:1;a:0:{}i:2;i:1791;}i:64;a:3:{i:0;s:13:"emphasis_open";i:1;a:0:{}i:2;i:1793;}i:65;a:3:{i:0;s:18:"doublequoteopening";i:1;a:0:{}i:2;i:1795;}i:66;a:3:{i:0;s:5:"cdata";i:1;a:1:{i:0;s:7:"handler";}i:2;i:1796;}i:67;a:3:{i:0;s:18:"doublequoteclosing";i:1;a:0:{}i:2;i:1803;}i:68;a:3:{i:0;s:14:"emphasis_close";i:1;a:0:{}i:2;i:1804;}i:69;a:3:{i:0;s:15:"underline_close";i:1;a:0:{}i:2;i:1806;}i:70;a:3:{i:0;s:7:"p_close";i:1;a:0:{}i:2;i:1808;}i:71;a:3:{i:0;s:6:"p_open";i:1;a:0:{}i:2;i:1808;}i:72;a:3:{i:0;s:14:"monospace_open";i:1;a:0:{}i:2;i:1810;}i:73;a:3:{i:0;s:5:"cdata";i:1;a:1:{i:0;s:12:"location / {";}i:2;i:1812;}i:74;a:3:{i:0;s:9:"linebreak";i:1;a:0:{}i:2;i:1824;}i:75;a:3:{i:0;s:5:"cdata";i:1;a:1:{i:0;s:38:"
index index.php index.htm index.html;";}i:2;i:1826;}i:76;a:3:{i:0;s:9:"linebreak";i:1;a:0:{}i:2;i:1864;}i:77;a:3:{i:0;s:5:"cdata";i:1;a:1:{i:0;s:31:"
try_files $uri $uri/ @handler;";}i:2;i:1866;}i:78;a:3:{i:0;s:9:"linebreak";i:1;a:0:{}i:2;i:1897;}i:79;a:3:{i:0;s:5:"cdata";i:1;a:1:{i:0;s:3:"
} ";}i:2;i:1899;}i:80;a:3:{i:0;s:15:"monospace_close";i:1;a:0:{}i:2;i:1902;}i:81;a:3:{i:0;s:7:"p_close";i:1;a:0:{}i:2;i:1904;}i:82;a:3:{i:0;s:6:"p_open";i:1;a:0:{}i:2;i:1904;}i:83;a:3:{i:0;s:5:"cdata";i:1;a:1:{i:0;s:2:"# ";}i:2;i:1906;}i:84;a:3:{i:0;s:11:"strong_open";i:1;a:0:{}i:2;i:1908;}i:85;a:3:{i:0;s:5:"cdata";i:1;a:1:{i:0;s:7:"handler";}i:2;i:1910;}i:86;a:3:{i:0;s:12:"strong_close";i:1;a:0:{}i:2;i:1917;}i:87;a:3:{i:0;s:5:"cdata";i:1;a:1:{i:0;s:11:" block \\r ";}i:2;i:1919;}i:88;a:3:{i:0;s:13:"emphasis_open";i:1;a:0:{}i:2;i:1930;}i:89;a:3:{i:0;s:14:"underline_open";i:1;a:0:{}i:2;i:1932;}i:90;a:3:{i:0;s:18:"doublequoteopening";i:1;a:0:{}i:2;i:1934;}i:91;a:3:{i:0;s:5:"cdata";i:1;a:1:{i:0;s:24:"Mr. handler_ckgedit_QUOT";}i:2;i:1935;}i:92;a:3:{i:0;s:15:"underline_close";i:1;a:0:{}i:2;i:1959;}i:93;a:3:{i:0;s:5:"cdata";i:1;a:1:{i:0;s:1:"_";}i:2;i:1961;}i:94;a:3:{i:0;s:14:"emphasis_close";i:1;a:0:{}i:2;i:1962;}i:95;a:3:{i:0;s:5:"cdata";i:1;a:1:{i:0;s:7:" he is ";}i:2;i:1964;}i:96;a:3:{i:0;s:18:"doublequoteopening";i:1;a:0:{}i:2;i:1971;}i:97;a:3:{i:0;s:5:"cdata";i:1;a:1:{i:0;s:13:"Sarkari Babbu";}i:2;i:1972;}i:98;a:3:{i:0;s:18:"doublequoteclosing";i:1;a:0:{}i:2;i:1985;}i:99;a:3:{i:0;s:5:"cdata";i:1;a:1:{i:0;s:148:" type of person from reservation quota. He only knows that what ever comes to him must be rewritten and passed on to bootstrap file as an argument. ";}i:2;i:1986;}i:100;a:3:{i:0;s:13:"emphasis_open";i:1;a:0:{}i:2;i:2134;}i:101;a:3:{i:0;s:5:"cdata";i:1;a:1:{i:0;s:2:"!!";}i:2;i:2136;}i:102;a:3:{i:0;s:14:"underline_open";i:1;a:0:{}i:2;i:2138;}i:103;a:3:{i:0;s:5:"cdata";i:1;a:1:{i:0;s:43:"Aage wo jane aur uska kaam jane I dont care";}i:2;i:2140;}i:104;a:3:{i:0;s:15:"underline_close";i:1;a:0:{}i:2;i:2183;}i:105;a:3:{i:0;s:5:"cdata";i:1;a:1:{i:0;s:2:"!!";}i:2;i:2185;}i:106;a:3:{i:0;s:14:"emphasis_close";i:1;a:0:{}i:2;i:2187;}i:107;a:3:{i:0;s:5:"cdata";i:1;a:1:{i:0;s:1:" ";}i:2;i:2189;}i:108;a:3:{i:0;s:9:"linebreak";i:1;a:0:{}i:2;i:2190;}i:109;a:3:{i:0;s:5:"cdata";i:1;a:1:{i:0;s:1:"
";}i:2;i:2192;}i:110;a:3:{i:0;s:14:"monospace_open";i:1;a:0:{}i:2;i:2193;}i:111;a:3:{i:0;s:5:"cdata";i:1;a:1:{i:0;s:19:"location @handler {";}i:2;i:2195;}i:112;a:3:{i:0;s:9:"linebreak";i:1;a:0:{}i:2;i:2214;}i:113;a:3:{i:0;s:5:"cdata";i:1;a:1:{i:0;s:23:"
#rewrite / /index.php;";}i:2;i:2216;}i:114;a:3:{i:0;s:9:"linebreak";i:1;a:0:{}i:2;i:2239;}i:115;a:3:{i:0;s:5:"cdata";i:1;a:1:{i:0;s:28:"
rewrite / /index.php?$args;";}i:2;i:2241;}i:116;a:3:{i:0;s:9:"linebreak";i:1;a:0:{}i:2;i:2269;}i:117;a:3:{i:0;s:5:"cdata";i:1;a:1:{i:0;s:3:"
} ";}i:2;i:2271;}i:118;a:3:{i:0;s:15:"monospace_close";i:1;a:0:{}i:2;i:2274;}i:119;a:3:{i:0;s:7:"p_close";i:1;a:0:{}i:2;i:2276;}i:120;a:3:{i:0;s:6:"p_open";i:1;a:0:{}i:2;i:2276;}i:121;a:3:{i:0;s:5:"cdata";i:1;a:1:{i:0;s:102:"# This block is like a technically smart person, he interprets complex request_uri strings containing ";}i:2;i:2278;}i:122;a:3:{i:0;s:18:"doublequoteclosing";i:1;a:0:{}i:2;i:2380;}i:123;a:3:{i:0;s:5:"cdata";i:1;a:1:{i:0;s:4:".php";}i:2;i:2381;}i:124;a:3:{i:0;s:18:"doublequoteclosing";i:1;a:0:{}i:2;i:2385;}i:125;a:3:{i:0;s:5:"cdata";i:1;a:1:{i:0;s:100:" and rewrites them in a simplified form. # Forward paths like /js/index.php/x.js to relevant handler";}i:2;i:2386;}i:126;a:3:{i:0;s:9:"linebreak";i:1;a:0:{}i:2;i:2486;}i:127;a:3:{i:0;s:5:"cdata";i:1;a:1:{i:0;s:1:"
";}i:2;i:2488;}i:128;a:3:{i:0;s:14:"monospace_open";i:1;a:0:{}i:2;i:2489;}i:129;a:3:{i:0;s:5:"cdata";i:1;a:1:{i:0;s:18:"location ~ .php/ {";}i:2;i:2491;}i:130;a:3:{i:0;s:9:"linebreak";i:1;a:0:{}i:2;i:2509;}i:131;a:3:{i:0;s:5:"cdata";i:1;a:1:{i:0;s:28:"
rewrite ^(.*.php)/ $1 last;";}i:2;i:2511;}i:132;a:3:{i:0;s:9:"linebreak";i:1;a:0:{}i:2;i:2539;}i:133;a:3:{i:0;s:5:"cdata";i:1;a:1:{i:0;s:3:"
} ";}i:2;i:2541;}i:134;a:3:{i:0;s:15:"monospace_close";i:1;a:0:{}i:2;i:2544;}i:135;a:3:{i:0;s:7:"p_close";i:1;a:0:{}i:2;i:2546;}i:136;a:3:{i:0;s:6:"p_open";i:1;a:0:{}i:2;i:2546;}i:137;a:3:{i:0;s:5:"cdata";i:1;a:1:{i:0;s:9:"# Passes ";}i:2;i:2548;}i:138;a:3:{i:0;s:18:"doublequoteclosing";i:1;a:0:{}i:2;i:2557;}i:139;a:3:{i:0;s:5:"cdata";i:1;a:1:{i:0;s:4:".php";}i:2;i:2558;}i:140;a:3:{i:0;s:18:"doublequoteclosing";i:1;a:0:{}i:2;i:2562;}i:141;a:3:{i:0;s:5:"cdata";i:1;a:1:{i:0;s:103:" files to relevant processor who will understand php very well @ the location here this expert resides?";}i:2;i:2563;}i:142;a:3:{i:0;s:9:"linebreak";i:1;a:0:{}i:2;i:2666;}i:143;a:3:{i:0;s:5:"cdata";i:1;a:1:{i:0;s:1:"
";}i:2;i:2668;}i:144;a:3:{i:0;s:14:"monospace_open";i:1;a:0:{}i:2;i:2669;}i:145;a:3:{i:0;s:5:"cdata";i:1;a:1:{i:0;s:18:"location ~ .php$ {";}i:2;i:2671;}i:146;a:3:{i:0;s:9:"linebreak";i:1;a:0:{}i:2;i:2689;}i:147;a:3:{i:0;s:5:"cdata";i:1;a:1:{i:0;s:28:"
try_files $uri /?error=404;";}i:2;i:2691;}i:148;a:3:{i:0;s:9:"linebreak";i:1;a:0:{}i:2;i:2719;}i:149;a:3:{i:0;s:5:"cdata";i:1;a:1:{i:0;s:42:"
fastcgi_split_path_info ^(.+\.php)(/.+)$;";}i:2;i:2721;}i:150;a:3:{i:0;s:9:"linebreak";i:1;a:0:{}i:2;i:2763;}i:151;a:3:{i:0;s:5:"cdata";i:1;a:1:{i:0;s:24:"
include fastcgi_params;";}i:2;i:2765;}i:152;a:3:{i:0;s:9:"linebreak";i:1;a:0:{}i:2;i:2789;}i:153;a:3:{i:0;s:5:"cdata";i:1;a:1:{i:0;s:25:"
fastcgi_index index.php;";}i:2;i:2791;}i:154;a:3:{i:0;s:9:"linebreak";i:1;a:0:{}i:2;i:2816;}i:155;a:3:{i:0;s:5:"cdata";i:1;a:1:{i:0;s:66:"
fastcgi_param SCRIPT_FILENAME $document_root$fastcgi_script_name;";}i:2;i:2818;}i:156;a:3:{i:0;s:9:"linebreak";i:1;a:0:{}i:2;i:2884;}i:157;a:3:{i:0;s:5:"cdata";i:1;a:1:{i:0;s:29:"
fastcgi_pass 127.0.0.1:9000;";}i:2;i:2886;}i:158;a:3:{i:0;s:9:"linebreak";i:1;a:0:{}i:2;i:2915;}i:159;a:3:{i:0;s:5:"cdata";i:1;a:1:{i:0;s:3:"
} ";}i:2;i:2917;}i:160;a:3:{i:0;s:15:"monospace_close";i:1;a:0:{}i:2;i:2920;}i:161;a:3:{i:0;s:7:"p_close";i:1;a:0:{}i:2;i:2922;}i:162;a:3:{i:0;s:12:"document_end";i:1;a:0:{}i:2;i:2922;}}