a:52:{i:0;a:3:{i:0;s:14:"document_start";i:1;a:0:{}i:2;i:0;}i:1;a:3:{i:0;s:6:"header";i:1;a:3:{i:0;s:25:"Install SolusVM on server";i:1;i:1;i:2;i:1;}i:2;i:1;}i:2;a:3:{i:0;s:12:"section_open";i:1;a:1:{i:0;i:1;}i:2;i:1;}i:3;a:3:{i:0;s:6:"p_open";i:1;a:0:{}i:2;i:1;}i:4;a:3:{i:0;s:5:"cdata";i:1;a:1:{i:0;s:68:"Login as root user into the server, and type the following commands:";}i:2;i:44;}i:5;a:3:{i:0;s:7:"p_close";i:1;a:0:{}i:2;i:112;}i:6;a:3:{i:0;s:6:"p_open";i:1;a:0:{}i:2;i:112;}i:7;a:3:{i:0;s:5:"cdata";i:1;a:1:{i:0;s:5:"wget ";}i:2;i:114;}i:8;a:3:{i:0;s:12:"externallink";i:1;a:2:{i:0;s:47:"http://soluslabs.com/installers/solusvm/install";i:1;N;}i:2;i:119;}i:9;a:3:{i:0;s:5:"cdata";i:1;a:1:{i:0;s:1:" ";}i:2;i:166;}i:10;a:3:{i:0;s:9:"linebreak";i:1;a:0:{}i:2;i:167;}i:11;a:3:{i:0;s:5:"cdata";i:1;a:1:{i:0;s:19:"
chmod 755 install ";}i:2;i:169;}i:12;a:3:{i:0;s:9:"linebreak";i:1;a:0:{}i:2;i:188;}i:13;a:3:{i:0;s:5:"cdata";i:1;a:1:{i:0;s:10:"
./install";}i:2;i:190;}i:14;a:3:{i:0;s:7:"p_close";i:1;a:0:{}i:2;i:200;}i:15;a:3:{i:0;s:6:"p_open";i:1;a:0:{}i:2;i:200;}i:16;a:3:{i:0;s:5:"cdata";i:1;a:1:{i:0;s:49:"Then, you will be presented the options screen 1:";}i:2;i:202;}i:17;a:3:{i:0;s:7:"p_close";i:1;a:0:{}i:2;i:251;}i:18;a:3:{i:0;s:6:"p_open";i:1;a:0:{}i:2;i:251;}i:19;a:3:{i:0;s:5:"cdata";i:1;a:1:{i:0;s:7:"Choose ";}i:2;i:253;}i:20;a:3:{i:0;s:18:"doublequoteopening";i:1;a:0:{}i:2;i:260;}i:21;a:3:{i:0;s:5:"cdata";i:1;a:1:{i:0;s:22:"Install SolusVM Master";}i:2;i:261;}i:22;a:3:{i:0;s:18:"doublequoteclosing";i:1;a:0:{}i:2;i:283;}i:23;a:3:{i:0;s:5:"cdata";i:1;a:1:{i:0;s:40:", if you want to install Master SolusVM.";}i:2;i:284;}i:24;a:3:{i:0;s:7:"p_close";i:1;a:0:{}i:2;i:324;}i:25;a:3:{i:0;s:6:"p_open";i:1;a:0:{}i:2;i:324;}i:26;a:3:{i:0;s:5:"cdata";i:1;a:1:{i:0;s:42:"Then, you will get another options screen:";}i:2;i:326;}i:27;a:3:{i:0;s:7:"p_close";i:1;a:0:{}i:2;i:368;}i:28;a:3:{i:0;s:6:"p_open";i:1;a:0:{}i:2;i:368;}i:29;a:3:{i:0;s:5:"cdata";i:1;a:1:{i:0;s:7:"Choose ";}i:2;i:370;}i:30;a:3:{i:0;s:18:"doublequoteopening";i:1;a:0:{}i:2;i:377;}i:31;a:3:{i:0;s:5:"cdata";i:1;a:1:{i:0;s:28:"Start Master Install(openVZ)";}i:2;i:378;}i:32;a:3:{i:0;s:18:"doublequoteclosing";i:1;a:0:{}i:2;i:406;}i:33;a:3:{i:0;s:5:"cdata";i:1;a:1:{i:0;s:16:" — for OpenVZ.";}i:2;i:407;}i:34;a:3:{i:0;s:9:"linebreak";i:1;a:0:{}i:2;i:423;}i:35;a:3:{i:0;s:5:"cdata";i:1;a:1:{i:0;s:57:"
In case of Master virtualization without OpenVZ, choose ";}i:2;i:425;}i:36;a:3:{i:0;s:18:"doublequoteopening";i:1;a:0:{}i:2;i:482;}i:37;a:3:{i:0;s:5:"cdata";i:1;a:1:{i:0;s:17:"No Virtualization";}i:2;i:483;}i:38;a:3:{i:0;s:18:"doublequoteclosing";i:1;a:0:{}i:2;i:500;}i:39;a:3:{i:0;s:5:"cdata";i:1;a:1:{i:0;s:1:".";}i:2;i:501;}i:40;a:3:{i:0;s:7:"p_close";i:1;a:0:{}i:2;i:502;}i:41;a:3:{i:0;s:6:"p_open";i:1;a:0:{}i:2;i:502;}i:42;a:3:{i:0;s:5:"cdata";i:1;a:1:{i:0;s:58:"NOTE: 1. Selinux must be disabled.(/etc/sysconfig/selinux)";}i:2;i:504;}i:43;a:3:{i:0;s:9:"linebreak";i:1;a:0:{}i:2;i:562;}i:44;a:3:{i:0;s:5:"cdata";i:1;a:1:{i:0;s:35:"
2. Edit /etc/grub.conf and select ";}i:2;i:564;}i:45;a:3:{i:0;s:18:"doublequoteopening";i:1;a:0:{}i:2;i:599;}i:46;a:3:{i:0;s:5:"cdata";i:1;a:1:{i:0;s:9:"default=0";}i:2;i:600;}i:47;a:3:{i:0;s:18:"doublequoteclosing";i:1;a:0:{}i:2;i:609;}i:48;a:3:{i:0;s:5:"cdata";i:1;a:1:{i:0;s:25:". Then reboot the server.";}i:2;i:610;}i:49;a:3:{i:0;s:7:"p_close";i:1;a:0:{}i:2;i:635;}i:50;a:3:{i:0;s:13:"section_close";i:1;a:0:{}i:2;i:635;}i:51;a:3:{i:0;s:12:"document_end";i:1;a:0:{}i:2;i:635;}}