a:74:{i:0;a:3:{i:0;s:14:"document_start";i:1;a:0:{}i:2;i:0;}i:1;a:3:{i:0;s:6:"p_open";i:1;a:0:{}i:2;i:0;}i:2;a:3:{i:0;s:5:"cdata";i:1;a:1:{i:0;s:15:"Files included:";}i:2;i:1;}i:3;a:3:{i:0;s:9:"linebreak";i:1;a:0:{}i:2;i:16;}i:4;a:3:{i:0;s:5:"cdata";i:1;a:1:{i:0;s:35:"
ips.txt - containing all ips list.";}i:2;i:18;}i:5;a:3:{i:0;s:9:"linebreak";i:1;a:0:{}i:2;i:53;}i:6;a:3:{i:0;s:5:"cdata";i:1;a:1:{i:0;s:56:"
rbl-3t.sh - checking all ips with all RBL listed in it.";}i:2;i:55;}i:7;a:3:{i:0;s:9:"linebreak";i:1;a:0:{}i:2;i:111;}i:8;a:3:{i:0;s:5:"cdata";i:1;a:1:{i:0;s:57:"
rblcheck.sh - main script which is needs to be executed.";}i:2;i:113;}i:9;a:3:{i:0;s:9:"linebreak";i:1;a:0:{}i:2;i:170;}i:10;a:3:{i:0;s:7:"p_close";i:1;a:0:{}i:2;i:172;}i:11;a:3:{i:0;s:6:"p_open";i:1;a:0:{}i:2;i:172;}i:12;a:3:{i:0;s:5:"cdata";i:1;a:1:{i:0;s:26:"What does script is doing?";}i:2;i:174;}i:13;a:3:{i:0;s:9:"linebreak";i:1;a:0:{}i:2;i:200;}i:14;a:3:{i:0;s:5:"cdata";i:1;a:1:{i:0;s:93:"
Its checking an IP for all RBL listed in RBL section of the script and mail with the status.";}i:2;i:202;}i:15;a:3:{i:0;s:9:"linebreak";i:1;a:0:{}i:2;i:295;}i:16;a:3:{i:0;s:7:"p_close";i:1;a:0:{}i:2;i:297;}i:17;a:3:{i:0;s:6:"p_open";i:1;a:0:{}i:2;i:297;}i:18;a:3:{i:0;s:5:"cdata";i:1;a:1:{i:0;s:23:"How to add more IP/IPs?";}i:2;i:300;}i:19;a:3:{i:0;s:9:"linebreak";i:1;a:0:{}i:2;i:323;}i:20;a:3:{i:0;s:5:"cdata";i:1;a:1:{i:0;s:37:"
Add IP in next line in ips.txt file.";}i:2;i:325;}i:21;a:3:{i:0;s:9:"linebreak";i:1;a:0:{}i:2;i:362;}i:22;a:3:{i:0;s:7:"p_close";i:1;a:0:{}i:2;i:364;}i:23;a:3:{i:0;s:6:"p_open";i:1;a:0:{}i:2;i:364;}i:24;a:3:{i:0;s:5:"cdata";i:1;a:1:{i:0;s:16:"How to add RBLs?";}i:2;i:366;}i:25;a:3:{i:0;s:9:"linebreak";i:1;a:0:{}i:2;i:382;}i:26;a:3:{i:0;s:5:"cdata";i:1;a:1:{i:0;s:97:"
To add more RBL/RBLs to check you can add them in RBL section in the script itself with a space.";}i:2;i:384;}i:27;a:3:{i:0;s:9:"linebreak";i:1;a:0:{}i:2;i:481;}i:28;a:3:{i:0;s:5:"cdata";i:1;a:1:{i:0;s:13:"
For Ex. RBL=";}i:2;i:483;}i:29;a:3:{i:0;s:18:"doublequoteopening";i:1;a:0:{}i:2;i:496;}i:30;a:3:{i:0;s:5:"cdata";i:1;a:1:{i:0;s:22:"b.barracudacentral.org";}i:2;i:497;}i:31;a:3:{i:0;s:18:"doublequoteclosing";i:1;a:0:{}i:2;i:519;}i:32;a:3:{i:0;s:9:"linebreak";i:1;a:0:{}i:2;i:520;}i:33;a:3:{i:0;s:7:"p_close";i:1;a:0:{}i:2;i:522;}i:34;a:3:{i:0;s:6:"p_open";i:1;a:0:{}i:2;i:522;}i:35;a:3:{i:0;s:5:"cdata";i:1;a:1:{i:0;s:26:"How to execute the script?";}i:2;i:524;}i:36;a:3:{i:0;s:9:"linebreak";i:1;a:0:{}i:2;i:550;}i:37;a:3:{i:0;s:5:"cdata";i:1;a:1:{i:0;s:1:"
";}i:2;i:552;}i:38;a:3:{i:0;s:6:"plugin";i:1;a:4:{i:0;s:9:"code_code";i:1;a:4:{i:0;s:4:"code";i:1;N;i:2;s:0:"";i:3;s:84:"
chmod +x rblcheck.sh \\
./rblcheck.sh | mail -s "RBL Alert" mohit@mantragrid.com\\
";}i:2;i:3;i:3;s:85:">
chmod +x rblcheck.sh \\
./rblcheck.sh | mail -s "RBL Alert" mohit@mantragrid.com\\
";}i:2;i:558;}i:39;a:3:{i:0;s:5:"cdata";i:1;a:1:{i:0;s:37:"
Note: Change your email accordingly.";}i:2;i:650;}i:40;a:3:{i:0;s:9:"linebreak";i:1;a:0:{}i:2;i:687;}i:41;a:3:{i:0;s:7:"p_close";i:1;a:0:{}i:2;i:689;}i:42;a:3:{i:0;s:6:"p_open";i:1;a:0:{}i:2;i:689;}i:43;a:3:{i:0;s:13:"internalmedia";i:1;a:7:{i:0;s:8:":rbl.zip";i:1;s:0:"";i:2;N;i:3;N;i:4;N;i:5;s:5:"cache";i:6;s:7:"details";}i:2;i:691;}i:44;a:3:{i:0;s:7:"p_close";i:1;a:0:{}i:2;i:704;}i:45;a:3:{i:0;s:6:"p_open";i:1;a:0:{}i:2;i:704;}i:46;a:3:{i:0;s:5:"cdata";i:1;a:1:{i:0;s:19:"#### SAMPLE OUTPUT ";}i:2;i:706;}i:47;a:3:{i:0;s:9:"linebreak";i:1;a:0:{}i:2;i:725;}i:48;a:3:{i:0;s:7:"p_close";i:1;a:0:{}i:2;i:727;}i:49;a:3:{i:0;s:6:"p_open";i:1;a:0:{}i:2;i:727;}i:50;a:3:{i:0;s:5:"cdata";i:1;a:1:{i:0;s:78:"======== RBL Status IP: 198.204.232.99 Hostname: server.hostname.com ======== ";}i:2;i:729;}i:51;a:3:{i:0;s:9:"linebreak";i:1;a:0:{}i:2;i:807;}i:52;a:3:{i:0;s:5:"cdata";i:1;a:1:{i:0;s:55:"
198.204.232.99 is BLACKLISTED in cabl.rbl.webiron.net ";}i:2;i:809;}i:53;a:3:{i:0;s:9:"linebreak";i:1;a:0:{}i:2;i:864;}i:54;a:3:{i:0;s:5:"cdata";i:1;a:1:{i:0;s:54:"
198.204.232.99 is BLACKLISTED in all.rbl.webiron.net ";}i:2;i:866;}i:55;a:3:{i:0;s:9:"linebreak";i:1;a:0:{}i:2;i:920;}i:56;a:3:{i:0;s:5:"cdata";i:1;a:1:{i:0;s:62:"
198.204.232.99 is BLACKLISTED in recent.spam.dnsbl.sorbs.net ";}i:2;i:922;}i:57;a:3:{i:0;s:9:"linebreak";i:1;a:0:{}i:2;i:984;}i:58;a:3:{i:0;s:5:"cdata";i:1;a:1:{i:0;s:59:"
198.204.232.99 is BLACKLISTED in old.spam.dnsbl.sorbs.net ";}i:2;i:986;}i:59;a:3:{i:0;s:9:"linebreak";i:1;a:0:{}i:2;i:1045;}i:60;a:3:{i:0;s:5:"cdata";i:1;a:1:{i:0;s:55:"
198.204.232.99 is BLACKLISTED in spam.dnsbl.sorbs.net ";}i:2;i:1047;}i:61;a:3:{i:0;s:9:"linebreak";i:1;a:0:{}i:2;i:1102;}i:62;a:3:{i:0;s:5:"cdata";i:1;a:1:{i:0;s:46:"
198.204.232.99 is BLACKLISTED in bad.psky.me ";}i:2;i:1104;}i:63;a:3:{i:0;s:9:"linebreak";i:1;a:0:{}i:2;i:1150;}i:64;a:3:{i:0;s:5:"cdata";i:1;a:1:{i:0;s:64:"
198.204.232.99 is BLACKLISTED in hostkarma.junkemailfilter.com ";}i:2;i:1152;}i:65;a:3:{i:0;s:9:"linebreak";i:1;a:0:{}i:2;i:1216;}i:66;a:3:{i:0;s:5:"cdata";i:1;a:1:{i:0;s:57:"
198.204.232.99 is BLACKLISTED in b.barracudacentral.org ";}i:2;i:1218;}i:67;a:3:{i:0;s:9:"linebreak";i:1;a:0:{}i:2;i:1275;}i:68;a:3:{i:0;s:5:"cdata";i:1;a:1:{i:0;s:79:"
======== RBL Status IP: 43.252.88.206 Hostname: server2.hostname.com ======== ";}i:2;i:1277;}i:69;a:3:{i:0;s:9:"linebreak";i:1;a:0:{}i:2;i:1356;}i:70;a:3:{i:0;s:5:"cdata";i:1;a:1:{i:0;s:56:"
43.252.88.206 is BLACKLISTED in b.barracudacentral.org ";}i:2;i:1358;}i:71;a:3:{i:0;s:9:"linebreak";i:1;a:0:{}i:2;i:1414;}i:72;a:3:{i:0;s:7:"p_close";i:1;a:0:{}i:2;i:1416;}i:73;a:3:{i:0;s:12:"document_end";i:1;a:0:{}i:2;i:1416;}}