a:9:{i:0;a:3:{i:0;s:14:"document_start";i:1;a:0:{}i:2;i:0;}i:1;a:3:{i:0;s:6:"header";i:1;a:3:{i:0;s:20:"GRUB re-installation";i:1;i:1;i:2;i:1;}i:2;i:1;}i:2;a:3:{i:0;s:12:"section_open";i:1;a:1:{i:0;i:1;}i:2;i:1;}i:3;a:3:{i:0;s:6:"p_open";i:1;a:0:{}i:2;i:1;}i:4;a:3:{i:0;s:6:"plugin";i:1;a:4:{i:0;s:9:"code_code";i:1;a:4:{i:0;s:4:"code";i:1;N;i:2;s:0:"";i:3;s:303:"
rpm -e grub

wget ftp://ftp.pbone.net/mirror/archive.fedoraproject.org/fedora/linux/releases/10/Everything/x86_64/os/Packages/grub-0.97-38.fc10.x86_64.rpm

rpm -i grub-0.97-38.fc10.x86_64.rpm

cp /usr/share/grub/x86_64-redhat/* /boot/grub

grub

> root (hd0,0)
root (hd0,0)

> setup (hd0)
setup (hd0)

";}i:2;i:3;i:3;s:304:">
rpm -e grub

wget ftp://ftp.pbone.net/mirror/archive.fedoraproject.org/fedora/linux/releases/10/Everything/x86_64/os/Packages/grub-0.97-38.fc10.x86_64.rpm

rpm -i grub-0.97-38.fc10.x86_64.rpm

cp /usr/share/grub/x86_64-redhat/* /boot/grub

grub

> root (hd0,0)
root (hd0,0)

> setup (hd0)
setup (hd0)

";}i:2;i:43;}i:5;a:3:{i:0;s:5:"cdata";i:1;a:1:{i:0;s:0:"";}i:2;i:354;}i:6;a:3:{i:0;s:7:"p_close";i:1;a:0:{}i:2;i:354;}i:7;a:3:{i:0;s:13:"section_close";i:1;a:0:{}i:2;i:354;}i:8;a:3:{i:0;s:12:"document_end";i:1;a:0:{}i:2;i:354;}}