a:29:{i:0;a:3:{i:0;s:14:"document_start";i:1;a:0:{}i:2;i:0;}i:1;a:3:{i:0;s:6:"p_open";i:1;a:0:{}i:2;i:0;}i:2;a:3:{i:0;s:11:"strong_open";i:1;a:0:{}i:2;i:1;}i:3;a:3:{i:0;s:5:"cdata";i:1;a:1:{i:0;s:10:"FOR LINUX:";}i:2;i:3;}i:4;a:3:{i:0;s:12:"strong_close";i:1;a:0:{}i:2;i:13;}i:5;a:3:{i:0;s:5:"cdata";i:1;a:1:{i:0;s:1:" ";}i:2;i:15;}i:6;a:3:{i:0;s:9:"linebreak";i:1;a:0:{}i:2;i:16;}i:7;a:3:{i:0;s:5:"cdata";i:1;a:1:{i:0;s:24:"
Download utility from: ";}i:2;i:18;}i:8;a:3:{i:0;s:9:"linebreak";i:1;a:0:{}i:2;i:42;}i:9;a:3:{i:0;s:5:"cdata";i:1;a:1:{i:0;s:1:"
";}i:2;i:44;}i:10;a:3:{i:0;s:12:"externallink";i:1;a:2:{i:0;s:92:"http://download2.boulder.ibm.com/sar/CMA/XSA/ibm_utl_sraidmr_megacli-8.04.08_linux_32-64.zip";i:1;N;}i:2;i:45;}i:11;a:3:{i:0;s:5:"cdata";i:1;a:1:{i:0;s:1:" ";}i:2;i:137;}i:12;a:3:{i:0;s:9:"linebreak";i:1;a:0:{}i:2;i:138;}i:13;a:3:{i:0;s:9:"linebreak";i:1;a:0:{}i:2;i:141;}i:14;a:3:{i:0;s:5:"cdata";i:1;a:1:{i:0;s:23:"
To check RAID status:
";}i:2;i:143;}i:15;a:3:{i:0;s:6:"plugin";i:1;a:4:{i:0;s:9:"code_code";i:1;a:4:{i:0;s:4:"code";i:1;N;i:2;s:0:"";i:3;s:124:"
/opt/MegaRAID/MegaCli/MegaCli64 -PDList -aAll | egrep "Enclosure Device ID:|Slot Number:|Inquiry Data:|Error Count:|state"
";}i:2;i:3;i:3;s:125:">
/opt/MegaRAID/MegaCli/MegaCli64 -PDList -aAll | egrep "Enclosure Device ID:|Slot Number:|Inquiry Data:|Error Count:|state"
";}i:2;i:171;}i:16;a:3:{i:0;s:5:"cdata";i:1;a:1:{i:0;s:1:"
";}i:2;i:303;}i:17;a:3:{i:0;s:9:"linebreak";i:1;a:0:{}i:2;i:304;}i:18;a:3:{i:0;s:5:"cdata";i:1;a:1:{i:0;s:1:"
";}i:2;i:306;}i:19;a:3:{i:0;s:11:"strong_open";i:1;a:0:{}i:2;i:307;}i:20;a:3:{i:0;s:5:"cdata";i:1;a:1:{i:0;s:11:"FOR WINDOWS";}i:2;i:309;}i:21;a:3:{i:0;s:12:"strong_close";i:1;a:0:{}i:2;i:320;}i:22;a:3:{i:0;s:5:"cdata";i:1;a:1:{i:0;s:1:" ";}i:2;i:322;}i:23;a:3:{i:0;s:9:"linebreak";i:1;a:0:{}i:2;i:323;}i:24;a:3:{i:0;s:5:"cdata";i:1;a:1:{i:0;s:1:"
";}i:2;i:326;}i:25;a:3:{i:0;s:12:"externallink";i:1;a:2:{i:0;s:76:"http://download.lenovo.com/ibmdl/pub/pc/pccbbs/thinkservers/ta8rad91sr17.exe";i:1;N;}i:2;i:327;}i:26;a:3:{i:0;s:5:"cdata";i:1;a:1:{i:0;s:0:"";}i:2;i:403;}i:27;a:3:{i:0;s:7:"p_close";i:1;a:0:{}i:2;i:403;}i:28;a:3:{i:0;s:12:"document_end";i:1;a:0:{}i:2;i:403;}}