a:25:{i:0;a:3:{i:0;s:14:"document_start";i:1;a:0:{}i:2;i:0;}i:1;a:3:{i:0;s:6:"header";i:1;a:3:{i:0;s:29:"Reseller club Funds addidtion";i:1;i:1;i:2;i:1;}i:2;i:1;}i:2;a:3:{i:0;s:12:"section_open";i:1;a:1:{i:0;i:1;}i:2;i:1;}i:3;a:3:{i:0;s:6:"p_open";i:1;a:0:{}i:2;i:1;}i:4;a:3:{i:0;s:5:"cdata";i:1;a:1:{i:0;s:9:"Dear Sir,";}i:2;i:48;}i:5;a:3:{i:0;s:7:"p_close";i:1;a:0:{}i:2;i:57;}i:6;a:3:{i:0;s:6:"p_open";i:1;a:0:{}i:2;i:57;}i:7;a:3:{i:0;s:5:"cdata";i:1;a:1:{i:0;s:24:"We have added <Rs.10000/";}i:2;i:59;}i:8;a:3:{i:0;s:6:"entity";i:1;a:1:{i:0;s:2:"->";}i:2;i:83;}i:9;a:3:{i:0;s:5:"cdata";i:1;a:1:{i:0;s:28:" in your ICICI BANK ACCOUNT:";}i:2;i:85;}i:10;a:3:{i:0;s:7:"p_close";i:1;a:0:{}i:2;i:113;}i:11;a:3:{i:0;s:6:"p_open";i:1;a:0:{}i:2;i:113;}i:12;a:3:{i:0;s:5:"cdata";i:1;a:1:{i:0;s:60:"Beneficiary Name: PDR Solutions FZC
Account No: 001105022959";}i:2;i:115;}i:13;a:3:{i:0;s:7:"p_close";i:1;a:0:{}i:2;i:175;}i:14;a:3:{i:0;s:6:"p_open";i:1;a:0:{}i:2;i:175;}i:15;a:3:{i:0;s:5:"cdata";i:1;a:1:{i:0;s:105:"from HDFC A/c No -03932000005766 , ROHINI SE 11,N DELHI
through Bank Transfer.
Reference Number: <1402A1>";}i:2;i:177;}i:16;a:3:{i:0;s:7:"p_close";i:1;a:0:{}i:2;i:282;}i:17;a:3:{i:0;s:6:"p_open";i:1;a:0:{}i:2;i:282;}i:18;a:3:{i:0;s:5:"cdata";i:1;a:1:{i:0;s:91:"Please add this amount to our account asap.
sahil@mantraventures.com
Reseller ID is: 241464";}i:2;i:284;}i:19;a:3:{i:0;s:7:"p_close";i:1;a:0:{}i:2;i:375;}i:20;a:3:{i:0;s:6:"p_open";i:1;a:0:{}i:2;i:375;}i:21;a:3:{i:0;s:5:"cdata";i:1;a:1:{i:0;s:18:"Reseller Pin: 2925";}i:2;i:377;}i:22;a:3:{i:0;s:7:"p_close";i:1;a:0:{}i:2;i:395;}i:23;a:3:{i:0;s:13:"section_close";i:1;a:0:{}i:2;i:395;}i:24;a:3:{i:0;s:12:"document_end";i:1;a:0:{}i:2;i:395;}}