a:72:{i:0;a:3:{i:0;s:14:"document_start";i:1;a:0:{}i:2;i:0;}i:1;a:3:{i:0;s:6:"header";i:1;a:3:{i:0;s:36:"Partition New Hetzner Node with RAID";i:1;i:1;i:2;i:1;}i:2;i:1;}i:2;a:3:{i:0;s:12:"section_open";i:1;a:1:{i:0;i:1;}i:2;i:1;}i:3;a:3:{i:0;s:6:"p_open";i:1;a:0:{}i:2;i:1;}i:4;a:3:{i:0;s:5:"cdata";i:1;a:1:{i:0;s:49:"First delete the already partitioned RAID setup:
";}i:2;i:55;}i:5;a:3:{i:0;s:6:"plugin";i:1;a:4:{i:0;s:9:"code_code";i:1;a:4:{i:0;s:4:"code";i:1;N;i:2;s:0:"";i:3;s:31:"
megacli -CfgLdDel -Lall -aAll ";}i:2;i:3;i:3;s:32:">
megacli -CfgLdDel -Lall -aAll ";}i:2;i:109;}i:6;a:3:{i:0;s:7:"p_close";i:1;a:0:{}i:2;i:148;}i:7;a:3:{i:0;s:6:"p_open";i:1;a:0:{}i:2;i:148;}i:8;a:3:{i:0;s:5:"cdata";i:1;a:1:{i:0;s:27:"Then: (Example for RAID-1)
";}i:2;i:152;}i:9;a:3:{i:0;s:6:"plugin";i:1;a:4:{i:0;s:9:"code_code";i:1;a:4:{i:0;s:4:"code";i:1;N;i:2;s:0:"";i:3;s:110:"
Create a 200GB boot partition:

megacli -CfgLdAdd -r1 [252:0,252:1] WB ADRA Cached CachedBadBBU -sz200GB -a0 ";}i:2;i:3;i:3;s:111:">
Create a 200GB boot partition:

megacli -CfgLdAdd -r1 [252:0,252:1] WB ADRA Cached CachedBadBBU -sz200GB -a0 ";}i:2;i:184;}i:10;a:3:{i:0;s:7:"p_close";i:1;a:0:{}i:2;i:302;}i:11;a:3:{i:0;s:6:"p_open";i:1;a:0:{}i:2;i:302;}i:12;a:3:{i:0;s:5:"cdata";i:1;a:1:{i:0;s:21:"For remainder space:
";}i:2;i:304;}i:13;a:3:{i:0;s:6:"plugin";i:1;a:4:{i:0;s:9:"code_code";i:1;a:4:{i:0;s:4:"code";i:1;N;i:2;s:0:"";i:3;s:69:"
megacli -CfgLdAdd -r1 [252:0,252:1] WB ADRA Cached CachedBadBBU -a0 ";}i:2;i:3;i:3;s:70:">
megacli -CfgLdAdd -r1 [252:0,252:1] WB ADRA Cached CachedBadBBU -a0 ";}i:2;i:330;}i:14;a:3:{i:0;s:7:"p_close";i:1;a:0:{}i:2;i:407;}i:15;a:3:{i:0;s:6:"p_open";i:1;a:0:{}i:2;i:407;}i:16;a:3:{i:0;s:5:"cdata";i:1;a:1:{i:0;s:34:"For RAID 10 run following command:";}i:2;i:410;}i:17;a:3:{i:0;s:7:"p_close";i:1;a:0:{}i:2;i:444;}i:18;a:3:{i:0;s:12:"preformatted";i:1;a:1:{i:0;s:97:"  megacli -CfgSpanAdd -r10 -Array0[252:0,252:1] Array1[252:2,252:3] WB RA Direct CachedBadBBU -a0";}i:2;i:444;}i:19;a:3:{i:0;s:6:"p_open";i:1;a:0:{}i:2;i:444;}i:20;a:3:{i:0;s:5:"cdata";i:1;a:1:{i:0;s:210:"Now installimage can be performed. Some adjustment is necessary here: only /dev/sda is used for hard disks, the other(s) have to be commented out using #. Software RAID also needs to be switched off (set to 0).";}i:2;i:547;}i:21;a:3:{i:0;s:7:"p_close";i:1;a:0:{}i:2;i:757;}i:22;a:3:{i:0;s:6:"p_open";i:1;a:0:{}i:2;i:757;}i:23;a:3:{i:0;s:5:"cdata";i:1;a:1:{i:0;s:268:"After installing the operating system, a partition can be created on the second RAID, so that this can be used. Here a GPT partition table is used instead of the MS-DOS partition table which enables > 2 TB partitions. These steps can be performed in the Rescue System.";}i:2;i:759;}i:24;a:3:{i:0;s:7:"p_close";i:1;a:0:{}i:2;i:1028;}i:25;a:3:{i:0;s:10:"listu_open";i:1;a:0:{}i:2;i:1028;}i:26;a:3:{i:0;s:13:"listitem_open";i:1;a:1:{i:0;i:1;}i:2;i:1028;}i:27;a:3:{i:0;s:16:"listcontent_open";i:1;a:0:{}i:2;i:1028;}i:28;a:3:{i:0;s:5:"cdata";i:1;a:1:{i:0;s:15:" gdisk /dev/sdb";}i:2;i:1032;}i:29;a:3:{i:0;s:17:"listcontent_close";i:1;a:0:{}i:2;i:1047;}i:30;a:3:{i:0;s:14:"listitem_close";i:1;a:0:{}i:2;i:1047;}i:31;a:3:{i:0;s:13:"listitem_open";i:1;a:1:{i:0;i:1;}i:2;i:1047;}i:32;a:3:{i:0;s:16:"listcontent_open";i:1;a:0:{}i:2;i:1047;}i:33;a:3:{i:0;s:5:"cdata";i:1;a:1:{i:0;s:20:" n for new partition";}i:2;i:1051;}i:34;a:3:{i:0;s:17:"listcontent_close";i:1;a:0:{}i:2;i:1071;}i:35;a:3:{i:0;s:14:"listitem_close";i:1;a:0:{}i:2;i:1071;}i:36;a:3:{i:0;s:13:"listitem_open";i:1;a:1:{i:0;i:1;}i:2;i:1071;}i:37;a:3:{i:0;s:16:"listcontent_open";i:1;a:0:{}i:2;i:1071;}i:38;a:3:{i:0;s:5:"cdata";i:1;a:1:{i:0;s:61:" with Enter accept the default value for the partition number";}i:2;i:1075;}i:39;a:3:{i:0;s:17:"listcontent_close";i:1;a:0:{}i:2;i:1136;}i:40;a:3:{i:0;s:14:"listitem_close";i:1;a:0:{}i:2;i:1136;}i:41;a:3:{i:0;s:13:"listitem_open";i:1;a:1:{i:0;i:1;}i:2;i:1136;}i:42;a:3:{i:0;s:16:"listcontent_open";i:1;a:0:{}i:2;i:1136;}i:43;a:3:{i:0;s:5:"cdata";i:1;a:1:{i:0;s:60:" with Enter accept the default value for the partition start";}i:2;i:1140;}i:44;a:3:{i:0;s:17:"listcontent_close";i:1;a:0:{}i:2;i:1200;}i:45;a:3:{i:0;s:14:"listitem_close";i:1;a:0:{}i:2;i:1200;}i:46;a:3:{i:0;s:13:"listitem_open";i:1;a:1:{i:0;i:1;}i:2;i:1200;}i:47;a:3:{i:0;s:16:"listcontent_open";i:1;a:0:{}i:2;i:1200;}i:48;a:3:{i:0;s:5:"cdata";i:1;a:1:{i:0;s:68:" similarly with Enter accept the default value for the partition end";}i:2;i:1204;}i:49;a:3:{i:0;s:17:"listcontent_close";i:1;a:0:{}i:2;i:1272;}i:50;a:3:{i:0;s:14:"listitem_close";i:1;a:0:{}i:2;i:1272;}i:51;a:3:{i:0;s:13:"listitem_open";i:1;a:1:{i:0;i:1;}i:2;i:1272;}i:52;a:3:{i:0;s:16:"listcontent_open";i:1;a:0:{}i:2;i:1272;}i:53;a:3:{i:0;s:5:"cdata";i:1;a:1:{i:0;s:77:" Enter the hex code for the partition data type (0700 for Linux/Windows data)";}i:2;i:1276;}i:54;a:3:{i:0;s:17:"listcontent_close";i:1;a:0:{}i:2;i:1353;}i:55;a:3:{i:0;s:14:"listitem_close";i:1;a:0:{}i:2;i:1353;}i:56;a:3:{i:0;s:13:"listitem_open";i:1;a:1:{i:0;i:1;}i:2;i:1353;}i:57;a:3:{i:0;s:16:"listcontent_open";i:1;a:0:{}i:2;i:1353;}i:58;a:3:{i:0;s:5:"cdata";i:1;a:1:{i:0;s:36:" with w finally save the amendments.";}i:2;i:1357;}i:59;a:3:{i:0;s:17:"listcontent_close";i:1;a:0:{}i:2;i:1393;}i:60;a:3:{i:0;s:14:"listitem_close";i:1;a:0:{}i:2;i:1393;}i:61;a:3:{i:0;s:13:"listitem_open";i:1;a:1:{i:0;i:1;}i:2;i:1393;}i:62;a:3:{i:0;s:16:"listcontent_open";i:1;a:0:{}i:2;i:1393;}i:63;a:3:{i:0;s:5:"cdata";i:1;a:1:{i:0;s:36:" The partition can now be formatted:";}i:2;i:1397;}i:64;a:3:{i:0;s:17:"listcontent_close";i:1;a:0:{}i:2;i:1433;}i:65;a:3:{i:0;s:14:"listitem_close";i:1;a:0:{}i:2;i:1433;}i:66;a:3:{i:0;s:11:"listu_close";i:1;a:0:{}i:2;i:1433;}i:67;a:3:{i:0;s:6:"p_open";i:1;a:0:{}i:2;i:1433;}i:68;a:3:{i:0;s:5:"cdata";i:1;a:1:{i:0;s:19:"mkfs.ext3 /dev/sdb1";}i:2;i:1435;}i:69;a:3:{i:0;s:7:"p_close";i:1;a:0:{}i:2;i:1454;}i:70;a:3:{i:0;s:13:"section_close";i:1;a:0:{}i:2;i:1454;}i:71;a:3:{i:0;s:12:"document_end";i:1;a:0:{}i:2;i:1454;}}