a:103:{i:0;a:3:{i:0;s:14:"document_start";i:1;a:0:{}i:2;i:0;}i:1;a:3:{i:0;s:6:"p_open";i:1;a:0:{}i:2;i:0;}i:2;a:3:{i:0;s:6:"plugin";i:1;a:4:{i:0;s:12:"ckgedit_font";i:1;a:2:{i:0;i:1;i:1;a:2:{i:0;s:15:"font-size:24px;";i:1;s:25:"inherit;;inherit;;inherit";}}i:2;i:1;i:3;s:37:"<font 24px/inherit;;inherit;;inherit>";}i:2;i:1;}i:3;a:3:{i:0;s:11:"strong_open";i:1;a:0:{}i:2;i:38;}i:4;a:3:{i:0;s:5:"cdata";i:1;a:1:{i:0;s:20:" MySQL Slave Error  ";}i:2;i:40;}i:5;a:3:{i:0;s:12:"strong_close";i:1;a:0:{}i:2;i:60;}i:6;a:3:{i:0;s:6:"plugin";i:1;a:4:{i:0;s:12:"ckgedit_font";i:1;a:2:{i:0;i:4;i:1;s:0:"";}i:2;i:4;i:3;s:7:"</font>";}i:2;i:62;}i:7;a:3:{i:0;s:7:"p_close";i:1;a:0:{}i:2;i:69;}i:8;a:3:{i:0;s:6:"p_open";i:1;a:0:{}i:2;i:69;}i:9;a:3:{i:0;s:5:"cdata";i:1;a:1:{i:0;s:110:"CAUTION: Mentioned below steps will be performed ONLY if the mail alert contains the content similar to below.";}i:2;i:71;}i:10;a:3:{i:0;s:7:"p_close";i:1;a:0:{}i:2;i:181;}i:11;a:3:{i:0;s:6:"p_open";i:1;a:0:{}i:2;i:181;}i:12;a:3:{i:0;s:6:"plugin";i:1;a:4:{i:0;s:9:"code_code";i:1;a:4:{i:0;s:4:"code";i:1;N;i:2;s:0:"";i:3;s:214:"
Slave IO not running on 184.154.18.138
Error number: 1236
Error message: Got fatal error 1236 from master when reading data from binary log: 'Client requested master to start replication from impossible position'
";}i:2;i:3;i:3;s:215:">
Slave IO not running on 184.154.18.138
Error number: 1236
Error message: Got fatal error 1236 from master when reading data from binary log: 'Client requested master to start replication from impossible position'
";}i:2;i:188;}i:13;a:3:{i:0;s:7:"p_close";i:1;a:0:{}i:2;i:410;}i:14;a:3:{i:0;s:6:"p_open";i:1;a:0:{}i:2;i:410;}i:15;a:3:{i:0;s:5:"cdata";i:1;a:1:{i:0;s:45:"Step 1: Login to server ( 107.6.167.170 UI2 )";}i:2;i:412;}i:16;a:3:{i:0;s:7:"p_close";i:1;a:0:{}i:2;i:457;}i:17;a:3:{i:0;s:6:"p_open";i:1;a:0:{}i:2;i:457;}i:18;a:3:{i:0;s:5:"cdata";i:1;a:1:{i:0;s:22:"Step 2: Login to mysql";}i:2;i:459;}i:19;a:3:{i:0;s:9:"linebreak";i:1;a:0:{}i:2;i:481;}i:20;a:3:{i:0;s:5:"cdata";i:1;a:1:{i:0;s:4:"
i.e";}i:2;i:483;}i:21;a:3:{i:0;s:9:"linebreak";i:1;a:0:{}i:2;i:487;}i:22;a:3:{i:0;s:5:"cdata";i:1;a:1:{i:0;s:17:"
mysql -u root -p";}i:2;i:489;}i:23;a:3:{i:0;s:7:"p_close";i:1;a:0:{}i:2;i:506;}i:24;a:3:{i:0;s:6:"p_open";i:1;a:0:{}i:2;i:506;}i:25;a:3:{i:0;s:5:"cdata";i:1;a:1:{i:0;s:25:"Step 3: Run below command";}i:2;i:508;}i:26;a:3:{i:0;s:9:"linebreak";i:1;a:0:{}i:2;i:533;}i:27;a:3:{i:0;s:5:"cdata";i:1;a:1:{i:0;s:27:"
mysql> SHOW MASTER STATUS;";}i:2;i:535;}i:28;a:3:{i:0;s:7:"p_close";i:1;a:0:{}i:2;i:562;}i:29;a:3:{i:0;s:6:"p_open";i:1;a:0:{}i:2;i:562;}i:30;a:3:{i:0;s:6:"plugin";i:1;a:4:{i:0;s:9:"code_code";i:1;a:4:{i:0;s:4:"code";i:1;N;i:2;s:0:"";i:3;s:461:"
Note: Below is output, You need to note down  ( File and Position ) only.

+------------------+-----------+--------------+------------------+
| File             | Position  | Binlog_Do_DB | Binlog_Ignore_DB |
+------------------+-----------+--------------+------------------+
| mysql-bin.011604 | 789440321 | pmytime_main |                  |
+------------------+-----------+--------------+------------------+

Note:
File: mysql-bin.011604
Position: 789440321
";}i:2;i:3;i:3;s:462:">
Note: Below is output, You need to note down  ( File and Position ) only.

+------------------+-----------+--------------+------------------+
| File             | Position  | Binlog_Do_DB | Binlog_Ignore_DB |
+------------------+-----------+--------------+------------------+
| mysql-bin.011604 | 789440321 | pmytime_main |                  |
+------------------+-----------+--------------+------------------+

Note:
File: mysql-bin.011604
Position: 789440321
";}i:2;i:569;}i:31;a:3:{i:0;s:7:"p_close";i:1;a:0:{}i:2;i:1038;}i:32;a:3:{i:0;s:6:"p_open";i:1;a:0:{}i:2;i:1038;}i:33;a:3:{i:0;s:5:"cdata";i:1;a:1:{i:0;s:46:"Step 4: Login to server ( 184.154.18.138 UI1 )";}i:2;i:1040;}i:34;a:3:{i:0;s:7:"p_close";i:1;a:0:{}i:2;i:1086;}i:35;a:3:{i:0;s:6:"p_open";i:1;a:0:{}i:2;i:1086;}i:36;a:3:{i:0;s:5:"cdata";i:1;a:1:{i:0;s:22:"Step 5: Login to mysql";}i:2;i:1088;}i:37;a:3:{i:0;s:9:"linebreak";i:1;a:0:{}i:2;i:1110;}i:38;a:3:{i:0;s:5:"cdata";i:1;a:1:{i:0;s:4:"
i.e";}i:2;i:1112;}i:39;a:3:{i:0;s:9:"linebreak";i:1;a:0:{}i:2;i:1116;}i:40;a:3:{i:0;s:5:"cdata";i:1;a:1:{i:0;s:17:"
mysql -u root -p";}i:2;i:1118;}i:41;a:3:{i:0;s:7:"p_close";i:1;a:0:{}i:2;i:1135;}i:42;a:3:{i:0;s:6:"p_open";i:1;a:0:{}i:2;i:1135;}i:43;a:3:{i:0;s:5:"cdata";i:1;a:1:{i:0;s:25:"Step 6: Run below command";}i:2;i:1137;}i:44;a:3:{i:0;s:9:"linebreak";i:1;a:0:{}i:2;i:1162;}i:45;a:3:{i:0;s:5:"cdata";i:1;a:1:{i:0;s:27:"
mysql> SHOW SLAVE STATUS\G";}i:2;i:1164;}i:46;a:3:{i:0;s:7:"p_close";i:1;a:0:{}i:2;i:1191;}i:47;a:3:{i:0;s:6:"p_open";i:1;a:0:{}i:2;i:1191;}i:48;a:3:{i:0;s:6:"plugin";i:1;a:4:{i:0;s:9:"code_code";i:1;a:4:{i:0;s:4:"code";i:1;N;i:2;s:0:"";i:3;s:157:"
Note: In output find below two line you will get Slave_IO_Running:No

Slave_IO_Running: No    (Note: Slave_IO_Running should be Yes)
Slave_SQL_Running: Yes
";}i:2;i:3;i:3;s:158:">
Note: In output find below two line you will get Slave_IO_Running:No

Slave_IO_Running: No    (Note: Slave_IO_Running should be Yes)
Slave_SQL_Running: Yes
";}i:2;i:1198;}i:49;a:3:{i:0;s:7:"p_close";i:1;a:0:{}i:2;i:1363;}i:50;a:3:{i:0;s:6:"p_open";i:1;a:0:{}i:2;i:1363;}i:51;a:3:{i:0;s:14:"underline_open";i:1;a:0:{}i:2;i:1365;}i:52;a:3:{i:0;s:5:"cdata";i:1;a:1:{i:0;s:34:"Yes To Resolve this issue perform ";}i:2;i:1367;}i:53;a:3:{i:0;s:15:"underline_close";i:1;a:0:{}i:2;i:1401;}i:54;a:3:{i:0;s:14:"underline_open";i:1;a:0:{}i:2;i:1403;}i:55;a:3:{i:0;s:5:"cdata";i:1;a:1:{i:0;s:6:"below ";}i:2;i:1405;}i:56;a:3:{i:0;s:15:"underline_close";i:1;a:0:{}i:2;i:1411;}i:57;a:3:{i:0;s:14:"underline_open";i:1;a:0:{}i:2;i:1413;}i:58;a:3:{i:0;s:5:"cdata";i:1;a:1:{i:0;s:5:"steps";}i:2;i:1415;}i:59;a:3:{i:0;s:15:"underline_close";i:1;a:0:{}i:2;i:1420;}i:60;a:3:{i:0;s:7:"p_close";i:1;a:0:{}i:2;i:1422;}i:61;a:3:{i:0;s:6:"p_open";i:1;a:0:{}i:2;i:1422;}i:62;a:3:{i:0;s:5:"cdata";i:1;a:1:{i:0;s:7:"Step 7:";}i:2;i:1424;}i:63;a:3:{i:0;s:9:"linebreak";i:1;a:0:{}i:2;i:1431;}i:64;a:3:{i:0;s:5:"cdata";i:1;a:1:{i:0;s:19:"
mysql> slave stop;";}i:2;i:1433;}i:65;a:3:{i:0;s:7:"p_close";i:1;a:0:{}i:2;i:1452;}i:66;a:3:{i:0;s:6:"p_open";i:1;a:0:{}i:2;i:1452;}i:67;a:3:{i:0;s:11:"strong_open";i:1;a:0:{}i:2;i:1454;}i:68;a:3:{i:0;s:5:"cdata";i:1;a:1:{i:0;s:99:"Kindly copy the ( File and Position) from ( 107.6.167.170 UI2 ) server which was mention in step 3.";}i:2;i:1456;}i:69;a:3:{i:0;s:9:"linebreak";i:1;a:0:{}i:2;i:1555;}i:70;a:3:{i:0;s:5:"cdata";i:1;a:1:{i:0;s:69:"
and update the command accordingly (MASTER_LOG_FILE, MASTER_LOG_POS)";}i:2;i:1557;}i:71;a:3:{i:0;s:12:"strong_close";i:1;a:0:{}i:2;i:1626;}i:72;a:3:{i:0;s:7:"p_close";i:1;a:0:{}i:2;i:1628;}i:73;a:3:{i:0;s:6:"p_open";i:1;a:0:{}i:2;i:1628;}i:74;a:3:{i:0;s:11:"strong_open";i:1;a:0:{}i:2;i:1630;}i:75;a:3:{i:0;s:5:"cdata";i:1;a:1:{i:0;s:4:"e.g.";}i:2;i:1632;}i:76;a:3:{i:0;s:9:"linebreak";i:1;a:0:{}i:2;i:1636;}i:77;a:3:{i:0;s:5:"cdata";i:1;a:1:{i:0;s:35:"
MASTER_LOG_FILE = mysql-bin.011604";}i:2;i:1638;}i:78;a:3:{i:0;s:9:"linebreak";i:1;a:0:{}i:2;i:1673;}i:79;a:3:{i:0;s:5:"cdata";i:1;a:1:{i:0;s:27:"
MASTER_LOG_POS = 789440321";}i:2;i:1675;}i:80;a:3:{i:0;s:12:"strong_close";i:1;a:0:{}i:2;i:1702;}i:81;a:3:{i:0;s:7:"p_close";i:1;a:0:{}i:2;i:1704;}i:82;a:3:{i:0;s:6:"p_open";i:1;a:0:{}i:2;i:1704;}i:83;a:3:{i:0;s:9:"linebreak";i:1;a:0:{}i:2;i:1706;}i:84;a:3:{i:0;s:5:"cdata";i:1;a:1:{i:0;s:8:"
Step 8:";}i:2;i:1708;}i:85;a:3:{i:0;s:9:"linebreak";i:1;a:0:{}i:2;i:1716;}i:86;a:3:{i:0;s:5:"cdata";i:1;a:1:{i:0;s:171:"
mysql> CHANGE MASTER TO MASTER_HOST = '107.6.167.170', MASTER_USER = 'repuser', MASTER_PASSWORD='GdfdCSww2', MASTER_LOG_FILE='mysql-bin.011604', MASTER_LOG_POS=789440321;";}i:2;i:1718;}i:87;a:3:{i:0;s:7:"p_close";i:1;a:0:{}i:2;i:1889;}i:88;a:3:{i:0;s:6:"p_open";i:1;a:0:{}i:2;i:1889;}i:89;a:3:{i:0;s:9:"linebreak";i:1;a:0:{}i:2;i:1891;}i:90;a:3:{i:0;s:5:"cdata";i:1;a:1:{i:0;s:8:"
Step 9:";}i:2;i:1893;}i:91;a:3:{i:0;s:9:"linebreak";i:1;a:0:{}i:2;i:1901;}i:92;a:3:{i:0;s:5:"cdata";i:1;a:1:{i:0;s:20:"
mysql> slave start;";}i:2;i:1903;}i:93;a:3:{i:0;s:7:"p_close";i:1;a:0:{}i:2;i:1923;}i:94;a:3:{i:0;s:6:"p_open";i:1;a:0:{}i:2;i:1923;}i:95;a:3:{i:0;s:5:"cdata";i:1;a:1:{i:0;s:8:"Step 10:";}i:2;i:1925;}i:96;a:3:{i:0;s:9:"linebreak";i:1;a:0:{}i:2;i:1933;}i:97;a:3:{i:0;s:5:"cdata";i:1;a:1:{i:0;s:27:"
mysql> SHOW SLAVE STATUS\G";}i:2;i:1935;}i:98;a:3:{i:0;s:7:"p_close";i:1;a:0:{}i:2;i:1962;}i:99;a:3:{i:0;s:6:"p_open";i:1;a:0:{}i:2;i:1962;}i:100;a:3:{i:0;s:6:"plugin";i:1;a:4:{i:0;s:9:"code_code";i:1;a:4:{i:0;s:4:"code";i:1;N;i:2;s:0:"";i:3;s:129:"
Note: In output find below two line you will get Slave_IO_Running:Yes

Slave_IO_Running: Yes
Slave_SQL_Running: Yes

Its Done !
";}i:2;i:3;i:3;s:130:">
Note: In output find below two line you will get Slave_IO_Running:Yes

Slave_IO_Running: Yes
Slave_SQL_Running: Yes

Its Done !
";}i:2;i:1969;}i:101;a:3:{i:0;s:7:"p_close";i:1;a:0:{}i:2;i:2106;}i:102;a:3:{i:0;s:12:"document_end";i:1;a:0:{}i:2;i:2106;}}