a:33:{i:0;a:3:{i:0;s:14:"document_start";i:1;a:0:{}i:2;i:0;}i:1;a:3:{i:0;s:6:"header";i:1;a:3:{i:0;s:22:"Upgrade Zimbra Version";i:1;i:1;i:2;i:1;}i:2;i:1;}i:2;a:3:{i:0;s:12:"section_open";i:1;a:1:{i:0;i:1;}i:2;i:1;}i:3;a:3:{i:0;s:6:"p_open";i:1;a:0:{}i:2;i:1;}i:4;a:3:{i:0;s:5:"cdata";i:1;a:1:{i:0;s:36:"1. Download ZCS latest version from ";}i:2;i:39;}i:5;a:3:{i:0;s:12:"externallink";i:1;a:2:{i:0;s:49:"http://www.zimbra.com/downloads/os-downloads.html";i:1;N;}i:2;i:75;}i:6;a:3:{i:0;s:5:"cdata";i:1;a:1:{i:0;s:1:".";}i:2;i:128;}i:7;a:3:{i:0;s:7:"p_close";i:1;a:0:{}i:2;i:129;}i:8;a:3:{i:0;s:6:"p_open";i:1;a:0:{}i:2;i:129;}i:9;a:3:{i:0;s:5:"cdata";i:1;a:1:{i:0;s:28:"2. Switch to the zimbra user";}i:2;i:131;}i:10;a:3:{i:0;s:7:"p_close";i:1;a:0:{}i:2;i:160;}i:11;a:3:{i:0;s:12:"preformatted";i:1;a:1:{i:0;s:21:"    sudo su - zimbra ";}i:2;i:160;}i:12;a:3:{i:0;s:6:"p_open";i:1;a:0:{}i:2;i:160;}i:13;a:3:{i:0;s:5:"cdata";i:1;a:1:{i:0;s:28:"3. Stop the Zimbra Appliance";}i:2;i:186;}i:14;a:3:{i:0;s:7:"p_close";i:1;a:0:{}i:2;i:215;}i:15;a:3:{i:0;s:12:"preformatted";i:1;a:1:{i:0;s:19:"    zmcontrol stop ";}i:2;i:215;}i:16;a:3:{i:0;s:6:"p_open";i:1;a:0:{}i:2;i:215;}i:17;a:3:{i:0;s:5:"cdata";i:1;a:1:{i:0;s:49:"4. Change directories to /opt/zimbra/conf/rights/";}i:2;i:239;}i:18;a:3:{i:0;s:7:"p_close";i:1;a:0:{}i:2;i:289;}i:19;a:3:{i:0;s:12:"preformatted";i:1;a:1:{i:0;s:31:"    cd /opt/zimbra/conf/rights/";}i:2;i:289;}i:20;a:3:{i:0;s:6:"p_open";i:1;a:0:{}i:2;i:289;}i:21;a:3:{i:0;s:5:"cdata";i:1;a:1:{i:0;s:29:"5. Delete the following file:";}i:2;i:325;}i:22;a:3:{i:0;s:7:"p_close";i:1;a:0:{}i:2;i:355;}i:23;a:3:{i:0;s:12:"preformatted";i:1;a:1:{i:0;s:41:"    rm zimbra-rights-appliance-admin.xml ";}i:2;i:355;}i:24;a:3:{i:0;s:6:"p_open";i:1;a:0:{}i:2;i:355;}i:25;a:3:{i:0;s:5:"cdata";i:1;a:1:{i:0;s:32:"6. To return to root, type exit ";}i:2;i:401;}i:26;a:3:{i:0;s:7:"p_close";i:1;a:0:{}i:2;i:433;}i:27;a:3:{i:0;s:6:"p_open";i:1;a:0:{}i:2;i:433;}i:28;a:3:{i:0;s:5:"cdata";i:1;a:1:{i:0;s:35:"7. Extract the ZCS and install it. ";}i:2;i:435;}i:29;a:3:{i:0;s:7:"p_close";i:1;a:0:{}i:2;i:470;}i:30;a:3:{i:0;s:12:"preformatted";i:1;a:1:{i:0;s:78:"      
    tar xzvf zcs-xxxxx.tgz 
    cd xzvf zcs-xxxxx
    ./install.sh
    ";}i:2;i:470;}i:31;a:3:{i:0;s:13:"section_close";i:1;a:0:{}i:2;i:470;}i:32;a:3:{i:0;s:12:"document_end";i:1;a:0:{}i:2;i:470;}}