a:46:{i:0;a:3:{i:0;s:14:"document_start";i:1;a:0:{}i:2;i:0;}i:1;a:3:{i:0;s:10:"listo_open";i:1;a:0:{}i:2;i:0;}i:2;a:3:{i:0;s:13:"listitem_open";i:1;a:1:{i:0;i:1;}i:2;i:0;}i:3;a:3:{i:0;s:16:"listcontent_open";i:1;a:0:{}i:2;i:0;}i:4;a:3:{i:0;s:5:"cdata";i:1;a:1:{i:0;s:21:" Move the files first";}i:2;i:4;}i:5;a:3:{i:0;s:17:"listcontent_close";i:1;a:0:{}i:2;i:25;}i:6;a:3:{i:0;s:14:"listitem_close";i:1;a:0:{}i:2;i:25;}i:7;a:3:{i:0;s:13:"listitem_open";i:1;a:1:{i:0;i:1;}i:2;i:25;}i:8;a:3:{i:0;s:16:"listcontent_open";i:1;a:0:{}i:2;i:25;}i:9;a:3:{i:0;s:5:"cdata";i:1;a:1:{i:0;s:92:" Check the database name from the file app/etc/local.xml and move the database to new server";}i:2;i:29;}i:10;a:3:{i:0;s:17:"listcontent_close";i:1;a:0:{}i:2;i:121;}i:11;a:3:{i:0;s:14:"listitem_close";i:1;a:0:{}i:2;i:121;}i:12;a:3:{i:0;s:13:"listitem_open";i:1;a:1:{i:0;i:1;}i:2;i:121;}i:13;a:3:{i:0;s:16:"listcontent_open";i:1;a:0:{}i:2;i:121;}i:14;a:3:{i:0;s:5:"cdata";i:1;a:1:{i:0;s:58:" Create the database user and required database connection";}i:2;i:125;}i:15;a:3:{i:0;s:17:"listcontent_close";i:1;a:0:{}i:2;i:183;}i:16;a:3:{i:0;s:14:"listitem_close";i:1;a:0:{}i:2;i:183;}i:17;a:3:{i:0;s:13:"listitem_open";i:1;a:1:{i:0;i:1;}i:2;i:183;}i:18;a:3:{i:0;s:16:"listcontent_open";i:1;a:0:{}i:2;i:183;}i:19;a:3:{i:0;s:5:"cdata";i:1;a:1:{i:0;s:22:" Clear the cache from:";}i:2;i:187;}i:20;a:3:{i:0;s:17:"listcontent_close";i:1;a:0:{}i:2;i:209;}i:21;a:3:{i:0;s:14:"listitem_close";i:1;a:0:{}i:2;i:209;}i:22;a:3:{i:0;s:11:"listo_close";i:1;a:0:{}i:2;i:209;}i:23;a:3:{i:0;s:6:"p_open";i:1;a:0:{}i:2;i:209;}i:24;a:3:{i:0;s:6:"plugin";i:1;a:4:{i:0;s:9:"code_code";i:1;a:4:{i:0;s:4:"code";i:1;N;i:2;s:0:"";i:3;s:41:"
rm -rf var/cache/*
rm -rf var/session/*
";}i:2;i:3;i:3;s:42:">
rm -rf var/cache/*
rm -rf var/session/*
";}i:2;i:215;}i:25;a:3:{i:0;s:7:"p_close";i:1;a:0:{}i:2;i:264;}i:26;a:3:{i:0;s:6:"p_open";i:1;a:0:{}i:2;i:264;}i:27;a:3:{i:0;s:5:"cdata";i:1;a:1:{i:0;s:7:"Errors:";}i:2;i:266;}i:28;a:3:{i:0;s:7:"p_close";i:1;a:0:{}i:2;i:273;}i:29;a:3:{i:0;s:10:"listo_open";i:1;a:0:{}i:2;i:273;}i:30;a:3:{i:0;s:13:"listitem_open";i:1;a:1:{i:0;i:1;}i:2;i:273;}i:31;a:3:{i:0;s:16:"listcontent_open";i:1;a:0:{}i:2;i:273;}i:32;a:3:{i:0;s:5:"cdata";i:1;a:1:{i:0;s:51:" In case of issues, enable error display on. Go to ";}i:2;i:277;}i:33;a:3:{i:0;s:18:"doublequoteopening";i:1;a:0:{}i:2;i:328;}i:34;a:3:{i:0;s:5:"cdata";i:1;a:1:{i:0;s:6:"errors";}i:2;i:329;}i:35;a:3:{i:0;s:18:"doublequoteclosing";i:1;a:0:{}i:2;i:335;}i:36;a:3:{i:0;s:5:"cdata";i:1;a:1:{i:0;s:58:" folder and rename the file local.xml.sample to local.xml.";}i:2;i:336;}i:37;a:3:{i:0;s:17:"listcontent_close";i:1;a:0:{}i:2;i:394;}i:38;a:3:{i:0;s:14:"listitem_close";i:1;a:0:{}i:2;i:394;}i:39;a:3:{i:0;s:13:"listitem_open";i:1;a:1:{i:0;i:1;}i:2;i:394;}i:40;a:3:{i:0;s:16:"listcontent_open";i:1;a:0:{}i:2;i:394;}i:41;a:3:{i:0;s:5:"cdata";i:1;a:1:{i:0;s:184:" In case the database is very large due to log_url, log_visitor, etc tables, then take backups of these tables first and then empty these tables. After that, you can move the database.";}i:2;i:398;}i:42;a:3:{i:0;s:17:"listcontent_close";i:1;a:0:{}i:2;i:582;}i:43;a:3:{i:0;s:14:"listitem_close";i:1;a:0:{}i:2;i:582;}i:44;a:3:{i:0;s:11:"listo_close";i:1;a:0:{}i:2;i:582;}i:45;a:3:{i:0;s:12:"document_end";i:1;a:0:{}i:2;i:582;}}