a:15:{i:0;a:3:{i:0;s:14:"document_start";i:1;a:0:{}i:2;i:0;}i:1;a:3:{i:0;s:6:"p_open";i:1;a:0:{}i:2;i:0;}i:2;a:3:{i:0;s:5:"cdata";i:1;a:1:{i:0;s:73:"Edit realm.properties with following code.
/etc/rundeck/realm.properties
";}i:2;i:1;}i:3;a:3:{i:0;s:6:"plugin";i:1;a:4:{i:0;s:9:"code_code";i:1;a:4:{i:0;s:4:"code";i:1;N;i:2;s:0:"";i:3;s:30:"
username:password,policyname
";}i:2;i:3;i:3;s:31:">
username:password,policyname
";}i:2;i:79;}i:4;a:3:{i:0;s:5:"cdata";i:1;a:1:{i:0;s:87:"
Add following code with your username in /var/lib/rundeck/exp/webapp/WEB-INF/web.xml 
";}i:2;i:117;}i:5;a:3:{i:0;s:6:"plugin";i:1;a:4:{i:0;s:9:"code_code";i:1;a:4:{i:0;s:4:"code";i:1;N;i:2;s:0:"";i:3;s:82:"
<security-role>
                <role-name>username</role-name>
</security-role>
";}i:2;i:3;i:3;s:83:">
<security-role>
                <role-name>username</role-name>
</security-role>
";}i:2;i:209;}i:6;a:3:{i:0;s:7:"p_close";i:1;a:0:{}i:2;i:299;}i:7;a:3:{i:0;s:6:"p_open";i:1;a:0:{}i:2;i:299;}i:8;a:3:{i:0;s:5:"cdata";i:1;a:1:{i:0;s:37:"Add your .aclpolicy in /etc/rundeck/
";}i:2;i:301;}i:9;a:3:{i:0;s:6:"plugin";i:1;a:4:{i:0;s:9:"code_code";i:1;a:4:{i:0;s:4:"code";i:1;N;i:2;s:0:"";i:3;s:22:"
policyname.aclpolicy
";}i:2;i:3;i:3;s:23:">
policyname.aclpolicy
";}i:2;i:343;}i:10;a:3:{i:0;s:5:"cdata";i:1;a:1:{i:0;s:1:"
";}i:2;i:373;}i:11;a:3:{i:0;s:6:"plugin";i:1;a:4:{i:0;s:9:"code_code";i:1;a:4:{i:0;s:4:"code";i:1;N;i:2;s:0:"";i:3;s:703:"
Sample Policy File Content:
description: username, all access.
context:
  project: 'projectname' # all projects
for:
  resource:
    - allow: '*' # allow read/create all kinds
  adhoc:
    - allow: '*' # allow read/running/killing adhoc jobs
  job: 
    - allow: '*' # allow read/write/delete/run/kill of all jobs
  node:
    - allow: '*' # allow read/run for all nodes
by:
  group: username
---

description: Username access.
context:
  application: 'rundeck'
for:
  resource:
    - allow: '*' # allow create of projects
  project:
    - allow: '*' # allow view/xaprio of all projects
  storage:
    - allow: '*' # allow read/create/update/delete for all /keys/* storage content
by:
  group: username
";}i:2;i:3;i:3;s:704:">
Sample Policy File Content:
description: username, all access.
context:
  project: 'projectname' # all projects
for:
  resource:
    - allow: '*' # allow read/create all kinds
  adhoc:
    - allow: '*' # allow read/running/killing adhoc jobs
  job: 
    - allow: '*' # allow read/write/delete/run/kill of all jobs
  node:
    - allow: '*' # allow read/run for all nodes
by:
  group: username
---

description: Username access.
context:
  application: 'rundeck'
for:
  resource:
    - allow: '*' # allow create of projects
  project:
    - allow: '*' # allow view/xaprio of all projects
  storage:
    - allow: '*' # allow read/create/update/delete for all /keys/* storage content
by:
  group: username
";}i:2;i:379;}i:12;a:3:{i:0;s:5:"cdata";i:1;a:1:{i:0;s:0:"";}i:2;i:1090;}i:13;a:3:{i:0;s:7:"p_close";i:1;a:0:{}i:2;i:1090;}i:14;a:3:{i:0;s:12:"document_end";i:1;a:0:{}i:2;i:1090;}}