a:9:{i:0;a:3:{i:0;s:14:"document_start";i:1;a:0:{}i:2;i:0;}i:1;a:3:{i:0;s:6:"p_open";i:1;a:0:{}i:2;i:0;}i:2;a:3:{i:0;s:5:"cdata";i:1;a:1:{i:0;s:69:"Install IMAPsync on the destination server and then use this command:";}i:2;i:1;}i:3;a:3:{i:0;s:7:"p_close";i:1;a:0:{}i:2;i:70;}i:4;a:3:{i:0;s:6:"p_open";i:1;a:0:{}i:2;i:70;}i:5;a:3:{i:0;s:6:"plugin";i:1;a:4:{i:0;s:9:"code_code";i:1;a:4:{i:0;s:4:"code";i:1;N;i:2;s:0:"";i:3;s:331:"
imapsync --host1 <hostname of source server> --user1 <username of source account> --password1 <password for source account> --ssl1 --host2 <hostname for destination server> --user2 <username of destination account> --password2 <password for destination account> --ssl2 --nofoldersizes --skipsize  --noauthmd5 --exclude "Contacts"
";}i:2;i:3;i:3;s:332:">
imapsync --host1 <hostname of source server> --user1 <username of source account> --password1 <password for source account> --ssl1 --host2 <hostname for destination server> --user2 <username of destination account> --password2 <password for destination account> --ssl2 --nofoldersizes --skipsize  --noauthmd5 --exclude "Contacts"
";}i:2;i:77;}i:6;a:3:{i:0;s:5:"cdata";i:1;a:1:{i:0;s:0:"";}i:2;i:416;}i:7;a:3:{i:0;s:7:"p_close";i:1;a:0:{}i:2;i:416;}i:8;a:3:{i:0;s:12:"document_end";i:1;a:0:{}i:2;i:416;}}