a:9:{i:0;a:3:{i:0;s:14:"document_start";i:1;a:0:{}i:2;i:0;}i:1;a:3:{i:0;s:6:"p_open";i:1;a:0:{}i:2;i:0;}i:2;a:3:{i:0;s:5:"cdata";i:1;a:1:{i:0;s:115:"Take backup and then comment out the following lines from the file /owncloud_install_folder/apps/files/js/files.js:";}i:2;i:1;}i:3;a:3:{i:0;s:7:"p_close";i:1;a:0:{}i:2;i:116;}i:4;a:3:{i:0;s:6:"p_open";i:1;a:0:{}i:2;i:116;}i:5;a:3:{i:0;s:6:"plugin";i:1;a:4:{i:0;s:9:"code_code";i:1;a:4:{i:0;s:4:"code";i:1;N;i:2;s:0:"";i:3;s:231:"
OC.Notification.show(t('files', 'Your storage is full, files can not be updated or synced anymore!')); 

OC.Notification.show(t('files', 'Your storage is almost full ({usedSpacePercent}%)', {usedSpacePercent: usedSpacePercent}));
";}i:2;i:3;i:3;s:232:">
OC.Notification.show(t('files', 'Your storage is full, files can not be updated or synced anymore!')); 

OC.Notification.show(t('files', 'Your storage is almost full ({usedSpacePercent}%)', {usedSpacePercent: usedSpacePercent}));
";}i:2;i:123;}i:6;a:3:{i:0;s:5:"cdata";i:1;a:1:{i:0;s:0:"";}i:2;i:362;}i:7;a:3:{i:0;s:7:"p_close";i:1;a:0:{}i:2;i:362;}i:8;a:3:{i:0;s:12:"document_end";i:1;a:0:{}i:2;i:362;}}