a:47:{i:0;a:3:{i:0;s:14:"document_start";i:1;a:0:{}i:2;i:0;}i:1;a:3:{i:0;s:6:"header";i:1;a:3:{i:0;s:34:"Mount hard disk of Xen-HVM/KVM VPS";i:1;i:1;i:2;i:1;}i:2;i:1;}i:2;a:3:{i:0;s:12:"section_open";i:1;a:1:{i:0;i:1;}i:2;i:1;}i:3;a:3:{i:0;s:6:"p_open";i:1;a:0:{}i:2;i:1;}i:4;a:3:{i:0;s:5:"cdata";i:1;a:1:{i:0;s:42:"# kpartx -av /dev/VolGroup00/<vmname_img> ";}i:2;i:52;}i:5;a:3:{i:0;s:9:"linebreak";i:1;a:0:{}i:2;i:94;}i:6;a:3:{i:0;s:5:"cdata";i:1;a:1:{i:0;s:9:"
# vgscan";}i:2;i:96;}i:7;a:3:{i:0;s:7:"p_close";i:1;a:0:{}i:2;i:105;}i:8;a:3:{i:0;s:6:"p_open";i:1;a:0:{}i:2;i:105;}i:9;a:3:{i:0;s:5:"cdata";i:1;a:1:{i:0;s:97:"Both Volume Groups of host and guest will have same name - VolGroup00. So, rename guest VolGroup:";}i:2;i:107;}i:10;a:3:{i:0;s:7:"p_close";i:1;a:0:{}i:2;i:204;}i:11;a:3:{i:0;s:6:"p_open";i:1;a:0:{}i:2;i:204;}i:12;a:3:{i:0;s:5:"cdata";i:1;a:1:{i:0;s:31:"# vgrename <uuid> VolGroup<XX> ";}i:2;i:206;}i:13;a:3:{i:0;s:9:"linebreak";i:1;a:0:{}i:2;i:237;}i:14;a:3:{i:0;s:5:"cdata";i:1;a:1:{i:0;s:45:"
uuid of VolGroups you can check in vgdisplay";}i:2;i:239;}i:15;a:3:{i:0;s:7:"p_close";i:1;a:0:{}i:2;i:284;}i:16;a:3:{i:0;s:6:"p_open";i:1;a:0:{}i:2;i:284;}i:17;a:3:{i:0;s:5:"cdata";i:1;a:1:{i:0;s:5:"Then:";}i:2;i:288;}i:18;a:3:{i:0;s:7:"p_close";i:1;a:0:{}i:2;i:293;}i:19;a:3:{i:0;s:6:"p_open";i:1;a:0:{}i:2;i:293;}i:20;a:3:{i:0;s:5:"cdata";i:1;a:1:{i:0;s:9:"# lvscan ";}i:2;i:295;}i:21;a:3:{i:0;s:9:"linebreak";i:1;a:0:{}i:2;i:304;}i:22;a:3:{i:0;s:5:"cdata";i:1;a:1:{i:0;s:29:"
# vgchange -ay VolGroup<XX> ";}i:2;i:307;}i:23;a:3:{i:0;s:9:"linebreak";i:1;a:0:{}i:2;i:336;}i:24;a:3:{i:0;s:5:"cdata";i:1;a:1:{i:0;s:9:"
# lvscan";}i:2;i:338;}i:25;a:3:{i:0;s:7:"p_close";i:1;a:0:{}i:2;i:347;}i:26;a:3:{i:0;s:6:"p_open";i:1;a:0:{}i:2;i:347;}i:27;a:3:{i:0;s:5:"cdata";i:1;a:1:{i:0;s:11:"Then mount:";}i:2;i:351;}i:28;a:3:{i:0;s:7:"p_close";i:1;a:0:{}i:2;i:362;}i:29;a:3:{i:0;s:6:"p_open";i:1;a:0:{}i:2;i:362;}i:30;a:3:{i:0;s:5:"cdata";i:1;a:1:{i:0;s:39:"# mount /dev/VolGroup<XX>/LogVol00 /mnt";}i:2;i:364;}i:31;a:3:{i:0;s:7:"p_close";i:1;a:0:{}i:2;i:403;}i:32;a:3:{i:0;s:6:"p_open";i:1;a:0:{}i:2;i:403;}i:33;a:3:{i:0;s:5:"cdata";i:1;a:1:{i:0;s:33:"Finally, the backward process is:";}i:2;i:405;}i:34;a:3:{i:0;s:7:"p_close";i:1;a:0:{}i:2;i:438;}i:35;a:3:{i:0;s:6:"p_open";i:1;a:0:{}i:2;i:438;}i:36;a:3:{i:0;s:5:"cdata";i:1;a:1:{i:0;s:14:"# umount /mnt ";}i:2;i:440;}i:37;a:3:{i:0;s:9:"linebreak";i:1;a:0:{}i:2;i:454;}i:38;a:3:{i:0;s:5:"cdata";i:1;a:1:{i:0;s:29:"
# vgchange -an VolGroup<XX> ";}i:2;i:457;}i:39;a:3:{i:0;s:9:"linebreak";i:1;a:0:{}i:2;i:486;}i:40;a:3:{i:0;s:5:"cdata";i:1;a:1:{i:0;s:42:"
# kpartx -dv /dev/VolGroup00/<vmname_img>";}i:2;i:488;}i:41;a:3:{i:0;s:7:"p_close";i:1;a:0:{}i:2;i:530;}i:42;a:3:{i:0;s:6:"p_open";i:1;a:0:{}i:2;i:530;}i:43;a:3:{i:0;s:5:"cdata";i:1;a:1:{i:0;s:354:"NOTE: There will be need to change the Volume group name of guest back to VolGroup00 for it to run. For achieving this, rename the host VolumeGroup name to something else first and then change guest's Volume Group name to VolGroup00. Then perform the backward process steps and after that you can easily switch the host's Volume Group name to VolGroup00.";}i:2;i:534;}i:44;a:3:{i:0;s:7:"p_close";i:1;a:0:{}i:2;i:888;}i:45;a:3:{i:0;s:13:"section_close";i:1;a:0:{}i:2;i:890;}i:46;a:3:{i:0;s:12:"document_end";i:1;a:0:{}i:2;i:890;}}