a:118:{i:0;a:3:{i:0;s:14:"document_start";i:1;a:0:{}i:2;i:0;}i:1;a:3:{i:0;s:6:"header";i:1;a:3:{i:0;s:0:"";i:1;i:3;i:2;i:1;}i:2;i:1;}i:2;a:3:{i:0;s:12:"section_open";i:1;a:1:{i:0;i:3;}i:2;i:1;}i:3;a:3:{i:0;s:6:"plugin";i:1;a:4:{i:0;s:7:"tag_tag";i:1;a:1:{i:0;s:15:"magento-tickets";}i:2;i:5;i:3;s:23:"{{tag>magento-tickets}}";}i:2;i:13;}i:4;a:3:{i:0;s:13:"section_close";i:1;a:0:{}i:2;i:38;}i:5;a:3:{i:0;s:6:"header";i:1;a:3:{i:0;s:66:"Customer Reset Password link is showing blank page or not working.";i:1;i:3;i:2;i:38;}i:2;i:38;}i:6;a:3:{i:0;s:12:"section_open";i:1;a:1:{i:0;i:3;}i:2;i:38;}i:7;a:3:{i:0;s:2:"hr";i:1;a:0:{}i:2;i:115;}i:8;a:3:{i:0;s:6:"p_open";i:1;a:0:{}i:2;i:115;}i:9;a:3:{i:0;s:5:"cdata";i:1;a:1:{i:0;s:143:"This issue is probably appears after patching (SUPEE-6788). Might patch not have been applied properly. To solve this issue follow below steps:";}i:2;i:122;}i:10;a:3:{i:0;s:7:"p_close";i:1;a:0:{}i:2;i:265;}i:11;a:3:{i:0;s:6:"p_open";i:1;a:0:{}i:2;i:265;}i:12;a:3:{i:0;s:5:"cdata";i:1;a:1:{i:0;s:43:"1. Move into app/design/frontend directory.";}i:2;i:267;}i:13;a:3:{i:0;s:7:"p_close";i:1;a:0:{}i:2;i:310;}i:14;a:3:{i:0;s:6:"p_open";i:1;a:0:{}i:2;i:310;}i:15;a:3:{i:0;s:5:"cdata";i:1;a:1:{i:0;s:117:"2. Search for customer.xml file in prestent directory. Most probably below are the files you get after search result:";}i:2;i:312;}i:16;a:3:{i:0;s:7:"p_close";i:1;a:0:{}i:2;i:429;}i:17;a:3:{i:0;s:6:"p_open";i:1;a:0:{}i:2;i:429;}i:18;a:3:{i:0;s:13:"emphasis_open";i:1;a:0:{}i:2;i:431;}i:19;a:3:{i:0;s:5:"cdata";i:1;a:1:{i:0;s:51:"app/design/frontend/rwd/default/layout/customer.xml";}i:2;i:433;}i:20;a:3:{i:0;s:9:"linebreak";i:1;a:0:{}i:2;i:484;}i:21;a:3:{i:0;s:5:"cdata";i:1;a:1:{i:0;s:53:"
app/design/frontend/base/default/layout/customer.xml";}i:2;i:486;}i:22;a:3:{i:0;s:14:"emphasis_close";i:1;a:0:{}i:2;i:539;}i:23;a:3:{i:0;s:7:"p_close";i:1;a:0:{}i:2;i:541;}i:24;a:3:{i:0;s:6:"p_open";i:1;a:0:{}i:2;i:541;}i:25;a:3:{i:0;s:5:"cdata";i:1;a:1:{i:0;s:123:"3. Replace pattern “customer_account_resetpassword” with “customer_account_changeforgotten”. Sample is given below:";}i:2;i:543;}i:26;a:3:{i:0;s:7:"p_close";i:1;a:0:{}i:2;i:666;}i:27;a:3:{i:0;s:6:"p_open";i:1;a:0:{}i:2;i:666;}i:28;a:3:{i:0;s:11:"strong_open";i:1;a:0:{}i:2;i:668;}i:29;a:3:{i:0;s:5:"cdata";i:1;a:1:{i:0;s:15:"Approx Line 161";}i:2;i:670;}i:30;a:3:{i:0;s:12:"strong_close";i:1;a:0:{}i:2;i:685;}i:31;a:3:{i:0;s:7:"p_close";i:1;a:0:{}i:2;i:687;}i:32;a:3:{i:0;s:6:"p_open";i:1;a:0:{}i:2;i:687;}i:33;a:3:{i:0;s:5:"cdata";i:1;a:1:{i:0;s:5:"<new ";}i:2;i:689;}i:34;a:3:{i:0;s:14:"monospace_open";i:1;a:0:{}i:2;i:694;}i:35;a:3:{i:0;s:5:"cdata";i:1;a:1:{i:0;s:44:"<customer_account_changeforgotten translate=";}i:2;i:696;}i:36;a:3:{i:0;s:18:"doublequoteopening";i:1;a:0:{}i:2;i:740;}i:37;a:3:{i:0;s:5:"cdata";i:1;a:1:{i:0;s:5:"label";}i:2;i:741;}i:38;a:3:{i:0;s:18:"doublequoteclosing";i:1;a:0:{}i:2;i:746;}i:39;a:3:{i:0;s:5:"cdata";i:1;a:1:{i:0;s:1:">";}i:2;i:747;}i:40;a:3:{i:0;s:15:"monospace_close";i:1;a:0:{}i:2;i:748;}i:41;a:3:{i:0;s:5:"cdata";i:1;a:1:{i:0;s:1:" ";}i:2;i:750;}i:42;a:3:{i:0;s:9:"linebreak";i:1;a:0:{}i:2;i:751;}i:43;a:3:{i:0;s:5:"cdata";i:1;a:1:{i:0;s:4:"
—";}i:2;i:753;}i:44;a:3:{i:0;s:9:"linebreak";i:1;a:0:{}i:2;i:757;}i:45;a:3:{i:0;s:5:"cdata";i:1;a:1:{i:0;s:6:"
old> ";}i:2;i:759;}i:46;a:3:{i:0;s:14:"monospace_open";i:1;a:0:{}i:2;i:765;}i:47;a:3:{i:0;s:5:"cdata";i:1;a:1:{i:0;s:42:"<customer_account_resetpassword translate=";}i:2;i:767;}i:48;a:3:{i:0;s:18:"doublequoteopening";i:1;a:0:{}i:2;i:809;}i:49;a:3:{i:0;s:5:"cdata";i:1;a:1:{i:0;s:5:"label";}i:2;i:810;}i:50;a:3:{i:0;s:18:"doublequoteclosing";i:1;a:0:{}i:2;i:815;}i:51;a:3:{i:0;s:5:"cdata";i:1;a:1:{i:0;s:1:">";}i:2;i:816;}i:52;a:3:{i:0;s:15:"monospace_close";i:1;a:0:{}i:2;i:817;}i:53;a:3:{i:0;s:7:"p_close";i:1;a:0:{}i:2;i:819;}i:54;a:3:{i:0;s:6:"p_open";i:1;a:0:{}i:2;i:819;}i:55;a:3:{i:0;s:11:"strong_open";i:1;a:0:{}i:2;i:821;}i:56;a:3:{i:0;s:5:"cdata";i:1;a:1:{i:0;s:15:"Approx Line 180";}i:2;i:823;}i:57;a:3:{i:0;s:12:"strong_close";i:1;a:0:{}i:2;i:838;}i:58;a:3:{i:0;s:7:"p_close";i:1;a:0:{}i:2;i:840;}i:59;a:3:{i:0;s:6:"p_open";i:1;a:0:{}i:2;i:840;}i:60;a:3:{i:0;s:5:"cdata";i:1;a:1:{i:0;s:5:"<new ";}i:2;i:842;}i:61;a:3:{i:0;s:14:"monospace_open";i:1;a:0:{}i:2;i:847;}i:62;a:3:{i:0;s:5:"cdata";i:1;a:1:{i:0;s:12:"<block type=";}i:2;i:849;}i:63;a:3:{i:0;s:18:"doublequoteopening";i:1;a:0:{}i:2;i:861;}i:64;a:3:{i:0;s:5:"cdata";i:1;a:1:{i:0;s:32:"customer/account_changeforgotten";}i:2;i:862;}i:65;a:3:{i:0;s:18:"doublequoteclosing";i:1;a:0:{}i:2;i:894;}i:66;a:3:{i:0;s:5:"cdata";i:1;a:1:{i:0;s:6:" name=";}i:2;i:895;}i:67;a:3:{i:0;s:18:"doublequoteopening";i:1;a:0:{}i:2;i:901;}i:68;a:3:{i:0;s:5:"cdata";i:1;a:1:{i:0;s:23:"changeForgottenPassword";}i:2;i:902;}i:69;a:3:{i:0;s:18:"doublequoteclosing";i:1;a:0:{}i:2;i:925;}i:70;a:3:{i:0;s:5:"cdata";i:1;a:1:{i:0;s:10:" template=";}i:2;i:926;}i:71;a:3:{i:0;s:18:"doublequoteopening";i:1;a:0:{}i:2;i:936;}i:72;a:3:{i:0;s:5:"cdata";i:1;a:1:{i:0;s:42:"customer/form/resetforgottenpassword.phtml";}i:2;i:937;}i:73;a:3:{i:0;s:18:"doublequoteclosing";i:1;a:0:{}i:2;i:979;}i:74;a:3:{i:0;s:5:"cdata";i:1;a:1:{i:0;s:2:"/>";}i:2;i:980;}i:75;a:3:{i:0;s:15:"monospace_close";i:1;a:0:{}i:2;i:982;}i:76;a:3:{i:0;s:5:"cdata";i:1;a:1:{i:0;s:1:" ";}i:2;i:984;}i:77;a:3:{i:0;s:9:"linebreak";i:1;a:0:{}i:2;i:985;}i:78;a:3:{i:0;s:5:"cdata";i:1;a:1:{i:0;s:4:"
—";}i:2;i:987;}i:79;a:3:{i:0;s:9:"linebreak";i:1;a:0:{}i:2;i:991;}i:80;a:3:{i:0;s:5:"cdata";i:1;a:1:{i:0;s:6:"
old> ";}i:2;i:993;}i:81;a:3:{i:0;s:14:"monospace_open";i:1;a:0:{}i:2;i:999;}i:82;a:3:{i:0;s:5:"cdata";i:1;a:1:{i:0;s:12:"<block type=";}i:2;i:1001;}i:83;a:3:{i:0;s:18:"doublequoteopening";i:1;a:0:{}i:2;i:1013;}i:84;a:3:{i:0;s:5:"cdata";i:1;a:1:{i:0;s:30:"customer/account_resetpassword";}i:2;i:1014;}i:85;a:3:{i:0;s:18:"doublequoteclosing";i:1;a:0:{}i:2;i:1044;}i:86;a:3:{i:0;s:5:"cdata";i:1;a:1:{i:0;s:6:" name=";}i:2;i:1045;}i:87;a:3:{i:0;s:18:"doublequoteopening";i:1;a:0:{}i:2;i:1051;}i:88;a:3:{i:0;s:5:"cdata";i:1;a:1:{i:0;s:13:"resetPassword";}i:2;i:1052;}i:89;a:3:{i:0;s:18:"doublequoteclosing";i:1;a:0:{}i:2;i:1065;}i:90;a:3:{i:0;s:5:"cdata";i:1;a:1:{i:0;s:10:" template=";}i:2;i:1066;}i:91;a:3:{i:0;s:18:"doublequoteopening";i:1;a:0:{}i:2;i:1076;}i:92;a:3:{i:0;s:5:"cdata";i:1;a:1:{i:0;s:42:"customer/form/resetforgottenpassword.phtml";}i:2;i:1077;}i:93;a:3:{i:0;s:18:"doublequoteclosing";i:1;a:0:{}i:2;i:1119;}i:94;a:3:{i:0;s:5:"cdata";i:1;a:1:{i:0;s:2:"/>";}i:2;i:1120;}i:95;a:3:{i:0;s:15:"monospace_close";i:1;a:0:{}i:2;i:1122;}i:96;a:3:{i:0;s:7:"p_close";i:1;a:0:{}i:2;i:1124;}i:97;a:3:{i:0;s:6:"p_open";i:1;a:0:{}i:2;i:1124;}i:98;a:3:{i:0;s:11:"strong_open";i:1;a:0:{}i:2;i:1126;}i:99;a:3:{i:0;s:5:"cdata";i:1;a:1:{i:0;s:15:"Approx Line 182";}i:2;i:1128;}i:100;a:3:{i:0;s:12:"strong_close";i:1;a:0:{}i:2;i:1143;}i:101;a:3:{i:0;s:7:"p_close";i:1;a:0:{}i:2;i:1145;}i:102;a:3:{i:0;s:6:"p_open";i:1;a:0:{}i:2;i:1145;}i:103;a:3:{i:0;s:5:"cdata";i:1;a:1:{i:0;s:5:"<new ";}i:2;i:1147;}i:104;a:3:{i:0;s:14:"monospace_open";i:1;a:0:{}i:2;i:1152;}i:105;a:3:{i:0;s:5:"cdata";i:1;a:1:{i:0;s:35:"</customer_account_changeforgotten>";}i:2;i:1154;}i:106;a:3:{i:0;s:15:"monospace_close";i:1;a:0:{}i:2;i:1189;}i:107;a:3:{i:0;s:5:"cdata";i:1;a:1:{i:0;s:1:" ";}i:2;i:1191;}i:108;a:3:{i:0;s:9:"linebreak";i:1;a:0:{}i:2;i:1192;}i:109;a:3:{i:0;s:5:"cdata";i:1;a:1:{i:0;s:4:"
—";}i:2;i:1194;}i:110;a:3:{i:0;s:9:"linebreak";i:1;a:0:{}i:2;i:1198;}i:111;a:3:{i:0;s:5:"cdata";i:1;a:1:{i:0;s:6:"
old> ";}i:2;i:1200;}i:112;a:3:{i:0;s:14:"monospace_open";i:1;a:0:{}i:2;i:1206;}i:113;a:3:{i:0;s:5:"cdata";i:1;a:1:{i:0;s:33:"</customer_account_resetpassword>";}i:2;i:1208;}i:114;a:3:{i:0;s:15:"monospace_close";i:1;a:0:{}i:2;i:1241;}i:115;a:3:{i:0;s:7:"p_close";i:1;a:0:{}i:2;i:1243;}i:116;a:3:{i:0;s:13:"section_close";i:1;a:0:{}i:2;i:1244;}i:117;a:3:{i:0;s:12:"document_end";i:1;a:0:{}i:2;i:1244;}}