a:111:{i:0;a:3:{i:0;s:14:"document_start";i:1;a:0:{}i:2;i:0;}i:1;a:3:{i:0;s:6:"p_open";i:1;a:0:{}i:2;i:0;}i:2;a:3:{i:0;s:5:"cdata";i:1;a:1:{i:0;s:35:"1) As root edit the following file:";}i:2;i:1;}i:3;a:3:{i:0;s:7:"p_close";i:1;a:0:{}i:2;i:36;}i:4;a:3:{i:0;s:6:"p_open";i:1;a:0:{}i:2;i:36;}i:5;a:3:{i:0;s:14:"monospace_open";i:1;a:0:{}i:2;i:38;}i:6;a:3:{i:0;s:5:"cdata";i:1;a:1:{i:0;s:32:"/opt/zimbra/conf/amavisd.conf.in";}i:2;i:40;}i:7;a:3:{i:0;s:15:"monospace_close";i:1;a:0:{}i:2;i:72;}i:8;a:3:{i:0;s:7:"p_close";i:1;a:0:{}i:2;i:74;}i:9;a:3:{i:0;s:6:"p_open";i:1;a:0:{}i:2;i:74;}i:10;a:3:{i:0;s:5:"cdata";i:1;a:1:{i:0;s:23:"In the above file find:";}i:2;i:76;}i:11;a:3:{i:0;s:7:"p_close";i:1;a:0:{}i:2;i:99;}i:12;a:3:{i:0;s:6:"p_open";i:1;a:0:{}i:2;i:99;}i:13;a:3:{i:0;s:14:"monospace_open";i:1;a:0:{}i:2;i:101;}i:14;a:3:{i:0;s:5:"cdata";i:1;a:1:{i:0;s:45:"@disclaimer_options_bysender_maps = (
 { '.' ";}i:2;i:103;}i:15;a:3:{i:0;s:6:"entity";i:1;a:1:{i:0;s:2:"=>";}i:2;i:148;}i:16;a:3:{i:0;s:5:"cdata";i:1;a:1:{i:0;s:26:" 'global-default' },
  );
";}i:2;i:150;}i:17;a:3:{i:0;s:15:"monospace_close";i:1;a:0:{}i:2;i:176;}i:18;a:3:{i:0;s:7:"p_close";i:1;a:0:{}i:2;i:178;}i:19;a:3:{i:0;s:6:"p_open";i:1;a:0:{}i:2;i:178;}i:20;a:3:{i:0;s:5:"cdata";i:1;a:1:{i:0;s:43:"2) Add the custom disclaimer to your domain";}i:2;i:180;}i:21;a:3:{i:0;s:7:"p_close";i:1;a:0:{}i:2;i:223;}i:22;a:3:{i:0;s:6:"p_open";i:1;a:0:{}i:2;i:223;}i:23;a:3:{i:0;s:14:"monospace_open";i:1;a:0:{}i:2;i:225;}i:24;a:3:{i:0;s:5:"cdata";i:1;a:1:{i:0;s:69:"@disclaimer_options_bysender_maps = (
  { '.zimbra11.mantragrid.com' ";}i:2;i:227;}i:25;a:3:{i:0;s:6:"entity";i:1;a:1:{i:0;s:2:"=>";}i:2;i:296;}i:26;a:3:{i:0;s:5:"cdata";i:1;a:1:{i:0;s:22:" 'example' },
  { '.' ";}i:2;i:298;}i:27;a:3:{i:0;s:6:"entity";i:1;a:1:{i:0;s:2:"=>";}i:2;i:320;}i:28;a:3:{i:0;s:5:"cdata";i:1;a:1:{i:0;s:23:" 'global-default' },
);";}i:2;i:322;}i:29;a:3:{i:0;s:15:"monospace_close";i:1;a:0:{}i:2;i:345;}i:30;a:3:{i:0;s:7:"p_close";i:1;a:0:{}i:2;i:347;}i:31;a:3:{i:0;s:6:"p_open";i:1;a:0:{}i:2;i:347;}i:32;a:3:{i:0;s:5:"cdata";i:1;a:1:{i:0;s:14:"save and close";}i:2;i:349;}i:33;a:3:{i:0;s:7:"p_close";i:1;a:0:{}i:2;i:363;}i:34;a:3:{i:0;s:6:"p_open";i:1;a:0:{}i:2;i:363;}i:35;a:3:{i:0;s:5:"cdata";i:1;a:1:{i:0;s:32:"3) Go to the following directory";}i:2;i:365;}i:36;a:3:{i:0;s:7:"p_close";i:1;a:0:{}i:2;i:397;}i:37;a:3:{i:0;s:6:"p_open";i:1;a:0:{}i:2;i:397;}i:38;a:3:{i:0;s:14:"monospace_open";i:1;a:0:{}i:2;i:399;}i:39;a:3:{i:0;s:5:"cdata";i:1;a:1:{i:0;s:26:"/opt/zimbra/data/altermime";}i:2;i:401;}i:40;a:3:{i:0;s:15:"monospace_close";i:1;a:0:{}i:2;i:427;}i:41;a:3:{i:0;s:7:"p_close";i:1;a:0:{}i:2;i:429;}i:42;a:3:{i:0;s:6:"p_open";i:1;a:0:{}i:2;i:429;}i:43;a:3:{i:0;s:5:"cdata";i:1;a:1:{i:0;s:36:" There should already be two files: ";}i:2;i:431;}i:44;a:3:{i:0;s:7:"p_close";i:1;a:0:{}i:2;i:467;}i:45;a:3:{i:0;s:6:"p_open";i:1;a:0:{}i:2;i:467;}i:46;a:3:{i:0;s:14:"monospace_open";i:1;a:0:{}i:2;i:469;}i:47;a:3:{i:0;s:5:"cdata";i:1;a:1:{i:0;s:43:"global-default.txt and global-default.html.";}i:2;i:471;}i:48;a:3:{i:0;s:15:"monospace_close";i:1;a:0:{}i:2;i:514;}i:49;a:3:{i:0;s:5:"cdata";i:1;a:1:{i:0;s:43:"
These are the existing global signatures. ";}i:2;i:516;}i:50;a:3:{i:0;s:7:"p_close";i:1;a:0:{}i:2;i:560;}i:51;a:3:{i:0;s:6:"p_open";i:1;a:0:{}i:2;i:560;}i:52;a:3:{i:0;s:5:"cdata";i:1;a:1:{i:0;s:29:"For our purpose we'll create:";}i:2;i:563;}i:53;a:3:{i:0;s:7:"p_close";i:1;a:0:{}i:2;i:592;}i:54;a:3:{i:0;s:6:"p_open";i:1;a:0:{}i:2;i:592;}i:55;a:3:{i:0;s:14:"monospace_open";i:1;a:0:{}i:2;i:594;}i:56;a:3:{i:0;s:5:"cdata";i:1;a:1:{i:0;s:28:"example.txt and example.html";}i:2;i:596;}i:57;a:3:{i:0;s:15:"monospace_close";i:1;a:0:{}i:2;i:624;}i:58;a:3:{i:0;s:7:"p_close";i:1;a:0:{}i:2;i:626;}i:59;a:3:{i:0;s:6:"p_open";i:1;a:0:{}i:2;i:626;}i:60;a:3:{i:0;s:5:"cdata";i:1;a:1:{i:0;s:171:"But since a text signature won't allow transmission of images and links we'll only create example.html
This file will be parsed as html so you can add any html code to it.";}i:2;i:628;}i:61;a:3:{i:0;s:7:"p_close";i:1;a:0:{}i:2;i:799;}i:62;a:3:{i:0;s:6:"p_open";i:1;a:0:{}i:2;i:799;}i:63;a:3:{i:0;s:5:"cdata";i:1;a:1:{i:0;s:25:"4) switch to zimbra user:";}i:2;i:801;}i:64;a:3:{i:0;s:7:"p_close";i:1;a:0:{}i:2;i:826;}i:65;a:3:{i:0;s:6:"p_open";i:1;a:0:{}i:2;i:826;}i:66;a:3:{i:0;s:14:"monospace_open";i:1;a:0:{}i:2;i:828;}i:67;a:3:{i:0;s:5:"cdata";i:1;a:1:{i:0;s:11:"su - zimbra";}i:2;i:830;}i:68;a:3:{i:0;s:15:"monospace_close";i:1;a:0:{}i:2;i:841;}i:69;a:3:{i:0;s:7:"p_close";i:1;a:0:{}i:2;i:843;}i:70;a:3:{i:0;s:6:"p_open";i:1;a:0:{}i:2;i:843;}i:71;a:3:{i:0;s:5:"cdata";i:1;a:1:{i:0;s:64:"5) Run the following command as zimbra user to enable signature:";}i:2;i:845;}i:72;a:3:{i:0;s:7:"p_close";i:1;a:0:{}i:2;i:909;}i:73;a:3:{i:0;s:6:"p_open";i:1;a:0:{}i:2;i:909;}i:74;a:3:{i:0;s:14:"monospace_open";i:1;a:0:{}i:2;i:911;}i:75;a:3:{i:0;s:5:"cdata";i:1;a:1:{i:0;s:57:"zmprov mcf zimbraDomainMandatoryMailSignatureEnabled TRUE";}i:2;i:913;}i:76;a:3:{i:0;s:15:"monospace_close";i:1;a:0:{}i:2;i:970;}i:77;a:3:{i:0;s:7:"p_close";i:1;a:0:{}i:2;i:972;}i:78;a:3:{i:0;s:6:"p_open";i:1;a:0:{}i:2;i:972;}i:79;a:3:{i:0;s:5:"cdata";i:1;a:1:{i:0;s:26:"6) Restart amavisd service";}i:2;i:974;}i:80;a:3:{i:0;s:7:"p_close";i:1;a:0:{}i:2;i:1000;}i:81;a:3:{i:0;s:6:"p_open";i:1;a:0:{}i:2;i:1000;}i:82;a:3:{i:0;s:14:"monospace_open";i:1;a:0:{}i:2;i:1002;}i:83;a:3:{i:0;s:5:"cdata";i:1;a:1:{i:0;s:20:"zmamavisdctl restart";}i:2;i:1004;}i:84;a:3:{i:0;s:15:"monospace_close";i:1;a:0:{}i:2;i:1024;}i:85;a:3:{i:0;s:7:"p_close";i:1;a:0:{}i:2;i:1026;}i:86;a:3:{i:0;s:6:"p_open";i:1;a:0:{}i:2;i:1026;}i:87;a:3:{i:0;s:5:"cdata";i:1;a:1:{i:0;s:46:"7) Now open Zimbra admin panel and navigate to";}i:2;i:1028;}i:88;a:3:{i:0;s:7:"p_close";i:1;a:0:{}i:2;i:1074;}i:89;a:3:{i:0;s:6:"p_open";i:1;a:0:{}i:2;i:1074;}i:90;a:3:{i:0;s:5:"cdata";i:1;a:1:{i:0;s:13:"Configuration";}i:2;i:1076;}i:91;a:3:{i:0;s:6:"entity";i:1;a:1:{i:0;s:2:"--";}i:2;i:1089;}i:92;a:3:{i:0;s:5:"cdata";i:1;a:1:{i:0;s:18:"> Class of Service";}i:2;i:1091;}i:93;a:3:{i:0;s:6:"entity";i:1;a:1:{i:0;s:2:"--";}i:2;i:1109;}i:94;a:3:{i:0;s:5:"cdata";i:1;a:1:{i:0;s:12:">Preferences";}i:2;i:1111;}i:95;a:3:{i:0;s:6:"entity";i:1;a:1:{i:0;s:2:"--";}i:2;i:1123;}i:96;a:3:{i:0;s:5:"cdata";i:1;a:1:{i:0;s:20:">Composing Mails
In ";}i:2;i:1125;}i:97;a:3:{i:0;s:18:"doublequoteopening";i:1;a:0:{}i:2;i:1145;}i:98;a:3:{i:0;s:5:"cdata";i:1;a:1:{i:0;s:25:"Always Compose Mail Using";}i:2;i:1146;}i:99;a:3:{i:0;s:18:"doublequoteclosing";i:1;a:0:{}i:2;i:1171;}i:100;a:3:{i:0;s:5:"cdata";i:1;a:1:{i:0;s:8:" select ";}i:2;i:1172;}i:101;a:3:{i:0;s:7:"acronym";i:1;a:1:{i:0;s:4:"HTML";}i:2;i:1180;}i:102;a:3:{i:0;s:7:"p_close";i:1;a:0:{}i:2;i:1184;}i:103;a:3:{i:0;s:6:"p_open";i:1;a:0:{}i:2;i:1184;}i:104;a:3:{i:0;s:5:"cdata";i:1;a:1:{i:0;s:21:"Save and you're done.";}i:2;i:1186;}i:105;a:3:{i:0;s:7:"p_close";i:1;a:0:{}i:2;i:1207;}i:106;a:3:{i:0;s:6:"p_open";i:1;a:0:{}i:2;i:1207;}i:107;a:3:{i:0;s:5:"cdata";i:1;a:1:{i:0;s:19:"Sample example.html";}i:2;i:1209;}i:108;a:3:{i:0;s:7:"p_close";i:1;a:0:{}i:2;i:1229;}i:109;a:3:{i:0;s:12:"preformatted";i:1;a:1:{i:0;s:1663:" <html>
 <body>
 <br>
 <br>
 <a href="http://nexiilabs.com/" target="_blank"> <img src="http://i62.tinypic.com/33yi0zm.png" border="0">    </a>
 <br>
 <a href="https://www.facebook.com/nexii.labs?ref=hl" target="_blank"> <img   src="http://i57.tinypic.com/29c8nc2.png" border="0"></a>
 <a href="https://plus.google.com/b/100475138483543639295/+Nexiilabs/posts" target="_blank"> <img src="http://i62.tinypic.com/205txjt.png" border="0"></a>
 <a href="http://www.youtube.com/channel/UCXKfSJ-z3tEkyFSZiFcr9xw" target="_blank"> <img src="http://i60.tinypic.com/2z7pg7b.png" border="0"></a>
 <a href="https://twitter.com/Nexiilabs1" target="_blank"> <img src="http://i61.tinypic.com/330zmld.png" border="0"></a>
 <a href="http://www.linkedin.com/company/nexiilabs" target="_blank"> <img src="http://i60.tinypic.com/eip5qc.png" border="0"></a>
 <a href="http://www.flickr.com/photos/109175437@N06/" target="_blank"> <img src="http://i61.tinypic.com/30ths1l.png" border="0"></a>
 <br>
 ---------------------------------------------------
 <br>
 <div>
 <span style="font-size:xx-small;font-family:tahoma,new york,times,serif">
 Disclaimer : This message is confidential. It may also be privileged or otherwise protected by work product   immunity or other legal rules. If you have received it by mistake, please let us know by e-mail reply and   delete it from your system; you may not copy this message or disclose its contents to anyone. Please send us by   fax any message containing deadlines as incoming e-mails are not screened for response deadlines. The integrity   and security of this message cannot be guaranteed on the Internet.
</span>
</div>
</body>
</html>";}i:2;i:1229;}i:110;a:3:{i:0;s:12:"document_end";i:1;a:0:{}i:2;i:1229;}}