a:9:{i:0;a:3:{i:0;s:14:"document_start";i:1;a:0:{}i:2;i:0;}i:1;a:3:{i:0;s:6:"header";i:1;a:3:{i:0;s:61:"Remove recording options from General Settings page (Elastix)";i:1;i:1;i:2;i:1;}i:2;i:1;}i:2;a:3:{i:0;s:12:"section_open";i:1;a:1:{i:0;i:1;}i:2;i:1;}i:3;a:3:{i:0;s:6:"p_open";i:1;a:0:{}i:2;i:1;}i:4;a:3:{i:0;s:6:"plugin";i:1;a:4:{i:0;s:9:"code_code";i:1;a:4:{i:0;s:4:"code";i:1;N;i:2;s:0:"";i:3;s:3719:"
Edit the file /var/www/html/admin/modules/core/page.general.php

Comment out the following section:

---------------------------------------------------------------------------------------------------------------------------------------------------------------------

<h5><?php echo _("Call Recording")?></h5>

<table>

        <tr><td>

        <a href=# class="info"><?php echo _("Extension Recording Override:")?><span>

        <?php echo _("This will override the recording settings of all extensions/users. If enabled, the system will ignore all Record Always settings of a user and will not turn on recording. This does not effect On Demand recording controlled by the dial options 'w' and 'W' above. It does not effect other recording settings in modules such as Queues and Conferences. If you don't use recordings, setting this is beneficial to system performance as it removes the check that is otherwise done on every single call."); ?></span></a>

        </td><td align="right">

        <select name="RECORDING_STATE" tabindex="<?php echo ++$tabindex;?>">

                <option value="DISABLED"  <?php  echo ($RECORDING_STATE == 'DISABLED' ? 'SELECTED' : '')?>><?php echo _("Enabled")?>

                <option value="ENABLED"   <?php  echo ($RECORDING_STATE == 'ENABLED'  ? 'SELECTED' : '')?>><?php echo _("Disabled")?>

        </select>

        </td></tr>

        <tr><td>

  <a href=# class="info"><?php echo _("Call recording format:")?><span>

  <?php echo _("Pick the format in which to save recorded calls")?>

  </span></a>

        </td><td align="right">

  <select name="MIXMON_FORMAT" tabindex="<?php echo ++$tabindex;?>">

  <option value="WAV"<?php if ($MIXMON_FORMAT == "WAV") echo " SELECTED"; ?>><?php echo _("WAV"); ?></option>

  <option value="wav"<?php if ($MIXMON_FORMAT == "wav") echo " SELECTED"; ?>><?php echo _("wav"); ?></option>

  <option value="ulaw"<?php if ($MIXMON_FORMAT == "ulaw") echo " SELECTED"; ?>><?php echo _("ulaw"); ?></option>

  <option value="alaw"<?php if ($MIXMON_FORMAT == "alaw") echo " SELECTED"; ?>><?php echo _("alaw"); ?></option>

  <option value="sln"<?php if ($MIXMON_FORMAT == "sln") echo " SELECTED"; ?>><?php echo _("sln"); ?></option>

  <option value="gsm"<?php if ($MIXMON_FORMAT == "gsm") echo " SELECTED"; ?>><?php echo _("gsm"); ?></option>

  <option value="g729"<?php if ($MIXMON_FORMAT == "g729") echo " SELECTED"; ?>><?php echo _("g729"); ?></option>

  </select>

        </td></tr>

        <tr><td>

  <a href=# class="info"><?php echo _("Recording Location:")?><span>

  <?php echo _("Override the default location where asterisk will store call recordings. Include the trailing /. Be sure to set proper permissions on the directory for the asterisk user.")?><br>

  </span></a>

        </td><td align="right">

  <input type="text" size="30" name="MIXMON_DIR" value="<?php  echo htmlspecialchars($MIXMON_DIR)?>" tabindex="<?php echo ++$tabindex;?>"/>

        </td></tr>

        <tr><td>

  <a href=# class="info"><?php echo _("Run after record:")?><span>

  <?php echo _("An optional script to be run after the call is hungup. You can include channel and MixMon variables like \${CALLFILENAME}, \${MIXMON_FORMAT} and \${MIXMON_DIR}. To ensure that you variables are properly escaped, use the following notation: ^{MY_VAR}")?><br>

  </span></a>

        </td><td align="right">

  <input type="text" size="30" name="MIXMON_POST" value="<?php  echo htmlspecialchars($MIXMON_POST)?>" tabindex="<?php echo ++$tabindex;?>"/>

        </td></tr>

</table>

---------------------------------------------------------------------------------------------------------------------------------------------------------------------

";}i:2;i:3;i:3;s:3720:">
Edit the file /var/www/html/admin/modules/core/page.general.php

Comment out the following section:

---------------------------------------------------------------------------------------------------------------------------------------------------------------------

<h5><?php echo _("Call Recording")?></h5>

<table>

        <tr><td>

        <a href=# class="info"><?php echo _("Extension Recording Override:")?><span>

        <?php echo _("This will override the recording settings of all extensions/users. If enabled, the system will ignore all Record Always settings of a user and will not turn on recording. This does not effect On Demand recording controlled by the dial options 'w' and 'W' above. It does not effect other recording settings in modules such as Queues and Conferences. If you don't use recordings, setting this is beneficial to system performance as it removes the check that is otherwise done on every single call."); ?></span></a>

        </td><td align="right">

        <select name="RECORDING_STATE" tabindex="<?php echo ++$tabindex;?>">

                <option value="DISABLED"  <?php  echo ($RECORDING_STATE == 'DISABLED' ? 'SELECTED' : '')?>><?php echo _("Enabled")?>

                <option value="ENABLED"   <?php  echo ($RECORDING_STATE == 'ENABLED'  ? 'SELECTED' : '')?>><?php echo _("Disabled")?>

        </select>

        </td></tr>

        <tr><td>

  <a href=# class="info"><?php echo _("Call recording format:")?><span>

  <?php echo _("Pick the format in which to save recorded calls")?>

  </span></a>

        </td><td align="right">

  <select name="MIXMON_FORMAT" tabindex="<?php echo ++$tabindex;?>">

  <option value="WAV"<?php if ($MIXMON_FORMAT == "WAV") echo " SELECTED"; ?>><?php echo _("WAV"); ?></option>

  <option value="wav"<?php if ($MIXMON_FORMAT == "wav") echo " SELECTED"; ?>><?php echo _("wav"); ?></option>

  <option value="ulaw"<?php if ($MIXMON_FORMAT == "ulaw") echo " SELECTED"; ?>><?php echo _("ulaw"); ?></option>

  <option value="alaw"<?php if ($MIXMON_FORMAT == "alaw") echo " SELECTED"; ?>><?php echo _("alaw"); ?></option>

  <option value="sln"<?php if ($MIXMON_FORMAT == "sln") echo " SELECTED"; ?>><?php echo _("sln"); ?></option>

  <option value="gsm"<?php if ($MIXMON_FORMAT == "gsm") echo " SELECTED"; ?>><?php echo _("gsm"); ?></option>

  <option value="g729"<?php if ($MIXMON_FORMAT == "g729") echo " SELECTED"; ?>><?php echo _("g729"); ?></option>

  </select>

        </td></tr>

        <tr><td>

  <a href=# class="info"><?php echo _("Recording Location:")?><span>

  <?php echo _("Override the default location where asterisk will store call recordings. Include the trailing /. Be sure to set proper permissions on the directory for the asterisk user.")?><br>

  </span></a>

        </td><td align="right">

  <input type="text" size="30" name="MIXMON_DIR" value="<?php  echo htmlspecialchars($MIXMON_DIR)?>" tabindex="<?php echo ++$tabindex;?>"/>

        </td></tr>

        <tr><td>

  <a href=# class="info"><?php echo _("Run after record:")?><span>

  <?php echo _("An optional script to be run after the call is hungup. You can include channel and MixMon variables like \${CALLFILENAME}, \${MIXMON_FORMAT} and \${MIXMON_DIR}. To ensure that you variables are properly escaped, use the following notation: ^{MY_VAR}")?><br>

  </span></a>

        </td><td align="right">

  <input type="text" size="30" name="MIXMON_POST" value="<?php  echo htmlspecialchars($MIXMON_POST)?>" tabindex="<?php echo ++$tabindex;?>"/>

        </td></tr>

</table>

---------------------------------------------------------------------------------------------------------------------------------------------------------------------

";}i:2;i:83;}i:5;a:3:{i:0;s:5:"cdata";i:1;a:1:{i:0;s:0:"";}i:2;i:3810;}i:6;a:3:{i:0;s:7:"p_close";i:1;a:0:{}i:2;i:3810;}i:7;a:3:{i:0;s:13:"section_close";i:1;a:0:{}i:2;i:3810;}i:8;a:3:{i:0;s:12:"document_end";i:1;a:0:{}i:2;i:3810;}}