a:9:{i:0;a:3:{i:0;s:14:"document_start";i:1;a:0:{}i:2;i:0;}i:1;a:3:{i:0;s:6:"header";i:1;a:3:{i:0;s:50:"NAGIOS - Add a public monitoring check (http/ping)";i:1;i:1;i:2;i:1;}i:2;i:1;}i:2;a:3:{i:0;s:12:"section_open";i:1;a:1:{i:0;i:1;}i:2;i:1;}i:3;a:3:{i:0;s:6:"p_open";i:1;a:0:{}i:2;i:1;}i:4;a:3:{i:0;s:6:"plugin";i:1;a:4:{i:0;s:9:"code_code";i:1;a:4:{i:0;s:4:"code";i:1;N;i:2;s:0:"";i:3;s:1405:"
Edit the configuration file for the appropriate server check type (In folder /usr/local/nagios/etc/objects/).

 

Add the following lines for http check:

define host{

          use       <template_name>     ; Inherit default values from a template

          host_name <hostname>    ; The name we're giving to this server

          alias     <any_nickname> ; A longer name for the server

          address   <IP/Hostname>   ; IP address of the server

          }

define service{

          use                 generic-service

          host_name      <hostname/URL to check http for>

          service_description <check_name>

          check_command       check_http

          }

 

Add the following lines for ping check:

 

define host{

          use       <template_name>     ; Inherit default values from a template

          host_name <hostname>    ; The name we're giving to this server

          alias     <any_nickname> ; A longer name for the server

          address   <IP/Hostname>   ; IP address of the server

          }

define service{

          use                 generic-service

          host_name      <hostname/URL/IP to check ping for>

          service_description <check_name>

          check_command       check_ping!<warning ping reply time(ex: 50.0)>,<packet loss percent>%!<critical ping reply time(ex:100.0)>,<critical packet loss percent>%

          }
";}i:2;i:3;i:3;s:1406:">
Edit the configuration file for the appropriate server check type (In folder /usr/local/nagios/etc/objects/).

 

Add the following lines for http check:

define host{

          use       <template_name>     ; Inherit default values from a template

          host_name <hostname>    ; The name we're giving to this server

          alias     <any_nickname> ; A longer name for the server

          address   <IP/Hostname>   ; IP address of the server

          }

define service{

          use                 generic-service

          host_name      <hostname/URL to check http for>

          service_description <check_name>

          check_command       check_http

          }

 

Add the following lines for ping check:

 

define host{

          use       <template_name>     ; Inherit default values from a template

          host_name <hostname>    ; The name we're giving to this server

          alias     <any_nickname> ; A longer name for the server

          address   <IP/Hostname>   ; IP address of the server

          }

define service{

          use                 generic-service

          host_name      <hostname/URL/IP to check ping for>

          service_description <check_name>

          check_command       check_ping!<warning ping reply time(ex: 50.0)>,<packet loss percent>%!<critical ping reply time(ex:100.0)>,<critical packet loss percent>%

          }
";}i:2;i:73;}i:5;a:3:{i:0;s:5:"cdata";i:1;a:1:{i:0;s:0:"";}i:2;i:1486;}i:6;a:3:{i:0;s:7:"p_close";i:1;a:0:{}i:2;i:1486;}i:7;a:3:{i:0;s:13:"section_close";i:1;a:0:{}i:2;i:1486;}i:8;a:3:{i:0;s:12:"document_end";i:1;a:0:{}i:2;i:1486;}}