a:101:{i:0;a:3:{i:0;s:14:"document_start";i:1;a:0:{}i:2;i:0;}i:1;a:3:{i:0;s:6:"header";i:1;a:3:{i:0;s:38:"Automated cPanel install on new server";i:1;i:1;i:2;i:1;}i:2;i:1;}i:2;a:3:{i:0;s:12:"section_open";i:1;a:1:{i:0;i:1;}i:2;i:1;}i:3;a:3:{i:0;s:6:"p_open";i:1;a:0:{}i:2;i:1;}i:4;a:3:{i:0;s:5:"cdata";i:1;a:1:{i:0;s:49:"1. Disable selinux (if enabled) on VM and reboot.";}i:2;i:55;}i:5;a:3:{i:0;s:7:"p_close";i:1;a:0:{}i:2;i:104;}i:6;a:3:{i:0;s:6:"p_open";i:1;a:0:{}i:2;i:104;}i:7;a:3:{i:0;s:5:"cdata";i:1;a:1:{i:0;s:88:"2. Login to Ansible master and add the VM IP to ansible hosts file. (/etc/ansible/hosts)";}i:2;i:106;}i:8;a:3:{i:0;s:7:"p_close";i:1;a:0:{}i:2;i:194;}i:9;a:3:{i:0;s:6:"p_open";i:1;a:0:{}i:2;i:194;}i:10;a:3:{i:0;s:5:"cdata";i:1;a:1:{i:0;s:48:"3. Type the following command in Ansible master:";}i:2;i:196;}i:11;a:3:{i:0;s:7:"p_close";i:1;a:0:{}i:2;i:244;}i:12;a:3:{i:0;s:6:"p_open";i:1;a:0:{}i:2;i:244;}i:13;a:3:{i:0;s:6:"plugin";i:1;a:4:{i:0;s:9:"code_code";i:1;a:4:{i:0;s:4:"code";i:1;N;i:2;s:0:"";i:3;s:71:"ansible-playbook -l <VM_IP> /scripts/full_cpanel_install.yml --ask-pass";}i:2;i:3;i:3;s:72:">ansible-playbook -l <VM_IP> /scripts/full_cpanel_install.yml --ask-pass";}i:2;i:251;}i:14;a:3:{i:0;s:7:"p_close";i:1;a:0:{}i:2;i:330;}i:15;a:3:{i:0;s:6:"p_open";i:1;a:0:{}i:2;i:330;}i:16;a:3:{i:0;s:5:"cdata";i:1;a:1:{i:0;s:32:"This will install the following:";}i:2;i:332;}i:17;a:3:{i:0;s:7:"p_close";i:1;a:0:{}i:2;i:364;}i:18;a:3:{i:0;s:10:"listu_open";i:1;a:0:{}i:2;i:364;}i:19;a:3:{i:0;s:13:"listitem_open";i:1;a:1:{i:0;i:1;}i:2;i:364;}i:20;a:3:{i:0;s:16:"listcontent_open";i:1;a:0:{}i:2;i:364;}i:21;a:3:{i:0;s:5:"cdata";i:1;a:1:{i:0;s:7:" cPanel";}i:2;i:368;}i:22;a:3:{i:0;s:17:"listcontent_close";i:1;a:0:{}i:2;i:375;}i:23;a:3:{i:0;s:14:"listitem_close";i:1;a:0:{}i:2;i:375;}i:24;a:3:{i:0;s:13:"listitem_open";i:1;a:1:{i:0;i:1;}i:2;i:375;}i:25;a:3:{i:0;s:16:"listcontent_open";i:1;a:0:{}i:2;i:375;}i:26;a:3:{i:0;s:5:"cdata";i:1;a:1:{i:0;s:32:" ConfigServer Mail Queue Manager";}i:2;i:379;}i:27;a:3:{i:0;s:17:"listcontent_close";i:1;a:0:{}i:2;i:411;}i:28;a:3:{i:0;s:14:"listitem_close";i:1;a:0:{}i:2;i:411;}i:29;a:3:{i:0;s:13:"listitem_open";i:1;a:1:{i:0;i:1;}i:2;i:411;}i:30;a:3:{i:0;s:16:"listcontent_open";i:1;a:0:{}i:2;i:411;}i:31;a:3:{i:0;s:5:"cdata";i:1;a:1:{i:0;s:26:" ConfigServer Mail Manager";}i:2;i:415;}i:32;a:3:{i:0;s:17:"listcontent_close";i:1;a:0:{}i:2;i:441;}i:33;a:3:{i:0;s:14:"listitem_close";i:1;a:0:{}i:2;i:441;}i:34;a:3:{i:0;s:13:"listitem_open";i:1;a:1:{i:0;i:1;}i:2;i:441;}i:35;a:3:{i:0;s:16:"listcontent_open";i:1;a:0:{}i:2;i:441;}i:36;a:3:{i:0;s:5:"cdata";i:1;a:1:{i:0;s:35:" CSF firewall and configure it also";}i:2;i:445;}i:37;a:3:{i:0;s:17:"listcontent_close";i:1;a:0:{}i:2;i:480;}i:38;a:3:{i:0;s:14:"listitem_close";i:1;a:0:{}i:2;i:480;}i:39;a:3:{i:0;s:13:"listitem_open";i:1;a:1:{i:0;i:1;}i:2;i:480;}i:40;a:3:{i:0;s:16:"listcontent_open";i:1;a:0:{}i:2;i:480;}i:41;a:3:{i:0;s:5:"cdata";i:1;a:1:{i:0;s:37:" Malware detect and configure it also";}i:2;i:484;}i:42;a:3:{i:0;s:17:"listcontent_close";i:1;a:0:{}i:2;i:521;}i:43;a:3:{i:0;s:14:"listitem_close";i:1;a:0:{}i:2;i:521;}i:44;a:3:{i:0;s:11:"listu_close";i:1;a:0:{}i:2;i:521;}i:45;a:3:{i:0;s:6:"p_open";i:1;a:0:{}i:2;i:521;}i:46;a:3:{i:0;s:5:"cdata";i:1;a:1:{i:0;s:56:"This will also take care of the following exim changes:
";}i:2;i:523;}i:47;a:3:{i:0;s:6:"plugin";i:1;a:4:{i:0;s:9:"code_code";i:1;a:4:{i:0;s:4:"code";i:1;N;i:2;s:0:"";i:3;s:48:"deliver_queue_load_max = 15
queue_only_load = 20";}i:2;i:3;i:3;s:49:">deliver_queue_load_max = 15
queue_only_load = 20";}i:2;i:584;}i:48;a:3:{i:0;s:7:"p_close";i:1;a:0:{}i:2;i:640;}i:49;a:3:{i:0;s:6:"p_open";i:1;a:0:{}i:2;i:640;}i:50;a:3:{i:0;s:5:"cdata";i:1;a:1:{i:0;s:45:"It will also apply the Symlink Disable patch
";}i:2;i:642;}i:51;a:3:{i:0;s:6:"plugin";i:1;a:4:{i:0;s:9:"code_code";i:1;a:4:{i:0;s:4:"code";i:1;N;i:2;s:0:"";i:3;s:119:"wget http://layer1.rack911.com/before_apache_make -O /scripts/before_apache_make
chmod 700 /scripts/before_apache_make
";}i:2;i:3;i:3;s:120:">wget http://layer1.rack911.com/before_apache_make -O /scripts/before_apache_make
chmod 700 /scripts/before_apache_make
";}i:2;i:692;}i:52;a:3:{i:0;s:7:"p_close";i:1;a:0:{}i:2;i:819;}i:53;a:3:{i:0;s:6:"p_open";i:1;a:0:{}i:2;i:819;}i:54;a:3:{i:0;s:5:"cdata";i:1;a:1:{i:0;s:67:"After all these steps, login to the WHM by typing the following as ";}i:2;i:822;}i:55;a:3:{i:0;s:7:"acronym";i:1;a:1:{i:0;s:3:"URL";}i:2;i:889;}i:56;a:3:{i:0;s:5:"cdata";i:1;a:1:{i:0;s:1:":";}i:2;i:892;}i:57;a:3:{i:0;s:7:"p_close";i:1;a:0:{}i:2;i:893;}i:58;a:3:{i:0;s:6:"p_open";i:1;a:0:{}i:2;i:893;}i:59;a:3:{i:0;s:6:"plugin";i:1;a:4:{i:0;s:9:"code_code";i:1;a:4:{i:0;s:4:"code";i:1;N;i:2;s:0:"";i:3;s:20:"https://<VM_IP>:2087";}i:2;i:3;i:3;s:21:">https://<VM_IP>:2087";}i:2;i:900;}i:60;a:3:{i:0;s:7:"p_close";i:1;a:0:{}i:2;i:928;}i:61;a:3:{i:0;s:6:"p_open";i:1;a:0:{}i:2;i:928;}i:62;a:3:{i:0;s:5:"cdata";i:1;a:1:{i:0;s:47:"Follow the steps given in Initial Installation.";}i:2;i:930;}i:63;a:3:{i:0;s:7:"p_close";i:1;a:0:{}i:2;i:977;}i:64;a:3:{i:0;s:6:"p_open";i:1;a:0:{}i:2;i:977;}i:65;a:3:{i:0;s:11:"strong_open";i:1;a:0:{}i:2;i:980;}i:66;a:3:{i:0;s:5:"cdata";i:1;a:1:{i:0;s:33:"Recompile Apache with following: ";}i:2;i:982;}i:67;a:3:{i:0;s:12:"strong_close";i:1;a:0:{}i:2;i:1015;}i:68;a:3:{i:0;s:5:"cdata";i:1;a:1:{i:0;s:64:" (Recompile necessary for Symlink disable patch to take effect) ";}i:2;i:1017;}i:69;a:3:{i:0;s:9:"linebreak";i:1;a:0:{}i:2;i:1081;}i:70;a:3:{i:0;s:5:"cdata";i:1;a:1:{i:0;s:10:"
Mbstring ";}i:2;i:1083;}i:71;a:3:{i:0;s:9:"linebreak";i:1;a:0:{}i:2;i:1093;}i:72;a:3:{i:0;s:5:"cdata";i:1;a:1:{i:0;s:12:"
GD Library ";}i:2;i:1096;}i:73;a:3:{i:0;s:9:"linebreak";i:1;a:0:{}i:2;i:1108;}i:74;a:3:{i:0;s:5:"cdata";i:1;a:1:{i:0;s:8:"
MySQL-i";}i:2;i:1110;}i:75;a:3:{i:0;s:9:"linebreak";i:1;a:0:{}i:2;i:1118;}i:76;a:3:{i:0;s:5:"cdata";i:1;a:1:{i:0;s:4:"
PDO";}i:2;i:1120;}i:77;a:3:{i:0;s:9:"linebreak";i:1;a:0:{}i:2;i:1124;}i:78;a:3:{i:0;s:5:"cdata";i:1;a:1:{i:0;s:10:"
PDO MySQL";}i:2;i:1126;}i:79;a:3:{i:0;s:9:"linebreak";i:1;a:0:{}i:2;i:1136;}i:80;a:3:{i:0;s:5:"cdata";i:1;a:1:{i:0;s:4:"
TTF";}i:2;i:1138;}i:81;a:3:{i:0;s:9:"linebreak";i:1;a:0:{}i:2;i:1142;}i:82;a:3:{i:0;s:7:"p_close";i:1;a:0:{}i:2;i:1144;}i:83;a:3:{i:0;s:6:"p_open";i:1;a:0:{}i:2;i:1144;}i:84;a:3:{i:0;s:11:"strong_open";i:1;a:0:{}i:2;i:1147;}i:85;a:3:{i:0;s:5:"cdata";i:1;a:1:{i:0;s:26:"Removing https redirection";}i:2;i:1149;}i:86;a:3:{i:0;s:12:"strong_close";i:1;a:0:{}i:2;i:1175;}i:87;a:3:{i:0;s:5:"cdata";i:1;a:1:{i:0;s:1:" ";}i:2;i:1177;}i:88;a:3:{i:0;s:13:"emphasis_open";i:1;a:0:{}i:2;i:1178;}i:89;a:3:{i:0;s:5:"cdata";i:1;a:1:{i:0;s:12:"
Goto  Main ";}i:2;i:1180;}i:90;a:3:{i:0;s:6:"entity";i:1;a:1:{i:0;s:2:">>";}i:2;i:1192;}i:91;a:3:{i:0;s:5:"cdata";i:1;a:1:{i:0;s:22:" Server Configuration ";}i:2;i:1194;}i:92;a:3:{i:0;s:6:"entity";i:1;a:1:{i:0;s:2:">>";}i:2;i:1216;}i:93;a:3:{i:0;s:5:"cdata";i:1;a:1:{i:0;s:54:" Tweak Settings  in Security section and turn off the ";}i:2;i:1218;}i:94;a:3:{i:0;s:18:"doublequoteopening";i:1;a:0:{}i:2;i:1272;}i:95;a:3:{i:0;s:5:"cdata";i:1;a:1:{i:0;s:11:"Require SSL";}i:2;i:1273;}i:96;a:3:{i:0;s:18:"doublequoteclosing";i:1;a:0:{}i:2;i:1284;}i:97;a:3:{i:0;s:5:"cdata";i:1;a:1:{i:0;s:1:" ";}i:2;i:1285;}i:98;a:3:{i:0;s:7:"p_close";i:1;a:0:{}i:2;i:1285;}i:99;a:3:{i:0;s:13:"section_close";i:1;a:0:{}i:2;i:1285;}i:100;a:3:{i:0;s:12:"document_end";i:1;a:0:{}i:2;i:1285;}}