a:78:{i:0;a:3:{i:0;s:14:"document_start";i:1;a:0:{}i:2;i:0;}i:1;a:3:{i:0;s:6:"p_open";i:1;a:0:{}i:2;i:0;}i:2;a:3:{i:0;s:5:"cdata";i:1;a:1:{i:0;s:25:"BMR ( Bare Metal Restore)";}i:2;i:1;}i:3;a:3:{i:0;s:7:"p_close";i:1;a:0:{}i:2;i:26;}i:4;a:3:{i:0;s:6:"p_open";i:1;a:0:{}i:2;i:26;}i:5;a:3:{i:0;s:5:"cdata";i:1;a:1:{i:0;s:80:"1. Create XEN-PV VM with same config as same old server.- Let us name it: BMR-PV";}i:2;i:28;}i:6;a:3:{i:0;s:9:"linebreak";i:1;a:0:{}i:2;i:108;}i:7;a:3:{i:0;s:5:"cdata";i:1;a:1:{i:0;s:5:"
e.g.";}i:2;i:110;}i:8;a:3:{i:0;s:9:"linebreak";i:1;a:0:{}i:2;i:115;}i:9;a:3:{i:0;s:5:"cdata";i:1;a:1:{i:0;s:21:"
VM-IP: 43.252.88.164";}i:2;i:117;}i:10;a:3:{i:0;s:9:"linebreak";i:1;a:0:{}i:2;i:138;}i:11;a:3:{i:0;s:5:"cdata";i:1;a:1:{i:0;s:13:"
VN-ID: VM784";}i:2;i:140;}i:12;a:3:{i:0;s:7:"p_close";i:1;a:0:{}i:2;i:153;}i:13;a:3:{i:0;s:6:"p_open";i:1;a:0:{}i:2;i:153;}i:14;a:3:{i:0;s:5:"cdata";i:1;a:1:{i:0;s:16:"2. Install Same ";}i:2;i:155;}i:15;a:3:{i:0;s:7:"acronym";i:1;a:1:{i:0;s:2:"OS";}i:2;i:171;}i:16;a:3:{i:0;s:5:"cdata";i:1;a:1:{i:0;s:18:" as on old server.";}i:2;i:173;}i:17;a:3:{i:0;s:7:"p_close";i:1;a:0:{}i:2;i:191;}i:18;a:3:{i:0;s:6:"p_open";i:1;a:0:{}i:2;i:191;}i:19;a:3:{i:0;s:5:"cdata";i:1;a:1:{i:0;s:21:"3. Stop the BMR-PV VM";}i:2;i:193;}i:20;a:3:{i:0;s:7:"p_close";i:1;a:0:{}i:2;i:214;}i:21;a:3:{i:0;s:6:"p_open";i:1;a:0:{}i:2;i:214;}i:22;a:3:{i:0;s:5:"cdata";i:1;a:1:{i:0;s:110:"4. Create a basic XEN-HVM and boot form BMR ISO (CDP_BARE_METAL_RESTORE_DISK-Debian). Let is name it: BOOT-HVM";}i:2;i:216;}i:23;a:3:{i:0;s:9:"linebreak";i:1;a:0:{}i:2;i:326;}i:24;a:3:{i:0;s:5:"cdata";i:1;a:1:{i:0;s:5:"
e.g.";}i:2;i:328;}i:25;a:3:{i:0;s:9:"linebreak";i:1;a:0:{}i:2;i:333;}i:26;a:3:{i:0;s:5:"cdata";i:1;a:1:{i:0;s:21:"
VM-IP: 43.252.88.166";}i:2;i:335;}i:27;a:3:{i:0;s:9:"linebreak";i:1;a:0:{}i:2;i:356;}i:28;a:3:{i:0;s:5:"cdata";i:1;a:1:{i:0;s:13:"
VN-ID: VM785";}i:2;i:358;}i:29;a:3:{i:0;s:7:"p_close";i:1;a:0:{}i:2;i:371;}i:30;a:3:{i:0;s:6:"p_open";i:1;a:0:{}i:2;i:371;}i:31;a:3:{i:0;s:5:"cdata";i:1;a:1:{i:0;s:23:"5. Stop the BOOT-HVM VM";}i:2;i:373;}i:32;a:3:{i:0;s:7:"p_close";i:1;a:0:{}i:2;i:396;}i:33;a:3:{i:0;s:6:"p_open";i:1;a:0:{}i:2;i:396;}i:34;a:3:{i:0;s:5:"cdata";i:1;a:1:{i:0;s:72:"6. Note Down the VM-ID for BMR-PV (i.e. VM784) and BOOT-HVM (i.e. VM785)";}i:2;i:398;}i:35;a:3:{i:0;s:7:"p_close";i:1;a:0:{}i:2;i:470;}i:36;a:3:{i:0;s:6:"p_open";i:1;a:0:{}i:2;i:470;}i:37;a:3:{i:0;s:5:"cdata";i:1;a:1:{i:0;s:104:"7. Now login to main node and make backup of file (vm785.cfg) for BOOT-HVM at location (/home/xen/vm785)";}i:2;i:472;}i:38;a:3:{i:0;s:7:"p_close";i:1;a:0:{}i:2;i:576;}i:39;a:3:{i:0;s:6:"p_open";i:1;a:0:{}i:2;i:576;}i:40;a:3:{i:0;s:5:"cdata";i:1;a:1:{i:0;s:105:"8. Open .cfg file for BOOT-HVM (i.e vm785.cfg) and edit the file ( change BMR-PV vm-id to BOOT-HVM vm-id)";}i:2;i:578;}i:41;a:3:{i:0;s:9:"linebreak";i:1;a:0:{}i:2;i:683;}i:42;a:3:{i:0;s:5:"cdata";i:1;a:1:{i:0;s:4:"
i.e";}i:2;i:685;}i:43;a:3:{i:0;s:9:"linebreak";i:1;a:0:{}i:2;i:689;}i:44;a:3:{i:0;s:5:"cdata";i:1;a:1:{i:0;s:29:"
From: vm785_img to vm784_img";}i:2;i:691;}i:45;a:3:{i:0;s:7:"p_close";i:1;a:0:{}i:2;i:720;}i:46;a:3:{i:0;s:6:"p_open";i:1;a:0:{}i:2;i:720;}i:47;a:3:{i:0;s:5:"cdata";i:1;a:1:{i:0;s:21:"9. Type below command";}i:2;i:722;}i:48;a:3:{i:0;s:7:"p_close";i:1;a:0:{}i:2;i:743;}i:49;a:3:{i:0;s:6:"p_open";i:1;a:0:{}i:2;i:743;}i:50;a:3:{i:0;s:5:"cdata";i:1;a:1:{i:0;s:38:"[root@node vm785]# xl create vm785.cfg";}i:2;i:745;}i:51;a:3:{i:0;s:7:"p_close";i:1;a:0:{}i:2;i:783;}i:52;a:3:{i:0;s:6:"p_open";i:1;a:0:{}i:2;i:783;}i:53;a:3:{i:0;s:5:"cdata";i:1;a:1:{i:0;s:38:"10. Now Boot the BOOT-HVM from solusvm";}i:2;i:785;}i:54;a:3:{i:0;s:7:"p_close";i:1;a:0:{}i:2;i:823;}i:55;a:3:{i:0;s:6:"p_open";i:1;a:0:{}i:2;i:823;}i:56;a:3:{i:0;s:5:"cdata";i:1;a:1:{i:0;s:82:"11. Now open re1soft-panel and start the BMR at desired time follow the below link";}i:2;i:825;}i:57;a:3:{i:0;s:7:"p_close";i:1;a:0:{}i:2;i:907;}i:58;a:3:{i:0;s:6:"p_open";i:1;a:0:{}i:2;i:907;}i:59;a:3:{i:0;s:12:"externallink";i:1;a:2:{i:0;s:71:"http://wiki.r1soft.com/display/ServerBackup/Launch+a+bare-metal+restore";i:1;s:71:"http://wiki.r1soft.com/display/ServerBackup/Launch+a+bare-metal+restore";}i:2;i:909;}i:60;a:3:{i:0;s:7:"p_close";i:1;a:0:{}i:2;i:1056;}i:61;a:3:{i:0;s:6:"p_open";i:1;a:0:{}i:2;i:1056;}i:62;a:3:{i:0;s:5:"cdata";i:1;a:1:{i:0;s:26:"12. Shut Down the BOOT-HVM";}i:2;i:1058;}i:63;a:3:{i:0;s:7:"p_close";i:1;a:0:{}i:2;i:1084;}i:64;a:3:{i:0;s:6:"p_open";i:1;a:0:{}i:2;i:1084;}i:65;a:3:{i:0;s:5:"cdata";i:1;a:1:{i:0;s:37:"13. Replace the .cfg file to original";}i:2;i:1086;}i:66;a:3:{i:0;s:9:"linebreak";i:1;a:0:{}i:2;i:1123;}i:67;a:3:{i:0;s:5:"cdata";i:1;a:1:{i:0;s:4:"
i.e";}i:2;i:1125;}i:68;a:3:{i:0;s:9:"linebreak";i:1;a:0:{}i:2;i:1129;}i:69;a:3:{i:0;s:5:"cdata";i:1;a:1:{i:0;s:29:"
From: vm784_img to vm785_img";}i:2;i:1131;}i:70;a:3:{i:0;s:7:"p_close";i:1;a:0:{}i:2;i:1160;}i:71;a:3:{i:0;s:6:"p_open";i:1;a:0:{}i:2;i:1160;}i:72;a:3:{i:0;s:5:"cdata";i:1;a:1:{i:0;s:27:"14. Shutdown the Old Server";}i:2;i:1162;}i:73;a:3:{i:0;s:7:"p_close";i:1;a:0:{}i:2;i:1189;}i:74;a:3:{i:0;s:6:"p_open";i:1;a:0:{}i:2;i:1189;}i:75;a:3:{i:0;s:5:"cdata";i:1;a:1:{i:0;s:47:"15. Boot the BRM-PV and replace the IP with old";}i:2;i:1191;}i:76;a:3:{i:0;s:7:"p_close";i:1;a:0:{}i:2;i:1238;}i:77;a:3:{i:0;s:12:"document_end";i:1;a:0:{}i:2;i:1238;}}