a:21:{i:0;a:3:{i:0;s:14:"document_start";i:1;a:0:{}i:2;i:0;}i:1;a:3:{i:0;s:6:"p_open";i:1;a:0:{}i:2;i:0;}i:2;a:3:{i:0;s:5:"cdata";i:1;a:1:{i:0;s:18:"IMAPSYNC for gmail";}i:2;i:1;}i:3;a:3:{i:0;s:7:"p_close";i:1;a:0:{}i:2;i:19;}i:4;a:3:{i:0;s:6:"p_open";i:1;a:0:{}i:2;i:19;}i:5;a:3:{i:0;s:5:"cdata";i:1;a:1:{i:0;s:21:"Imapsync installation";}i:2;i:21;}i:6;a:3:{i:0;s:7:"p_close";i:1;a:0:{}i:2;i:42;}i:7;a:3:{i:0;s:6:"p_open";i:1;a:0:{}i:2;i:42;}i:8;a:3:{i:0;s:12:"externallink";i:1;a:2:{i:0;s:53:"https://gist.github.com/carlos22/5d24c6fbd654b9c0bb33";i:1;N;}i:2;i:44;}i:9;a:3:{i:0;s:7:"p_close";i:1;a:0:{}i:2;i:101;}i:10;a:3:{i:0;s:6:"header";i:1;a:3:{i:0;s:0:"";i:1;i:1;i:2;i:103;}i:2;i:103;}i:11;a:3:{i:0;s:12:"section_open";i:1;a:1:{i:0;i:1;}i:2;i:103;}i:12;a:3:{i:0;s:4:"code";i:1;a:3:{i:0;s:418:"
#!/bin/bash

while read line

do

imapsync --buffersize 819200000 --host1 imap.gmail.com --port1 993 --user1 $line --passfile1 <path of password file1> --ssl1 --host2 <destination server> --port2 993 --user2 $line --ssl2 --passfile2 <path of password file2> --syncinternaldates --split1 100 --split2 100 --authmech1 LOGIN --authmech2 LOGIN --allowsizemismatch --useheader Message-ID

done < <path_of_users_list_file>
";i:1;N;i:2;N;}i:2;i:122;}i:13;a:3:{i:0;s:13:"section_close";i:1;a:0:{}i:2;i:549;}i:14;a:3:{i:0;s:6:"header";i:1;a:3:{i:0;s:0:"";i:1;i:1;i:2;i:549;}i:2;i:549;}i:15;a:3:{i:0;s:12:"section_open";i:1;a:1:{i:0;i:1;}i:2;i:549;}i:16;a:3:{i:0;s:6:"p_open";i:1;a:0:{}i:2;i:549;}i:17;a:3:{i:0;s:5:"cdata";i:1;a:1:{i:0;s:36:"NOTE: USE UBUNTU SERVER FOR IMAPSYNC";}i:2;i:562;}i:18;a:3:{i:0;s:7:"p_close";i:1;a:0:{}i:2;i:598;}i:19;a:3:{i:0;s:13:"section_close";i:1;a:0:{}i:2;i:598;}i:20;a:3:{i:0;s:12:"document_end";i:1;a:0:{}i:2;i:598;}}