a:153:{i:0;a:3:{i:0;s:14:"document_start";i:1;a:0:{}i:2;i:0;}i:1;a:3:{i:0;s:6:"p_open";i:1;a:0:{}i:2;i:0;}i:2;a:3:{i:0;s:6:"plugin";i:1;a:4:{i:0;s:12:"ckgedit_font";i:1;a:2:{i:0;i:1;i:1;a:2:{i:0;s:15:"font-size:24px;";i:1;s:25:"inherit;;inherit;;inherit";}}i:2;i:1;i:3;s:37:"<font 24px/inherit;;inherit;;inherit>";}i:2;i:1;}i:3;a:3:{i:0;s:11:"strong_open";i:1;a:0:{}i:2;i:38;}i:4;a:3:{i:0;s:5:"cdata";i:1;a:1:{i:0;s:19:" MySQL Slave Error ";}i:2;i:40;}i:5;a:3:{i:0;s:12:"strong_close";i:1;a:0:{}i:2;i:59;}i:6;a:3:{i:0;s:6:"plugin";i:1;a:4:{i:0;s:12:"ckgedit_font";i:1;a:2:{i:0;i:4;i:1;s:0:"";}i:2;i:4;i:3;s:7:"</font>";}i:2;i:61;}i:7;a:3:{i:0;s:7:"p_close";i:1;a:0:{}i:2;i:68;}i:8;a:3:{i:0;s:6:"p_open";i:1;a:0:{}i:2;i:68;}i:9;a:3:{i:0;s:6:"plugin";i:1;a:4:{i:0;s:12:"ckgedit_font";i:1;a:2:{i:0;i:1;i:1;a:2:{i:0;s:18:"font-size:inherit;";i:1;s:25:"inherit;;#FF0000;;inherit";}}i:2;i:1;i:3;s:40:"<font inherit/inherit;;#FF0000;;inherit>";}i:2;i:70;}i:10;a:3:{i:0;s:6:"plugin";i:1;a:4:{i:0;s:12:"ckgedit_font";i:1;a:2:{i:0;i:3;i:1;s:110:"CAUTION: Mentioned below steps will be performed ONLY if the mail alert contains the content similar to below.";}i:2;i:3;i:3;s:110:"CAUTION: Mentioned below steps will be performed ONLY if the mail alert contains the content similar to below.";}i:2;i:110;}i:11;a:3:{i:0;s:6:"plugin";i:1;a:4:{i:0;s:12:"ckgedit_font";i:1;a:2:{i:0;i:4;i:1;s:0:"";}i:2;i:4;i:3;s:7:"</font>";}i:2;i:220;}i:12;a:3:{i:0;s:7:"p_close";i:1;a:0:{}i:2;i:227;}i:13;a:3:{i:0;s:6:"p_open";i:1;a:0:{}i:2;i:227;}i:14;a:3:{i:0;s:6:"plugin";i:1;a:4:{i:0;s:9:"code_code";i:1;a:4:{i:0;s:4:"code";i:1;N;i:2;s:0:"";i:3;s:214:"
Slave IO not running on 184.154.18.138
Error number: 1236
Error message: Got fatal error 1236 from master when reading data from binary log: 'Client requested master to start replication from impossible position'
";}i:2;i:3;i:3;s:215:">
Slave IO not running on 184.154.18.138
Error number: 1236
Error message: Got fatal error 1236 from master when reading data from binary log: 'Client requested master to start replication from impossible position'
";}i:2;i:234;}i:15;a:3:{i:0;s:7:"p_close";i:1;a:0:{}i:2;i:456;}i:16;a:3:{i:0;s:6:"p_open";i:1;a:0:{}i:2;i:456;}i:17;a:3:{i:0;s:5:"cdata";i:1;a:1:{i:0;s:45:"Step 1: Login to server ( 107.6.167.170 UI2 )";}i:2;i:458;}i:18;a:3:{i:0;s:7:"p_close";i:1;a:0:{}i:2;i:503;}i:19;a:3:{i:0;s:6:"p_open";i:1;a:0:{}i:2;i:503;}i:20;a:3:{i:0;s:5:"cdata";i:1;a:1:{i:0;s:22:"Step 2: Login to mysql";}i:2;i:505;}i:21;a:3:{i:0;s:9:"linebreak";i:1;a:0:{}i:2;i:527;}i:22;a:3:{i:0;s:5:"cdata";i:1;a:1:{i:0;s:4:"
i.e";}i:2;i:529;}i:23;a:3:{i:0;s:9:"linebreak";i:1;a:0:{}i:2;i:533;}i:24;a:3:{i:0;s:5:"cdata";i:1;a:1:{i:0;s:17:"
mysql -u root -p";}i:2;i:535;}i:25;a:3:{i:0;s:7:"p_close";i:1;a:0:{}i:2;i:552;}i:26;a:3:{i:0;s:6:"p_open";i:1;a:0:{}i:2;i:552;}i:27;a:3:{i:0;s:5:"cdata";i:1;a:1:{i:0;s:25:"Step 3: Run below command";}i:2;i:554;}i:28;a:3:{i:0;s:9:"linebreak";i:1;a:0:{}i:2;i:579;}i:29;a:3:{i:0;s:5:"cdata";i:1;a:1:{i:0;s:27:"
mysql> SHOW MASTER STATUS;";}i:2;i:581;}i:30;a:3:{i:0;s:7:"p_close";i:1;a:0:{}i:2;i:608;}i:31;a:3:{i:0;s:6:"p_open";i:1;a:0:{}i:2;i:608;}i:32;a:3:{i:0;s:6:"plugin";i:1;a:4:{i:0;s:9:"code_code";i:1;a:4:{i:0;s:4:"code";i:1;N;i:2;s:0:"";i:3;s:461:"
Note: Below is output, You need to note down  ( File and Position ) only.

+------------------+-----------+--------------+------------------+
| File             | Position  | Binlog_Do_DB | Binlog_Ignore_DB |
+------------------+-----------+--------------+------------------+
| mysql-bin.011604 | 789440321 | pmytime_main |                  |
+------------------+-----------+--------------+------------------+

Note:
File: mysql-bin.011604
Position: 789440321
";}i:2;i:3;i:3;s:462:">
Note: Below is output, You need to note down  ( File and Position ) only.

+------------------+-----------+--------------+------------------+
| File             | Position  | Binlog_Do_DB | Binlog_Ignore_DB |
+------------------+-----------+--------------+------------------+
| mysql-bin.011604 | 789440321 | pmytime_main |                  |
+------------------+-----------+--------------+------------------+

Note:
File: mysql-bin.011604
Position: 789440321
";}i:2;i:615;}i:33;a:3:{i:0;s:7:"p_close";i:1;a:0:{}i:2;i:1084;}i:34;a:3:{i:0;s:6:"p_open";i:1;a:0:{}i:2;i:1084;}i:35;a:3:{i:0;s:5:"cdata";i:1;a:1:{i:0;s:46:"Step 4: Login to server ( 184.154.18.138 UI1 )";}i:2;i:1086;}i:36;a:3:{i:0;s:7:"p_close";i:1;a:0:{}i:2;i:1132;}i:37;a:3:{i:0;s:6:"p_open";i:1;a:0:{}i:2;i:1132;}i:38;a:3:{i:0;s:5:"cdata";i:1;a:1:{i:0;s:22:"Step 5: Login to mysql";}i:2;i:1134;}i:39;a:3:{i:0;s:9:"linebreak";i:1;a:0:{}i:2;i:1156;}i:40;a:3:{i:0;s:5:"cdata";i:1;a:1:{i:0;s:4:"
i.e";}i:2;i:1158;}i:41;a:3:{i:0;s:9:"linebreak";i:1;a:0:{}i:2;i:1162;}i:42;a:3:{i:0;s:5:"cdata";i:1;a:1:{i:0;s:17:"
mysql -u root -p";}i:2;i:1164;}i:43;a:3:{i:0;s:7:"p_close";i:1;a:0:{}i:2;i:1181;}i:44;a:3:{i:0;s:6:"p_open";i:1;a:0:{}i:2;i:1181;}i:45;a:3:{i:0;s:5:"cdata";i:1;a:1:{i:0;s:25:"Step 6: Run below command";}i:2;i:1183;}i:46;a:3:{i:0;s:9:"linebreak";i:1;a:0:{}i:2;i:1208;}i:47;a:3:{i:0;s:5:"cdata";i:1;a:1:{i:0;s:27:"
mysql> SHOW SLAVE STATUS\G";}i:2;i:1210;}i:48;a:3:{i:0;s:7:"p_close";i:1;a:0:{}i:2;i:1237;}i:49;a:3:{i:0;s:6:"p_open";i:1;a:0:{}i:2;i:1237;}i:50;a:3:{i:0;s:6:"plugin";i:1;a:4:{i:0;s:9:"code_code";i:1;a:4:{i:0;s:4:"code";i:1;N;i:2;s:0:"";i:3;s:157:"
Note: In output find below two line you will get Slave_IO_Running:No

Slave_IO_Running: No    (Note: Slave_IO_Running should be Yes)
Slave_SQL_Running: Yes
";}i:2;i:3;i:3;s:158:">
Note: In output find below two line you will get Slave_IO_Running:No

Slave_IO_Running: No    (Note: Slave_IO_Running should be Yes)
Slave_SQL_Running: Yes
";}i:2;i:1244;}i:51;a:3:{i:0;s:7:"p_close";i:1;a:0:{}i:2;i:1409;}i:52;a:3:{i:0;s:6:"p_open";i:1;a:0:{}i:2;i:1409;}i:53;a:3:{i:0;s:14:"underline_open";i:1;a:0:{}i:2;i:1411;}i:54;a:3:{i:0;s:5:"cdata";i:1;a:1:{i:0;s:42:"To Resolve this issue performs below steps";}i:2;i:1413;}i:55;a:3:{i:0;s:15:"underline_close";i:1;a:0:{}i:2;i:1455;}i:56;a:3:{i:0;s:7:"p_close";i:1;a:0:{}i:2;i:1457;}i:57;a:3:{i:0;s:6:"p_open";i:1;a:0:{}i:2;i:1457;}i:58;a:3:{i:0;s:5:"cdata";i:1;a:1:{i:0;s:7:"Step 7:";}i:2;i:1459;}i:59;a:3:{i:0;s:9:"linebreak";i:1;a:0:{}i:2;i:1466;}i:60;a:3:{i:0;s:5:"cdata";i:1;a:1:{i:0;s:19:"
mysql> slave stop;";}i:2;i:1468;}i:61;a:3:{i:0;s:7:"p_close";i:1;a:0:{}i:2;i:1487;}i:62;a:3:{i:0;s:6:"p_open";i:1;a:0:{}i:2;i:1487;}i:63;a:3:{i:0;s:11:"strong_open";i:1;a:0:{}i:2;i:1489;}i:64;a:3:{i:0;s:5:"cdata";i:1;a:1:{i:0;s:5:"Note:";}i:2;i:1491;}i:65;a:3:{i:0;s:12:"strong_close";i:1;a:0:{}i:2;i:1496;}i:66;a:3:{i:0;s:7:"p_close";i:1;a:0:{}i:2;i:1498;}i:67;a:3:{i:0;s:6:"p_open";i:1;a:0:{}i:2;i:1498;}i:68;a:3:{i:0;s:11:"strong_open";i:1;a:0:{}i:2;i:1500;}i:69;a:3:{i:0;s:5:"cdata";i:1;a:1:{i:0;s:99:"Kindly copy the ( File and Position) from ( 107.6.167.170 UI2 ) server which was mention in step 3.";}i:2;i:1502;}i:70;a:3:{i:0;s:9:"linebreak";i:1;a:0:{}i:2;i:1601;}i:71;a:3:{i:0;s:5:"cdata";i:1;a:1:{i:0;s:69:"
and update the command accordingly (MASTER_LOG_FILE, MASTER_LOG_POS)";}i:2;i:1603;}i:72;a:3:{i:0;s:12:"strong_close";i:1;a:0:{}i:2;i:1672;}i:73;a:3:{i:0;s:7:"p_close";i:1;a:0:{}i:2;i:1674;}i:74;a:3:{i:0;s:6:"p_open";i:1;a:0:{}i:2;i:1674;}i:75;a:3:{i:0;s:11:"strong_open";i:1;a:0:{}i:2;i:1676;}i:76;a:3:{i:0;s:5:"cdata";i:1;a:1:{i:0;s:4:"e.g.";}i:2;i:1678;}i:77;a:3:{i:0;s:9:"linebreak";i:1;a:0:{}i:2;i:1682;}i:78;a:3:{i:0;s:5:"cdata";i:1;a:1:{i:0;s:35:"
MASTER_LOG_FILE = mysql-bin.011604";}i:2;i:1684;}i:79;a:3:{i:0;s:9:"linebreak";i:1;a:0:{}i:2;i:1719;}i:80;a:3:{i:0;s:5:"cdata";i:1;a:1:{i:0;s:27:"
MASTER_LOG_POS = 789440321";}i:2;i:1721;}i:81;a:3:{i:0;s:12:"strong_close";i:1;a:0:{}i:2;i:1748;}i:82;a:3:{i:0;s:7:"p_close";i:1;a:0:{}i:2;i:1750;}i:83;a:3:{i:0;s:6:"p_open";i:1;a:0:{}i:2;i:1750;}i:84;a:3:{i:0;s:9:"linebreak";i:1;a:0:{}i:2;i:1752;}i:85;a:3:{i:0;s:5:"cdata";i:1;a:1:{i:0;s:8:"
Step 8:";}i:2;i:1754;}i:86;a:3:{i:0;s:9:"linebreak";i:1;a:0:{}i:2;i:1762;}i:87;a:3:{i:0;s:5:"cdata";i:1;a:1:{i:0;s:171:"
mysql> CHANGE MASTER TO MASTER_HOST = '107.6.167.170', MASTER_USER = 'repuser', MASTER_PASSWORD='GdfdCSww2', MASTER_LOG_FILE='mysql-bin.011604', MASTER_LOG_POS=789440321;";}i:2;i:1764;}i:88;a:3:{i:0;s:7:"p_close";i:1;a:0:{}i:2;i:1935;}i:89;a:3:{i:0;s:6:"p_open";i:1;a:0:{}i:2;i:1935;}i:90;a:3:{i:0;s:9:"linebreak";i:1;a:0:{}i:2;i:1937;}i:91;a:3:{i:0;s:5:"cdata";i:1;a:1:{i:0;s:8:"
Step 9:";}i:2;i:1939;}i:92;a:3:{i:0;s:9:"linebreak";i:1;a:0:{}i:2;i:1947;}i:93;a:3:{i:0;s:5:"cdata";i:1;a:1:{i:0;s:20:"
mysql> slave start;";}i:2;i:1949;}i:94;a:3:{i:0;s:7:"p_close";i:1;a:0:{}i:2;i:1969;}i:95;a:3:{i:0;s:6:"p_open";i:1;a:0:{}i:2;i:1969;}i:96;a:3:{i:0;s:5:"cdata";i:1;a:1:{i:0;s:8:"Step 10:";}i:2;i:1971;}i:97;a:3:{i:0;s:9:"linebreak";i:1;a:0:{}i:2;i:1979;}i:98;a:3:{i:0;s:5:"cdata";i:1;a:1:{i:0;s:27:"
mysql> SHOW SLAVE STATUS\G";}i:2;i:1981;}i:99;a:3:{i:0;s:7:"p_close";i:1;a:0:{}i:2;i:2008;}i:100;a:3:{i:0;s:6:"p_open";i:1;a:0:{}i:2;i:2008;}i:101;a:3:{i:0;s:6:"plugin";i:1;a:4:{i:0;s:9:"code_code";i:1;a:4:{i:0;s:4:"code";i:1;N;i:2;s:0:"";i:3;s:117:"
Note: In output find below two line you will get Slave_IO_Running:Yes

Slave_IO_Running: Yes
Slave_SQL_Running: Yes
";}i:2;i:3;i:3;s:118:">
Note: In output find below two line you will get Slave_IO_Running:Yes

Slave_IO_Running: Yes
Slave_SQL_Running: Yes
";}i:2;i:2015;}i:102;a:3:{i:0;s:7:"p_close";i:1;a:0:{}i:2;i:2140;}i:103;a:3:{i:0;s:6:"p_open";i:1;a:0:{}i:2;i:2140;}i:104;a:3:{i:0;s:9:"linebreak";i:1;a:0:{}i:2;i:2142;}i:105;a:3:{i:0;s:5:"cdata";i:1;a:1:{i:0;s:9:"
Step 11:";}i:2;i:2144;}i:106;a:3:{i:0;s:7:"p_close";i:1;a:0:{}i:2;i:2153;}i:107;a:3:{i:0;s:6:"p_open";i:1;a:0:{}i:2;i:2153;}i:108;a:3:{i:0;s:5:"cdata";i:1;a:1:{i:0;s:42:"Login to phpmyadmin all three below server";}i:2;i:2155;}i:109;a:3:{i:0;s:7:"p_close";i:1;a:0:{}i:2;i:2197;}i:110;a:3:{i:0;s:6:"p_open";i:1;a:0:{}i:2;i:2197;}i:111;a:3:{i:0;s:12:"externallink";i:1;a:2:{i:0;s:27:"http://107.6.167.170/XXmin/";i:1;N;}i:2;i:2199;}i:112;a:3:{i:0;s:7:"p_close";i:1;a:0:{}i:2;i:2226;}i:113;a:3:{i:0;s:6:"p_open";i:1;a:0:{}i:2;i:2226;}i:114;a:3:{i:0;s:12:"externallink";i:1;a:2:{i:0;s:27:"http://184.154.18.138/XXmin";i:1;N;}i:2;i:2228;}i:115;a:3:{i:0;s:7:"p_close";i:1;a:0:{}i:2;i:2255;}i:116;a:3:{i:0;s:6:"p_open";i:1;a:0:{}i:2;i:2255;}i:117;a:3:{i:0;s:12:"externallink";i:1;a:2:{i:0;s:27:"http://69.175.89.130/XXmin/";i:1;N;}i:2;i:2257;}i:118;a:3:{i:0;s:7:"p_close";i:1;a:0:{}i:2;i:2284;}i:119;a:3:{i:0;s:6:"p_open";i:1;a:0:{}i:2;i:2284;}i:120;a:3:{i:0;s:9:"linebreak";i:1;a:0:{}i:2;i:2286;}i:121;a:3:{i:0;s:5:"cdata";i:1;a:1:{i:0;s:17:"
Step 12: Select ";}i:2;i:2288;}i:122;a:3:{i:0;s:18:"doublequoteopening";i:1;a:0:{}i:2;i:2305;}i:123;a:3:{i:0;s:5:"cdata";i:1;a:1:{i:0;s:11:"pmytme_main";}i:2;i:2306;}i:124;a:3:{i:0;s:18:"doublequoteclosing";i:1;a:0:{}i:2;i:2317;}i:125;a:3:{i:0;s:5:"cdata";i:1;a:1:{i:0;s:29:" Database in all three server";}i:2;i:2318;}i:126;a:3:{i:0;s:7:"p_close";i:1;a:0:{}i:2;i:2347;}i:127;a:3:{i:0;s:6:"p_open";i:1;a:0:{}i:2;i:2347;}i:128;a:3:{i:0;s:5:"cdata";i:1;a:1:{i:0;s:14:"Step 13: Goto ";}i:2;i:2349;}i:129;a:3:{i:0;s:18:"doublequoteopening";i:1;a:0:{}i:2;i:2363;}i:130;a:3:{i:0;s:5:"cdata";i:1;a:1:{i:0;s:16:"campaign_manager";}i:2;i:2364;}i:131;a:3:{i:0;s:18:"doublequoteclosing";i:1;a:0:{}i:2;i:2380;}i:132;a:3:{i:0;s:5:"cdata";i:1;a:1:{i:0;s:40:" Table and compare all last three record";}i:2;i:2381;}i:133;a:3:{i:0;s:7:"p_close";i:1;a:0:{}i:2;i:2421;}i:134;a:3:{i:0;s:6:"p_open";i:1;a:0:{}i:2;i:2421;}i:135;a:3:{i:0;s:6:"plugin";i:1;a:4:{i:0;s:9:"code_file";i:1;a:4:{i:0;s:4:"file";i:1;N;i:2;s:0:"";i:3;s:52:"
»Database: pmytime_main »Table: campaign_manager
";}i:2;i:3;i:3;s:53:">
»Database: pmytime_main »Table: campaign_manager
";}i:2;i:2428;}i:136;a:3:{i:0;s:7:"p_close";i:1;a:0:{}i:2;i:2488;}i:137;a:3:{i:0;s:6:"p_open";i:1;a:0:{}i:2;i:2488;}i:138;a:3:{i:0;s:9:"linebreak";i:1;a:0:{}i:2;i:2490;}i:139;a:3:{i:0;s:5:"cdata";i:1;a:1:{i:0;s:40:"
Step 14: Repeat Step 12 and Goto Table ";}i:2;i:2492;}i:140;a:3:{i:0;s:18:"doublequoteopening";i:1;a:0:{}i:2;i:2532;}i:141;a:3:{i:0;s:5:"cdata";i:1;a:1:{i:0;s:12:"rand_pop_url";}i:2;i:2533;}i:142;a:3:{i:0;s:18:"doublequoteclosing";i:1;a:0:{}i:2;i:2545;}i:143;a:3:{i:0;s:5:"cdata";i:1;a:1:{i:0;s:35:" and compare all last three records";}i:2;i:2546;}i:144;a:3:{i:0;s:7:"p_close";i:1;a:0:{}i:2;i:2581;}i:145;a:3:{i:0;s:6:"p_open";i:1;a:0:{}i:2;i:2581;}i:146;a:3:{i:0;s:6:"plugin";i:1;a:4:{i:0;s:9:"code_file";i:1;a:4:{i:0;s:4:"file";i:1;N;i:2;s:0:"";i:3;s:48:"
»Database: pmytime_main »Table: rand_pop_url
";}i:2;i:3;i:3;s:49:">
»Database: pmytime_main »Table: rand_pop_url
";}i:2;i:2588;}i:147;a:3:{i:0;s:7:"p_close";i:1;a:0:{}i:2;i:2644;}i:148;a:3:{i:0;s:6:"p_open";i:1;a:0:{}i:2;i:2644;}i:149;a:3:{i:0;s:9:"linebreak";i:1;a:0:{}i:2;i:2646;}i:150;a:3:{i:0;s:5:"cdata";i:1;a:1:{i:0;s:11:"
Its Done !";}i:2;i:2648;}i:151;a:3:{i:0;s:7:"p_close";i:1;a:0:{}i:2;i:2659;}i:152;a:3:{i:0;s:12:"document_end";i:1;a:0:{}i:2;i:2659;}}