a:15:{i:0;a:3:{i:0;s:14:"document_start";i:1;a:0:{}i:2;i:0;}i:1;a:3:{i:0;s:6:"p_open";i:1;a:0:{}i:2;i:0;}i:2;a:3:{i:0;s:5:"cdata";i:1;a:1:{i:0;s:58:"1. Open mssql management studio and select database/table.";}i:2;i:1;}i:3;a:3:{i:0;s:7:"p_close";i:1;a:0:{}i:2;i:59;}i:4;a:3:{i:0;s:6:"p_open";i:1;a:0:{}i:2;i:59;}i:5;a:3:{i:0;s:5:"cdata";i:1;a:1:{i:0;s:12:"2. Click on ";}i:2;i:61;}i:6;a:3:{i:0;s:18:"doublequoteopening";i:1;a:0:{}i:2;i:73;}i:7;a:3:{i:0;s:5:"cdata";i:1;a:1:{i:0;s:9:"New Query";}i:2;i:74;}i:8;a:3:{i:0;s:18:"doublequoteclosing";i:1;a:0:{}i:2;i:83;}i:9;a:3:{i:0;s:7:"p_close";i:1;a:0:{}i:2;i:84;}i:10;a:3:{i:0;s:6:"p_open";i:1;a:0:{}i:2;i:84;}i:11;a:3:{i:0;s:5:"cdata";i:1;a:1:{i:0;s:29:"3. Now execute below command.";}i:2;i:86;}i:12;a:3:{i:0;s:7:"p_close";i:1;a:0:{}i:2;i:115;}i:13;a:3:{i:0;s:12:"preformatted";i:1;a:1:{i:0;s:63:" exec sp_updatestats
 
 
 4. You can run this server wide also.";}i:2;i:117;}i:14;a:3:{i:0;s:12:"document_end";i:1;a:0:{}i:2;i:117;}}