a:29:{i:0;a:3:{i:0;s:14:"document_start";i:1;a:0:{}i:2;i:0;}i:1;a:3:{i:0;s:6:"p_open";i:1;a:0:{}i:2;i:0;}i:2;a:3:{i:0;s:5:"cdata";i:1;a:1:{i:0;s:10:"First run:";}i:2;i:1;}i:3;a:3:{i:0;s:7:"p_close";i:1;a:0:{}i:2;i:11;}i:4;a:3:{i:0;s:6:"p_open";i:1;a:0:{}i:2;i:11;}i:5;a:3:{i:0;s:5:"cdata";i:1;a:1:{i:0;s:43:"/opt/MegaRAID/MegaCli/MegaCli64 -PDList -a0";}i:2;i:13;}i:6;a:3:{i:0;s:7:"p_close";i:1;a:0:{}i:2;i:56;}i:7;a:3:{i:0;s:6:"p_open";i:1;a:0:{}i:2;i:56;}i:8;a:3:{i:0;s:5:"cdata";i:1;a:1:{i:0;s:49:"to get the Device ID of the hard drive. They are;";}i:2;i:58;}i:9;a:3:{i:0;s:7:"p_close";i:1;a:0:{}i:2;i:107;}i:10;a:3:{i:0;s:6:"p_open";i:1;a:0:{}i:2;i:107;}i:11;a:3:{i:0;s:5:"cdata";i:1;a:1:{i:0;s:55:"Device Id: 12
Device Id: 13
Device Id: 14
Device Id: 15";}i:2;i:109;}i:12;a:3:{i:0;s:7:"p_close";i:1;a:0:{}i:2;i:164;}i:13;a:3:{i:0;s:6:"p_open";i:1;a:0:{}i:2;i:164;}i:14;a:3:{i:0;s:5:"cdata";i:1;a:1:{i:0;s:9:"then run:";}i:2;i:166;}i:15;a:3:{i:0;s:7:"p_close";i:1;a:0:{}i:2;i:175;}i:16;a:3:{i:0;s:6:"p_open";i:1;a:0:{}i:2;i:175;}i:17;a:3:{i:0;s:5:"cdata";i:1;a:1:{i:0;s:39:"smartctl -a -d sat+megaraid,12 /dev/sg0";}i:2;i:177;}i:18;a:3:{i:0;s:7:"p_close";i:1;a:0:{}i:2;i:216;}i:19;a:3:{i:0;s:6:"p_open";i:1;a:0:{}i:2;i:216;}i:20;a:3:{i:0;s:5:"cdata";i:1;a:1:{i:0;s:39:"smartctl -a -d sat+megaraid,13 /dev/sg0";}i:2;i:218;}i:21;a:3:{i:0;s:7:"p_close";i:1;a:0:{}i:2;i:257;}i:22;a:3:{i:0;s:6:"p_open";i:1;a:0:{}i:2;i:257;}i:23;a:3:{i:0;s:5:"cdata";i:1;a:1:{i:0;s:39:"smartctl -a -d sat+megaraid,14 /dev/sg0";}i:2;i:259;}i:24;a:3:{i:0;s:7:"p_close";i:1;a:0:{}i:2;i:298;}i:25;a:3:{i:0;s:6:"p_open";i:1;a:0:{}i:2;i:298;}i:26;a:3:{i:0;s:5:"cdata";i:1;a:1:{i:0;s:40:"smartctl -a -d sat+megaraid,15 /dev/sg0 ";}i:2;i:300;}i:27;a:3:{i:0;s:7:"p_close";i:1;a:0:{}i:2;i:340;}i:28;a:3:{i:0;s:12:"document_end";i:1;a:0:{}i:2;i:340;}}