a:81:{i:0;a:3:{i:0;s:14:"document_start";i:1;a:0:{}i:2;i:0;}i:1;a:3:{i:0;s:6:"p_open";i:1;a:0:{}i:2;i:0;}i:2;a:3:{i:0;s:11:"strong_open";i:1;a:0:{}i:2;i:3;}i:3;a:3:{i:0;s:5:"cdata";i:1;a:1:{i:0;s:7:"Problem";}i:2;i:5;}i:4;a:3:{i:0;s:12:"strong_close";i:1;a:0:{}i:2;i:12;}i:5;a:3:{i:0;s:5:"cdata";i:1;a:1:{i:0;s:1:" ";}i:2;i:14;}i:6;a:3:{i:0;s:9:"linebreak";i:1;a:0:{}i:2;i:15;}i:7;a:3:{i:0;s:5:"cdata";i:1;a:1:{i:0;s:161:"
A table in MySQL has a limitation of 65535 bytes of overall row length. It may severely limit the number of columns in a table when it has varchar/char columns.";}i:2;i:17;}i:8;a:3:{i:0;s:7:"p_close";i:1;a:0:{}i:2;i:178;}i:9;a:3:{i:0;s:6:"p_open";i:1;a:0:{}i:2;i:178;}i:10;a:3:{i:0;s:5:"cdata";i:1;a:1:{i:0;s:211:"In Magento starting from 1.3 the products catalog in the “flat” mode suffers from this limitation depending on the number and combination of the product attributes that participate in the flat product index.";}i:2;i:180;}i:11;a:3:{i:0;s:7:"p_close";i:1;a:0:{}i:2;i:391;}i:12;a:3:{i:0;s:6:"p_open";i:1;a:0:{}i:2;i:391;}i:13;a:3:{i:0;s:11:"strong_open";i:1;a:0:{}i:2;i:393;}i:14;a:3:{i:0;s:5:"cdata";i:1;a:1:{i:0;s:10:"Background";}i:2;i:395;}i:15;a:3:{i:0;s:12:"strong_close";i:1;a:0:{}i:2;i:405;}i:16;a:3:{i:0;s:5:"cdata";i:1;a:1:{i:0;s:1:" ";}i:2;i:407;}i:17;a:3:{i:0;s:9:"linebreak";i:1;a:0:{}i:2;i:408;}i:18;a:3:{i:0;s:5:"cdata";i:1;a:1:{i:0;s:106:"
A product attribute gets into the flat tables and gets affected by the issue in the following conditions:";}i:2;i:410;}i:19;a:3:{i:0;s:7:"p_close";i:1;a:0:{}i:2;i:517;}i:20;a:3:{i:0;s:10:"listo_open";i:1;a:0:{}i:2;i:517;}i:21;a:3:{i:0;s:13:"listitem_open";i:1;a:1:{i:0;i:1;}i:2;i:517;}i:22;a:3:{i:0;s:16:"listcontent_open";i:1;a:0:{}i:2;i:517;}i:23;a:3:{i:0;s:17:"listcontent_close";i:1;a:0:{}i:2;i:521;}i:24;a:3:{i:0;s:14:"listitem_close";i:1;a:0:{}i:2;i:521;}i:25;a:3:{i:0;s:11:"listo_close";i:1;a:0:{}i:2;i:521;}i:26;a:3:{i:0;s:6:"p_open";i:1;a:0:{}i:2;i:521;}i:27;a:3:{i:0;s:5:"cdata";i:1;a:1:{i:0;s:109:"The flat product catalog is enabled in “Sys Config → Catalog → Frontend → Use Flat Catalog Product”";}i:2;i:523;}i:28;a:3:{i:0;s:7:"p_close";i:1;a:0:{}i:2;i:633;}i:29;a:3:{i:0;s:10:"listo_open";i:1;a:0:{}i:2;i:633;}i:30;a:3:{i:0;s:13:"listitem_open";i:1;a:1:{i:0;i:1;}i:2;i:633;}i:31;a:3:{i:0;s:16:"listcontent_open";i:1;a:0:{}i:2;i:633;}i:32;a:3:{i:0;s:17:"listcontent_close";i:1;a:0:{}i:2;i:637;}i:33;a:3:{i:0;s:14:"listitem_close";i:1;a:0:{}i:2;i:637;}i:34;a:3:{i:0;s:11:"listo_close";i:1;a:0:{}i:2;i:637;}i:35;a:3:{i:0;s:6:"p_open";i:1;a:0:{}i:2;i:637;}i:36;a:3:{i:0;s:5:"cdata";i:1;a:1:{i:0;s:64:"When a product attribute is added with the following parameters:";}i:2;i:639;}i:37;a:3:{i:0;s:7:"p_close";i:1;a:0:{}i:2;i:703;}i:38;a:3:{i:0;s:6:"p_open";i:1;a:0:{}i:2;i:703;}i:39;a:3:{i:0;s:6:"plugin";i:1;a:4:{i:0;s:9:"code_code";i:1;a:4:{i:0;s:4:"code";i:1;N;i:2;s:0:"";i:3;s:331:"
  1) Frontend Properties – "Yes" one of: "Used in Product Listing", "Use in Layered Navigation", "Used for Sorting in Product Listing"
  2) Input Type – one of:
   a. Unordered List ItemUnordered List ItemDate
   b. Yes/No (boolean)
   c.  Multiple Select
   d. Dropdown
   e.  Price
   f. Media Image
   g. Fixed Product Tax
";}i:2;i:3;i:3;s:332:">
  1) Frontend Properties – "Yes" one of: "Used in Product Listing", "Use in Layered Navigation", "Used for Sorting in Product Listing"
  2) Input Type – one of:
   a. Unordered List ItemUnordered List ItemDate
   b. Yes/No (boolean)
   c.  Multiple Select
   d. Dropdown
   e.  Price
   f. Media Image
   g. Fixed Product Tax
";}i:2;i:710;}i:40;a:3:{i:0;s:7:"p_close";i:1;a:0:{}i:2;i:1049;}i:41;a:3:{i:0;s:6:"p_open";i:1;a:0:{}i:2;i:1049;}i:42;a:3:{i:0;s:5:"cdata";i:1;a:1:{i:0;s:7:"Result:";}i:2;i:1051;}i:43;a:3:{i:0;s:7:"p_close";i:1;a:0:{}i:2;i:1058;}i:44;a:3:{i:0;s:6:"p_open";i:1;a:0:{}i:2;i:1058;}i:45;a:3:{i:0;s:6:"plugin";i:1;a:4:{i:0;s:9:"code_code";i:1;a:4:{i:0;s:4:"code";i:1;N;i:2;s:0:"";i:3;s:205:"
"SQLSTATE[42000]: Syntax error or access violation: 1118 Row size too large. The maximum row
size for the used table type, not counting BLOBs, is 65535. You have to change some columns to
TEXT or BLOBs".
";}i:2;i:3;i:3;s:206:">
"SQLSTATE[42000]: Syntax error or access violation: 1118 Row size too large. The maximum row
size for the used table type, not counting BLOBs, is 65535. You have to change some columns to
TEXT or BLOBs".
";}i:2;i:1065;}i:46;a:3:{i:0;s:7:"p_close";i:1;a:0:{}i:2;i:1278;}i:47;a:3:{i:0;s:6:"p_open";i:1;a:0:{}i:2;i:1278;}i:48;a:3:{i:0;s:11:"strong_open";i:1;a:0:{}i:2;i:1280;}i:49;a:3:{i:0;s:5:"cdata";i:1;a:1:{i:0;s:11:"Workarounds";}i:2;i:1282;}i:50;a:3:{i:0;s:12:"strong_close";i:1;a:0:{}i:2;i:1293;}i:51;a:3:{i:0;s:5:"cdata";i:1;a:1:{i:0;s:0:"";}i:2;i:1295;}i:52;a:3:{i:0;s:7:"p_close";i:1;a:0:{}i:2;i:1296;}i:53;a:3:{i:0;s:10:"listu_open";i:1;a:0:{}i:2;i:1296;}i:54;a:3:{i:0;s:13:"listitem_open";i:1;a:1:{i:0;i:1;}i:2;i:1296;}i:55;a:3:{i:0;s:16:"listcontent_open";i:1;a:0:{}i:2;i:1296;}i:56;a:3:{i:0;s:17:"listcontent_close";i:1;a:0:{}i:2;i:1300;}i:57;a:3:{i:0;s:14:"listitem_close";i:1;a:0:{}i:2;i:1300;}i:58;a:3:{i:0;s:11:"listu_close";i:1;a:0:{}i:2;i:1300;}i:59;a:3:{i:0;s:6:"p_open";i:1;a:0:{}i:2;i:1300;}i:60;a:3:{i:0;s:5:"cdata";i:1;a:1:{i:0;s:256:"Minimize usage of the varchar (Text Field, Multiple Select) product attributes on the frontend by avoiding to put them into flat index: “Used in Product Listing” = No, “Use in Layered Navigation” = No, “Used for Sorting in Product Listing” = No";}i:2;i:1302;}i:61;a:3:{i:0;s:7:"p_close";i:1;a:0:{}i:2;i:1559;}i:62;a:3:{i:0;s:10:"listu_open";i:1;a:0:{}i:2;i:1559;}i:63;a:3:{i:0;s:13:"listitem_open";i:1;a:1:{i:0;i:1;}i:2;i:1559;}i:64;a:3:{i:0;s:16:"listcontent_open";i:1;a:0:{}i:2;i:1559;}i:65;a:3:{i:0;s:17:"listcontent_close";i:1;a:0:{}i:2;i:1563;}i:66;a:3:{i:0;s:14:"listitem_close";i:1;a:0:{}i:2;i:1563;}i:67;a:3:{i:0;s:11:"listu_close";i:1;a:0:{}i:2;i:1563;}i:68;a:3:{i:0;s:6:"p_open";i:1;a:0:{}i:2;i:1563;}i:69;a:3:{i:0;s:5:"cdata";i:1;a:1:{i:0;s:87:"Use “Dropdown” input type instead of “Multiple Select” (int instead of varchar)";}i:2;i:1565;}i:70;a:3:{i:0;s:7:"p_close";i:1;a:0:{}i:2;i:1652;}i:71;a:3:{i:0;s:6:"p_open";i:1;a:0:{}i:2;i:1652;}i:72;a:3:{i:0;s:11:"strong_open";i:1;a:0:{}i:2;i:1654;}i:73;a:3:{i:0;s:5:"cdata";i:1;a:1:{i:0;s:4:"Note";}i:2;i:1656;}i:74;a:3:{i:0;s:12:"strong_close";i:1;a:0:{}i:2;i:1660;}i:75;a:3:{i:0;s:5:"cdata";i:1;a:1:{i:0;s:2:": ";}i:2;i:1662;}i:76;a:3:{i:0;s:13:"emphasis_open";i:1;a:0:{}i:2;i:1664;}i:77;a:3:{i:0;s:5:"cdata";i:1;a:1:{i:0;s:132:"It is suggested to NOT use product_flat_data when the row size is nearing its limit, as its performance benefits are negated anyway.";}i:2;i:1666;}i:78;a:3:{i:0;s:14:"emphasis_close";i:1;a:0:{}i:2;i:1798;}i:79;a:3:{i:0;s:7:"p_close";i:1;a:0:{}i:2;i:1800;}i:80;a:3:{i:0;s:12:"document_end";i:1;a:0:{}i:2;i:1800;}}