a:176:{i:0;a:3:{i:0;s:14:"document_start";i:1;a:0:{}i:2;i:0;}i:1;a:3:{i:0;s:6:"header";i:1;a:3:{i:0;s:23:"Dk and DKIM enable EXIM";i:1;i:1;i:2;i:1;}i:2;i:1;}i:2;a:3:{i:0;s:12:"section_open";i:1;a:1:{i:0;i:1;}i:2;i:1;}i:3;a:3:{i:0;s:6:"p_open";i:1;a:0:{}i:2;i:1;}i:4;a:3:{i:0;s:5:"cdata";i:1;a:1:{i:0;s:55:"1. Login as root in the server. Install DKIMProxy from ";}i:2;i:42;}i:5;a:3:{i:0;s:12:"externallink";i:1;a:2:{i:0;s:33:"http://dkimproxy.sourceforge.net/";i:1;N;}i:2;i:97;}i:6;a:3:{i:0;s:7:"p_close";i:1;a:0:{}i:2;i:130;}i:7;a:3:{i:0;s:6:"p_open";i:1;a:0:{}i:2;i:130;}i:8;a:3:{i:0;s:5:"cdata";i:1;a:1:{i:0;s:74:"Then type the following commands(after entering the dkimproxy directory):
";}i:2;i:132;}i:9;a:3:{i:0;s:6:"plugin";i:1;a:4:{i:0;s:9:"code_code";i:1;a:4:{i:0;s:4:"code";i:1;N;i:2;s:0:"";i:3;s:31:"
./configure
make
make install ";}i:2;i:3;i:3;s:32:">
./configure
make
make install ";}i:2;i:211;}i:10;a:3:{i:0;s:7:"p_close";i:1;a:0:{}i:2;i:250;}i:11;a:3:{i:0;s:6:"p_open";i:1;a:0:{}i:2;i:250;}i:12;a:3:{i:0;s:5:"cdata";i:1;a:1:{i:0;s:17:"2. Key generation";}i:2;i:252;}i:13;a:3:{i:0;s:7:"p_close";i:1;a:0:{}i:2;i:269;}i:14;a:3:{i:0;s:6:"p_open";i:1;a:0:{}i:2;i:269;}i:15;a:3:{i:0;s:5:"cdata";i:1;a:1:{i:0;s:36:"openssl genrsa -out private.key 1024";}i:2;i:271;}i:16;a:3:{i:0;s:9:"linebreak";i:1;a:0:{}i:2;i:307;}i:17;a:3:{i:0;s:5:"cdata";i:1;a:1:{i:0;s:52:"
openssl rsa -in private.key -pubout -out public.key";}i:2;i:309;}i:18;a:3:{i:0;s:9:"linebreak";i:1;a:0:{}i:2;i:361;}i:19;a:3:{i:0;s:7:"p_close";i:1;a:0:{}i:2;i:363;}i:20;a:3:{i:0;s:6:"p_open";i:1;a:0:{}i:2;i:363;}i:21;a:3:{i:0;s:5:"cdata";i:1;a:1:{i:0;s:108:"This will create 2 files public.key and private.key. Save private.key as dkim.key.private in /etc/dkimproxy/";}i:2;i:365;}i:22;a:3:{i:0;s:7:"p_close";i:1;a:0:{}i:2;i:473;}i:23;a:3:{i:0;s:6:"p_open";i:1;a:0:{}i:2;i:473;}i:24;a:3:{i:0;s:5:"cdata";i:1;a:1:{i:0;s:3:"3. ";}i:2;i:475;}i:25;a:3:{i:0;s:7:"acronym";i:1;a:1:{i:0;s:3:"DNS";}i:2;i:478;}i:26;a:3:{i:0;s:5:"cdata";i:1;a:1:{i:0;s:15:" configuration
";}i:2;i:481;}i:27;a:3:{i:0;s:6:"plugin";i:1;a:4:{i:0;s:9:"code_code";i:1;a:4:{i:0;s:4:"code";i:1;N;i:2;s:0:"";i:3;s:187:"
default._domainkey 14400 IN TXT "k=rsa; p=<Public key generated from step 2>;"
_asp._domainkey IN TXT "dkim=unknown"
_adsp._domainkey IN TXT "dkim=unknown"
_domainkey IN TXT "t=y; o=~;" ";}i:2;i:3;i:3;s:188:">
default._domainkey 14400 IN TXT "k=rsa; p=<Public key generated from step 2>;"
_asp._domainkey IN TXT "dkim=unknown"
_adsp._domainkey IN TXT "dkim=unknown"
_domainkey IN TXT "t=y; o=~;" ";}i:2;i:501;}i:28;a:3:{i:0;s:7:"p_close";i:1;a:0:{}i:2;i:696;}i:29;a:3:{i:0;s:6:"p_open";i:1;a:0:{}i:2;i:696;}i:30;a:3:{i:0;s:5:"cdata";i:1;a:1:{i:0;s:26:"4. DKIMproxy configuration";}i:2;i:698;}i:31;a:3:{i:0;s:7:"p_close";i:1;a:0:{}i:2;i:724;}i:32;a:3:{i:0;s:6:"p_open";i:1;a:0:{}i:2;i:724;}i:33;a:3:{i:0;s:5:"cdata";i:1;a:1:{i:0;s:69:"Create a /etc/dkimproxy/dkimproxy_out.conf file with similar content:";}i:2;i:726;}i:34;a:3:{i:0;s:7:"p_close";i:1;a:0:{}i:2;i:795;}i:35;a:3:{i:0;s:6:"p_open";i:1;a:0:{}i:2;i:795;}i:36;a:3:{i:0;s:5:"cdata";i:1;a:1:{i:0;s:23:"listen 127.0.0.1:10027 ";}i:2;i:797;}i:37;a:3:{i:0;s:9:"linebreak";i:1;a:0:{}i:2;i:820;}i:38;a:3:{i:0;s:5:"cdata";i:1;a:1:{i:0;s:23:"
relay 127.0.0.1:10025 ";}i:2;i:822;}i:39;a:3:{i:0;s:9:"linebreak";i:1;a:0:{}i:2;i:845;}i:40;a:3:{i:0;s:7:"p_close";i:1;a:0:{}i:2;i:847;}i:41;a:3:{i:0;s:6:"p_open";i:1;a:0:{}i:2;i:847;}i:42;a:3:{i:0;s:5:"cdata";i:1;a:1:{i:0;s:34:"<example.com> <server.example.com>";}i:2;i:849;}i:43;a:3:{i:0;s:7:"p_close";i:1;a:0:{}i:2;i:883;}i:44;a:3:{i:0;s:6:"p_open";i:1;a:0:{}i:2;i:883;}i:45;a:3:{i:0;s:5:"cdata";i:1;a:1:{i:0;s:25:"signature dkim(c=relaxed)";}i:2;i:885;}i:46;a:3:{i:0;s:9:"linebreak";i:1;a:0:{}i:2;i:910;}i:47;a:3:{i:0;s:5:"cdata";i:1;a:1:{i:0;s:30:"
signature domainkeys(c=nofws)";}i:2;i:912;}i:48;a:3:{i:0;s:9:"linebreak";i:1;a:0:{}i:2;i:942;}i:49;a:3:{i:0;s:7:"p_close";i:1;a:0:{}i:2;i:944;}i:50;a:3:{i:0;s:6:"p_open";i:1;a:0:{}i:2;i:944;}i:51;a:3:{i:0;s:5:"cdata";i:1;a:1:{i:0;s:39:"keyfile /etc/dkimproxy/dkim.key.private";}i:2;i:946;}i:52;a:3:{i:0;s:9:"linebreak";i:1;a:0:{}i:2;i:985;}i:53;a:3:{i:0;s:7:"p_close";i:1;a:0:{}i:2;i:987;}i:54;a:3:{i:0;s:6:"p_open";i:1;a:0:{}i:2;i:987;}i:55;a:3:{i:0;s:5:"cdata";i:1;a:1:{i:0;s:16:"selector default";}i:2;i:989;}i:56;a:3:{i:0;s:9:"linebreak";i:1;a:0:{}i:2;i:1005;}i:57;a:3:{i:0;s:7:"p_close";i:1;a:0:{}i:2;i:1007;}i:58;a:3:{i:0;s:6:"p_open";i:1;a:0:{}i:2;i:1007;}i:59;a:3:{i:0;s:5:"cdata";i:1;a:1:{i:0;s:81:"Then make sure DKIMproxy is started when your server boots (add it to your cron):";}i:2;i:1009;}i:60;a:3:{i:0;s:9:"linebreak";i:1;a:0:{}i:2;i:1090;}i:61;a:3:{i:0;s:7:"p_close";i:1;a:0:{}i:2;i:1092;}i:62;a:3:{i:0;s:6:"p_open";i:1;a:0:{}i:2;i:1092;}i:63;a:3:{i:0;s:5:"cdata";i:1;a:1:{i:0;s:185:"/usr/local/bin/dkimproxy.out - -conf_file=/etc/dkimproxy/dkimproxy_out.conf - -selector=default - -domain=<domain used for sending signed mails> - -daemonize (Remove the spaces between ";}i:2;i:1094;}i:64;a:3:{i:0;s:18:"doublequoteopening";i:1;a:0:{}i:2;i:1279;}i:65;a:3:{i:0;s:5:"cdata";i:1;a:1:{i:0;s:3:"- -";}i:2;i:1280;}i:66;a:3:{i:0;s:18:"doublequoteclosing";i:1;a:0:{}i:2;i:1283;}i:67;a:3:{i:0;s:5:"cdata";i:1;a:1:{i:0;s:1:")";}i:2;i:1284;}i:68;a:3:{i:0;s:7:"p_close";i:1;a:0:{}i:2;i:1285;}i:69;a:3:{i:0;s:6:"p_open";i:1;a:0:{}i:2;i:1285;}i:70;a:3:{i:0;s:5:"cdata";i:1;a:1:{i:0;s:21:"5. Exim configuration";}i:2;i:1287;}i:71;a:3:{i:0;s:7:"p_close";i:1;a:0:{}i:2;i:1308;}i:72;a:3:{i:0;s:6:"p_open";i:1;a:0:{}i:2;i:1308;}i:73;a:3:{i:0;s:5:"cdata";i:1;a:1:{i:0;s:93:"Create a copy of exim.conf. Then make sure you have something similar in your exim.conf file:";}i:2;i:1310;}i:74;a:3:{i:0;s:7:"p_close";i:1;a:0:{}i:2;i:1403;}i:75;a:3:{i:0;s:6:"p_open";i:1;a:0:{}i:2;i:1403;}i:76;a:3:{i:0;s:5:"cdata";i:1;a:1:{i:0;s:44:"local_interfaces = 0.0.0.0 : 127.0.0.1.10025";}i:2;i:1405;}i:77;a:3:{i:0;s:7:"p_close";i:1;a:0:{}i:2;i:1449;}i:78;a:3:{i:0;s:6:"p_open";i:1;a:0:{}i:2;i:1449;}i:79;a:3:{i:0;s:5:"cdata";i:1;a:1:{i:0;s:32:"tls_advertise_hosts = 0.0.0.0.25";}i:2;i:1451;}i:80;a:3:{i:0;s:7:"p_close";i:1;a:0:{}i:2;i:1483;}i:81;a:3:{i:0;s:6:"p_open";i:1;a:0:{}i:2;i:1483;}i:82;a:3:{i:0;s:5:"cdata";i:1;a:1:{i:0;s:60:"at the beginning of the routers section in exim.conf:(after ";}i:2;i:1485;}i:83;a:3:{i:0;s:18:"doublequoteopening";i:1;a:0:{}i:2;i:1545;}i:84;a:3:{i:0;s:5:"cdata";i:1;a:1:{i:0;s:13:"begin routers";}i:2;i:1546;}i:85;a:3:{i:0;s:18:"doublequoteclosing";i:1;a:0:{}i:2;i:1559;}i:86;a:3:{i:0;s:5:"cdata";i:1;a:1:{i:0;s:1:")";}i:2;i:1560;}i:87;a:3:{i:0;s:7:"p_close";i:1;a:0:{}i:2;i:1561;}i:88;a:3:{i:0;s:6:"p_open";i:1;a:0:{}i:2;i:1561;}i:89;a:3:{i:0;s:5:"cdata";i:1;a:1:{i:0;s:10:"dkimproxy:";}i:2;i:1563;}i:90;a:3:{i:0;s:9:"linebreak";i:1;a:0:{}i:2;i:1573;}i:91;a:3:{i:0;s:5:"cdata";i:1;a:1:{i:0;s:21:"
driver = manualroute";}i:2;i:1575;}i:92;a:3:{i:0;s:9:"linebreak";i:1;a:0:{}i:2;i:1596;}i:93;a:3:{i:0;s:5:"cdata";i:1;a:1:{i:0;s:13:"
condition = ";}i:2;i:1598;}i:94;a:3:{i:0;s:18:"doublequoteopening";i:1;a:0:{}i:2;i:1611;}i:95;a:3:{i:0;s:5:"cdata";i:1;a:1:{i:0;s:40:"${if eq {$interface_port}{10025} {0}{1}}";}i:2;i:1612;}i:96;a:3:{i:0;s:18:"doublequoteopening";i:1;a:0:{}i:2;i:1652;}i:97;a:3:{i:0;s:9:"linebreak";i:1;a:0:{}i:2;i:1653;}i:98;a:3:{i:0;s:5:"cdata";i:1;a:1:{i:0;s:27:"
transport = dkimproxy_smtp";}i:2;i:1655;}i:99;a:3:{i:0;s:9:"linebreak";i:1;a:0:{}i:2;i:1682;}i:100;a:3:{i:0;s:5:"cdata";i:1;a:1:{i:0;s:14:"
route_list = ";}i:2;i:1684;}i:101;a:3:{i:0;s:18:"doublequoteopening";i:1;a:0:{}i:2;i:1698;}i:102;a:3:{i:0;s:5:"cdata";i:1;a:1:{i:0;s:19:"\* localhost byname";}i:2;i:1699;}i:103;a:3:{i:0;s:18:"doublequoteclosing";i:1;a:0:{}i:2;i:1718;}i:104;a:3:{i:0;s:9:"linebreak";i:1;a:0:{}i:2;i:1719;}i:105;a:3:{i:0;s:5:"cdata";i:1;a:1:{i:0;s:12:"
self = send";}i:2;i:1721;}i:106;a:3:{i:0;s:9:"linebreak";i:1;a:0:{}i:2;i:1733;}i:107;a:3:{i:0;s:7:"p_close";i:1;a:0:{}i:2;i:1735;}i:108;a:3:{i:0;s:6:"p_open";i:1;a:0:{}i:2;i:1735;}i:109;a:3:{i:0;s:5:"cdata";i:1;a:1:{i:0;s:56:"transports section in exim.conf (does not matter where):";}i:2;i:1737;}i:110;a:3:{i:0;s:9:"linebreak";i:1;a:0:{}i:2;i:1793;}i:111;a:3:{i:0;s:7:"p_close";i:1;a:0:{}i:2;i:1795;}i:112;a:3:{i:0;s:6:"p_open";i:1;a:0:{}i:2;i:1795;}i:113;a:3:{i:0;s:5:"cdata";i:1;a:1:{i:0;s:15:"dkimproxy_smtp:";}i:2;i:1797;}i:114;a:3:{i:0;s:9:"linebreak";i:1;a:0:{}i:2;i:1812;}i:115;a:3:{i:0;s:5:"cdata";i:1;a:1:{i:0;s:14:"
driver = smtp";}i:2;i:1814;}i:116;a:3:{i:0;s:9:"linebreak";i:1;a:0:{}i:2;i:1828;}i:117;a:3:{i:0;s:5:"cdata";i:1;a:1:{i:0;s:13:"
port = 10027";}i:2;i:1830;}i:118;a:3:{i:0;s:9:"linebreak";i:1;a:0:{}i:2;i:1843;}i:119;a:3:{i:0;s:5:"cdata";i:1;a:1:{i:0;s:16:"
allow_localhost";}i:2;i:1845;}i:120;a:3:{i:0;s:9:"linebreak";i:1;a:0:{}i:2;i:1861;}i:121;a:3:{i:0;s:7:"p_close";i:1;a:0:{}i:2;i:1863;}i:122;a:3:{i:0;s:6:"p_open";i:1;a:0:{}i:2;i:1863;}i:123;a:3:{i:0;s:5:"cdata";i:1;a:1:{i:0;s:57:"6. Finally comment out these lines from /etc/init.d/exim:";}i:2;i:1866;}i:124;a:3:{i:0;s:7:"p_close";i:1;a:0:{}i:2;i:1923;}i:125;a:3:{i:0;s:6:"p_open";i:1;a:0:{}i:2;i:1923;}i:126;a:3:{i:0;s:5:"cdata";i:1;a:1:{i:0;s:8:"echo -n ";}i:2;i:1925;}i:127;a:3:{i:0;s:18:"doublequoteopening";i:1;a:0:{}i:2;i:1933;}i:128;a:3:{i:0;s:5:"cdata";i:1;a:1:{i:0;s:21:"Starting exim-smtps: ";}i:2;i:1934;}i:129;a:3:{i:0;s:18:"doublequoteopening";i:1;a:0:{}i:2;i:1955;}i:130;a:3:{i:0;s:9:"linebreak";i:1;a:0:{}i:2;i:1956;}i:131;a:3:{i:0;s:5:"cdata";i:1;a:1:{i:0;s:81:"
TMPDIR=/tmp $DAEMONIZE /usr/sbin/exim -tls-on-connect -bd -oX 465 (Comment this)";}i:2;i:1958;}i:132;a:3:{i:0;s:9:"linebreak";i:1;a:0:{}i:2;i:2039;}i:133;a:3:{i:0;s:5:"cdata";i:1;a:1:{i:0;s:28:"
echo $RESULT (Comment this)";}i:2;i:2041;}i:134;a:3:{i:0;s:7:"p_close";i:1;a:0:{}i:2;i:2069;}i:135;a:3:{i:0;s:6:"p_open";i:1;a:0:{}i:2;i:2069;}i:136;a:3:{i:0;s:5:"cdata";i:1;a:1:{i:0;s:25:"7. Restart the following:";}i:2;i:2071;}i:137;a:3:{i:0;s:7:"p_close";i:1;a:0:{}i:2;i:2096;}i:138;a:3:{i:0;s:6:"p_open";i:1;a:0:{}i:2;i:2096;}i:139;a:3:{i:0;s:5:"cdata";i:1;a:1:{i:0;s:25:"/etc/init.d/exim restart ";}i:2;i:2098;}i:140;a:3:{i:0;s:9:"linebreak";i:1;a:0:{}i:2;i:2123;}i:141;a:3:{i:0;s:5:"cdata";i:1;a:1:{i:0;s:27:"
/etc/init.d/named restart ";}i:2;i:2125;}i:142;a:3:{i:0;s:9:"linebreak";i:1;a:0:{}i:2;i:2152;}i:143;a:3:{i:0;s:7:"p_close";i:1;a:0:{}i:2;i:2154;}i:144;a:3:{i:0;s:6:"p_open";i:1;a:0:{}i:2;i:2154;}i:145;a:3:{i:0;s:5:"cdata";i:1;a:1:{i:0;s:18:"NOTE: If it gives ";}i:2;i:2156;}i:146;a:3:{i:0;s:18:"doublequoteopening";i:1;a:0:{}i:2;i:2174;}i:147;a:3:{i:0;s:5:"cdata";i:1;a:1:{i:0;s:43:"checking for Perl module 'Net::Server 0.91'";}i:2;i:2175;}i:148;a:3:{i:0;s:6:"entity";i:1;a:1:{i:0;s:3:"...";}i:2;i:2218;}i:149;a:3:{i:0;s:5:"cdata";i:1;a:1:{i:0;s:10:" not found";}i:2;i:2221;}i:150;a:3:{i:0;s:18:"doublequoteclosing";i:1;a:0:{}i:2;i:2231;}i:151;a:3:{i:0;s:5:"cdata";i:1;a:1:{i:0;s:23:" then do the following:";}i:2;i:2232;}i:152;a:3:{i:0;s:7:"p_close";i:1;a:0:{}i:2;i:2255;}i:153;a:3:{i:0;s:6:"p_open";i:1;a:0:{}i:2;i:2255;}i:154;a:3:{i:0;s:5:"cdata";i:1;a:1:{i:0;s:9:"Download ";}i:2;i:2257;}i:155;a:3:{i:0;s:12:"externallink";i:1;a:2:{i:0;s:74:"http://search.cpan.org/CPAN/authors/id/R/RH/RHANDOM/Net-Server-0.94.tar.gz";i:1;N;}i:2;i:2266;}i:156;a:3:{i:0;s:5:"cdata";i:1;a:1:{i:0;s:1:" ";}i:2;i:2340;}i:157;a:3:{i:0;s:9:"linebreak";i:1;a:0:{}i:2;i:2341;}i:158;a:3:{i:0;s:5:"cdata";i:1;a:1:{i:0;s:33:"
tar -xvf Net-Server-0.94.tar.gz ";}i:2;i:2343;}i:159;a:3:{i:0;s:9:"linebreak";i:1;a:0:{}i:2;i:2376;}i:160;a:3:{i:0;s:5:"cdata";i:1;a:1:{i:0;s:20:"
cd Net-Server-0.94 ";}i:2;i:2378;}i:161;a:3:{i:0;s:9:"linebreak";i:1;a:0:{}i:2;i:2398;}i:162;a:3:{i:0;s:5:"cdata";i:1;a:1:{i:0;s:18:"
perl Makefile.PL ";}i:2;i:2400;}i:163;a:3:{i:0;s:9:"linebreak";i:1;a:0:{}i:2;i:2418;}i:164;a:3:{i:0;s:5:"cdata";i:1;a:1:{i:0;s:6:"
make ";}i:2;i:2420;}i:165;a:3:{i:0;s:9:"linebreak";i:1;a:0:{}i:2;i:2426;}i:166;a:3:{i:0;s:5:"cdata";i:1;a:1:{i:0;s:11:"
make test ";}i:2;i:2428;}i:167;a:3:{i:0;s:9:"linebreak";i:1;a:0:{}i:2;i:2439;}i:168;a:3:{i:0;s:5:"cdata";i:1;a:1:{i:0;s:14:"
make install ";}i:2;i:2441;}i:169;a:3:{i:0;s:9:"linebreak";i:1;a:0:{}i:2;i:2455;}i:170;a:3:{i:0;s:7:"p_close";i:1;a:0:{}i:2;i:2457;}i:171;a:3:{i:0;s:6:"p_open";i:1;a:0:{}i:2;i:2457;}i:172;a:3:{i:0;s:5:"cdata";i:1;a:1:{i:0;s:5:"DONE!";}i:2;i:2459;}i:173;a:3:{i:0;s:7:"p_close";i:1;a:0:{}i:2;i:2464;}i:174;a:3:{i:0;s:13:"section_close";i:1;a:0:{}i:2;i:2464;}i:175;a:3:{i:0;s:12:"document_end";i:1;a:0:{}i:2;i:2464;}}