a:9:{i:0;a:3:{i:0;s:14:"document_start";i:1;a:0:{}i:2;i:0;}i:1;a:3:{i:0;s:6:"header";i:1;a:3:{i:0;s:20:"Firewall on PowerDNS";i:1;i:1;i:2;i:1;}i:2;i:1;}i:2;a:3:{i:0;s:12:"section_open";i:1;a:1:{i:0;i:1;}i:2;i:1;}i:3;a:3:{i:0;s:6:"p_open";i:1;a:0:{}i:2;i:1;}i:4;a:3:{i:0;s:6:"plugin";i:1;a:4:{i:0;s:9:"code_code";i:1;a:4:{i:0;s:4:"code";i:1;N;i:2;s:0:"";i:3;s:243:"
1) Install CSF on the server.

2) Edit the config file and open only required ports:

TCP_IN = "22,53,3306"

TCP_OUT = "22,53,80,3306"

UDP_IN = "53"

UDP_OUT = "53"

 

3) Add the IP's of master/slave in the csf.allow file.

4) Restart CSF. ";}i:2;i:3;i:3;s:244:">
1) Install CSF on the server.

2) Edit the config file and open only required ports:

TCP_IN = "22,53,3306"

TCP_OUT = "22,53,80,3306"

UDP_IN = "53"

UDP_OUT = "53"

 

3) Add the IP's of master/slave in the csf.allow file.

4) Restart CSF. ";}i:2;i:42;}i:5;a:3:{i:0;s:5:"cdata";i:1;a:1:{i:0;s:0:"";}i:2;i:293;}i:6;a:3:{i:0;s:7:"p_close";i:1;a:0:{}i:2;i:293;}i:7;a:3:{i:0;s:13:"section_close";i:1;a:0:{}i:2;i:293;}i:8;a:3:{i:0;s:12:"document_end";i:1;a:0:{}i:2;i:293;}}