a:27:{i:0;a:3:{i:0;s:14:"document_start";i:1;a:0:{}i:2;i:0;}i:1;a:3:{i:0;s:6:"p_open";i:1;a:0:{}i:2;i:0;}i:2;a:3:{i:0;s:5:"cdata";i:1;a:1:{i:0;s:11:"USE master;";}i:2;i:1;}i:3;a:3:{i:0;s:9:"linebreak";i:1;a:0:{}i:2;i:12;}i:4;a:3:{i:0;s:5:"cdata";i:1;a:1:{i:0;s:3:"
GO";}i:2;i:14;}i:5;a:3:{i:0;s:9:"linebreak";i:1;a:0:{}i:2;i:17;}i:6;a:3:{i:0;s:5:"cdata";i:1;a:1:{i:0;s:39:"
DENY VIEW ANY DATABASE TO [newlogin]; ";}i:2;i:19;}i:7;a:3:{i:0;s:9:"linebreak";i:1;a:0:{}i:2;i:58;}i:8;a:3:{i:0;s:5:"cdata";i:1;a:1:{i:0;s:3:"
GO";}i:2;i:60;}i:9;a:3:{i:0;s:9:"linebreak";i:1;a:0:{}i:2;i:63;}i:10;a:3:{i:0;s:5:"cdata";i:1;a:1:{i:0;s:12:"
USE yourDB;";}i:2;i:65;}i:11;a:3:{i:0;s:9:"linebreak";i:1;a:0:{}i:2;i:77;}i:12;a:3:{i:0;s:5:"cdata";i:1;a:1:{i:0;s:3:"
GO";}i:2;i:79;}i:13;a:3:{i:0;s:9:"linebreak";i:1;a:0:{}i:2;i:82;}i:14;a:3:{i:0;s:5:"cdata";i:1;a:1:{i:0;s:20:"
DROP USER newlogin;";}i:2;i:84;}i:15;a:3:{i:0;s:9:"linebreak";i:1;a:0:{}i:2;i:104;}i:16;a:3:{i:0;s:5:"cdata";i:1;a:1:{i:0;s:3:"
GO";}i:2;i:106;}i:17;a:3:{i:0;s:9:"linebreak";i:1;a:0:{}i:2;i:109;}i:18;a:3:{i:0;s:5:"cdata";i:1;a:1:{i:0;s:12:"
USE master;";}i:2;i:111;}i:19;a:3:{i:0;s:9:"linebreak";i:1;a:0:{}i:2;i:123;}i:20;a:3:{i:0;s:5:"cdata";i:1;a:1:{i:0;s:3:"
GO";}i:2;i:125;}i:21;a:3:{i:0;s:9:"linebreak";i:1;a:0:{}i:2;i:128;}i:22;a:3:{i:0;s:5:"cdata";i:1;a:1:{i:0;s:55:"
ALTER AUTHORIZATION ON DATABASE::yourDB TO [newlogin];";}i:2;i:130;}i:23;a:3:{i:0;s:9:"linebreak";i:1;a:0:{}i:2;i:185;}i:24;a:3:{i:0;s:5:"cdata";i:1;a:1:{i:0;s:3:"
GO";}i:2;i:187;}i:25;a:3:{i:0;s:7:"p_close";i:1;a:0:{}i:2;i:190;}i:26;a:3:{i:0;s:12:"document_end";i:1;a:0:{}i:2;i:190;}}