a:24:{i:0;a:3:{i:0;s:14:"document_start";i:1;a:0:{}i:2;i:0;}i:1;a:3:{i:0;s:6:"header";i:1;a:3:{i:0;s:61:"Remove Listen,Download buttons from Monitoring page (Elastix)";i:1;i:1;i:2;i:1;}i:2;i:1;}i:2;a:3:{i:0;s:12:"section_open";i:1;a:1:{i:0;i:1;}i:2;i:1;}i:3;a:3:{i:0;s:6:"p_open";i:1;a:0:{}i:2;i:1;}i:4;a:3:{i:0;s:5:"cdata";i:1;a:1:{i:0;s:26:"1) Login as root in shell.";}i:2;i:79;}i:5;a:3:{i:0;s:7:"p_close";i:1;a:0:{}i:2;i:105;}i:6;a:3:{i:0;s:6:"p_open";i:1;a:0:{}i:2;i:105;}i:7;a:3:{i:0;s:5:"cdata";i:1;a:1:{i:0;s:55:"2) Change directory to /var/www/html/modules/monitoring";}i:2;i:107;}i:8;a:3:{i:0;s:7:"p_close";i:1;a:0:{}i:2;i:162;}i:9;a:3:{i:0;s:6:"p_open";i:1;a:0:{}i:2;i:162;}i:10;a:3:{i:0;s:5:"cdata";i:1;a:1:{i:0;s:27:"3) Take backup of index.php";}i:2;i:164;}i:11;a:3:{i:0;s:7:"p_close";i:1;a:0:{}i:2;i:191;}i:12;a:3:{i:0;s:6:"p_open";i:1;a:0:{}i:2;i:191;}i:13;a:3:{i:0;s:5:"cdata";i:1;a:1:{i:0;s:26:"cp index.php index.php.bak";}i:2;i:193;}i:14;a:3:{i:0;s:7:"p_close";i:1;a:0:{}i:2;i:219;}i:15;a:3:{i:0;s:6:"p_open";i:1;a:0:{}i:2;i:219;}i:16;a:3:{i:0;s:5:"cdata";i:1;a:1:{i:0;s:49:"4) Edit index.php and make the following changes:";}i:2;i:221;}i:17;a:3:{i:0;s:7:"p_close";i:1;a:0:{}i:2;i:270;}i:18;a:3:{i:0;s:6:"p_open";i:1;a:0:{}i:2;i:270;}i:19;a:3:{i:0;s:6:"plugin";i:1;a:4:{i:0;s:9:"code_code";i:1;a:4:{i:0;s:4:"code";i:1;N;i:2;s:0:"";i:3;s:1644:"
Before Editing:

------------------------------------------------------------------------------------------------------------------------------------------------------------------------------------------------------------------------

if ($namefile != 'deleted') {
                    $recordingLink = "<a  href=\"javascript:popUp('index.php?menu=$module_name&action=display_record&id=$file&namefile=$namefile&rawmode=yes',350,100);\">"._tr("Listen")."</a>&nbsp;";

                    $recordingLink .= "<a href='?menu=$module_name&action=download&id=$file&namefile=$namefile&rawmode=yes' >"._tr("Download")."</a>";

------------------------------------------------------------------------------------------------------------------------------------------------------------------------------------------------------------------------

 

After Editing:

------------------------------------------------------------------------------------------------------------------------------------------------------------------------------------------------------------------------

if ($namefile != 'deleted') {
                    $recordingLink = "<a  href=\"javascript:popUp('index.php?menu=$module_name&action=display_record&id=$file&namefile=$namefile&rawmode=yes',350,100);\">"."</a>&nbsp;";

                    $recordingLink .= "<a href='?menu=$module_name&action=download&id=$file&namefile=$namefile&rawmode=yes' >"."</a>";
------------------------------------------------------------------------------------------------------------------------------------------------------------------------------------------------------------------------

";}i:2;i:3;i:3;s:1645:">
Before Editing:

------------------------------------------------------------------------------------------------------------------------------------------------------------------------------------------------------------------------

if ($namefile != 'deleted') {
                    $recordingLink = "<a  href=\"javascript:popUp('index.php?menu=$module_name&action=display_record&id=$file&namefile=$namefile&rawmode=yes',350,100);\">"._tr("Listen")."</a>&nbsp;";

                    $recordingLink .= "<a href='?menu=$module_name&action=download&id=$file&namefile=$namefile&rawmode=yes' >"._tr("Download")."</a>";

------------------------------------------------------------------------------------------------------------------------------------------------------------------------------------------------------------------------

 

After Editing:

------------------------------------------------------------------------------------------------------------------------------------------------------------------------------------------------------------------------

if ($namefile != 'deleted') {
                    $recordingLink = "<a  href=\"javascript:popUp('index.php?menu=$module_name&action=display_record&id=$file&namefile=$namefile&rawmode=yes',350,100);\">"."</a>&nbsp;";

                    $recordingLink .= "<a href='?menu=$module_name&action=download&id=$file&namefile=$namefile&rawmode=yes' >"."</a>";
------------------------------------------------------------------------------------------------------------------------------------------------------------------------------------------------------------------------

";}i:2;i:277;}i:20;a:3:{i:0;s:5:"cdata";i:1;a:1:{i:0;s:0:"";}i:2;i:1929;}i:21;a:3:{i:0;s:7:"p_close";i:1;a:0:{}i:2;i:1929;}i:22;a:3:{i:0;s:13:"section_close";i:1;a:0:{}i:2;i:1929;}i:23;a:3:{i:0;s:12:"document_end";i:1;a:0:{}i:2;i:1929;}}