a:74:{i:0;a:3:{i:0;s:14:"document_start";i:1;a:0:{}i:2;i:0;}i:1;a:3:{i:0;s:6:"header";i:1;a:3:{i:0;s:10:"Setup VOIP";i:1;i:1;i:2;i:1;}i:2;i:1;}i:2;a:3:{i:0;s:12:"section_open";i:1;a:1:{i:0;i:1;}i:2;i:1;}i:3;a:3:{i:0;s:6:"p_open";i:1;a:0:{}i:2;i:1;}i:4;a:3:{i:0;s:5:"cdata";i:1;a:1:{i:0;s:29:"1) login to your master panel";}i:2;i:28;}i:5;a:3:{i:0;s:7:"p_close";i:1;a:0:{}i:2;i:57;}i:6;a:3:{i:0;s:6:"p_open";i:1;a:0:{}i:2;i:57;}i:7;a:3:{i:0;s:5:"cdata";i:1;a:1:{i:0;s:73:"2) Select the manage button for which you want to setup the Voip service.";}i:2;i:59;}i:8;a:3:{i:0;s:7:"p_close";i:1;a:0:{}i:2;i:132;}i:9;a:3:{i:0;s:6:"p_open";i:1;a:0:{}i:2;i:132;}i:10;a:3:{i:0;s:5:"cdata";i:1;a:1:{i:0;s:37:"3) Click on VNC and follow the steps.";}i:2;i:134;}i:11;a:3:{i:0;s:7:"p_close";i:1;a:0:{}i:2;i:171;}i:12;a:3:{i:0;s:6:"p_open";i:1;a:0:{}i:2;i:171;}i:13;a:3:{i:0;s:5:"cdata";i:1;a:1:{i:0;s:69:"Note: Elastix  .iso mage should be on the server for further process.";}i:2;i:173;}i:14;a:3:{i:0;s:7:"p_close";i:1;a:0:{}i:2;i:242;}i:15;a:3:{i:0;s:6:"p_open";i:1;a:0:{}i:2;i:242;}i:16;a:3:{i:0;s:5:"cdata";i:1;a:1:{i:0;s:75:"4) Now log in with the username and password into the elastix log in panel.";}i:2;i:244;}i:17;a:3:{i:0;s:7:"p_close";i:1;a:0:{}i:2;i:319;}i:18;a:3:{i:0;s:6:"p_open";i:1;a:0:{}i:2;i:319;}i:19;a:3:{i:0;s:5:"cdata";i:1;a:1:{i:0;s:27:"5) Click on PBX and select ";}i:2;i:321;}i:20;a:3:{i:0;s:18:"doublequoteopening";i:1;a:0:{}i:2;i:348;}i:21;a:3:{i:0;s:5:"cdata";i:1;a:1:{i:0;s:16:"general settings";}i:2;i:349;}i:22;a:3:{i:0;s:18:"doublequoteclosing";i:1;a:0:{}i:2;i:365;}i:23;a:3:{i:0;s:5:"cdata";i:1;a:1:{i:0;s:1:".";}i:2;i:366;}i:24;a:3:{i:0;s:7:"p_close";i:1;a:0:{}i:2;i:367;}i:25;a:3:{i:0;s:6:"p_open";i:1;a:0:{}i:2;i:367;}i:26;a:3:{i:0;s:5:"cdata";i:1;a:1:{i:0;s:38:"6) Under Trunks specify the following:";}i:2;i:369;}i:27;a:3:{i:0;s:7:"p_close";i:1;a:0:{}i:2;i:407;}i:28;a:3:{i:0;s:6:"p_open";i:1;a:0:{}i:2;i:407;}i:29;a:3:{i:0;s:5:"cdata";i:1;a:1:{i:0;s:16:"6.1) Trunk Name:";}i:2;i:409;}i:30;a:3:{i:0;s:7:"p_close";i:1;a:0:{}i:2;i:425;}i:31;a:3:{i:0;s:6:"p_open";i:1;a:0:{}i:2;i:425;}i:32;a:3:{i:0;s:5:"cdata";i:1;a:1:{i:0;s:132:"Note: Before you specify the peer details you need the account details of the voip.ms account you are gong to take for this process.";}i:2;i:427;}i:33;a:3:{i:0;s:7:"p_close";i:1;a:0:{}i:2;i:559;}i:34;a:3:{i:0;s:6:"p_open";i:1;a:0:{}i:2;i:559;}i:35;a:3:{i:0;s:5:"cdata";i:1;a:1:{i:0;s:19:"6.2)  Peer Details:";}i:2;i:561;}i:36;a:3:{i:0;s:6:"plugin";i:1;a:4:{i:0;s:9:"code_code";i:1;a:4:{i:0;s:4:"code";i:1;N;i:2;s:0:"";i:3;s:564:" canreinvite=nonat
                          ; nat=yes ; uncomment if behind nat
                           context=from-trunk
                          host=<newyork.mantravoip.com>
                          secret=<innefu123789!>
                          type=friend
                          username=<119520_3>
                          disallow=all
                          allow=ulaw
                          fromuser=<119520_3>
                          trustrpid=yes
                          sendrpid=yes
                          insecure=port,invite ";}i:2;i:3;i:3;s:565:"> canreinvite=nonat
                          ; nat=yes ; uncomment if behind nat
                           context=from-trunk
                          host=<newyork.mantravoip.com>
                          secret=<innefu123789!>
                          type=friend
                          username=<119520_3>
                          disallow=all
                          allow=ulaw
                          fromuser=<119520_3>
                          trustrpid=yes
                          sendrpid=yes
                          insecure=port,invite ";}i:2;i:585;}i:37;a:3:{i:0;s:7:"p_close";i:1;a:0:{}i:2;i:1157;}i:38;a:3:{i:0;s:6:"p_open";i:1;a:0:{}i:2;i:1157;}i:39;a:3:{i:0;s:5:"cdata";i:1;a:1:{i:0;s:74:"6.3)  Register Strng: <119520_3:innefu123789!@newyork.mantravoip.com>:5060";}i:2;i:1159;}i:40;a:3:{i:0;s:7:"p_close";i:1;a:0:{}i:2;i:1233;}i:41;a:3:{i:0;s:6:"p_open";i:1;a:0:{}i:2;i:1233;}i:42;a:3:{i:0;s:5:"cdata";i:1;a:1:{i:0;s:54:"7)  After you save the settings of the above click on ";}i:2;i:1235;}i:43;a:3:{i:0;s:18:"doublequoteopening";i:1;a:0:{}i:2;i:1289;}i:44;a:3:{i:0;s:5:"cdata";i:1;a:1:{i:0;s:16:"General Settings";}i:2;i:1290;}i:45;a:3:{i:0;s:18:"doublequoteclosing";i:1;a:0:{}i:2;i:1306;}i:46;a:3:{i:0;s:5:"cdata";i:1;a:1:{i:0;s:1:".";}i:2;i:1307;}i:47;a:3:{i:0;s:7:"p_close";i:1;a:0:{}i:2;i:1308;}i:48;a:3:{i:0;s:6:"p_open";i:1;a:0:{}i:2;i:1308;}i:49;a:3:{i:0;s:5:"cdata";i:1;a:1:{i:0;s:41:"7.1) Asterisk Dal command Options: <Wwtr>";}i:2;i:1310;}i:50;a:3:{i:0;s:7:"p_close";i:1;a:0:{}i:2;i:1351;}i:51;a:3:{i:0;s:6:"p_open";i:1;a:0:{}i:2;i:1351;}i:52;a:3:{i:0;s:5:"cdata";i:1;a:1:{i:0;s:51:"7.2) Asterisk Outbound Dial command Options: <WwTt>";}i:2;i:1353;}i:53;a:3:{i:0;s:7:"p_close";i:1;a:0:{}i:2;i:1404;}i:54;a:3:{i:0;s:6:"p_open";i:1;a:0:{}i:2;i:1404;}i:55;a:3:{i:0;s:5:"cdata";i:1;a:1:{i:0;s:19:" Save the settings.";}i:2;i:1406;}i:56;a:3:{i:0;s:7:"p_close";i:1;a:0:{}i:2;i:1425;}i:57;a:3:{i:0;s:6:"p_open";i:1;a:0:{}i:2;i:1425;}i:58;a:3:{i:0;s:5:"cdata";i:1;a:1:{i:0;s:27:"8) Click on Outbound Routes";}i:2;i:1427;}i:59;a:3:{i:0;s:7:"p_close";i:1;a:0:{}i:2;i:1454;}i:60;a:3:{i:0;s:6:"p_open";i:1;a:0:{}i:2;i:1454;}i:61;a:3:{i:0;s:5:"cdata";i:1;a:1:{i:0;s:17:"8.1)  Route Name:";}i:2;i:1456;}i:62;a:3:{i:0;s:7:"p_close";i:1;a:0:{}i:2;i:1473;}i:63;a:3:{i:0;s:6:"p_open";i:1;a:0:{}i:2;i:1473;}i:64;a:3:{i:0;s:5:"cdata";i:1;a:1:{i:0;s:67:"8.2) Dial patterns that you will use in this route: <match pattern>";}i:2;i:1475;}i:65;a:3:{i:0;s:7:"p_close";i:1;a:0:{}i:2;i:1542;}i:66;a:3:{i:0;s:6:"p_open";i:1;a:0:{}i:2;i:1542;}i:67;a:3:{i:0;s:5:"cdata";i:1;a:1:{i:0;s:54:"9) Trunk routes for specified routes: select SIP trunk";}i:2;i:1544;}i:68;a:3:{i:0;s:7:"p_close";i:1;a:0:{}i:2;i:1598;}i:69;a:3:{i:0;s:6:"p_open";i:1;a:0:{}i:2;i:1598;}i:70;a:3:{i:0;s:5:"cdata";i:1;a:1:{i:0;s:61:"10)  To check if calling is working or not use your softphone";}i:2;i:1600;}i:71;a:3:{i:0;s:7:"p_close";i:1;a:0:{}i:2;i:1661;}i:72;a:3:{i:0;s:13:"section_close";i:1;a:0:{}i:2;i:1661;}i:73;a:3:{i:0;s:12:"document_end";i:1;a:0:{}i:2;i:1661;}}