a:9:{i:0;a:3:{i:0;s:14:"document_start";i:1;a:0:{}i:2;i:0;}i:1;a:3:{i:0;s:6:"header";i:1;a:3:{i:0;s:31:"Xen partitioning on GPT(parted)";i:1;i:1;i:2;i:1;}i:2;i:1;}i:2;a:3:{i:0;s:12:"section_open";i:1;a:1:{i:0;i:1;}i:2;i:1;}i:3;a:3:{i:0;s:6:"p_open";i:1;a:0:{}i:2;i:1;}i:4;a:3:{i:0;s:6:"plugin";i:1;a:4:{i:0;s:9:"code_code";i:1;a:4:{i:0;s:4:"code";i:1;N;i:2;s:0:"";i:3;s:185:"
pvcreate /dev/sda<no>

pvscan

vgcreate VolGroup00 /dev/sda<no>

vgdisplay

lvcreate -L +1GB -n LVM1 VolGroup00

lvdisplay

mkfs.ext3 /dev/VolGroup00/LVM1

Add the entry in /etc/fstab
";}i:2;i:3;i:3;s:186:">
pvcreate /dev/sda<no>

pvscan

vgcreate VolGroup00 /dev/sda<no>

vgdisplay

lvcreate -L +1GB -n LVM1 VolGroup00

lvdisplay

mkfs.ext3 /dev/VolGroup00/LVM1

Add the entry in /etc/fstab
";}i:2;i:54;}i:5;a:3:{i:0;s:5:"cdata";i:1;a:1:{i:0;s:0:"";}i:2;i:247;}i:6;a:3:{i:0;s:7:"p_close";i:1;a:0:{}i:2;i:247;}i:7;a:3:{i:0;s:13:"section_close";i:1;a:0:{}i:2;i:247;}i:8;a:3:{i:0;s:12:"document_end";i:1;a:0:{}i:2;i:247;}}