a:34:{i:0;a:3:{i:0;s:14:"document_start";i:1;a:0:{}i:2;i:0;}i:1;a:3:{i:0;s:6:"p_open";i:1;a:0:{}i:2;i:0;}i:2;a:3:{i:0;s:5:"cdata";i:1;a:1:{i:0;s:33:"1. Download the application from ";}i:2;i:1;}i:3;a:3:{i:0;s:12:"externallink";i:1;a:2:{i:0;s:37:"http://download.hetzner.de/tools/LSI/";i:1;N;}i:2;i:34;}i:4;a:3:{i:0;s:5:"cdata";i:1;a:1:{i:0;s:34:" and then upload it to the server ";}i:2;i:71;}i:5;a:3:{i:0;s:9:"linebreak";i:1;a:0:{}i:2;i:105;}i:6;a:3:{i:0;s:5:"cdata";i:1;a:1:{i:0;s:20:"
2. Unzip the file. ";}i:2;i:107;}i:7;a:3:{i:0;s:9:"linebreak";i:1;a:0:{}i:2;i:127;}i:8;a:3:{i:0;s:5:"cdata";i:1;a:1:{i:0;s:36:"
3. Goto the folder /linux and run:
";}i:2;i:129;}i:9;a:3:{i:0;s:6:"plugin";i:1;a:4:{i:0;s:9:"code_code";i:1;a:4:{i:0;s:4:"code";i:1;N;i:2;s:0:"";i:3;s:30:"
rpm -i MegaCli-x.x.x.x.x.rpm
";}i:2;i:3;i:3;s:31:">
rpm -i MegaCli-x.x.x.x.x.rpm
";}i:2;i:170;}i:10;a:3:{i:0;s:7:"p_close";i:1;a:0:{}i:2;i:208;}i:11;a:3:{i:0;s:6:"p_open";i:1;a:0:{}i:2;i:208;}i:12;a:3:{i:0;s:5:"cdata";i:1;a:1:{i:0;s:70:"Now, the application is installed in /opt/MegaRAID/MegaCli/MegaCli64 .";}i:2;i:210;}i:13;a:3:{i:0;s:7:"p_close";i:1;a:0:{}i:2;i:280;}i:14;a:3:{i:0;s:6:"p_open";i:1;a:0:{}i:2;i:280;}i:15;a:3:{i:0;s:5:"cdata";i:1;a:1:{i:0;s:45:"For checking whether drive is online or not: ";}i:2;i:282;}i:16;a:3:{i:0;s:9:"linebreak";i:1;a:0:{}i:2;i:327;}i:17;a:3:{i:0;s:5:"cdata";i:1;a:1:{i:0;s:60:"
/opt/MegaRAID/MegaCli/MegaCli64 -PDList -a0 | grep Firmware";}i:2;i:329;}i:18;a:3:{i:0;s:7:"p_close";i:1;a:0:{}i:2;i:389;}i:19;a:3:{i:0;s:6:"p_open";i:1;a:0:{}i:2;i:389;}i:20;a:3:{i:0;s:5:"cdata";i:1;a:1:{i:0;s:42:"For checking other details of drive also: ";}i:2;i:391;}i:21;a:3:{i:0;s:9:"linebreak";i:1;a:0:{}i:2;i:433;}i:22;a:3:{i:0;s:5:"cdata";i:1;a:1:{i:0;s:46:"
/opt/MegaRAID/MegaCli/MegaCli64 -PDList -Aall";}i:2;i:435;}i:23;a:3:{i:0;s:7:"p_close";i:1;a:0:{}i:2;i:481;}i:24;a:3:{i:0;s:6:"p_open";i:1;a:0:{}i:2;i:481;}i:25;a:3:{i:0;s:5:"cdata";i:1;a:1:{i:0;s:32:"For relevant info about drives: ";}i:2;i:483;}i:26;a:3:{i:0;s:9:"linebreak";i:1;a:0:{}i:2;i:515;}i:27;a:3:{i:0;s:5:"cdata";i:1;a:1:{i:0;s:55:"
/opt/MegaRAID/MegaCli/MegaCli64 -PDList -aAll | egrep ";}i:2;i:517;}i:28;a:3:{i:0;s:18:"doublequoteopening";i:1;a:0:{}i:2;i:572;}i:29;a:3:{i:0;s:5:"cdata";i:1;a:1:{i:0;s:66:"Enclosure Device ID:|Slot Number:|Inquiry Data:|Error Count:|state";}i:2;i:573;}i:30;a:3:{i:0;s:18:"doublequoteclosing";i:1;a:0:{}i:2;i:639;}i:31;a:3:{i:0;s:5:"cdata";i:1;a:1:{i:0;s:0:"";}i:2;i:640;}i:32;a:3:{i:0;s:7:"p_close";i:1;a:0:{}i:2;i:640;}i:33;a:3:{i:0;s:12:"document_end";i:1;a:0:{}i:2;i:640;}}