a:40:{i:0;a:3:{i:0;s:14:"document_start";i:1;a:0:{}i:2;i:0;}i:1;a:3:{i:0;s:6:"p_open";i:1;a:0:{}i:2;i:0;}i:2;a:3:{i:0;s:14:"underline_open";i:1;a:0:{}i:2;i:1;}i:3;a:3:{i:0;s:11:"strong_open";i:1;a:0:{}i:2;i:3;}i:4;a:3:{i:0;s:7:"acronym";i:1;a:1:{i:0;s:3:"CMS";}i:2;i:5;}i:5;a:3:{i:0;s:12:"strong_close";i:1;a:0:{}i:2;i:8;}i:6;a:3:{i:0;s:15:"underline_close";i:1;a:0:{}i:2;i:10;}i:7;a:3:{i:0;s:5:"cdata";i:1;a:1:{i:0;s:83:" : Content Management System. also known as Web Management system. Gaining more on ";}i:2;i:12;}i:8;a:3:{i:0;s:12:"externallink";i:1;a:2:{i:0;s:66:"http://www.comentum.com/what-is-cms-content-management-system.html";i:1;s:3:"CMS";}i:2;i:95;}i:9;a:3:{i:0;s:5:"cdata";i:1;a:1:{i:0;s:1:".";}i:2;i:169;}i:10;a:3:{i:0;s:7:"p_close";i:1;a:0:{}i:2;i:170;}i:11;a:3:{i:0;s:6:"p_open";i:1;a:0:{}i:2;i:170;}i:12;a:3:{i:0;s:14:"underline_open";i:1;a:0:{}i:2;i:172;}i:13;a:3:{i:0;s:11:"strong_open";i:1;a:0:{}i:2;i:174;}i:14;a:3:{i:0;s:5:"cdata";i:1;a:1:{i:0;s:7:"Magento";}i:2;i:176;}i:15;a:3:{i:0;s:12:"strong_close";i:1;a:0:{}i:2;i:183;}i:16;a:3:{i:0;s:15:"underline_close";i:1;a:0:{}i:2;i:185;}i:17;a:3:{i:0;s:5:"cdata";i:1;a:1:{i:0;s:435:" : Magento is an ecommerce platform built on open source technology which provides online merchants with a flexible shopping cart system, as well as control over the look, content and functionality of their online store. Magento offers powerful marketing, search engine optimization, and catalog-management tools. It is Popular because it is purely e-commerce based and shares about 30%-31% market in e-commerce based website business.";}i:2;i:187;}i:18;a:3:{i:0;s:9:"linebreak";i:1;a:0:{}i:2;i:622;}i:19;a:3:{i:0;s:5:"cdata";i:1;a:1:{i:0;s:33:"
It is available in two flavours:";}i:2;i:624;}i:20;a:3:{i:0;s:9:"linebreak";i:1;a:0:{}i:2;i:657;}i:21;a:3:{i:0;s:5:"cdata";i:1;a:1:{i:0;s:28:"
1. Magento-Community [free]";}i:2;i:659;}i:22;a:3:{i:0;s:9:"linebreak";i:1;a:0:{}i:2;i:687;}i:23;a:3:{i:0;s:5:"cdata";i:1;a:1:{i:0;s:29:"
2. Magento-Enterprise [paid]";}i:2;i:689;}i:24;a:3:{i:0;s:7:"p_close";i:1;a:0:{}i:2;i:718;}i:25;a:3:{i:0;s:6:"p_open";i:1;a:0:{}i:2;i:718;}i:26;a:3:{i:0;s:5:"cdata";i:1;a:1:{i:0;s:44:"Magento Release: (version 1.x & version 2.x)";}i:2;i:720;}i:27;a:3:{i:0;s:7:"p_close";i:1;a:0:{}i:2;i:764;}i:28;a:3:{i:0;s:6:"p_open";i:1;a:0:{}i:2;i:764;}i:29;a:3:{i:0;s:5:"cdata";i:1;a:1:{i:0;s:27:"To know more about Magneto ";}i:2;i:766;}i:30;a:3:{i:0;s:18:"doublequoteopening";i:1;a:0:{}i:2;i:793;}i:31;a:3:{i:0;s:5:"cdata";i:1;a:1:{i:0;s:1:" ";}i:2;i:794;}i:32;a:3:{i:0;s:11:"strong_open";i:1;a:0:{}i:2;i:795;}i:33;a:3:{i:0;s:13:"emphasis_open";i:1;a:0:{}i:2;i:797;}i:34;a:3:{i:0;s:5:"cdata";i:1;a:1:{i:0;s:14:"keep Googling ";}i:2;i:799;}i:35;a:3:{i:0;s:14:"emphasis_close";i:1;a:0:{}i:2;i:813;}i:36;a:3:{i:0;s:12:"strong_close";i:1;a:0:{}i:2;i:815;}i:37;a:3:{i:0;s:18:"doublequoteclosing";i:1;a:0:{}i:2;i:817;}i:38;a:3:{i:0;s:7:"p_close";i:1;a:0:{}i:2;i:818;}i:39;a:3:{i:0;s:12:"document_end";i:1;a:0:{}i:2;i:818;}}