a:72:{i:0;a:3:{i:0;s:14:"document_start";i:1;a:0:{}i:2;i:0;}i:1;a:3:{i:0;s:6:"header";i:1;a:3:{i:0;s:27:"Setup Hetzner Node with KVM";i:1;i:1;i:2;i:1;}i:2;i:1;}i:2;a:3:{i:0;s:12:"section_open";i:1;a:1:{i:0;i:1;}i:2;i:1;}i:3;a:3:{i:0;s:6:"p_open";i:1;a:0:{}i:2;i:1;}i:4;a:3:{i:0;s:5:"cdata";i:1;a:1:{i:0;s:101:"* While setting up bridge mode, make sure if route-eth0 file exists, then it is renamed to route-br0.";}i:2;i:44;}i:5;a:3:{i:0;s:7:"p_close";i:1;a:0:{}i:2;i:145;}i:6;a:3:{i:0;s:6:"p_open";i:1;a:0:{}i:2;i:145;}i:7;a:3:{i:0;s:5:"cdata";i:1;a:1:{i:0;s:48:"1) Add the following lines to /etc/sysctl.conf:
";}i:2;i:148;}i:8;a:3:{i:0;s:6:"plugin";i:1;a:4:{i:0;s:9:"code_code";i:1;a:4:{i:0;s:4:"code";i:1;N;i:2;s:0:"";i:3;s:177:"
net.ipv4.ip_forward = 1
net.ipv4.conf.all.send_redirects = 0
net.ipv4.conf.default.send_redirects = 0
net.ipv4.conf.lo.send_redirects = 0
net.ipv4.conf.eth0.send_redirects = 0
";}i:2;i:3;i:3;s:178:">
net.ipv4.ip_forward = 1
net.ipv4.conf.all.send_redirects = 0
net.ipv4.conf.default.send_redirects = 0
net.ipv4.conf.lo.send_redirects = 0
net.ipv4.conf.eth0.send_redirects = 0
";}i:2;i:201;}i:9;a:3:{i:0;s:7:"p_close";i:1;a:0:{}i:2;i:386;}i:10;a:3:{i:0;s:6:"p_open";i:1;a:0:{}i:2;i:386;}i:11;a:3:{i:0;s:5:"cdata";i:1;a:1:{i:0;s:62:"2) Create the file /etc/sysconfig/static-routes and add this:
";}i:2;i:389;}i:12;a:3:{i:0;s:6:"plugin";i:1;a:4:{i:0;s:9:"code_code";i:1;a:4:{i:0;s:4:"code";i:1;N;i:2;s:0:"";i:3;s:64:"
any net <178.63.169.72/29> dev br0
any net <x.x.x.x/y> dev br0
";}i:2;i:3;i:3;s:65:">
any net <178.63.169.72/29> dev br0
any net <x.x.x.x/y> dev br0
";}i:2;i:456;}i:13;a:3:{i:0;s:7:"p_close";i:1;a:0:{}i:2;i:528;}i:14;a:3:{i:0;s:6:"p_open";i:1;a:0:{}i:2;i:528;}i:15;a:3:{i:0;s:5:"cdata";i:1;a:1:{i:0;s:92:"BEFORE DOING NETWORK CONFIG FOR KVM, make sure you rename the route-eth0 file to route-br0! ";}i:2;i:530;}i:16;a:3:{i:0;s:9:"linebreak";i:1;a:0:{}i:2;i:622;}i:17;a:3:{i:0;s:5:"cdata";i:1;a:1:{i:0;s:1:"
";}i:2;i:624;}i:18;a:3:{i:0;s:9:"linebreak";i:1;a:0:{}i:2;i:625;}i:19;a:3:{i:0;s:7:"p_close";i:1;a:0:{}i:2;i:627;}i:20;a:3:{i:0;s:6:"p_open";i:1;a:0:{}i:2;i:627;}i:21;a:3:{i:0;s:5:"cdata";i:1;a:1:{i:0;s:100:"3) Create the VM. If it's Windows it will work Out of the box! But if it's linux then do following: ";}i:2;i:630;}i:22;a:3:{i:0;s:9:"linebreak";i:1;a:0:{}i:2;i:730;}i:23;a:3:{i:0;s:5:"cdata";i:1;a:1:{i:0;s:13:"
For CentOS: ";}i:2;i:732;}i:24;a:3:{i:0;s:9:"linebreak";i:1;a:0:{}i:2;i:745;}i:25;a:3:{i:0;s:5:"cdata";i:1;a:1:{i:0;s:29:"
Add this to ifcfg-eth0 file:";}i:2;i:747;}i:26;a:3:{i:0;s:7:"p_close";i:1;a:0:{}i:2;i:776;}i:27;a:3:{i:0;s:6:"p_open";i:1;a:0:{}i:2;i:776;}i:28;a:3:{i:0;s:5:"cdata";i:1;a:1:{i:0;s:6:"SCOPE=";}i:2;i:778;}i:29;a:3:{i:0;s:18:"doublequoteopening";i:1;a:0:{}i:2;i:784;}i:30;a:3:{i:0;s:5:"cdata";i:1;a:1:{i:0;s:25:"peer <IP Address of Host>";}i:2;i:785;}i:31;a:3:{i:0;s:18:"doublequoteclosing";i:1;a:0:{}i:2;i:810;}i:32;a:3:{i:0;s:7:"p_close";i:1;a:0:{}i:2;i:811;}i:33;a:3:{i:0;s:6:"p_open";i:1;a:0:{}i:2;i:811;}i:34;a:3:{i:0;s:5:"cdata";i:1;a:1:{i:0;s:22:"And create a new file ";}i:2;i:813;}i:35;a:3:{i:0;s:18:"doublequoteopening";i:1;a:0:{}i:2;i:835;}i:36;a:3:{i:0;s:5:"cdata";i:1;a:1:{i:0;s:10:"route-eth0";}i:2;i:836;}i:37;a:3:{i:0;s:18:"doublequoteclosing";i:1;a:0:{}i:2;i:846;}i:38;a:3:{i:0;s:5:"cdata";i:1;a:1:{i:0;s:51:" in /etc/sysconfig/network-scripts/ with following:";}i:2;i:847;}i:39;a:3:{i:0;s:7:"p_close";i:1;a:0:{}i:2;i:898;}i:40;a:3:{i:0;s:6:"p_open";i:1;a:0:{}i:2;i:898;}i:41;a:3:{i:0;s:5:"cdata";i:1;a:1:{i:0;s:17:"ADDRESS0=0.0.0.0 ";}i:2;i:900;}i:42;a:3:{i:0;s:9:"linebreak";i:1;a:0:{}i:2;i:917;}i:43;a:3:{i:0;s:5:"cdata";i:1;a:1:{i:0;s:18:"
NETMASK0=0.0.0.0 ";}i:2;i:919;}i:44;a:3:{i:0;s:9:"linebreak";i:1;a:0:{}i:2;i:937;}i:45;a:3:{i:0;s:5:"cdata";i:1;a:1:{i:0;s:30:"
GATEWAY0=<IP Address of Host>";}i:2;i:939;}i:46;a:3:{i:0;s:7:"p_close";i:1;a:0:{}i:2;i:969;}i:47;a:3:{i:0;s:6:"p_open";i:1;a:0:{}i:2;i:969;}i:48;a:3:{i:0;s:9:"linebreak";i:1;a:0:{}i:2;i:971;}i:49;a:3:{i:0;s:5:"cdata";i:1;a:1:{i:0;s:13:"
For Ubuntu: ";}i:2;i:973;}i:50;a:3:{i:0;s:9:"linebreak";i:1;a:0:{}i:2;i:986;}i:51;a:3:{i:0;s:5:"cdata";i:1;a:1:{i:0;s:37:"
Add this to /etc/network/interfaces:";}i:2;i:988;}i:52;a:3:{i:0;s:7:"p_close";i:1;a:0:{}i:2;i:1025;}i:53;a:3:{i:0;s:6:"p_open";i:1;a:0:{}i:2;i:1025;}i:54;a:3:{i:0;s:5:"cdata";i:1;a:1:{i:0;s:32:"pointopoint <IP Address of host>";}i:2;i:1027;}i:55;a:3:{i:0;s:7:"p_close";i:1;a:0:{}i:2;i:1059;}i:56;a:3:{i:0;s:6:"p_open";i:1;a:0:{}i:2;i:1059;}i:57;a:3:{i:0;s:5:"cdata";i:1;a:1:{i:0;s:114:"NOTE: When you add IP's in SolusVM, make sure you use Gateway as the host node IP and Netmask as 255.255.255.255. ";}i:2;i:1064;}i:58;a:3:{i:0;s:7:"p_close";i:1;a:0:{}i:2;i:1178;}i:59;a:3:{i:0;s:6:"p_open";i:1;a:0:{}i:2;i:1178;}i:60;a:3:{i:0;s:5:"cdata";i:1;a:1:{i:0;s:95:"NOTE: Run following command after making changes on guest VM to make the files write protected.";}i:2;i:1180;}i:61;a:3:{i:0;s:7:"p_close";i:1;a:0:{}i:2;i:1275;}i:62;a:3:{i:0;s:6:"p_open";i:1;a:0:{}i:2;i:1275;}i:63;a:3:{i:0;s:5:"cdata";i:1;a:1:{i:0;s:8:"CentOS: ";}i:2;i:1277;}i:64;a:3:{i:0;s:7:"p_close";i:1;a:0:{}i:2;i:1285;}i:65;a:3:{i:0;s:12:"preformatted";i:1;a:1:{i:0;s:54:" chattr +aui /etc/sysconfig/network-scripts/ifcfg-eth0";}i:2;i:1285;}i:66;a:3:{i:0;s:6:"p_open";i:1;a:0:{}i:2;i:1285;}i:67;a:3:{i:0;s:5:"cdata";i:1;a:1:{i:0;s:7:"Ubuntu:";}i:2;i:1344;}i:68;a:3:{i:0;s:7:"p_close";i:1;a:0:{}i:2;i:1351;}i:69;a:3:{i:0;s:12:"preformatted";i:1;a:1:{i:0;s:35:"chattr +aui /etc/network/interfaces";}i:2;i:1351;}i:70;a:3:{i:0;s:13:"section_close";i:1;a:0:{}i:2;i:1351;}i:71;a:3:{i:0;s:12:"document_end";i:1;a:0:{}i:2;i:1351;}}