a:56:{i:0;a:3:{i:0;s:14:"document_start";i:1;a:0:{}i:2;i:0;}i:1;a:3:{i:0;s:6:"header";i:1;a:3:{i:0;s:36:"Hyper-V - removing DiskIO scheduling";i:1;i:1;i:2;i:1;}i:2;i:1;}i:2;a:3:{i:0;s:12:"section_open";i:1;a:1:{i:0;i:1;}i:2;i:1;}i:3;a:3:{i:0;s:6:"p_open";i:1;a:0:{}i:2;i:1;}i:4;a:3:{i:0;s:5:"cdata";i:1;a:1:{i:0;s:55:"Remove Disk IO Scheduling in a controlled environment -";}i:2;i:53;}i:5;a:3:{i:0;s:7:"p_close";i:1;a:0:{}i:2;i:108;}i:6;a:3:{i:0;s:6:"p_open";i:1;a:0:{}i:2;i:108;}i:7;a:3:{i:0;s:12:"externallink";i:1;a:2:{i:0;s:70:"http://www.cio.in/article/hyper-v-virtual-pcs-how-handle-virtual-disks";i:1;N;}i:2;i:110;}i:8;a:3:{i:0;s:7:"p_close";i:1;a:0:{}i:2;i:180;}i:9;a:3:{i:0;s:6:"p_open";i:1;a:0:{}i:2;i:180;}i:10;a:3:{i:0;s:11:"strong_open";i:1;a:0:{}i:2;i:184;}i:11;a:3:{i:0;s:5:"cdata";i:1;a:1:{i:0;s:56:"Tip 1: Adjust the I/O bandwidth algorithm (host machine)";}i:2;i:186;}i:12;a:3:{i:0;s:12:"strong_close";i:1;a:0:{}i:2;i:242;}i:13;a:3:{i:0;s:5:"cdata";i:1;a:1:{i:0;s:1:" ";}i:2;i:244;}i:14;a:3:{i:0;s:9:"linebreak";i:1;a:0:{}i:2;i:245;}i:15;a:3:{i:0;s:5:"cdata";i:1;a:1:{i:0;s:239:"
When using more than one VM, Hyper-V balances I/O response times between the machines. It essentially prevents one busy VM from bogging down another (less-busy) VM. The I/O balancer's settings are located under the following registry key:";}i:2;i:247;}i:16;a:3:{i:0;s:7:"p_close";i:1;a:0:{}i:2;i:486;}i:17;a:3:{i:0;s:6:"p_open";i:1;a:0:{}i:2;i:486;}i:18;a:3:{i:0;s:11:"strong_open";i:1;a:0:{}i:2;i:488;}i:19;a:3:{i:0;s:5:"cdata";i:1;a:1:{i:0;s:61:"HKEY_LOCAL_MACHINE\System\CurrentControlSet\Services\StorVsp ";}i:2;i:490;}i:20;a:3:{i:0;s:9:"linebreak";i:1;a:0:{}i:2;i:551;}i:21;a:3:{i:0;s:5:"cdata";i:1;a:1:{i:0;s:1:"
";}i:2;i:553;}i:22;a:3:{i:0;s:9:"linebreak";i:1;a:0:{}i:2;i:554;}i:23;a:3:{i:0;s:5:"cdata";i:1;a:1:{i:0;s:124:"
If you don't want this balancing algorithm to be active at all, you can simply disable it by creating a DWORD value called ";}i:2;i:556;}i:24;a:3:{i:0;s:18:"doublequoteopening";i:1;a:0:{}i:2;i:680;}i:25;a:3:{i:0;s:5:"cdata";i:1;a:1:{i:0;s:17:"IOBalance_Enabled";}i:2;i:681;}i:26;a:3:{i:0;s:18:"doublequoteclosing";i:1;a:0:{}i:2;i:698;}i:27;a:3:{i:0;s:5:"cdata";i:1;a:1:{i:0;s:15:" and set it to ";}i:2;i:699;}i:28;a:3:{i:0;s:18:"doublequoteopening";i:1;a:0:{}i:2;i:714;}i:29;a:3:{i:0;s:5:"cdata";i:1;a:1:{i:0;s:1:"0";}i:2;i:715;}i:30;a:3:{i:0;s:18:"doublequoteclosing";i:1;a:0:{}i:2;i:716;}i:31;a:3:{i:0;s:5:"cdata";i:1;a:1:{i:0;s:1:" ";}i:2;i:717;}i:32;a:3:{i:0;s:6:"entity";i:1;a:1:{i:0;s:2:"--";}i:2;i:718;}i:33;a:3:{i:0;s:5:"cdata";i:1;a:1:{i:0;s:103:" use this only if you don't care that one VM might negatively affect another, while under heavy stress.";}i:2;i:720;}i:34;a:3:{i:0;s:12:"strong_close";i:1;a:0:{}i:2;i:823;}i:35;a:3:{i:0;s:5:"cdata";i:1;a:1:{i:0;s:60:" To adjust the balancing mechanism, simply create the DWORD ";}i:2;i:825;}i:36;a:3:{i:0;s:18:"doublequoteopening";i:1;a:0:{}i:2;i:885;}i:37;a:3:{i:0;s:5:"cdata";i:1;a:1:{i:0;s:46:"IOBalance_KeepHwBusyLatencyTarget_Microseconds";}i:2;i:886;}i:38;a:3:{i:0;s:18:"doublequoteclosing";i:1;a:0:{}i:2;i:932;}i:39;a:3:{i:0;s:5:"cdata";i:1;a:1:{i:0;s:107:". This entry controls how much of the total I/O operations can be processed before throttling takes effect ";}i:2;i:933;}i:40;a:3:{i:0;s:6:"entity";i:1;a:1:{i:0;s:2:"--";}i:2;i:1040;}i:41;a:3:{i:0;s:5:"cdata";i:1;a:1:{i:0;s:57:" you need to define a latency value (ms); the default is ";}i:2;i:1042;}i:42;a:3:{i:0;s:18:"doublequoteopening";i:1;a:0:{}i:2;i:1099;}i:43;a:3:{i:0;s:5:"cdata";i:1;a:1:{i:0;s:2:"83";}i:2;i:1100;}i:44;a:3:{i:0;s:18:"doublequoteclosing";i:1;a:0:{}i:2;i:1102;}i:45;a:3:{i:0;s:5:"cdata";i:1;a:1:{i:0;s:103:" (ms). The lower you set this value, the better the balancing, but it comes at the price of throughput.";}i:2;i:1103;}i:46;a:3:{i:0;s:7:"p_close";i:1;a:0:{}i:2;i:1206;}i:47;a:3:{i:0;s:6:"p_open";i:1;a:0:{}i:2;i:1206;}i:48;a:3:{i:0;s:5:"cdata";i:1;a:1:{i:0;s:49:"The last DWORD value I'd like to mention here is ";}i:2;i:1208;}i:49;a:3:{i:0;s:18:"doublequoteopening";i:1;a:0:{}i:2;i:1257;}i:50;a:3:{i:0;s:5:"cdata";i:1;a:1:{i:0;s:50:"IOBalance_AllowedPercentOverheadDueToFlowSwitching";}i:2;i:1258;}i:51;a:3:{i:0;s:18:"doublequoteclosing";i:1;a:0:{}i:2;i:1308;}i:52;a:3:{i:0;s:5:"cdata";i:1;a:1:{i:0;s:466:". It defines at what percentage of disk utilization of one VM the balancer moves on to reduce the throughput of another VM. By default, its threshold is defined at 8% overall utilization in order to treat VMs equally. Before changing any of these values, I suggest running thorough speed tests using IOMeter, which has proven to be a reliable performance test tool for virtual machine environments. Carefully evaluate performance before and after changing the value.";}i:2;i:1309;}i:53;a:3:{i:0;s:7:"p_close";i:1;a:0:{}i:2;i:1775;}i:54;a:3:{i:0;s:13:"section_close";i:1;a:0:{}i:2;i:1775;}i:55;a:3:{i:0;s:12:"document_end";i:1;a:0:{}i:2;i:1775;}}