a:29:{i:0;a:3:{i:0;s:14:"document_start";i:1;a:0:{}i:2;i:0;}i:1;a:3:{i:0;s:6:"header";i:1;a:3:{i:0;s:25:"Reset Mysql Root Password";i:1;i:1;i:2;i:1;}i:2;i:1;}i:2;a:3:{i:0;s:12:"section_open";i:1;a:1:{i:0;i:1;}i:2;i:1;}i:3;a:3:{i:0;s:6:"p_open";i:1;a:0:{}i:2;i:1;}i:4;a:3:{i:0;s:5:"cdata";i:1;a:1:{i:0;s:21:" * Stop mysql service";}i:2;i:42;}i:5;a:3:{i:0;s:7:"p_close";i:1;a:0:{}i:2;i:63;}i:6;a:3:{i:0;s:12:"preformatted";i:1;a:1:{i:0;s:25:"   /etc/init.d/mysql stop";}i:2;i:63;}i:7;a:3:{i:0;s:6:"p_open";i:1;a:0:{}i:2;i:63;}i:8;a:3:{i:0;s:5:"cdata";i:1;a:1:{i:0;s:38:" * Start to MySQL server w/o password:";}i:2;i:92;}i:9;a:3:{i:0;s:7:"p_close";i:1;a:0:{}i:2;i:130;}i:10;a:3:{i:0;s:12:"preformatted";i:1;a:1:{i:0;s:36:"   mysqld_safe --skip-grant-tables &";}i:2;i:130;}i:11;a:3:{i:0;s:6:"p_open";i:1;a:0:{}i:2;i:130;}i:12;a:3:{i:0;s:5:"cdata";i:1;a:1:{i:0;s:46:" * Connect to mysql server using mysql client:";}i:2;i:170;}i:13;a:3:{i:0;s:7:"p_close";i:1;a:0:{}i:2;i:216;}i:14;a:3:{i:0;s:12:"preformatted";i:1;a:1:{i:0;s:16:"   mysql -u root";}i:2;i:216;}i:15;a:3:{i:0;s:6:"p_open";i:1;a:0:{}i:2;i:216;}i:16;a:3:{i:0;s:5:"cdata";i:1;a:1:{i:0;s:37:" * Setup new MySQL root user password";}i:2;i:236;}i:17;a:3:{i:0;s:7:"p_close";i:1;a:0:{}i:2;i:273;}i:18;a:3:{i:0;s:12:"preformatted";i:1;a:1:{i:0;s:147:"   mysql> use mysql;
   mysql> update user set password=PASSWORD("NEW-ROOT-PASSWORD") where User='root';
   mysql> flush privileges;
   mysql> quit";}i:2;i:273;}i:19;a:3:{i:0;s:6:"p_open";i:1;a:0:{}i:2;i:273;}i:20;a:3:{i:0;s:5:"cdata";i:1;a:1:{i:0;s:21:" * Stop MySQL Server:";}i:2;i:430;}i:21;a:3:{i:0;s:7:"p_close";i:1;a:0:{}i:2;i:451;}i:22;a:3:{i:0;s:12:"preformatted";i:1;a:1:{i:0;s:25:"   /etc/init.d/mysql stop";}i:2;i:451;}i:23;a:3:{i:0;s:6:"p_open";i:1;a:0:{}i:2;i:451;}i:24;a:3:{i:0;s:5:"cdata";i:1;a:1:{i:0;s:33:" * Start MySQL server and test it";}i:2;i:480;}i:25;a:3:{i:0;s:7:"p_close";i:1;a:0:{}i:2;i:513;}i:26;a:3:{i:0;s:12:"preformatted";i:1;a:1:{i:0;s:46:"   /etc/init.d/mysql start
   mysql -u root -p";}i:2;i:513;}i:27;a:3:{i:0;s:13:"section_close";i:1;a:0:{}i:2;i:565;}i:28;a:3:{i:0;s:12:"document_end";i:1;a:0:{}i:2;i:565;}}