a:31:{i:0;a:3:{i:0;s:14:"document_start";i:1;a:0:{}i:2;i:0;}i:1;a:3:{i:0;s:6:"header";i:1;a:3:{i:0;s:29:"Install Vesta Panel in Ubuntu";i:1;i:1;i:2;i:1;}i:2;i:1;}i:2;a:3:{i:0;s:12:"section_open";i:1;a:1:{i:0;i:1;}i:2;i:1;}i:3;a:3:{i:0;s:6:"p_open";i:1;a:0:{}i:2;i:1;}i:4;a:3:{i:0;s:5:"cdata";i:1;a:1:{i:0;s:63:"1. Login to Ansible master and add the VM IP to ansible hosts. ";}i:2;i:46;}i:5;a:3:{i:0;s:9:"linebreak";i:1;a:0:{}i:2;i:109;}i:6;a:3:{i:0;s:7:"p_close";i:1;a:0:{}i:2;i:111;}i:7;a:3:{i:0;s:6:"p_open";i:1;a:0:{}i:2;i:111;}i:8;a:3:{i:0;s:5:"cdata";i:1;a:1:{i:0;s:67:"2. Run screen on ansible master and then run the following command:";}i:2;i:113;}i:9;a:3:{i:0;s:9:"linebreak";i:1;a:0:{}i:2;i:180;}i:10;a:3:{i:0;s:7:"p_close";i:1;a:0:{}i:2;i:182;}i:11;a:3:{i:0;s:6:"p_open";i:1;a:0:{}i:2;i:182;}i:12;a:3:{i:0;s:6:"plugin";i:1;a:4:{i:0;s:9:"code_code";i:1;a:4:{i:0;s:4:"code";i:1;N;i:2;s:0:"";i:3;s:149:"
ansible-playbook -l <VM IP> /scripts/vst_install_ubuntu.yml --extra-vars "email=<mail to send details to> hostname=<hostname of server>" --ask-pass
";}i:2;i:3;i:3;s:150:">
ansible-playbook -l <VM IP> /scripts/vst_install_ubuntu.yml --extra-vars "email=<mail to send details to> hostname=<hostname of server>" --ask-pass
";}i:2;i:189;}i:13;a:3:{i:0;s:7:"p_close";i:1;a:0:{}i:2;i:346;}i:14;a:3:{i:0;s:6:"p_open";i:1;a:0:{}i:2;i:346;}i:15;a:3:{i:0;s:5:"cdata";i:1;a:1:{i:0;s:27:"This will do the following:";}i:2;i:348;}i:16;a:3:{i:0;s:7:"p_close";i:1;a:0:{}i:2;i:375;}i:17;a:3:{i:0;s:10:"listu_open";i:1;a:0:{}i:2;i:375;}i:18;a:3:{i:0;s:13:"listitem_open";i:1;a:1:{i:0;i:1;}i:2;i:375;}i:19;a:3:{i:0;s:16:"listcontent_open";i:1;a:0:{}i:2;i:375;}i:20;a:3:{i:0;s:5:"cdata";i:1;a:1:{i:0;s:20:" Install Vesta Panel";}i:2;i:380;}i:21;a:3:{i:0;s:17:"listcontent_close";i:1;a:0:{}i:2;i:400;}i:22;a:3:{i:0;s:14:"listitem_close";i:1;a:0:{}i:2;i:400;}i:23;a:3:{i:0;s:13:"listitem_open";i:1;a:1:{i:0;i:1;}i:2;i:400;}i:24;a:3:{i:0;s:16:"listcontent_open";i:1;a:0:{}i:2;i:400;}i:25;a:3:{i:0;s:5:"cdata";i:1;a:1:{i:0;s:21:" Install Zabbix agent";}i:2;i:405;}i:26;a:3:{i:0;s:17:"listcontent_close";i:1;a:0:{}i:2;i:426;}i:27;a:3:{i:0;s:14:"listitem_close";i:1;a:0:{}i:2;i:426;}i:28;a:3:{i:0;s:11:"listu_close";i:1;a:0:{}i:2;i:426;}i:29;a:3:{i:0;s:13:"section_close";i:1;a:0:{}i:2;i:427;}i:30;a:3:{i:0;s:12:"document_end";i:1;a:0:{}i:2;i:427;}}