a:19:{i:0;a:3:{i:0;s:14:"document_start";i:1;a:0:{}i:2;i:0;}i:1;a:3:{i:0;s:6:"p_open";i:1;a:0:{}i:2;i:0;}i:2;a:3:{i:0;s:5:"cdata";i:1;a:1:{i:0;s:16:"Install The Tool";}i:2;i:1;}i:3;a:3:{i:0;s:7:"p_close";i:1;a:0:{}i:2;i:18;}i:4;a:3:{i:0;s:12:"preformatted";i:1;a:1:{i:0;s:311:"   cd /tmp
   
   wget http://mirror-fpt-telecom.fpt.net/fedora/epel/6/i386/epel-release-6-8.noarch.rpm
   
   rpm -ivh epel-release-6-8.noarch.rpm
   
   yum install vnstat
   
   /etc/init.d/vnstat start
   
   chkconfig vnstat on
   
   vnstat -u -i eth0  (This command will create DB for interface eth0)
   ";}i:2;i:18;}i:5;a:3:{i:0;s:6:"p_open";i:1;a:0:{}i:2;i:18;}i:6;a:3:{i:0;s:5:"cdata";i:1;a:1:{i:0;s:10:"Get report";}i:2;i:359;}i:7;a:3:{i:0;s:7:"p_close";i:1;a:0:{}i:2;i:369;}i:8;a:3:{i:0;s:12:"preformatted";i:1;a:1:{i:0;s:125:" 
  vnstat -m (monthly report)
  
  vnstat -w (weekly report)
  
  vnstat -d (daily report)
  
  vnstat -h (hourly report)
  ";}i:2;i:369;}i:9;a:3:{i:0;s:6:"p_open";i:1;a:0:{}i:2;i:369;}i:10;a:3:{i:0;s:5:"cdata";i:1;a:1:{i:0;s:62:"Add following in crontab for weekly report of bandwidth usage.";}i:2;i:514;}i:11;a:3:{i:0;s:7:"p_close";i:1;a:0:{}i:2;i:577;}i:12;a:3:{i:0;s:12:"preformatted";i:1;a:1:{i:0;s:147:"  00 1 * * 0  vnstat -m | mail -s "Bandwidth Usage of <hostname>" alerts@mantraventures.com
  
  (Make sure mailx is installed on the server)
  
  ";}i:2;i:577;}i:13;a:3:{i:0;s:6:"p_open";i:1;a:0:{}i:2;i:577;}i:14;a:3:{i:0;s:5:"cdata";i:1;a:1:{i:0;s:23:"For more details refer ";}i:2;i:736;}i:15;a:3:{i:0;s:12:"externallink";i:1;a:2:{i:0;s:39:"http://humdi.net/vnstat/man/vnstat.html";i:1;N;}i:2;i:759;}i:16;a:3:{i:0;s:5:"cdata";i:1;a:1:{i:0;s:0:"";}i:2;i:798;}i:17;a:3:{i:0;s:7:"p_close";i:1;a:0:{}i:2;i:798;}i:18;a:3:{i:0;s:12:"document_end";i:1;a:0:{}i:2;i:798;}}