a:44:{i:0;a:3:{i:0;s:14:"document_start";i:1;a:0:{}i:2;i:0;}i:1;a:3:{i:0;s:6:"header";i:1;a:3:{i:0;s:30:"Prepare Relay server in Centos";i:1;i:1;i:2;i:1;}i:2;i:1;}i:2;a:3:{i:0;s:12:"section_open";i:1;a:1:{i:0;i:1;}i:2;i:1;}i:3;a:3:{i:0;s:6:"p_open";i:1;a:0:{}i:2;i:1;}i:4;a:3:{i:0;s:5:"cdata";i:1;a:1:{i:0;s:63:"1. Login to Ansible master and add the VM IP to ansible hosts. ";}i:2;i:47;}i:5;a:3:{i:0;s:9:"linebreak";i:1;a:0:{}i:2;i:110;}i:6;a:3:{i:0;s:7:"p_close";i:1;a:0:{}i:2;i:112;}i:7;a:3:{i:0;s:6:"p_open";i:1;a:0:{}i:2;i:112;}i:8;a:3:{i:0;s:5:"cdata";i:1;a:1:{i:0;s:67:"2. Run screen on ansible master and then run the following command:";}i:2;i:114;}i:9;a:3:{i:0;s:9:"linebreak";i:1;a:0:{}i:2;i:181;}i:10;a:3:{i:0;s:7:"p_close";i:1;a:0:{}i:2;i:183;}i:11;a:3:{i:0;s:6:"p_open";i:1;a:0:{}i:2;i:183;}i:12;a:3:{i:0;s:6:"plugin";i:1;a:4:{i:0;s:9:"code_code";i:1;a:4:{i:0;s:4:"code";i:1;N;i:2;s:0:"";i:3;s:129:"
ansible-playbook -l <IP> /scripts/relay_server_centos.yml --extra-vars "ip=<Allow IP for relay> password=<Password>" --ask-pass
";}i:2;i:3;i:3;s:130:">
ansible-playbook -l <IP> /scripts/relay_server_centos.yml --extra-vars "ip=<Allow IP for relay> password=<Password>" --ask-pass
";}i:2;i:190;}i:13;a:3:{i:0;s:7:"p_close";i:1;a:0:{}i:2;i:327;}i:14;a:3:{i:0;s:6:"p_open";i:1;a:0:{}i:2;i:327;}i:15;a:3:{i:0;s:5:"cdata";i:1;a:1:{i:0;s:12:"3. Example 
";}i:2;i:329;}i:16;a:3:{i:0;s:6:"plugin";i:1;a:4:{i:0;s:9:"code_code";i:1;a:4:{i:0;s:4:"code";i:1;N;i:2;s:0:"";i:3;s:137:"
ansible-playbook -l 43.252.89.164 /scripts/cdp_agent_centos.yml --extra-vars "ip=43.252.89.164 key=http://176.9.52.137:8080" --ask-pass
";}i:2;i:3;i:3;s:138:">
ansible-playbook -l 43.252.89.164 /scripts/cdp_agent_centos.yml --extra-vars "ip=43.252.89.164 key=http://176.9.52.137:8080" --ask-pass
";}i:2;i:346;}i:17;a:3:{i:0;s:7:"p_close";i:1;a:0:{}i:2;i:491;}i:18;a:3:{i:0;s:6:"p_open";i:1;a:0:{}i:2;i:491;}i:19;a:3:{i:0;s:5:"cdata";i:1;a:1:{i:0;s:28:"This will do the following: ";}i:2;i:493;}i:20;a:3:{i:0;s:7:"p_close";i:1;a:0:{}i:2;i:522;}i:21;a:3:{i:0;s:10:"listu_open";i:1;a:0:{}i:2;i:522;}i:22;a:3:{i:0;s:13:"listitem_open";i:1;a:1:{i:0;i:1;}i:2;i:522;}i:23;a:3:{i:0;s:16:"listcontent_open";i:1;a:0:{}i:2;i:522;}i:24;a:3:{i:0;s:5:"cdata";i:1;a:1:{i:0;s:13:" Install Exim";}i:2;i:526;}i:25;a:3:{i:0;s:17:"listcontent_close";i:1;a:0:{}i:2;i:539;}i:26;a:3:{i:0;s:14:"listitem_close";i:1;a:0:{}i:2;i:539;}i:27;a:3:{i:0;s:13:"listitem_open";i:1;a:1:{i:0;i:1;}i:2;i:539;}i:28;a:3:{i:0;s:16:"listcontent_open";i:1;a:0:{}i:2;i:539;}i:29;a:3:{i:0;s:5:"cdata";i:1;a:1:{i:0;s:40:" Add IP to whome relay should be allowed";}i:2;i:543;}i:30;a:3:{i:0;s:17:"listcontent_close";i:1;a:0:{}i:2;i:583;}i:31;a:3:{i:0;s:14:"listitem_close";i:1;a:0:{}i:2;i:583;}i:32;a:3:{i:0;s:13:"listitem_open";i:1;a:1:{i:0;i:1;}i:2;i:583;}i:33;a:3:{i:0;s:16:"listcontent_open";i:1;a:0:{}i:2;i:583;}i:34;a:3:{i:0;s:5:"cdata";i:1;a:1:{i:0;s:16:" add user named ";}i:2;i:587;}i:35;a:3:{i:0;s:18:"doublequoteopening";i:1;a:0:{}i:2;i:603;}i:36;a:3:{i:0;s:5:"cdata";i:1;a:1:{i:0;s:9:"relayuser";}i:2;i:604;}i:37;a:3:{i:0;s:18:"doublequoteclosing";i:1;a:0:{}i:2;i:613;}i:38;a:3:{i:0;s:5:"cdata";i:1;a:1:{i:0;s:21:" and set its password";}i:2;i:614;}i:39;a:3:{i:0;s:17:"listcontent_close";i:1;a:0:{}i:2;i:635;}i:40;a:3:{i:0;s:14:"listitem_close";i:1;a:0:{}i:2;i:635;}i:41;a:3:{i:0;s:11:"listu_close";i:1;a:0:{}i:2;i:635;}i:42;a:3:{i:0;s:13:"section_close";i:1;a:0:{}i:2;i:639;}i:43;a:3:{i:0;s:12:"document_end";i:1;a:0:{}i:2;i:639;}}