a:82:{i:0;a:3:{i:0;s:14:"document_start";i:1;a:0:{}i:2;i:0;}i:1;a:3:{i:0;s:10:"listu_open";i:1;a:0:{}i:2;i:0;}i:2;a:3:{i:0;s:13:"listitem_open";i:1;a:1:{i:0;i:1;}i:2;i:0;}i:3;a:3:{i:0;s:16:"listcontent_open";i:1;a:0:{}i:2;i:0;}i:4;a:3:{i:0;s:5:"cdata";i:1;a:1:{i:0;s:64:" Set 'Account lockout threshold' to '5 invalid logon attempt(s)'";}i:2;i:4;}i:5;a:3:{i:0;s:17:"listcontent_close";i:1;a:0:{}i:2;i:68;}i:6;a:3:{i:0;s:14:"listitem_close";i:1;a:0:{}i:2;i:68;}i:7;a:3:{i:0;s:13:"listitem_open";i:1;a:1:{i:0;i:1;}i:2;i:68;}i:8;a:3:{i:0;s:16:"listcontent_open";i:1;a:0:{}i:2;i:68;}i:9;a:3:{i:0;s:5:"cdata";i:1;a:1:{i:0;s:57:" Set 'Account lockout duration' to '15 or more minute(s)'";}i:2;i:72;}i:10;a:3:{i:0;s:17:"listcontent_close";i:1;a:0:{}i:2;i:129;}i:11;a:3:{i:0;s:14:"listitem_close";i:1;a:0:{}i:2;i:129;}i:12;a:3:{i:0;s:13:"listitem_open";i:1;a:1:{i:0;i:1;}i:2;i:129;}i:13;a:3:{i:0;s:16:"listcontent_open";i:1;a:0:{}i:2;i:129;}i:14;a:3:{i:0;s:5:"cdata";i:1;a:1:{i:0;s:58:" Set 'Minimum password length' to '8 or more character(s)'";}i:2;i:133;}i:15;a:3:{i:0;s:17:"listcontent_close";i:1;a:0:{}i:2;i:191;}i:16;a:3:{i:0;s:14:"listitem_close";i:1;a:0:{}i:2;i:191;}i:17;a:3:{i:0;s:13:"listitem_open";i:1;a:1:{i:0;i:1;}i:2;i:191;}i:18;a:3:{i:0;s:16:"listcontent_open";i:1;a:0:{}i:2;i:191;}i:19;a:3:{i:0;s:5:"cdata";i:1;a:1:{i:0;s:58:" Set 'Enforce password history' to '4 or more password(s)'";}i:2;i:195;}i:20;a:3:{i:0;s:17:"listcontent_close";i:1;a:0:{}i:2;i:253;}i:21;a:3:{i:0;s:14:"listitem_close";i:1;a:0:{}i:2;i:253;}i:22;a:3:{i:0;s:13:"listitem_open";i:1;a:1:{i:0;i:1;}i:2;i:253;}i:23;a:3:{i:0;s:16:"listcontent_open";i:1;a:0:{}i:2;i:253;}i:24;a:3:{i:0;s:5:"cdata";i:1;a:1:{i:0;s:62:" Set 'Password must meet complexity requirements' to 'Enabled'";}i:2;i:257;}i:25;a:3:{i:0;s:17:"listcontent_close";i:1;a:0:{}i:2;i:319;}i:26;a:3:{i:0;s:14:"listitem_close";i:1;a:0:{}i:2;i:319;}i:27;a:3:{i:0;s:13:"listitem_open";i:1;a:1:{i:0;i:1;}i:2;i:319;}i:28;a:3:{i:0;s:16:"listcontent_open";i:1;a:0:{}i:2;i:319;}i:29;a:3:{i:0;s:5:"cdata";i:1;a:1:{i:0;s:49:" Set 'Maximum password age' to '60 or fewer days'";}i:2;i:323;}i:30;a:3:{i:0;s:17:"listcontent_close";i:1;a:0:{}i:2;i:372;}i:31;a:3:{i:0;s:14:"listitem_close";i:1;a:0:{}i:2;i:372;}i:32;a:3:{i:0;s:13:"listitem_open";i:1;a:1:{i:0;i:1;}i:2;i:372;}i:33;a:3:{i:0;s:16:"listcontent_open";i:1;a:0:{}i:2;i:372;}i:34;a:3:{i:0;s:5:"cdata";i:1;a:1:{i:0;s:75:" Set 'Devices: Prevent users from installing printer drivers' to 'Enabled' ";}i:2;i:376;}i:35;a:3:{i:0;s:6:"plugin";i:1;a:4:{i:0;s:9:"code_code";i:1;a:4:{i:0;s:4:"code";i:1;N;i:2;s:0:"";i:3;s:144:"Computer Configuration\Windows Settings\Security Settings\Local Policies\Security
Options\Devices: Prevent users from installing printer drivers";}i:2;i:3;i:3;s:145:">Computer Configuration\Windows Settings\Security Settings\Local Policies\Security
Options\Devices: Prevent users from installing printer drivers";}i:2;i:456;}i:36;a:3:{i:0;s:17:"listcontent_close";i:1;a:0:{}i:2;i:608;}i:37;a:3:{i:0;s:14:"listitem_close";i:1;a:0:{}i:2;i:608;}i:38;a:3:{i:0;s:13:"listitem_open";i:1;a:1:{i:0;i:1;}i:2;i:608;}i:39;a:3:{i:0;s:16:"listcontent_open";i:1;a:0:{}i:2;i:608;}i:40;a:3:{i:0;s:5:"cdata";i:1;a:1:{i:0;s:87:" Set 'Network access: Do not allow anonymous enumeration of SAM accounts' to 'Enabled' ";}i:2;i:612;}i:41;a:3:{i:0;s:6:"plugin";i:1;a:4:{i:0;s:9:"code_code";i:1;a:4:{i:0;s:4:"code";i:1;N;i:2;s:0:"";i:3;s:157:"
Computer Configuration\Windows Settings\Security Settings\Local Policies\Security
Options\Network access: Do not allow anonymous enumeration of SAM accounts";}i:2;i:3;i:3;s:158:">
Computer Configuration\Windows Settings\Security Settings\Local Policies\Security
Options\Network access: Do not allow anonymous enumeration of SAM accounts";}i:2;i:704;}i:42;a:3:{i:0;s:17:"listcontent_close";i:1;a:0:{}i:2;i:869;}i:43;a:3:{i:0;s:14:"listitem_close";i:1;a:0:{}i:2;i:869;}i:44;a:3:{i:0;s:13:"listitem_open";i:1;a:1:{i:0;i:1;}i:2;i:869;}i:45;a:3:{i:0;s:16:"listcontent_open";i:1;a:0:{}i:2;i:869;}i:46;a:3:{i:0;s:5:"cdata";i:1;a:1:{i:0;s:87:" Set 'Network access: Restrict anonymous access to Named Pipes and Shares' to 'Enabled'";}i:2;i:873;}i:47;a:3:{i:0;s:6:"plugin";i:1;a:4:{i:0;s:9:"code_code";i:1;a:4:{i:0;s:4:"code";i:1;N;i:2;s:0:"";i:3;s:157:"Computer Configuration\Windows Settings\Security Settings\Local Policies\Security
Options\Network access: Restrict anonymous access to Named Pipes and Shares";}i:2;i:3;i:3;s:158:">Computer Configuration\Windows Settings\Security Settings\Local Policies\Security
Options\Network access: Restrict anonymous access to Named Pipes and Shares";}i:2;i:965;}i:48;a:3:{i:0;s:17:"listcontent_close";i:1;a:0:{}i:2;i:1130;}i:49;a:3:{i:0;s:14:"listitem_close";i:1;a:0:{}i:2;i:1130;}i:50;a:3:{i:0;s:13:"listitem_open";i:1;a:1:{i:0;i:1;}i:2;i:1130;}i:51;a:3:{i:0;s:16:"listcontent_open";i:1;a:0:{}i:2;i:1130;}i:52;a:3:{i:0;s:5:"cdata";i:1;a:1:{i:0;s:108:" Set 'System cryptography: Use FIPS compliant algorithms for encryption, hashing, and signing' to 'Enabled' ";}i:2;i:1134;}i:53;a:3:{i:0;s:6:"plugin";i:1;a:4:{i:0;s:9:"code_code";i:1;a:4:{i:0;s:4:"code";i:1;N;i:2;s:0:"";i:3;s:177:"Computer Configuration\Windows Settings\Security Settings\Local Policies\Security
Options\System cryptography: Use FIPS compliant algorithms for encryption, hashing,
and signing";}i:2;i:3;i:3;s:178:">Computer Configuration\Windows Settings\Security Settings\Local Policies\Security
Options\System cryptography: Use FIPS compliant algorithms for encryption, hashing,
and signing";}i:2;i:1247;}i:54;a:3:{i:0;s:17:"listcontent_close";i:1;a:0:{}i:2;i:1432;}i:55;a:3:{i:0;s:14:"listitem_close";i:1;a:0:{}i:2;i:1432;}i:56;a:3:{i:0;s:13:"listitem_open";i:1;a:1:{i:0;i:1;}i:2;i:1432;}i:57;a:3:{i:0;s:16:"listcontent_open";i:1;a:0:{}i:2;i:1432;}i:58;a:3:{i:0;s:5:"cdata";i:1;a:1:{i:0;s:70:" Set 'Security: Maximum Log Size (KB)' to 'Enabled:196608 or greater' ";}i:2;i:1436;}i:59;a:3:{i:0;s:6:"plugin";i:1;a:4:{i:0;s:9:"code_code";i:1;a:4:{i:0;s:4:"code";i:1;N;i:2;s:0:"";i:3;s:171:"Computer Configuration\Administrative Templates\Windows Components\Event Log
Service\Security\Specify the maximum log file size (KB)\Specify the maximum log file
size (KB)";}i:2;i:3;i:3;s:172:">Computer Configuration\Administrative Templates\Windows Components\Event Log
Service\Security\Specify the maximum log file size (KB)\Specify the maximum log file
size (KB)";}i:2;i:1511;}i:60;a:3:{i:0;s:17:"listcontent_close";i:1;a:0:{}i:2;i:1690;}i:61;a:3:{i:0;s:14:"listitem_close";i:1;a:0:{}i:2;i:1690;}i:62;a:3:{i:0;s:13:"listitem_open";i:1;a:1:{i:0;i:1;}i:2;i:1690;}i:63;a:3:{i:0;s:16:"listcontent_open";i:1;a:0:{}i:2;i:1690;}i:64;a:3:{i:0;s:5:"cdata";i:1;a:1:{i:0;s:67:" Set 'System: Maximum Log Size (KB)' to 'Enabled:32768 or greater' ";}i:2;i:1694;}i:65;a:3:{i:0;s:6:"plugin";i:1;a:4:{i:0;s:9:"code_code";i:1;a:4:{i:0;s:4:"code";i:1;N;i:2;s:0:"";i:3;s:169:"Computer Configuration\Administrative Templates\Windows Components\Event Log
Service\System\Specify the maximum log file size (KB)\Specify the maximum log file
size (KB)";}i:2;i:3;i:3;s:170:">Computer Configuration\Administrative Templates\Windows Components\Event Log
Service\System\Specify the maximum log file size (KB)\Specify the maximum log file
size (KB)";}i:2;i:1766;}i:66;a:3:{i:0;s:5:"cdata";i:1;a:1:{i:0;s:1:" ";}i:2;i:1943;}i:67;a:3:{i:0;s:17:"listcontent_close";i:1;a:0:{}i:2;i:1944;}i:68;a:3:{i:0;s:14:"listitem_close";i:1;a:0:{}i:2;i:1944;}i:69;a:3:{i:0;s:13:"listitem_open";i:1;a:1:{i:0;i:1;}i:2;i:1944;}i:70;a:3:{i:0;s:16:"listcontent_open";i:1;a:0:{}i:2;i:1944;}i:71;a:3:{i:0;s:5:"cdata";i:1;a:1:{i:0;s:72:" Set 'Application: Maximum Log Size (KB)' to 'Enabled:32768 or greater' ";}i:2;i:1948;}i:72;a:3:{i:0;s:6:"plugin";i:1;a:4:{i:0;s:9:"code_code";i:1;a:4:{i:0;s:4:"code";i:1;N;i:2;s:0:"";i:3;s:174:"Computer Configuration\Administrative Templates\Windows Components\Event Log
Service\Application\Specify the maximum log file size (KB)\Specify the maximum log
file size (KB)";}i:2;i:3;i:3;s:175:">Computer Configuration\Administrative Templates\Windows Components\Event Log
Service\Application\Specify the maximum log file size (KB)\Specify the maximum log
file size (KB)";}i:2;i:2025;}i:73;a:3:{i:0;s:17:"listcontent_close";i:1;a:0:{}i:2;i:2207;}i:74;a:3:{i:0;s:14:"listitem_close";i:1;a:0:{}i:2;i:2207;}i:75;a:3:{i:0;s:13:"listitem_open";i:1;a:1:{i:0;i:1;}i:2;i:2207;}i:76;a:3:{i:0;s:16:"listcontent_open";i:1;a:0:{}i:2;i:2207;}i:77;a:3:{i:0;s:5:"cdata";i:1;a:1:{i:0;s:1:" ";}i:2;i:2211;}i:78;a:3:{i:0;s:17:"listcontent_close";i:1;a:0:{}i:2;i:2212;}i:79;a:3:{i:0;s:14:"listitem_close";i:1;a:0:{}i:2;i:2212;}i:80;a:3:{i:0;s:11:"listu_close";i:1;a:0:{}i:2;i:2212;}i:81;a:3:{i:0;s:12:"document_end";i:1;a:0:{}i:2;i:2212;}}