a:65:{i:0;a:3:{i:0;s:14:"document_start";i:1;a:0:{}i:2;i:0;}i:1;a:3:{i:0;s:12:"preformatted";i:1;a:1:{i:0;s:69:"                                           ====== Installation ======";}i:2;i:0;}i:2;a:3:{i:0;s:6:"p_open";i:1;a:0:{}i:2;i:0;}i:3;a:3:{i:0;s:5:"cdata";i:1;a:1:{i:0;s:54:"1.  Download Microsoft Unified Communications Managed ";}i:2;i:76;}i:4;a:3:{i:0;s:7:"acronym";i:1;a:1:{i:0;s:3:"API";}i:2;i:130;}i:5;a:3:{i:0;s:5:"cdata";i:1;a:1:{i:0;s:13:" (UCMA) 4.0, ";}i:2;i:133;}i:6;a:3:{i:0;s:7:"p_close";i:1;a:0:{}i:2;i:146;}i:7;a:3:{i:0;s:6:"p_open";i:1;a:0:{}i:2;i:146;}i:8;a:3:{i:0;s:5:"cdata";i:1;a:1:{i:0;s:39:"2.  Exchange server 2013 and extract it";}i:2;i:148;}i:9;a:3:{i:0;s:7:"p_close";i:1;a:0:{}i:2;i:187;}i:10;a:3:{i:0;s:6:"p_open";i:1;a:0:{}i:2;i:187;}i:11;a:3:{i:0;s:5:"cdata";i:1;a:1:{i:0;s:14:"3.  Add roles ";}i:2;i:189;}i:12;a:3:{i:0;s:7:"acronym";i:1;a:1:{i:0;s:3:"DNS";}i:2;i:203;}i:13;a:3:{i:0;s:5:"cdata";i:1;a:1:{i:0;s:65:", ad ds and ad lds from server manager & .net 3.5 , 4.5 Framework";}i:2;i:206;}i:14;a:3:{i:0;s:7:"p_close";i:1;a:0:{}i:2;i:271;}i:15;a:3:{i:0;s:6:"p_open";i:1;a:0:{}i:2;i:271;}i:16;a:3:{i:0;s:5:"cdata";i:1;a:1:{i:0;s:42:"4. Prepare Active directory Domain service";}i:2;i:273;}i:17;a:3:{i:0;s:7:"p_close";i:1;a:0:{}i:2;i:315;}i:18;a:3:{i:0;s:6:"p_open";i:1;a:0:{}i:2;i:315;}i:19;a:3:{i:0;s:5:"cdata";i:1;a:1:{i:0;s:351:"5. After you've installed the software listed above, complete the following steps to install the Remote Tools Administration Pack. After you've installed the Remote Tools Administration Pack you'll be able to use the computer to prepare Active Directory. For more information about preparing Active Directory, see Prepare Active Directory and domains.";}i:2;i:317;}i:20;a:3:{i:0;s:7:"p_close";i:1;a:0:{}i:2;i:668;}i:21;a:3:{i:0;s:6:"p_open";i:1;a:0:{}i:2;i:668;}i:22;a:3:{i:0;s:5:"cdata";i:1;a:1:{i:0;s:194:"6.
Open Windows PowerShell.
Install the Remote Tools Administration Pack.
On a Windows Server 2012 R2 or Windows Server 2012 computer, run the following command.
Install-WindowsFeature RSAT-ADDS";}i:2;i:670;}i:23;a:3:{i:0;s:7:"p_close";i:1;a:0:{}i:2;i:864;}i:24;a:3:{i:0;s:6:"p_open";i:1;a:0:{}i:2;i:864;}i:25;a:3:{i:0;s:5:"cdata";i:1;a:1:{i:0;s:301:"7.Windows Server 2012 R2 and Windows Server 2012 prerequisites
The prerequisites that are needed to install Exchange 2013 on a Windows Server 2012 R2 or Windows Server 2012 computer depends on which Exchange roles you want to install. Read the section below that matches the roles you want to install.";}i:2;i:866;}i:26;a:3:{i:0;s:7:"p_close";i:1;a:0:{}i:2;i:1167;}i:27;a:3:{i:0;s:6:"p_open";i:1;a:0:{}i:2;i:1167;}i:28;a:3:{i:0;s:5:"cdata";i:1;a:1:{i:0;s:522:"Follow the instructions in this section to install the prerequisites on Windows Server 2012 R2 or Windows Server 2012 computers where you want to do one of the following:
Install only the Mailbox server role on a computer.
Install only the Client Access server role on a computer.
Install both the Mailbox and Client Access server roles on the same computer.
Do the following to install the required Windows roles and features:
Open Windows PowerShell.
Run the following command to install the required Windows components.";}i:2;i:1169;}i:29;a:3:{i:0;s:7:"p_close";i:1;a:0:{}i:2;i:1691;}i:30;a:3:{i:0;s:6:"p_open";i:1;a:0:{}i:2;i:1691;}i:31;a:3:{i:0;s:5:"cdata";i:1;a:1:{i:0;s:671:"Install-WindowsFeature AS-HTTP-Activation, Desktop-Experience, NET-Framework-45-Features, RPC-over-HTTP-proxy, RSAT-Clustering, RSAT-Clustering-CmdInterface, RSAT-Clustering-Mgmt, RSAT-Clustering-PowerShell, Web-Mgmt-Console, WAS-Process-Model, Web-Asp-Net45, Web-Basic-Auth, Web-Client-Auth, Web-Digest-Auth, Web-Dir-Browsing, Web-Dyn-Compression, Web-Http-Errors, Web-Http-Logging, Web-Http-Redirect, Web-Http-Tracing, Web-ISAPI-Ext, Web-ISAPI-Filter, Web-Lgcy-Mgmt-Console, Web-Metabase, Web-Mgmt-Console, Web-Mgmt-Service, Web-Net-Ext45, Web-Request-Monitor, Web-Server, Web-Stat-Compression, Web-Static-Content, Web-Windows-Auth, Web-WMI, Windows-Identity-Foundation";}i:2;i:1697;}i:32;a:3:{i:0;s:7:"p_close";i:1;a:0:{}i:2;i:2368;}i:33;a:3:{i:0;s:6:"p_open";i:1;a:0:{}i:2;i:2368;}i:34;a:3:{i:0;s:5:"cdata";i:1;a:1:{i:0;s:423:"8. 
Edge Transport server role
Follow the instructions in this section to install the prerequisites on Windows Server 2012 R2 or Windows Server 2012 computers where you want to install the Edge Transport server role on a computer.
Do the following to install the required Windows roles and features:
Open Windows PowerShell.
Run the following command to install the required Windows components.
Install-WindowsFeature ADLDS";}i:2;i:2370;}i:35;a:3:{i:0;s:7:"p_close";i:1;a:0:{}i:2;i:2793;}i:36;a:3:{i:0;s:6:"p_open";i:1;a:0:{}i:2;i:2793;}i:37;a:3:{i:0;s:5:"cdata";i:1;a:1:{i:0;s:134:"9. Open a Windows Command Prompt window and go to where you downloaded the Exchange installation files.
 cd  \user\administrator\exch ";}i:2;i:2795;}i:38;a:3:{i:0;s:7:"p_close";i:1;a:0:{}i:2;i:2929;}i:39;a:3:{i:0;s:6:"p_open";i:1;a:0:{}i:2;i:2929;}i:40;a:3:{i:0;s:5:"cdata";i:1;a:1:{i:0;s:113:"10.  Run the following command to extend the schema.
 Setup.exe /PrepareSchema /IAcceptExchangeServerLicenseTerms";}i:2;i:2931;}i:41;a:3:{i:0;s:7:"p_close";i:1;a:0:{}i:2;i:3044;}i:42;a:3:{i:0;s:6:"p_open";i:1;a:0:{}i:2;i:3044;}i:43;a:3:{i:0;s:5:"cdata";i:1;a:1:{i:0;s:70:"11. Prepare Active Directory.
 Setup.exe /PrepareAD /OrganizationName:";}i:2;i:3046;}i:44;a:3:{i:0;s:18:"doublequoteopening";i:1;a:0:{}i:2;i:3116;}i:45;a:3:{i:0;s:5:"cdata";i:1;a:1:{i:0;s:19:"<organization name>";}i:2;i:3117;}i:46;a:3:{i:0;s:18:"doublequoteclosing";i:1;a:0:{}i:2;i:3136;}i:47;a:3:{i:0;s:5:"cdata";i:1;a:1:{i:0;s:35:" /IAcceptExchangeServerLicenseTerms";}i:2;i:3137;}i:48;a:3:{i:0;s:7:"p_close";i:1;a:0:{}i:2;i:3172;}i:49;a:3:{i:0;s:6:"p_open";i:1;a:0:{}i:2;i:3172;}i:50;a:3:{i:0;s:5:"cdata";i:1;a:1:{i:0;s:143:"12. Prepare all domains in active Directory forest.
 Run the following command:
Setup.exe /PrepareAllDomains /IAcceptExchangeServerLicenseTerms";}i:2;i:3174;}i:51;a:3:{i:0;s:7:"p_close";i:1;a:0:{}i:2;i:3317;}i:52;a:3:{i:0;s:6:"p_open";i:1;a:0:{}i:2;i:3317;}i:53;a:3:{i:0;s:5:"cdata";i:1;a:1:{i:0;s:100:"Setup.exe /PrepareDomain:<FQDN of the domain you want to prepare> /IAcceptExchangeServerLicenseTerms";}i:2;i:3319;}i:54;a:3:{i:0;s:7:"p_close";i:1;a:0:{}i:2;i:3419;}i:55;a:3:{i:0;s:6:"p_open";i:1;a:0:{}i:2;i:3419;}i:56;a:3:{i:0;s:5:"cdata";i:1;a:1:{i:0;s:688:"To check whether the msExchProductId property has the right value, do the following:
Press WIN+R, type adsiedit.msc, and then press Enter.
In ADSI Edit, right-click ADSI Edit in the navigation pane, and then click Connect to…
In Connection Settings, select Select a well known Naming Context, and then choose Configuration. Click OK.
Expand Configuration [<domain FQDN>], CN=Configuration,DC=domain,DC=com, CN=Services, CN=Microsoft Exchange.
Right-click CN=<your Exchange organization name>, and then select Properties.
Make sure the value in msExchangeProductId matches the value in the Exchange 2013 Active Directory versions table for the version of Exchange 2013 you're installing.";}i:2;i:3423;}i:57;a:3:{i:0;s:7:"p_close";i:1;a:0:{}i:2;i:4111;}i:58;a:3:{i:0;s:6:"p_open";i:1;a:0:{}i:2;i:4111;}i:59;a:3:{i:0;s:5:"cdata";i:1;a:1:{i:0;s:42:"remove C++ distributed from control pannel";}i:2;i:4114;}i:60;a:3:{i:0;s:7:"p_close";i:1;a:0:{}i:2;i:4156;}i:61;a:3:{i:0;s:6:"p_open";i:1;a:0:{}i:2;i:4156;}i:62;a:3:{i:0;s:5:"cdata";i:1;a:1:{i:0;s:55:"now finall step install setup.exe from exchange folder.";}i:2;i:4158;}i:63;a:3:{i:0;s:7:"p_close";i:1;a:0:{}i:2;i:4213;}i:64;a:3:{i:0;s:12:"document_end";i:1;a:0:{}i:2;i:4213;}}