a:64:{i:0;a:3:{i:0;s:14:"document_start";i:1;a:0:{}i:2;i:0;}i:1;a:3:{i:0;s:6:"p_open";i:1;a:0:{}i:2;i:0;}i:2;a:3:{i:0;s:5:"cdata";i:1;a:1:{i:0;s:22:"#Login to admin panel.";}i:2;i:1;}i:3;a:3:{i:0;s:9:"linebreak";i:1;a:0:{}i:2;i:23;}i:4;a:3:{i:0;s:5:"cdata";i:1;a:1:{i:0;s:8:"
System ";}i:2;i:25;}i:5;a:3:{i:0;s:6:"entity";i:1;a:1:{i:0;s:2:"->";}i:2;i:33;}i:6;a:3:{i:0;s:5:"cdata";i:1;a:1:{i:0;s:17:" Magento Connect ";}i:2;i:35;}i:7;a:3:{i:0;s:6:"entity";i:1;a:1:{i:0;s:2:"->";}i:2;i:52;}i:8;a:3:{i:0;s:5:"cdata";i:1;a:1:{i:0;s:25:" Magento Connect Manager ";}i:2;i:54;}i:9;a:3:{i:0;s:9:"linebreak";i:1;a:0:{}i:2;i:79;}i:10;a:3:{i:0;s:5:"cdata";i:1;a:1:{i:0;s:1:"
";}i:2;i:81;}i:11;a:3:{i:0;s:9:"linebreak";i:1;a:0:{}i:2;i:82;}i:12;a:3:{i:0;s:5:"cdata";i:1;a:1:{i:0;s:34:"
Login to Magento connect manager.";}i:2;i:84;}i:13;a:3:{i:0;s:9:"linebreak";i:1;a:0:{}i:2;i:118;}i:14;a:3:{i:0;s:5:"cdata";i:1;a:1:{i:0;s:40:"
Search for modules via Magento Connect.";}i:2;i:120;}i:15;a:3:{i:0;s:9:"linebreak";i:1;a:0:{}i:2;i:160;}i:16;a:3:{i:0;s:5:"cdata";i:1;a:1:{i:0;s:11:"
Select Key";}i:2;i:162;}i:17;a:3:{i:0;s:9:"linebreak";i:1;a:0:{}i:2;i:173;}i:18;a:3:{i:0;s:5:"cdata";i:1;a:1:{i:0;s:5:"
Copy";}i:2;i:175;}i:19;a:3:{i:0;s:9:"linebreak";i:1;a:0:{}i:2;i:180;}i:20;a:3:{i:0;s:5:"cdata";i:1;a:1:{i:0;s:1:"
";}i:2;i:182;}i:21;a:3:{i:0;s:9:"linebreak";i:1;a:0:{}i:2;i:183;}i:22;a:3:{i:0;s:5:"cdata";i:1;a:1:{i:0;s:33:"
Paste extension key to install: ";}i:2;i:185;}i:23;a:3:{i:0;s:9:"linebreak";i:1;a:0:{}i:2;i:218;}i:24;a:3:{i:0;s:5:"cdata";i:1;a:1:{i:0;s:9:"
Install ";}i:2;i:220;}i:25;a:3:{i:0;s:9:"linebreak";i:1;a:0:{}i:2;i:229;}i:26;a:3:{i:0;s:7:"p_close";i:1;a:0:{}i:2;i:231;}i:27;a:3:{i:0;s:6:"p_open";i:1;a:0:{}i:2;i:231;}i:28;a:3:{i:0;s:5:"cdata";i:1;a:1:{i:0;s:24:"Enable Fooman Speedster ";}i:2;i:233;}i:29;a:3:{i:0;s:9:"linebreak";i:1;a:0:{}i:2;i:257;}i:30;a:3:{i:0;s:5:"cdata";i:1;a:1:{i:0;s:28:"
Login to your admin panel. ";}i:2;i:259;}i:31;a:3:{i:0;s:9:"linebreak";i:1;a:0:{}i:2;i:287;}i:32;a:3:{i:0;s:5:"cdata";i:1;a:1:{i:0;s:1:"
";}i:2;i:289;}i:33;a:3:{i:0;s:9:"linebreak";i:1;a:0:{}i:2;i:290;}i:34;a:3:{i:0;s:5:"cdata";i:1;a:1:{i:0;s:8:"
System ";}i:2;i:292;}i:35;a:3:{i:0;s:6:"entity";i:1;a:1:{i:0;s:2:"->";}i:2;i:300;}i:36;a:3:{i:0;s:5:"cdata";i:1;a:1:{i:0;s:15:" Configuration ";}i:2;i:302;}i:37;a:3:{i:0;s:6:"entity";i:1;a:1:{i:0;s:2:"->";}i:2;i:317;}i:38;a:3:{i:0;s:5:"cdata";i:1;a:1:{i:0;s:18:" Fooman Extensions";}i:2;i:319;}i:39;a:3:{i:0;s:9:"linebreak";i:1;a:0:{}i:2;i:337;}i:40;a:3:{i:0;s:5:"cdata";i:1;a:1:{i:0;s:18:"
Fooman Speedster ";}i:2;i:339;}i:41;a:3:{i:0;s:6:"entity";i:1;a:1:{i:0;s:2:"->";}i:2;i:357;}i:42;a:3:{i:0;s:5:"cdata";i:1;a:1:{i:0;s:8:" Enable ";}i:2;i:359;}i:43;a:3:{i:0;s:9:"linebreak";i:1;a:0:{}i:2;i:367;}i:44;a:3:{i:0;s:7:"p_close";i:1;a:0:{}i:2;i:369;}i:45;a:3:{i:0;s:6:"p_open";i:1;a:0:{}i:2;i:369;}i:46;a:3:{i:0;s:9:"linebreak";i:1;a:0:{}i:2;i:371;}i:47;a:3:{i:0;s:5:"cdata";i:1;a:1:{i:0;s:57:"
Edit your Nginx configuration file for particular host. ";}i:2;i:373;}i:48;a:3:{i:0;s:9:"linebreak";i:1;a:0:{}i:2;i:430;}i:49;a:3:{i:0;s:5:"cdata";i:1;a:1:{i:0;s:29:"
Append below rewrite rules: ";}i:2;i:432;}i:50;a:3:{i:0;s:9:"linebreak";i:1;a:0:{}i:2;i:461;}i:51;a:3:{i:0;s:5:"cdata";i:1;a:1:{i:0;s:1:"
";}i:2;i:463;}i:52;a:3:{i:0;s:9:"linebreak";i:1;a:0:{}i:2;i:464;}i:53;a:3:{i:0;s:5:"cdata";i:1;a:1:{i:0;s:1:"
";}i:2;i:466;}i:54;a:3:{i:0;s:6:"plugin";i:1;a:4:{i:0;s:9:"code_code";i:1;a:4:{i:0;s:4:"code";i:1;N;i:2;s:0:"";i:3;s:96:"
location /skin/m/ {
    rewrite ^/skin/m/([^/]+)(/.*.(js|css))$ /lib/minify/m.php?f=$2&d=$1;
}
";}i:2;i:3;i:3;s:97:">
location /skin/m/ {
    rewrite ^/skin/m/([^/]+)(/.*.(js|css))$ /lib/minify/m.php?f=$2&d=$1;
}
";}i:2;i:472;}i:55;a:3:{i:0;s:5:"cdata";i:1;a:1:{i:0;s:1:"
";}i:2;i:576;}i:56;a:3:{i:0;s:9:"linebreak";i:1;a:0:{}i:2;i:577;}i:57;a:3:{i:0;s:5:"cdata";i:1;a:1:{i:0;s:14:"
Restart Nginx";}i:2;i:579;}i:58;a:3:{i:0;s:9:"linebreak";i:1;a:0:{}i:2;i:593;}i:59;a:3:{i:0;s:5:"cdata";i:1;a:1:{i:0;s:22:"
service nginx restart";}i:2;i:595;}i:60;a:3:{i:0;s:9:"linebreak";i:1;a:0:{}i:2;i:617;}i:61;a:3:{i:0;s:5:"cdata";i:1;a:1:{i:0;s:0:"";}i:2;i:619;}i:62;a:3:{i:0;s:7:"p_close";i:1;a:0:{}i:2;i:619;}i:63;a:3:{i:0;s:12:"document_end";i:1;a:0:{}i:2;i:619;}}