a:129:{i:0;a:3:{i:0;s:14:"document_start";i:1;a:0:{}i:2;i:0;}i:1;a:3:{i:0;s:6:"p_open";i:1;a:0:{}i:2;i:0;}i:2;a:3:{i:0;s:11:"strong_open";i:1;a:0:{}i:2;i:1;}i:3;a:3:{i:0;s:5:"cdata";i:1;a:1:{i:0;s:94:"Prerequisites : Reseller or root access of source server and root access of destination server";}i:2;i:3;}i:4;a:3:{i:0;s:12:"strong_close";i:1;a:0:{}i:2;i:97;}i:5;a:3:{i:0;s:7:"p_close";i:1;a:0:{}i:2;i:99;}i:6;a:3:{i:0;s:6:"p_open";i:1;a:0:{}i:2;i:99;}i:7;a:3:{i:0;s:5:"cdata";i:1;a:1:{i:0;s:93:"Step 1 : Login to WHM Server (source i.e. from where you want to backup the cpanel account). ";}i:2;i:103;}i:8;a:3:{i:0;s:7:"p_close";i:1;a:0:{}i:2;i:196;}i:9;a:3:{i:0;s:6:"p_open";i:1;a:0:{}i:2;i:196;}i:10;a:3:{i:0;s:5:"cdata";i:1;a:1:{i:0;s:49:"Step 2 : Find your cpanel account by browsing to ";}i:2;i:198;}i:11;a:3:{i:0;s:18:"doublequoteopening";i:1;a:0:{}i:2;i:247;}i:12;a:3:{i:0;s:5:"cdata";i:1;a:1:{i:0;s:42:"Home »Account Information »List Accounts";}i:2;i:248;}i:13;a:3:{i:0;s:18:"doublequoteclosing";i:1;a:0:{}i:2;i:290;}i:14;a:3:{i:0;s:5:"cdata";i:1;a:1:{i:0;s:1:".";}i:2;i:291;}i:15;a:3:{i:0;s:7:"p_close";i:1;a:0:{}i:2;i:292;}i:16;a:3:{i:0;s:6:"p_open";i:1;a:0:{}i:2;i:292;}i:17;a:3:{i:0;s:5:"cdata";i:1;a:1:{i:0;s:85:"Step 3 : Open the cpanel by clicking on the cpanel icon in front of your Domain name.";}i:2;i:294;}i:18;a:3:{i:0;s:7:"p_close";i:1;a:0:{}i:2;i:379;}i:19;a:3:{i:0;s:6:"p_open";i:1;a:0:{}i:2;i:379;}i:20;a:3:{i:0;s:5:"cdata";i:1;a:1:{i:0;s:92:"Step 4 : On the newly opened cpanel tab, Click on the 'Backup Wizard' under 'Files' section.";}i:2;i:381;}i:21;a:3:{i:0;s:7:"p_close";i:1;a:0:{}i:2;i:473;}i:22;a:3:{i:0;s:6:"p_open";i:1;a:0:{}i:2;i:473;}i:23;a:3:{i:0;s:5:"cdata";i:1;a:1:{i:0;s:26:"Step 5: Then click on the ";}i:2;i:475;}i:24;a:3:{i:0;s:18:"doublequoteopening";i:1;a:0:{}i:2;i:501;}i:25;a:3:{i:0;s:5:"cdata";i:1;a:1:{i:0;s:7:"Backup ";}i:2;i:502;}i:26;a:3:{i:0;s:6:"entity";i:1;a:1:{i:0;s:2:"--";}i:2;i:509;}i:27;a:3:{i:0;s:5:"cdata";i:1;a:1:{i:0;s:1:">";}i:2;i:511;}i:28;a:3:{i:0;s:18:"doublequoteclosing";i:1;a:0:{}i:2;i:512;}i:29;a:3:{i:0;s:5:"cdata";i:1;a:1:{i:0;s:8:" option.";}i:2;i:513;}i:30;a:3:{i:0;s:7:"p_close";i:1;a:0:{}i:2;i:521;}i:31;a:3:{i:0;s:6:"p_open";i:1;a:0:{}i:2;i:521;}i:32;a:3:{i:0;s:5:"cdata";i:1;a:1:{i:0;s:26:"Step 6: Then click on the ";}i:2;i:523;}i:33;a:3:{i:0;s:18:"doublequoteopening";i:1;a:0:{}i:2;i:549;}i:34;a:3:{i:0;s:5:"cdata";i:1;a:1:{i:0;s:11:"Full Backup";}i:2;i:550;}i:35;a:3:{i:0;s:18:"doublequoteclosing";i:1;a:0:{}i:2;i:561;}i:36;a:3:{i:0;s:5:"cdata";i:1;a:1:{i:0;s:8:" option.";}i:2;i:562;}i:37;a:3:{i:0;s:7:"p_close";i:1;a:0:{}i:2;i:570;}i:38;a:3:{i:0;s:6:"p_open";i:1;a:0:{}i:2;i:570;}i:39;a:3:{i:0;s:5:"cdata";i:1;a:1:{i:0;s:103:"Step 7 : Fill up the blanks as per your requirement. Mostly , it is done by SCP, sample is given below.";}i:2;i:572;}i:40;a:3:{i:0;s:7:"p_close";i:1;a:0:{}i:2;i:675;}i:41;a:3:{i:0;s:6:"p_open";i:1;a:0:{}i:2;i:675;}i:42;a:3:{i:0;s:5:"cdata";i:1;a:1:{i:0;s:231:"Backup Destination: SCP
Email Address: YOUR_EMAIL_ADDRESS_TO_NOTIFY_THE_STATUS_OF_BACKUP_PROCESS
Remote Server: IP_OF_DESTINATION_SERVER
Remote User: root
Remote Password: root's password
Port: SSH_PORT (22)
Remote Directory: /root";}i:2;i:677;}i:43;a:3:{i:0;s:7:"p_close";i:1;a:0:{}i:2;i:908;}i:44;a:3:{i:0;s:6:"p_open";i:1;a:0:{}i:2;i:908;}i:45;a:3:{i:0;s:5:"cdata";i:1;a:1:{i:0;s:55:"Step 8: After filling up the required fields, click on ";}i:2;i:910;}i:46;a:3:{i:0;s:18:"doublequoteopening";i:1;a:0:{}i:2;i:965;}i:47;a:3:{i:0;s:5:"cdata";i:1;a:1:{i:0;s:15:"Generate Backup";}i:2;i:966;}i:48;a:3:{i:0;s:18:"doublequoteclosing";i:1;a:0:{}i:2;i:981;}i:49;a:3:{i:0;s:5:"cdata";i:1;a:1:{i:0;s:8:" button.";}i:2;i:982;}i:50;a:3:{i:0;s:7:"p_close";i:1;a:0:{}i:2;i:990;}i:51;a:3:{i:0;s:6:"p_open";i:1;a:0:{}i:2;i:990;}i:52;a:3:{i:0;s:5:"cdata";i:1;a:1:{i:0;s:24:"Step 9: Click on Go Back";}i:2;i:992;}i:53;a:3:{i:0;s:18:"doublequoteopening";i:1;a:0:{}i:2;i:1016;}i:54;a:3:{i:0;s:5:"cdata";i:1;a:1:{i:0;s:141:" or now you can logout the cpanel account. You will receive an email notification on your mentioned email ID after backup has been completed.";}i:2;i:1017;}i:55;a:3:{i:0;s:7:"p_close";i:1;a:0:{}i:2;i:1158;}i:56;a:3:{i:0;s:6:"p_open";i:1;a:0:{}i:2;i:1158;}i:57;a:3:{i:0;s:5:"cdata";i:1;a:1:{i:0;s:71:"Step 10: Now, to restore the backup, login to WHM server (Destination).";}i:2;i:1160;}i:58;a:3:{i:0;s:7:"p_close";i:1;a:0:{}i:2;i:1231;}i:59;a:3:{i:0;s:6:"p_open";i:1;a:0:{}i:2;i:1231;}i:60;a:3:{i:0;s:5:"cdata";i:1;a:1:{i:0;s:16:"Step 11 : Go to ";}i:2;i:1233;}i:61;a:3:{i:0;s:18:"doublequoteopening";i:1;a:0:{}i:2;i:1249;}i:62;a:3:{i:0;s:5:"cdata";i:1;a:1:{i:0;s:49:"Home »Backup »Restore a Full Backup/cpmove File";}i:2;i:1250;}i:63;a:3:{i:0;s:18:"doublequoteclosing";i:1;a:0:{}i:2;i:1299;}i:64;a:3:{i:0;s:5:"cdata";i:1;a:1:{i:0;s:9:" OR type ";}i:2;i:1300;}i:65;a:3:{i:0;s:18:"doublequoteopening";i:1;a:0:{}i:2;i:1309;}i:66;a:3:{i:0;s:5:"cdata";i:1;a:1:{i:0;s:6:"cpmove";}i:2;i:1310;}i:67;a:3:{i:0;s:18:"doublequoteclosing";i:1;a:0:{}i:2;i:1316;}i:68;a:3:{i:0;s:5:"cdata";i:1;a:1:{i:0;s:54:" in the search bar of the WHM panel and then click on ";}i:2;i:1317;}i:69;a:3:{i:0;s:18:"doublequoteopening";i:1;a:0:{}i:2;i:1371;}i:70;a:3:{i:0;s:5:"cdata";i:1;a:1:{i:0;s:33:"Restore a Full Backup/cpmove File";}i:2;i:1372;}i:71;a:3:{i:0;s:18:"doublequoteclosing";i:1;a:0:{}i:2;i:1405;}i:72;a:3:{i:0;s:5:"cdata";i:1;a:1:{i:0;s:1:".";}i:2;i:1406;}i:73;a:3:{i:0;s:7:"p_close";i:1;a:0:{}i:2;i:1407;}i:74;a:3:{i:0;s:6:"p_open";i:1;a:0:{}i:2;i:1407;}i:75;a:3:{i:0;s:5:"cdata";i:1;a:1:{i:0;s:39:"Step 12: Under Transfer Method, Select ";}i:2;i:1409;}i:76;a:3:{i:0;s:18:"doublequoteopening";i:1;a:0:{}i:2;i:1448;}i:77;a:3:{i:0;s:5:"cdata";i:1;a:1:{i:0;s:21:"Restore with Username";}i:2;i:1449;}i:78;a:3:{i:0;s:18:"doublequoteclosing";i:1;a:0:{}i:2;i:1470;}i:79;a:3:{i:0;s:5:"cdata";i:1;a:1:{i:0;s:1:".";}i:2;i:1471;}i:80;a:3:{i:0;s:7:"p_close";i:1;a:0:{}i:2;i:1472;}i:81;a:3:{i:0;s:6:"p_open";i:1;a:0:{}i:2;i:1472;}i:82;a:3:{i:0;s:5:"cdata";i:1;a:1:{i:0;s:36:"Step 13: Don't bother with Check on ";}i:2;i:1474;}i:83;a:3:{i:0;s:18:"doublequoteopening";i:1;a:0:{}i:2;i:1510;}i:84;a:3:{i:0;s:5:"cdata";i:1;a:1:{i:0;s:18:"Restricted Restore";}i:2;i:1511;}i:85;a:3:{i:0;s:18:"doublequoteclosing";i:1;a:0:{}i:2;i:1529;}i:86;a:3:{i:0;s:5:"cdata";i:1;a:1:{i:0;s:35:". It is already checked by default.";}i:2;i:1530;}i:87;a:3:{i:0;s:7:"p_close";i:1;a:0:{}i:2;i:1565;}i:88;a:3:{i:0;s:6:"p_open";i:1;a:0:{}i:2;i:1565;}i:89;a:3:{i:0;s:5:"cdata";i:1;a:1:{i:0;s:39:"Step 14: Under Transfer Method, select ";}i:2;i:1567;}i:90;a:3:{i:0;s:18:"doublequoteopening";i:1;a:0:{}i:2;i:1606;}i:91;a:3:{i:0;s:5:"cdata";i:1;a:1:{i:0;s:21:"Restore with Username";}i:2;i:1607;}i:92;a:3:{i:0;s:18:"doublequoteclosing";i:1;a:0:{}i:2;i:1628;}i:93;a:3:{i:0;s:5:"cdata";i:1;a:1:{i:0;s:1:".";}i:2;i:1629;}i:94;a:3:{i:0;s:7:"p_close";i:1;a:0:{}i:2;i:1630;}i:95;a:3:{i:0;s:6:"p_open";i:1;a:0:{}i:2;i:1630;}i:96;a:3:{i:0;s:5:"cdata";i:1;a:1:{i:0;s:36:"Step 15: From the drop down menu of ";}i:2;i:1632;}i:97;a:3:{i:0;s:18:"doublequoteopening";i:1;a:0:{}i:2;i:1668;}i:98;a:3:{i:0;s:5:"cdata";i:1;a:1:{i:0;s:50:"Username for the account that you wish to restore:";}i:2;i:1669;}i:99;a:3:{i:0;s:18:"doublequoteclosing";i:1;a:0:{}i:2;i:1719;}i:100;a:3:{i:0;s:5:"cdata";i:1;a:1:{i:0;s:147:", you need to scroll down & select that particular account you want to migrate on this (destination) WHM server from the older (source) WHM server.";}i:2;i:1720;}i:101;a:3:{i:0;s:7:"p_close";i:1;a:0:{}i:2;i:1867;}i:102;a:3:{i:0;s:6:"p_open";i:1;a:0:{}i:2;i:1867;}i:103;a:3:{i:0;s:5:"cdata";i:1;a:1:{i:0;s:22:"Step 16: Check on the ";}i:2;i:1869;}i:104;a:3:{i:0;s:18:"doublequoteopening";i:1;a:0:{}i:2;i:1891;}i:105;a:3:{i:0;s:5:"cdata";i:1;a:1:{i:0;s:123:"Replace all instances of the original server’s IP address with the new IP address, such as in custom A records (default).";}i:2;i:1892;}i:106;a:3:{i:0;s:18:"doublequoteclosing";i:1;a:0:{}i:2;i:2015;}i:107;a:3:{i:0;s:7:"p_close";i:1;a:0:{}i:2;i:2016;}i:108;a:3:{i:0;s:6:"p_open";i:1;a:0:{}i:2;i:2016;}i:109;a:3:{i:0;s:5:"cdata";i:1;a:1:{i:0;s:23:"Step 17: Then click on ";}i:2;i:2018;}i:110;a:3:{i:0;s:18:"doublequoteopening";i:1;a:0:{}i:2;i:2041;}i:111;a:3:{i:0;s:5:"cdata";i:1;a:1:{i:0;s:7:"Restore";}i:2;i:2042;}i:112;a:3:{i:0;s:18:"doublequoteclosing";i:1;a:0:{}i:2;i:2049;}i:113;a:3:{i:0;s:5:"cdata";i:1;a:1:{i:0;s:22:" option at the bottom.";}i:2;i:2050;}i:114;a:3:{i:0;s:7:"p_close";i:1;a:0:{}i:2;i:2072;}i:115;a:3:{i:0;s:6:"p_open";i:1;a:0:{}i:2;i:2072;}i:116;a:3:{i:0;s:5:"cdata";i:1;a:1:{i:0;s:82:"Step 18: On the next window, you will see the progress of the restoration process.";}i:2;i:2074;}i:117;a:3:{i:0;s:7:"p_close";i:1;a:0:{}i:2;i:2156;}i:118;a:3:{i:0;s:6:"p_open";i:1;a:0:{}i:2;i:2156;}i:119;a:3:{i:0;s:5:"cdata";i:1;a:1:{i:0;s:227:"Step 19 : Alternatively, you may close this window and view the transfer on the command line:
/usr/local/cpanel/bin/view_transfer TRANSFER_ID
For example, /usr/local/cpanel/bin/view_transfer 4325291217quick20150818072802rOBwjus";}i:2;i:2158;}i:120;a:3:{i:0;s:7:"p_close";i:1;a:0:{}i:2;i:2385;}i:121;a:3:{i:0;s:6:"p_open";i:1;a:0:{}i:2;i:2385;}i:122;a:3:{i:0;s:5:"cdata";i:1;a:1:{i:0;s:26:"Step 20 : Now , browse to ";}i:2;i:2387;}i:123;a:3:{i:0;s:18:"doublequoteopening";i:1;a:0:{}i:2;i:2413;}i:124;a:3:{i:0;s:5:"cdata";i:1;a:1:{i:0;s:42:"Home »Account Information »List Accounts";}i:2;i:2414;}i:125;a:3:{i:0;s:18:"doublequoteclosing";i:1;a:0:{}i:2;i:2456;}i:126;a:3:{i:0;s:5:"cdata";i:1;a:1:{i:0;s:66:" and search your just migrated cpanel account, it should be there.";}i:2;i:2457;}i:127;a:3:{i:0;s:7:"p_close";i:1;a:0:{}i:2;i:2457;}i:128;a:3:{i:0;s:12:"document_end";i:1;a:0:{}i:2;i:2457;}}