a:20:{i:0;a:3:{i:0;s:14:"document_start";i:1;a:0:{}i:2;i:0;}i:1;a:3:{i:0;s:6:"header";i:1;a:3:{i:0;s:40:"ip_conntrack table full, dropping packet";i:1;i:1;i:2;i:1;}i:2;i:1;}i:2;a:3:{i:0;s:12:"section_open";i:1;a:1:{i:0;i:1;}i:2;i:1;}i:3;a:3:{i:0;s:6:"p_open";i:1;a:0:{}i:2;i:1;}i:4;a:3:{i:0;s:6:"plugin";i:1;a:4:{i:0;s:9:"code_code";i:1;a:4:{i:0;s:4:"code";i:1;N;i:2;s:0:"";i:3;s:195:"
vi /etc/sysctl.conf
net.ipv4.ip_conntrack_max=<increased_limit>
to see present limit set:
cat /proc/sys/net/ipv4/ip_conntrack_max
to see current active connections:
wc -l /proc/net/ip_conntrack ";}i:2;i:3;i:3;s:196:">
vi /etc/sysctl.conf
net.ipv4.ip_conntrack_max=<increased_limit>
to see present limit set:
cat /proc/sys/net/ipv4/ip_conntrack_max
to see current active connections:
wc -l /proc/net/ip_conntrack ";}i:2;i:62;}i:5;a:3:{i:0;s:7:"p_close";i:1;a:0:{}i:2;i:265;}i:6;a:3:{i:0;s:6:"p_open";i:1;a:0:{}i:2;i:265;}i:7;a:3:{i:0;s:5:"cdata";i:1;a:1:{i:0;s:46:"To see details of all IP's making connections:";}i:2;i:267;}i:8;a:3:{i:0;s:7:"p_close";i:1;a:0:{}i:2;i:313;}i:9;a:3:{i:0;s:6:"p_open";i:1;a:0:{}i:2;i:313;}i:10;a:3:{i:0;s:5:"cdata";i:1;a:1:{i:0;s:19:"cat /proc/net/ip_co";}i:2;i:315;}i:11;a:3:{i:0;s:7:"p_close";i:1;a:0:{}i:2;i:334;}i:12;a:3:{i:0;s:6:"p_open";i:1;a:0:{}i:2;i:334;}i:13;a:3:{i:0;s:5:"cdata";i:1;a:1:{i:0;s:24:"nntrack | grep tcp|awk '";}i:2;i:336;}i:14;a:3:{i:0;s:7:"p_close";i:1;a:0:{}i:2;i:360;}i:15;a:3:{i:0;s:6:"p_open";i:1;a:0:{}i:2;i:360;}i:16;a:3:{i:0;s:5:"cdata";i:1;a:1:{i:0;s:36:"Unknown macro: {print $5}
'|uniq -dc";}i:2;i:362;}i:17;a:3:{i:0;s:7:"p_close";i:1;a:0:{}i:2;i:398;}i:18;a:3:{i:0;s:13:"section_close";i:1;a:0:{}i:2;i:398;}i:19;a:3:{i:0;s:12:"document_end";i:1;a:0:{}i:2;i:398;}}