a:55:{i:0;a:3:{i:0;s:14:"document_start";i:1;a:0:{}i:2;i:0;}i:1;a:3:{i:0;s:6:"p_open";i:1;a:0:{}i:2;i:0;}i:2;a:3:{i:0;s:5:"cdata";i:1;a:1:{i:0;s:55:"Change the following details according to requirement -";}i:2;i:1;}i:3;a:3:{i:0;s:7:"p_close";i:1;a:0:{}i:2;i:56;}i:4;a:3:{i:0;s:6:"p_open";i:1;a:0:{}i:2;i:56;}i:5;a:3:{i:0;s:5:"cdata";i:1;a:1:{i:0;s:7:"domain=";}i:2;i:58;}i:6;a:3:{i:0;s:18:"doublequoteopening";i:1;a:0:{}i:2;i:65;}i:7;a:3:{i:0;s:5:"cdata";i:1;a:1:{i:0;s:8:"test.com";}i:2;i:66;}i:8;a:3:{i:0;s:18:"doublequoteclosing";i:1;a:0:{}i:2;i:74;}i:9;a:3:{i:0;s:7:"p_close";i:1;a:0:{}i:2;i:75;}i:10;a:3:{i:0;s:6:"p_open";i:1;a:0:{}i:2;i:75;}i:11;a:3:{i:0;s:5:"cdata";i:1;a:1:{i:0;s:24:"policyd_limit_emails=200";}i:2;i:77;}i:12;a:3:{i:0;s:7:"p_close";i:1;a:0:{}i:2;i:101;}i:13;a:3:{i:0;s:6:"p_open";i:1;a:0:{}i:2;i:101;}i:14;a:3:{i:0;s:5:"cdata";i:1;a:1:{i:0;s:23:"policyd_limit_time=3600";}i:2;i:103;}i:15;a:3:{i:0;s:7:"p_close";i:1;a:0:{}i:2;i:126;}i:16;a:3:{i:0;s:6:"p_open";i:1;a:0:{}i:2;i:126;}i:17;a:3:{i:0;s:5:"cdata";i:1;a:1:{i:0;s:36:"emailDetails=tech@mantraventures.com";}i:2;i:128;}i:18;a:3:{i:0;s:7:"p_close";i:1;a:0:{}i:2;i:164;}i:19;a:3:{i:0;s:6:"p_open";i:1;a:0:{}i:2;i:164;}i:20;a:3:{i:0;s:5:"cdata";i:1;a:1:{i:0;s:68:"Login as root user. Install vim and screen if not already installed.";}i:2;i:166;}i:21;a:3:{i:0;s:7:"p_close";i:1;a:0:{}i:2;i:234;}i:22;a:3:{i:0;s:6:"p_open";i:1;a:0:{}i:2;i:234;}i:23;a:3:{i:0;s:6:"plugin";i:1;a:4:{i:0;s:9:"code_code";i:1;a:4:{i:0;s:4:"code";i:1;N;i:2;s:0:"";i:3;s:72:"
cd /root

touch /root/autopolicyd.log

chmod 777 /root/autopolicyd.log
";}i:2;i:3;i:3;s:73:">
cd /root

touch /root/autopolicyd.log

chmod 777 /root/autopolicyd.log
";}i:2;i:241;}i:24;a:3:{i:0;s:7:"p_close";i:1;a:0:{}i:2;i:321;}i:25;a:3:{i:0;s:6:"p_open";i:1;a:0:{}i:2;i:321;}i:26;a:3:{i:0;s:5:"cdata";i:1;a:1:{i:0;s:64:"Create a file autopolicyd.sh and copy shell script in this file.";}i:2;i:323;}i:27;a:3:{i:0;s:7:"p_close";i:1;a:0:{}i:2;i:387;}i:28;a:3:{i:0;s:6:"p_open";i:1;a:0:{}i:2;i:387;}i:29;a:3:{i:0;s:6:"plugin";i:1;a:4:{i:0;s:9:"code_code";i:1;a:4:{i:0;s:4:"code";i:1;N;i:2;s:0:"";i:3;s:20:"
vim autopolicyd.sh
";}i:2;i:3;i:3;s:21:">
vim autopolicyd.sh
";}i:2;i:394;}i:30;a:3:{i:0;s:7:"p_close";i:1;a:0:{}i:2;i:422;}i:31;a:3:{i:0;s:6:"p_open";i:1;a:0:{}i:2;i:422;}i:32;a:3:{i:0;s:5:"cdata";i:1;a:1:{i:0;s:18:"Go to insert mode.";}i:2;i:424;}i:33;a:3:{i:0;s:7:"p_close";i:1;a:0:{}i:2;i:442;}i:34;a:3:{i:0;s:6:"p_open";i:1;a:0:{}i:2;i:442;}i:35;a:3:{i:0;s:5:"cdata";i:1;a:1:{i:0;s:23:"Copy whole script from ";}i:2;i:444;}i:36;a:3:{i:0;s:12:"externallink";i:1;a:2:{i:0;s:57:"http://wiki.mantraventures.com/zimbra/auto_policyd_script";i:1;N;}i:2;i:467;}i:37;a:3:{i:0;s:5:"cdata";i:1;a:1:{i:0;s:51:" and paste it in the file (autopolicyd.sh) created.";}i:2;i:524;}i:38;a:3:{i:0;s:7:"p_close";i:1;a:0:{}i:2;i:575;}i:39;a:3:{i:0;s:6:"p_open";i:1;a:0:{}i:2;i:575;}i:40;a:3:{i:0;s:5:"cdata";i:1;a:1:{i:0;s:19:"Save and exit (:wq)";}i:2;i:577;}i:41;a:3:{i:0;s:7:"p_close";i:1;a:0:{}i:2;i:596;}i:42;a:3:{i:0;s:6:"p_open";i:1;a:0:{}i:2;i:596;}i:43;a:3:{i:0;s:6:"plugin";i:1;a:4:{i:0;s:9:"code_code";i:1;a:4:{i:0;s:4:"code";i:1;N;i:2;s:0:"";i:3;s:83:"
chmod +x autopolicyd.sh

screen

sh autopolicyd.sh | tee -a /root/autopolicyd.log
";}i:2;i:3;i:3;s:84:">
chmod +x autopolicyd.sh

screen

sh autopolicyd.sh | tee -a /root/autopolicyd.log
";}i:2;i:603;}i:44;a:3:{i:0;s:7:"p_close";i:1;a:0:{}i:2;i:694;}i:45;a:3:{i:0;s:6:"p_open";i:1;a:0:{}i:2;i:694;}i:46;a:3:{i:0;s:5:"cdata";i:1;a:1:{i:0;s:55:"Let the installation complete. Details will be emailed.";}i:2;i:696;}i:47;a:3:{i:0;s:7:"p_close";i:1;a:0:{}i:2;i:751;}i:48;a:3:{i:0;s:6:"p_open";i:1;a:0:{}i:2;i:751;}i:49;a:3:{i:0;s:5:"cdata";i:1;a:1:{i:0;s:96:"If there is some problem in getting email, you can also check the details by following command -";}i:2;i:753;}i:50;a:3:{i:0;s:7:"p_close";i:1;a:0:{}i:2;i:849;}i:51;a:3:{i:0;s:6:"p_open";i:1;a:0:{}i:2;i:849;}i:52;a:3:{i:0;s:6:"plugin";i:1;a:4:{i:0;s:9:"code_code";i:1;a:4:{i:0;s:4:"code";i:1;N;i:2;s:0:"";i:3;s:31:"
tail -6 /root/autopolicyd.log
";}i:2;i:3;i:3;s:32:">
tail -6 /root/autopolicyd.log
";}i:2;i:856;}i:53;a:3:{i:0;s:7:"p_close";i:1;a:0:{}i:2;i:895;}i:54;a:3:{i:0;s:12:"document_end";i:1;a:0:{}i:2;i:895;}}