a:12:{i:0;a:3:{i:0;s:14:"document_start";i:1;a:0:{}i:2;i:0;}i:1;a:3:{i:0;s:6:"header";i:1;a:3:{i:0;s:39:"Check if there is DDoS attack on server";i:1;i:1;i:2;i:1;}i:2;i:1;}i:2;a:3:{i:0;s:12:"section_open";i:1;a:1:{i:0;i:1;}i:2;i:1;}i:3;a:3:{i:0;s:6:"p_open";i:1;a:0:{}i:2;i:1;}i:4;a:3:{i:0;s:5:"cdata";i:1;a:1:{i:0;s:28:" Use the following command:
";}i:2;i:55;}i:5;a:3:{i:0;s:6:"plugin";i:1;a:4:{i:0;s:9:"code_code";i:1;a:4:{i:0;s:4:"code";i:1;N;i:2;s:0:"";i:3;s:91:"
netstat -anp | grep 'tcp\|udp' | awk '{print$5}' | cut -d: -f1 | sort | uniq -c | sort -n
";}i:2;i:3;i:3;s:92:">
netstat -anp | grep 'tcp\|udp' | awk '{print$5}' | cut -d: -f1 | sort | uniq -c | sort -n
";}i:2;i:88;}i:6;a:3:{i:0;s:7:"p_close";i:1;a:0:{}i:2;i:187;}i:7;a:3:{i:0;s:6:"p_open";i:1;a:0:{}i:2;i:187;}i:8;a:3:{i:0;s:5:"cdata";i:1;a:1:{i:0;s:115:"This will show the number of connections from each IP address. The number should not be more than 15-20 in general.";}i:2;i:191;}i:9;a:3:{i:0;s:7:"p_close";i:1;a:0:{}i:2;i:306;}i:10;a:3:{i:0;s:13:"section_close";i:1;a:0:{}i:2;i:307;}i:11;a:3:{i:0;s:12:"document_end";i:1;a:0:{}i:2;i:307;}}