a:195:{i:0;a:3:{i:0;s:14:"document_start";i:1;a:0:{}i:2;i:0;}i:1;a:3:{i:0;s:6:"header";i:1;a:3:{i:0;s:28:"Install cPanel on new server";i:1;i:1;i:2;i:1;}i:2;i:1;}i:2;a:3:{i:0;s:12:"section_open";i:1;a:1:{i:0;i:1;}i:2;i:1;}i:3;a:3:{i:0;s:6:"p_open";i:1;a:0:{}i:2;i:1;}i:4;a:3:{i:0;s:5:"cdata";i:1;a:1:{i:0;s:74:"Since the server is fresh, we need to install everything from the scratch.";}i:2;i:45;}i:5;a:3:{i:0;s:7:"p_close";i:1;a:0:{}i:2;i:119;}i:6;a:3:{i:0;s:6:"p_open";i:1;a:0:{}i:2;i:119;}i:7;a:3:{i:0;s:5:"cdata";i:1;a:1:{i:0;s:50:"1. Run the command below to install screen utility";}i:2;i:121;}i:8;a:3:{i:0;s:7:"p_close";i:1;a:0:{}i:2;i:171;}i:9;a:3:{i:0;s:6:"p_open";i:1;a:0:{}i:2;i:171;}i:10;a:3:{i:0;s:5:"cdata";i:1;a:1:{i:0;s:31:"yum -y install screen perl wget";}i:2;i:173;}i:11;a:3:{i:0;s:7:"p_close";i:1;a:0:{}i:2;i:204;}i:12;a:3:{i:0;s:6:"p_open";i:1;a:0:{}i:2;i:204;}i:13;a:3:{i:0;s:5:"cdata";i:1;a:1:{i:0;s:63:"2. Login as root in the server and type the following commands:";}i:2;i:206;}i:14;a:3:{i:0;s:7:"p_close";i:1;a:0:{}i:2;i:269;}i:15;a:3:{i:0;s:6:"p_open";i:1;a:0:{}i:2;i:269;}i:16;a:3:{i:0;s:5:"cdata";i:1;a:1:{i:0;s:6:"screen";}i:2;i:271;}i:17;a:3:{i:0;s:9:"linebreak";i:1;a:0:{}i:2;i:277;}i:18;a:3:{i:0;s:5:"cdata";i:1;a:1:{i:0;s:9:"
cd /home";}i:2;i:279;}i:19;a:3:{i:0;s:9:"linebreak";i:1;a:0:{}i:2;i:288;}i:20;a:3:{i:0;s:5:"cdata";i:1;a:1:{i:0;s:9:"
wget -N ";}i:2;i:290;}i:21;a:3:{i:0;s:12:"externallink";i:1;a:2:{i:0;s:31:"http://layer1.cpanel.net/latest";i:1;s:31:"http://layer1.cpanel.net/latest";}i:2;i:299;}i:22;a:3:{i:0;s:9:"linebreak";i:1;a:0:{}i:2;i:366;}i:23;a:3:{i:0;s:5:"cdata";i:1;a:1:{i:0;s:10:"
sh latest";}i:2;i:368;}i:24;a:3:{i:0;s:9:"linebreak";i:1;a:0:{}i:2;i:378;}i:25;a:3:{i:0;s:5:"cdata";i:1;a:1:{i:0;s:1:"
";}i:2;i:380;}i:26;a:3:{i:0;s:9:"linebreak";i:1;a:0:{}i:2;i:381;}i:27;a:3:{i:0;s:5:"cdata";i:1;a:1:{i:0;s:92:"
After cPanel installation is complete, type the following commands for adding some Plugins:";}i:2;i:383;}i:28;a:3:{i:0;s:7:"p_close";i:1;a:0:{}i:2;i:475;}i:29;a:3:{i:0;s:6:"p_open";i:1;a:0:{}i:2;i:475;}i:30;a:3:{i:0;s:5:"cdata";i:1;a:1:{i:0;s:3:"1. ";}i:2;i:477;}i:31;a:3:{i:0;s:11:"strong_open";i:1;a:0:{}i:2;i:480;}i:32;a:3:{i:0;s:5:"cdata";i:1;a:1:{i:0;s:23:"For Mail Queue Manager:";}i:2;i:482;}i:33;a:3:{i:0;s:12:"strong_close";i:1;a:0:{}i:2;i:505;}i:34;a:3:{i:0;s:7:"p_close";i:1;a:0:{}i:2;i:507;}i:35;a:3:{i:0;s:6:"p_open";i:1;a:0:{}i:2;i:507;}i:36;a:3:{i:0;s:5:"cdata";i:1;a:1:{i:0;s:14:"rm -fv cmq.tgz";}i:2;i:509;}i:37;a:3:{i:0;s:9:"linebreak";i:1;a:0:{}i:2;i:523;}i:38;a:3:{i:0;s:5:"cdata";i:1;a:1:{i:0;s:6:"
wget ";}i:2;i:525;}i:39;a:3:{i:0;s:12:"externallink";i:1;a:2:{i:0;s:40:"http://www.configserver.com/free/cmq.tgz";i:1;s:40:"http://www.configserver.com/free/cmq.tgz";}i:2;i:531;}i:40;a:3:{i:0;s:9:"linebreak";i:1;a:0:{}i:2;i:616;}i:41;a:3:{i:0;s:5:"cdata";i:1;a:1:{i:0;s:17:"
tar -xzf cmq.tgz";}i:2;i:618;}i:42;a:3:{i:0;s:9:"linebreak";i:1;a:0:{}i:2;i:635;}i:43;a:3:{i:0;s:5:"cdata";i:1;a:1:{i:0;s:7:"
cd cmq";}i:2;i:637;}i:44;a:3:{i:0;s:9:"linebreak";i:1;a:0:{}i:2;i:644;}i:45;a:3:{i:0;s:5:"cdata";i:1;a:1:{i:0;s:14:"
sh install.sh";}i:2;i:646;}i:46;a:3:{i:0;s:9:"linebreak";i:1;a:0:{}i:2;i:660;}i:47;a:3:{i:0;s:5:"cdata";i:1;a:1:{i:0;s:6:"
cd ..";}i:2;i:662;}i:48;a:3:{i:0;s:9:"linebreak";i:1;a:0:{}i:2;i:668;}i:49;a:3:{i:0;s:5:"cdata";i:1;a:1:{i:0;s:21:"
rm -Rfv cmq/ cmq.tgz";}i:2;i:670;}i:50;a:3:{i:0;s:7:"p_close";i:1;a:0:{}i:2;i:691;}i:51;a:3:{i:0;s:6:"p_open";i:1;a:0:{}i:2;i:691;}i:52;a:3:{i:0;s:5:"cdata";i:1;a:1:{i:0;s:2:"2.";}i:2;i:693;}i:53;a:3:{i:0;s:11:"strong_open";i:1;a:0:{}i:2;i:695;}i:54;a:3:{i:0;s:5:"cdata";i:1;a:1:{i:0;s:25:"For Mail Account Manager:";}i:2;i:697;}i:55;a:3:{i:0;s:12:"strong_close";i:1;a:0:{}i:2;i:722;}i:56;a:3:{i:0;s:7:"p_close";i:1;a:0:{}i:2;i:724;}i:57;a:3:{i:0;s:6:"p_open";i:1;a:0:{}i:2;i:724;}i:58;a:3:{i:0;s:5:"cdata";i:1;a:1:{i:0;s:14:"rm -fv cmm.tgz";}i:2;i:726;}i:59;a:3:{i:0;s:9:"linebreak";i:1;a:0:{}i:2;i:740;}i:60;a:3:{i:0;s:5:"cdata";i:1;a:1:{i:0;s:6:"
wget ";}i:2;i:742;}i:61;a:3:{i:0;s:12:"externallink";i:1;a:2:{i:0;s:40:"http://www.configserver.com/free/cmm.tgz";i:1;s:40:"http://www.configserver.com/free/cmm.tgz";}i:2;i:748;}i:62;a:3:{i:0;s:9:"linebreak";i:1;a:0:{}i:2;i:833;}i:63;a:3:{i:0;s:5:"cdata";i:1;a:1:{i:0;s:17:"
tar -xzf cmm.tgz";}i:2;i:835;}i:64;a:3:{i:0;s:9:"linebreak";i:1;a:0:{}i:2;i:852;}i:65;a:3:{i:0;s:5:"cdata";i:1;a:1:{i:0;s:7:"
cd cmm";}i:2;i:854;}i:66;a:3:{i:0;s:9:"linebreak";i:1;a:0:{}i:2;i:861;}i:67;a:3:{i:0;s:5:"cdata";i:1;a:1:{i:0;s:14:"
sh install.sh";}i:2;i:863;}i:68;a:3:{i:0;s:9:"linebreak";i:1;a:0:{}i:2;i:877;}i:69;a:3:{i:0;s:5:"cdata";i:1;a:1:{i:0;s:6:"
cd ..";}i:2;i:879;}i:70;a:3:{i:0;s:9:"linebreak";i:1;a:0:{}i:2;i:885;}i:71;a:3:{i:0;s:5:"cdata";i:1;a:1:{i:0;s:21:"
rm -Rfv cmm/ cmm.tgz";}i:2;i:887;}i:72;a:3:{i:0;s:7:"p_close";i:1;a:0:{}i:2;i:908;}i:73;a:3:{i:0;s:6:"p_open";i:1;a:0:{}i:2;i:908;}i:74;a:3:{i:0;s:5:"cdata";i:1;a:1:{i:0;s:2:"3.";}i:2;i:910;}i:75;a:3:{i:0;s:11:"strong_open";i:1;a:0:{}i:2;i:912;}i:76;a:3:{i:0;s:5:"cdata";i:1;a:1:{i:0;s:4:"CSF:";}i:2;i:914;}i:77;a:3:{i:0;s:12:"strong_close";i:1;a:0:{}i:2;i:918;}i:78;a:3:{i:0;s:7:"p_close";i:1;a:0:{}i:2;i:920;}i:79;a:3:{i:0;s:6:"p_open";i:1;a:0:{}i:2;i:920;}i:80;a:3:{i:0;s:5:"cdata";i:1;a:1:{i:0;s:14:"rm -fv csf.tgz";}i:2;i:922;}i:81;a:3:{i:0;s:9:"linebreak";i:1;a:0:{}i:2;i:936;}i:82;a:3:{i:0;s:5:"cdata";i:1;a:1:{i:0;s:6:"
wget ";}i:2;i:938;}i:83;a:3:{i:0;s:12:"externallink";i:1;a:2:{i:0;s:40:"http://www.configserver.com/free/csf.tgz";i:1;s:41:"https://download.configserver.com/csf.tgz";}i:2;i:944;}i:84;a:3:{i:0;s:9:"linebreak";i:1;a:0:{}i:2;i:1030;}i:85;a:3:{i:0;s:5:"cdata";i:1;a:1:{i:0;s:17:"
tar -xzf csf.tgz";}i:2;i:1032;}i:86;a:3:{i:0;s:9:"linebreak";i:1;a:0:{}i:2;i:1049;}i:87;a:3:{i:0;s:5:"cdata";i:1;a:1:{i:0;s:7:"
cd csf";}i:2;i:1051;}i:88;a:3:{i:0;s:9:"linebreak";i:1;a:0:{}i:2;i:1058;}i:89;a:3:{i:0;s:5:"cdata";i:1;a:1:{i:0;s:14:"
sh install.sh";}i:2;i:1060;}i:90;a:3:{i:0;s:7:"p_close";i:1;a:0:{}i:2;i:1074;}i:91;a:3:{i:0;s:6:"p_open";i:1;a:0:{}i:2;i:1074;}i:92;a:3:{i:0;s:5:"cdata";i:1;a:1:{i:0;s:58:"Next, test whether you have the required iptables modules:";}i:2;i:1076;}i:93;a:3:{i:0;s:7:"p_close";i:1;a:0:{}i:2;i:1134;}i:94;a:3:{i:0;s:6:"p_open";i:1;a:0:{}i:2;i:1134;}i:95;a:3:{i:0;s:5:"cdata";i:1;a:1:{i:0;s:24:"perl /etc/csf/csftest.pl";}i:2;i:1136;}i:96;a:3:{i:0;s:7:"p_close";i:1;a:0:{}i:2;i:1160;}i:97;a:3:{i:0;s:6:"p_open";i:1;a:0:{}i:2;i:1160;}i:98;a:3:{i:0;s:5:"cdata";i:1;a:1:{i:0;s:63:"After installing these Plugins, type the following for crontab:";}i:2;i:1162;}i:99;a:3:{i:0;s:7:"p_close";i:1;a:0:{}i:2;i:1225;}i:100;a:3:{i:0;s:6:"p_open";i:1;a:0:{}i:2;i:1225;}i:101;a:3:{i:0;s:5:"cdata";i:1;a:1:{i:0;s:27:"chmod 4755 /usr/bin/crontab";}i:2;i:1227;}i:102;a:3:{i:0;s:7:"p_close";i:1;a:0:{}i:2;i:1254;}i:103;a:3:{i:0;s:6:"p_open";i:1;a:0:{}i:2;i:1254;}i:104;a:3:{i:0;s:5:"cdata";i:1;a:1:{i:0;s:67:"After all these steps, login to the WHM by typing the following as ";}i:2;i:1256;}i:105;a:3:{i:0;s:7:"acronym";i:1;a:1:{i:0;s:3:"URL";}i:2;i:1323;}i:106;a:3:{i:0;s:5:"cdata";i:1;a:1:{i:0;s:1:":";}i:2;i:1326;}i:107;a:3:{i:0;s:7:"p_close";i:1;a:0:{}i:2;i:1327;}i:108;a:3:{i:0;s:6:"p_open";i:1;a:0:{}i:2;i:1327;}i:109;a:3:{i:0;s:12:"externallink";i:1;a:2:{i:0;s:14:"http://IP:2086";i:1;s:14:"http://IP:2086";}i:2;i:1329;}i:110;a:3:{i:0;s:7:"p_close";i:1;a:0:{}i:2;i:1362;}i:111;a:3:{i:0;s:6:"p_open";i:1;a:0:{}i:2;i:1362;}i:112;a:3:{i:0;s:5:"cdata";i:1;a:1:{i:0;s:52:"Follow the steps given in Initial Installation. use ";}i:2;i:1364;}i:113;a:3:{i:0;s:18:"doublequoteopening";i:1;a:0:{}i:2;i:1416;}i:114;a:3:{i:0;s:5:"cdata";i:1;a:1:{i:0;s:25:"server@mantraventures.com";}i:2;i:1417;}i:115;a:3:{i:0;s:18:"doublequoteclosing";i:1;a:0:{}i:2;i:1442;}i:116;a:3:{i:0;s:5:"cdata";i:1;a:1:{i:0;s:26:" for server contact field.";}i:2;i:1443;}i:117;a:3:{i:0;s:7:"p_close";i:1;a:0:{}i:2;i:1469;}i:118;a:3:{i:0;s:6:"p_open";i:1;a:0:{}i:2;i:1469;}i:119;a:3:{i:0;s:11:"strong_open";i:1;a:0:{}i:2;i:1471;}i:120;a:3:{i:0;s:5:"cdata";i:1;a:1:{i:0;s:43:"Disable test mode of firewall and start it.";}i:2;i:1473;}i:121;a:3:{i:0;s:12:"strong_close";i:1;a:0:{}i:2;i:1516;}i:122;a:3:{i:0;s:7:"p_close";i:1;a:0:{}i:2;i:1518;}i:123;a:3:{i:0;s:6:"p_open";i:1;a:0:{}i:2;i:1518;}i:124;a:3:{i:0;s:5:"cdata";i:1;a:1:{i:0;s:62:"Also, goto Manage Plugins option in WHM and add the following:";}i:2;i:1520;}i:125;a:3:{i:0;s:7:"p_close";i:1;a:0:{}i:2;i:1582;}i:126;a:3:{i:0;s:6:"p_open";i:1;a:0:{}i:2;i:1582;}i:127;a:3:{i:0;s:5:"cdata";i:1;a:1:{i:0;s:3:"1. ";}i:2;i:1584;}i:128;a:3:{i:0;s:11:"strong_open";i:1;a:0:{}i:2;i:1587;}i:129;a:3:{i:0;s:5:"cdata";i:1;a:1:{i:0;s:5:"Munin";}i:2;i:1589;}i:130;a:3:{i:0;s:12:"strong_close";i:1;a:0:{}i:2;i:1594;}i:131;a:3:{i:0;s:5:"cdata";i:1;a:1:{i:0;s:1:" ";}i:2;i:1596;}i:132;a:3:{i:0;s:9:"linebreak";i:1;a:0:{}i:2;i:1597;}i:133;a:3:{i:0;s:5:"cdata";i:1;a:1:{i:0;s:4:"
2. ";}i:2;i:1599;}i:134;a:3:{i:0;s:11:"strong_open";i:1;a:0:{}i:2;i:1603;}i:135;a:3:{i:0;s:5:"cdata";i:1;a:1:{i:0;s:10:"CronConfig";}i:2;i:1605;}i:136;a:3:{i:0;s:12:"strong_close";i:1;a:0:{}i:2;i:1615;}i:137;a:3:{i:0;s:7:"p_close";i:1;a:0:{}i:2;i:1617;}i:138;a:3:{i:0;s:6:"p_open";i:1;a:0:{}i:2;i:1617;}i:139;a:3:{i:0;s:11:"strong_open";i:1;a:0:{}i:2;i:1619;}i:140;a:3:{i:0;s:5:"cdata";i:1;a:1:{i:0;s:32:"Recompile Apache with following:";}i:2;i:1621;}i:141;a:3:{i:0;s:12:"strong_close";i:1;a:0:{}i:2;i:1653;}i:142;a:3:{i:0;s:7:"p_close";i:1;a:0:{}i:2;i:1655;}i:143;a:3:{i:0;s:6:"p_open";i:1;a:0:{}i:2;i:1655;}i:144;a:3:{i:0;s:5:"cdata";i:1;a:1:{i:0;s:8:"Mbstring";}i:2;i:1657;}i:145;a:3:{i:0;s:9:"linebreak";i:1;a:0:{}i:2;i:1665;}i:146;a:3:{i:0;s:5:"cdata";i:1;a:1:{i:0;s:11:"
GD Library";}i:2;i:1667;}i:147;a:3:{i:0;s:9:"linebreak";i:1;a:0:{}i:2;i:1678;}i:148;a:3:{i:0;s:5:"cdata";i:1;a:1:{i:0;s:8:"
MySQL-i";}i:2;i:1680;}i:149;a:3:{i:0;s:9:"linebreak";i:1;a:0:{}i:2;i:1688;}i:150;a:3:{i:0;s:5:"cdata";i:1;a:1:{i:0;s:4:"
PDO";}i:2;i:1690;}i:151;a:3:{i:0;s:9:"linebreak";i:1;a:0:{}i:2;i:1694;}i:152;a:3:{i:0;s:5:"cdata";i:1;a:1:{i:0;s:10:"
PDO MySQL";}i:2;i:1696;}i:153;a:3:{i:0;s:9:"linebreak";i:1;a:0:{}i:2;i:1706;}i:154;a:3:{i:0;s:5:"cdata";i:1;a:1:{i:0;s:4:"
TTF";}i:2;i:1708;}i:155;a:3:{i:0;s:7:"p_close";i:1;a:0:{}i:2;i:1712;}i:156;a:3:{i:0;s:6:"p_open";i:1;a:0:{}i:2;i:1712;}i:157;a:3:{i:0;s:11:"strong_open";i:1;a:0:{}i:2;i:1714;}i:158;a:3:{i:0;s:5:"cdata";i:1;a:1:{i:0;s:26:"Removing https redirection";}i:2;i:1716;}i:159;a:3:{i:0;s:12:"strong_close";i:1;a:0:{}i:2;i:1742;}i:160;a:3:{i:0;s:5:"cdata";i:1;a:1:{i:0;s:11:" Goto Main ";}i:2;i:1744;}i:161;a:3:{i:0;s:6:"entity";i:1;a:1:{i:0;s:2:">>";}i:2;i:1755;}i:162;a:3:{i:0;s:5:"cdata";i:1;a:1:{i:0;s:22:" Server Configuration ";}i:2;i:1757;}i:163;a:3:{i:0;s:6:"entity";i:1;a:1:{i:0;s:2:">>";}i:2;i:1779;}i:164;a:3:{i:0;s:5:"cdata";i:1;a:1:{i:0;s:53:" Tweak Settings in Security section and turn off the ";}i:2;i:1781;}i:165;a:3:{i:0;s:18:"doublequoteopening";i:1;a:0:{}i:2;i:1834;}i:166;a:3:{i:0;s:5:"cdata";i:1;a:1:{i:0;s:11:"Require SSL";}i:2;i:1835;}i:167;a:3:{i:0;s:18:"doublequoteclosing";i:1;a:0:{}i:2;i:1846;}i:168;a:3:{i:0;s:7:"p_close";i:1;a:0:{}i:2;i:1847;}i:169;a:3:{i:0;s:6:"p_open";i:1;a:0:{}i:2;i:1847;}i:170;a:3:{i:0;s:11:"strong_open";i:1;a:0:{}i:2;i:1849;}i:171;a:3:{i:0;s:5:"cdata";i:1;a:1:{i:0;s:10:"Start Cron";}i:2;i:1851;}i:172;a:3:{i:0;s:12:"strong_close";i:1;a:0:{}i:2;i:1861;}i:173;a:3:{i:0;s:7:"p_close";i:1;a:0:{}i:2;i:1863;}i:174;a:3:{i:0;s:6:"p_open";i:1;a:0:{}i:2;i:1863;}i:175;a:3:{i:0;s:5:"cdata";i:1;a:1:{i:0;s:23:"/etc/init.d/crond start";}i:2;i:1865;}i:176;a:3:{i:0;s:9:"linebreak";i:1;a:0:{}i:2;i:1888;}i:177;a:3:{i:0;s:5:"cdata";i:1;a:1:{i:0;s:19:"
chkconfig crond on";}i:2;i:1890;}i:178;a:3:{i:0;s:7:"p_close";i:1;a:0:{}i:2;i:1909;}i:179;a:3:{i:0;s:6:"p_open";i:1;a:0:{}i:2;i:1909;}i:180;a:3:{i:0;s:11:"strong_open";i:1;a:0:{}i:2;i:1911;}i:181;a:3:{i:0;s:5:"cdata";i:1;a:1:{i:0;s:51:"Change following in /etc/exim.conf and restart exim";}i:2;i:1913;}i:182;a:3:{i:0;s:12:"strong_close";i:1;a:0:{}i:2;i:1964;}i:183;a:3:{i:0;s:5:"cdata";i:1;a:1:{i:0;s:1:"
";}i:2;i:1966;}i:184;a:3:{i:0;s:6:"plugin";i:1;a:4:{i:0;s:9:"code_code";i:1;a:4:{i:0;s:4:"code";i:1;N;i:2;s:0:"";i:3;s:58:"
    deliver_queue_load_max = 10
    queue_only_load = 12
";}i:2;i:3;i:3;s:59:">
    deliver_queue_load_max = 10
    queue_only_load = 12
";}i:2;i:1972;}i:185;a:3:{i:0;s:7:"p_close";i:1;a:0:{}i:2;i:2038;}i:186;a:3:{i:0;s:6:"p_open";i:1;a:0:{}i:2;i:2038;}i:187;a:3:{i:0;s:11:"strong_open";i:1;a:0:{}i:2;i:2040;}i:188;a:3:{i:0;s:5:"cdata";i:1;a:1:{i:0;s:69:"For Best Practices Of Cpanel Server (Hardening cpanel server) follow ";}i:2;i:2042;}i:189;a:3:{i:0;s:12:"internallink";i:1;a:2:{i:0;s:30:":cpanel_guide:cpanel_hardening";i:1;s:26:"Hardening Of Cpanel Server";}i:2;i:2111;}i:190;a:3:{i:0;s:5:"cdata";i:1;a:1:{i:0;s:1:" ";}i:2;i:2172;}i:191;a:3:{i:0;s:12:"strong_close";i:1;a:0:{}i:2;i:2173;}i:192;a:3:{i:0;s:7:"p_close";i:1;a:0:{}i:2;i:2175;}i:193;a:3:{i:0;s:13:"section_close";i:1;a:0:{}i:2;i:2176;}i:194;a:3:{i:0;s:12:"document_end";i:1;a:0:{}i:2;i:2176;}}