a:67:{i:0;a:3:{i:0;s:14:"document_start";i:1;a:0:{}i:2;i:0;}i:1;a:3:{i:0;s:6:"p_open";i:1;a:0:{}i:2;i:0;}i:2;a:3:{i:0;s:14:"underline_open";i:1;a:0:{}i:2;i:1;}i:3;a:3:{i:0;s:11:"strong_open";i:1;a:0:{}i:2;i:3;}i:4;a:3:{i:0;s:5:"cdata";i:1;a:1:{i:0;s:3:"ELK";}i:2;i:5;}i:5;a:3:{i:0;s:12:"strong_close";i:1;a:0:{}i:2;i:8;}i:6;a:3:{i:0;s:15:"underline_close";i:1;a:0:{}i:2;i:10;}i:7;a:3:{i:0;s:5:"cdata";i:1;a:1:{i:0;s:136:" : is an opensource tool for log aggregation & analytics. ELK is abbreviation for Elasticsearch, Logstash & Kibana, its main components.";}i:2;i:12;}i:8;a:3:{i:0;s:7:"p_close";i:1;a:0:{}i:2;i:148;}i:9;a:3:{i:0;s:6:"p_open";i:1;a:0:{}i:2;i:148;}i:10;a:3:{i:0;s:11:"strong_open";i:1;a:0:{}i:2;i:150;}i:11;a:3:{i:0;s:5:"cdata";i:1;a:1:{i:0;s:13:"Elasticsearch";}i:2;i:152;}i:12;a:3:{i:0;s:12:"strong_close";i:1;a:0:{}i:2;i:165;}i:13;a:3:{i:0;s:5:"cdata";i:1;a:1:{i:0;s:219:" : Built on top of Apache Lucene. It is no sql based, real time search engine (search server) & analytic with focus of real time data analysis. It is based on RESTful architecture. It can store everything in it as JSON.";}i:2;i:167;}i:14;a:3:{i:0;s:7:"p_close";i:1;a:0:{}i:2;i:386;}i:15;a:3:{i:0;s:6:"p_open";i:1;a:0:{}i:2;i:386;}i:16;a:3:{i:0;s:11:"strong_open";i:1;a:0:{}i:2;i:388;}i:17;a:3:{i:0;s:5:"cdata";i:1;a:1:{i:0;s:8:"Logstash";}i:2;i:390;}i:18;a:3:{i:0;s:12:"strong_close";i:1;a:0:{}i:2;i:398;}i:19;a:3:{i:0;s:5:"cdata";i:1;a:1:{i:0;s:140:" : Log shipper & parser. It is a pipelinging tool. Simply, it is responsible for shipping, processing & storing the output in elasticsearch.";}i:2;i:400;}i:20;a:3:{i:0;s:7:"p_close";i:1;a:0:{}i:2;i:540;}i:21;a:3:{i:0;s:6:"p_open";i:1;a:0:{}i:2;i:540;}i:22;a:3:{i:0;s:11:"strong_open";i:1;a:0:{}i:2;i:542;}i:23;a:3:{i:0;s:5:"cdata";i:1;a:1:{i:0;s:6:"Kibana";}i:2;i:544;}i:24;a:3:{i:0;s:12:"strong_close";i:1;a:0:{}i:2;i:550;}i:25;a:3:{i:0;s:5:"cdata";i:1;a:1:{i:0;s:128:" : Browser/UI based Analytic tool. It is used to view, search & visualize log data present in data storage (i.e. elasticsearch).";}i:2;i:552;}i:26;a:3:{i:0;s:7:"p_close";i:1;a:0:{}i:2;i:680;}i:27;a:3:{i:0;s:6:"p_open";i:1;a:0:{}i:2;i:680;}i:28;a:3:{i:0;s:13:"emphasis_open";i:1;a:0:{}i:2;i:682;}i:29;a:3:{i:0;s:11:"strong_open";i:1;a:0:{}i:2;i:684;}i:30;a:3:{i:0;s:5:"cdata";i:1;a:1:{i:0;s:4:"Note";}i:2;i:686;}i:31;a:3:{i:0;s:12:"strong_close";i:1;a:0:{}i:2;i:690;}i:32;a:3:{i:0;s:5:"cdata";i:1;a:1:{i:0;s:62:" : All ELK components require JDK (i.e. Java Development Kit).";}i:2;i:692;}i:33;a:3:{i:0;s:14:"emphasis_close";i:1;a:0:{}i:2;i:754;}i:34;a:3:{i:0;s:7:"p_close";i:1;a:0:{}i:2;i:756;}i:35;a:3:{i:0;s:6:"p_open";i:1;a:0:{}i:2;i:756;}i:36;a:3:{i:0;s:5:"cdata";i:1;a:1:{i:0;s:23:"ELK is highly scalable.";}i:2;i:758;}i:37;a:3:{i:0;s:7:"p_close";i:1;a:0:{}i:2;i:781;}i:38;a:3:{i:0;s:6:"p_open";i:1;a:0:{}i:2;i:781;}i:39;a:3:{i:0;s:13:"emphasis_open";i:1;a:0:{}i:2;i:783;}i:40;a:3:{i:0;s:5:"cdata";i:1;a:1:{i:0;s:25:"Components on ELK Server ";}i:2;i:785;}i:41;a:3:{i:0;s:14:"emphasis_close";i:1;a:0:{}i:2;i:810;}i:42;a:3:{i:0;s:5:"cdata";i:1;a:1:{i:0;s:1:":";}i:2;i:812;}i:43;a:3:{i:0;s:7:"p_close";i:1;a:0:{}i:2;i:813;}i:44;a:3:{i:0;s:6:"p_open";i:1;a:0:{}i:2;i:813;}i:45;a:3:{i:0;s:5:"cdata";i:1;a:1:{i:0;s:7:"1. java";}i:2;i:815;}i:46;a:3:{i:0;s:9:"linebreak";i:1;a:0:{}i:2;i:822;}i:47;a:3:{i:0;s:5:"cdata";i:1;a:1:{i:0;s:17:"
2. elasticsearch";}i:2;i:824;}i:48;a:3:{i:0;s:9:"linebreak";i:1;a:0:{}i:2;i:841;}i:49;a:3:{i:0;s:5:"cdata";i:1;a:1:{i:0;s:10:"
3. kibana";}i:2;i:843;}i:50;a:3:{i:0;s:9:"linebreak";i:1;a:0:{}i:2;i:853;}i:51;a:3:{i:0;s:5:"cdata";i:1;a:1:{i:0;s:12:"
4. logstash";}i:2;i:855;}i:52;a:3:{i:0;s:7:"p_close";i:1;a:0:{}i:2;i:867;}i:53;a:3:{i:0;s:6:"p_open";i:1;a:0:{}i:2;i:867;}i:54;a:3:{i:0;s:13:"emphasis_open";i:1;a:0:{}i:2;i:869;}i:55;a:3:{i:0;s:5:"cdata";i:1;a:1:{i:0;s:24:"Component on Client side";}i:2;i:871;}i:56;a:3:{i:0;s:14:"emphasis_close";i:1;a:0:{}i:2;i:895;}i:57;a:3:{i:0;s:5:"cdata";i:1;a:1:{i:0;s:2:" :";}i:2;i:897;}i:58;a:3:{i:0;s:7:"p_close";i:1;a:0:{}i:2;i:899;}i:59;a:3:{i:0;s:6:"p_open";i:1;a:0:{}i:2;i:899;}i:60;a:3:{i:0;s:5:"cdata";i:1;a:1:{i:0;s:96:"5. Logstash forwarder : FileBeat (A log forwarding tool that transmits logs to logstash server.)";}i:2;i:901;}i:61;a:3:{i:0;s:7:"p_close";i:1;a:0:{}i:2;i:997;}i:62;a:3:{i:0;s:6:"p_open";i:1;a:0:{}i:2;i:997;}i:63;a:3:{i:0;s:5:"cdata";i:1;a:1:{i:0;s:7:"Next : ";}i:2;i:999;}i:64;a:3:{i:0;s:12:"externallink";i:1;a:2:{i:0;s:48:"http://wiki.mantraventures.com/elk/how-elk-works";i:1;s:15:"How ELK works ?";}i:2;i:1006;}i:65;a:3:{i:0;s:7:"p_close";i:1;a:0:{}i:2;i:1074;}i:66;a:3:{i:0;s:12:"document_end";i:1;a:0:{}i:2;i:1074;}}