a:13:{i:0;a:3:{i:0;s:14:"document_start";i:1;a:0:{}i:2;i:0;}i:1;a:3:{i:0;s:6:"header";i:1;a:3:{i:0;s:92:"Remove the "Recording Options" section from extension page and force recording for all users";i:1;i:1;i:2;i:1;}i:2;i:1;}i:2;a:3:{i:0;s:12:"section_open";i:1;a:1:{i:0;i:1;}i:2;i:1;}i:3;a:3:{i:0;s:6:"p_open";i:1;a:0:{}i:2;i:1;}i:4;a:3:{i:0;s:5:"cdata";i:1;a:1:{i:0;s:68:"1) Open the file /var/www/html/admin/modules/core/functions.inc.php.";}i:2;i:110;}i:5;a:3:{i:0;s:7:"p_close";i:1;a:0:{}i:2;i:178;}i:6;a:3:{i:0;s:6:"p_open";i:1;a:0:{}i:2;i:178;}i:7;a:3:{i:0;s:5:"cdata";i:1;a:1:{i:0;s:31:"2) Edit the following section:
";}i:2;i:180;}i:8;a:3:{i:0;s:6:"plugin";i:1;a:4:{i:0;s:9:"code_code";i:1;a:4:{i:0;s:4:"code";i:1;N;i:2;s:0:"";i:3;s:1399:"
Before Edit

--------------------------------------------------------------------------------------------------------------------------------

$section = _("Recording Options");

                $currentcomponent->addguielem($section, new gui_selectbox('record_in', $currentcomponent->getoptlist('recordoptions'), $record_in, _("Record Incoming"), _("Record all inbound calls received at this extension."), false));

                $currentcomponent->addguielem($section, new gui_selectbox('record_out', $currentcomponent->getoptlist('recordoptions'), $record_out, _("Record Outgoing"), _("Record all outbound calls received at this extension."), false));

--------------------------------------------------------------------------------------------------------------------------------

 

After Edit:

--------------------------------------------------------------------------------------------------------------------------------

//$section = _("Recording Options");

$currentcomponent->addguielem($section, new gui_hidden('record_in', "Always"));

$currentcomponent->addguielem($section, new gui_hidden('record_out', "Always"));

--------------------------------------------------------------------------------------------------------------------------------

 

 

3) Lock the file so that updates don't affect customizations:

chattr +aui /var/www/html/admin/modules/core/functions.inc.php  ";}i:2;i:3;i:3;s:1400:">
Before Edit

--------------------------------------------------------------------------------------------------------------------------------

$section = _("Recording Options");

                $currentcomponent->addguielem($section, new gui_selectbox('record_in', $currentcomponent->getoptlist('recordoptions'), $record_in, _("Record Incoming"), _("Record all inbound calls received at this extension."), false));

                $currentcomponent->addguielem($section, new gui_selectbox('record_out', $currentcomponent->getoptlist('recordoptions'), $record_out, _("Record Outgoing"), _("Record all outbound calls received at this extension."), false));

--------------------------------------------------------------------------------------------------------------------------------

 

After Edit:

--------------------------------------------------------------------------------------------------------------------------------

//$section = _("Recording Options");

$currentcomponent->addguielem($section, new gui_hidden('record_in', "Always"));

$currentcomponent->addguielem($section, new gui_hidden('record_out', "Always"));

--------------------------------------------------------------------------------------------------------------------------------

 

 

3) Lock the file so that updates don't affect customizations:

chattr +aui /var/www/html/admin/modules/core/functions.inc.php  ";}i:2;i:216;}i:9;a:3:{i:0;s:5:"cdata";i:1;a:1:{i:0;s:0:"";}i:2;i:1623;}i:10;a:3:{i:0;s:7:"p_close";i:1;a:0:{}i:2;i:1623;}i:11;a:3:{i:0;s:13:"section_close";i:1;a:0:{}i:2;i:1623;}i:12;a:3:{i:0;s:12:"document_end";i:1;a:0:{}i:2;i:1623;}}