a:11:{i:0;a:3:{i:0;s:14:"document_start";i:1;a:0:{}i:2;i:0;}i:1;a:3:{i:0;s:6:"p_open";i:1;a:0:{}i:2;i:0;}i:2;a:3:{i:0;s:5:"cdata";i:1;a:1:{i:0;s:9:"External
";}i:2;i:1;}i:3;a:3:{i:0;s:6:"plugin";i:1;a:4:{i:0;s:9:"code_code";i:1;a:4:{i:0;s:4:"code";i:1;N;i:2;s:0:"";i:3;s:359:"
Project Name: 5-10 words

Project Image: Optional

Project Description: 50-100 words

Project Tasks: To be broken down in as many points as possible

What client can expect: The result or output of the project.

Client Deliverables: A list of things required from client before project initiation.

Price: The amount that client has to pay for this project.
";}i:2;i:3;i:3;s:360:">
Project Name: 5-10 words

Project Image: Optional

Project Description: 50-100 words

Project Tasks: To be broken down in as many points as possible

What client can expect: The result or output of the project.

Client Deliverables: A list of things required from client before project initiation.

Price: The amount that client has to pay for this project.
";}i:2;i:15;}i:4;a:3:{i:0;s:7:"p_close";i:1;a:0:{}i:2;i:382;}i:5;a:3:{i:0;s:6:"p_open";i:1;a:0:{}i:2;i:382;}i:6;a:3:{i:0;s:5:"cdata";i:1;a:1:{i:0;s:9:"Internal
";}i:2;i:384;}i:7;a:3:{i:0;s:6:"plugin";i:1;a:4:{i:0;s:9:"code_code";i:1;a:4:{i:0;s:4:"code";i:1;N;i:2;s:0:"";i:3;s:125:"
Estimated Time: An approximate idea of the time required to complete the project.

Reference link: Link to the wiki article
";}i:2;i:3;i:3;s:126:">
Estimated Time: An approximate idea of the time required to complete the project.

Reference link: Link to the wiki article
";}i:2;i:398;}i:8;a:3:{i:0;s:5:"cdata";i:1;a:1:{i:0;s:0:"";}i:2;i:531;}i:9;a:3:{i:0;s:7:"p_close";i:1;a:0:{}i:2;i:531;}i:10;a:3:{i:0;s:12:"document_end";i:1;a:0:{}i:2;i:531;}}