a:62:{i:0;a:3:{i:0;s:14:"document_start";i:1;a:0:{}i:2;i:0;}i:1;a:3:{i:0;s:6:"p_open";i:1;a:0:{}i:2;i:0;}i:2;a:3:{i:0;s:5:"cdata";i:1;a:1:{i:0;s:24:"Ticket ID: RNO-250-60440";}i:2;i:1;}i:3;a:3:{i:0;s:7:"p_close";i:1;a:0:{}i:2;i:25;}i:4;a:3:{i:0;s:6:"p_open";i:1;a:0:{}i:2;i:25;}i:5;a:3:{i:0;s:5:"cdata";i:1;a:1:{i:0;s:214:"CLIENT: Please arrange mail ID : copy@planmyroutes.com      to receive one copy of mail sent by following email ID.  gagan.deep@planmyroutes.com This email id only send on email internal please check and confirm   ";}i:2;i:27;}i:6;a:3:{i:0;s:7:"p_close";i:1;a:0:{}i:2;i:241;}i:7;a:3:{i:0;s:6:"p_open";i:1;a:0:{}i:2;i:241;}i:8;a:3:{i:0;s:5:"cdata";i:1;a:1:{i:0;s:223:"SUPPORT: We have added gagan.deep@planmyroutes.com to allow sending mails to internal domains.
Also, the sent mails from gagan.deep@planmyroutes.com will be copied to copy@planmyroutes.com .
Kindly check & confirm the same.";}i:2;i:244;}i:9;a:3:{i:0;s:7:"p_close";i:1;a:0:{}i:2;i:467;}i:10;a:3:{i:0;s:6:"header";i:1;a:3:{i:0;s:0:"";i:1;i:1;i:2;i:472;}i:2;i:472;}i:11;a:3:{i:0;s:12:"section_open";i:1;a:1:{i:0;i:1;}i:2;i:472;}i:12;a:3:{i:0;s:6:"p_open";i:1;a:0:{}i:2;i:472;}i:13;a:3:{i:0;s:5:"cdata";i:1;a:1:{i:0;s:19:"Step 1: Append the ";}i:2;i:561;}i:14;a:3:{i:0;s:18:"doublequoteopening";i:1;a:0:{}i:2;i:580;}i:15;a:3:{i:0;s:5:"cdata";i:1;a:1:{i:0;s:49:"gagan.deep@planmyroutes.com copy@planmyroutes.com";}i:2;i:581;}i:16;a:3:{i:0;s:18:"doublequoteclosing";i:1;a:0:{}i:2;i:630;}i:17;a:3:{i:0;s:5:"cdata";i:1;a:1:{i:0;s:4:" in ";}i:2;i:631;}i:18;a:3:{i:0;s:18:"doublequoteopening";i:1;a:0:{}i:2;i:635;}i:19;a:3:{i:0;s:5:"cdata";i:1;a:1:{i:0;s:35:"/opt/zimbra/postfix/conf/sender_bcc";}i:2;i:636;}i:20;a:3:{i:0;s:18:"doublequoteclosing";i:1;a:0:{}i:2;i:671;}i:21;a:3:{i:0;s:5:"cdata";i:1;a:1:{i:0;s:122:" file.
root@radicalminds:~# nano /opt/zimbra/postfix/conf/sender_bcc
gagan.deep@planmyroutes.com copy@planmyroutes.com
:wq";}i:2;i:672;}i:22;a:3:{i:0;s:7:"p_close";i:1;a:0:{}i:2;i:794;}i:23;a:3:{i:0;s:6:"p_open";i:1;a:0:{}i:2;i:794;}i:24;a:3:{i:0;s:5:"cdata";i:1;a:1:{i:0;s:15:"Step 2: Append ";}i:2;i:797;}i:25;a:3:{i:0;s:18:"doublequoteopening";i:1;a:0:{}i:2;i:812;}i:26;a:3:{i:0;s:5:"cdata";i:1;a:1:{i:0;s:44:"gagan.deep@planmyroutes.com       local_only";}i:2;i:813;}i:27;a:3:{i:0;s:18:"doublequoteclosing";i:1;a:0:{}i:2;i:857;}i:28;a:3:{i:0;s:5:"cdata";i:1;a:1:{i:0;s:4:" in ";}i:2;i:858;}i:29;a:3:{i:0;s:18:"doublequoteopening";i:1;a:0:{}i:2;i:862;}i:30;a:3:{i:0;s:5:"cdata";i:1;a:1:{i:0;s:43:"/opt/zimbra/postfix/conf/restricted_senders";}i:2;i:863;}i:31;a:3:{i:0;s:18:"doublequoteclosing";i:1;a:0:{}i:2;i:906;}i:32;a:3:{i:0;s:5:"cdata";i:1;a:1:{i:0;s:6:" file.";}i:2;i:907;}i:33;a:3:{i:0;s:7:"p_close";i:1;a:0:{}i:2;i:913;}i:34;a:3:{i:0;s:6:"p_open";i:1;a:0:{}i:2;i:913;}i:35;a:3:{i:0;s:5:"cdata";i:1;a:1:{i:0;s:67:"root@radicalminds:~# vi /opt/zimbra/postfix/conf/restricted_senders";}i:2;i:915;}i:36;a:3:{i:0;s:7:"p_close";i:1;a:0:{}i:2;i:982;}i:37;a:3:{i:0;s:6:"p_open";i:1;a:0:{}i:2;i:982;}i:38;a:3:{i:0;s:5:"cdata";i:1;a:1:{i:0;s:48:"gagan.deep@planmyroutes.com       local_only
:wq";}i:2;i:984;}i:39;a:3:{i:0;s:7:"p_close";i:1;a:0:{}i:2;i:1032;}i:40;a:3:{i:0;s:6:"p_open";i:1;a:0:{}i:2;i:1032;}i:41;a:3:{i:0;s:5:"cdata";i:1;a:1:{i:0;s:63:"Step 3: Switch to zimbra user.
root@radicalminds:~# su - zimbra";}i:2;i:1035;}i:42;a:3:{i:0;s:7:"p_close";i:1;a:0:{}i:2;i:1098;}i:43;a:3:{i:0;s:6:"p_open";i:1;a:0:{}i:2;i:1098;}i:44;a:3:{i:0;s:5:"cdata";i:1;a:1:{i:0;s:151:"Step 4: Reload postfix service.
zimbra@radicalminds:~$ postfix reload
postfix/postfix-script: refreshing the Postfix mail system
zimbra@radicalminds:~$";}i:2;i:1101;}i:45;a:3:{i:0;s:7:"p_close";i:1;a:0:{}i:2;i:1252;}i:46;a:3:{i:0;s:6:"p_open";i:1;a:0:{}i:2;i:1252;}i:47;a:3:{i:0;s:5:"cdata";i:1;a:1:{i:0;s:18:"Step 5: That's it.";}i:2;i:1255;}i:48;a:3:{i:0;s:7:"p_close";i:1;a:0:{}i:2;i:1273;}i:49;a:3:{i:0;s:6:"p_open";i:1;a:0:{}i:2;i:1273;}i:50;a:3:{i:0;s:6:"entity";i:1;a:1:{i:0;s:3:"---";}i:2;i:1276;}i:51;a:3:{i:0;s:5:"cdata";i:1;a:1:{i:0;s:34:" given below is history to refer -";}i:2;i:1279;}i:52;a:3:{i:0;s:7:"p_close";i:1;a:0:{}i:2;i:1313;}i:53;a:3:{i:0;s:6:"p_open";i:1;a:0:{}i:2;i:1313;}i:54;a:3:{i:0;s:5:"cdata";i:1;a:1:{i:0;s:282:"root@radicalminds:~# nano /opt/zimbra/postfix/conf/sender_bcc
root@radicalminds:~# vi /opt/zimbra/postfix/conf/restricted_senders
root@radicalminds:~# su - zimbra
zimbra@radicalminds:~$ postfix reload
postfix/postfix-script: refreshing the Postfix mail system
zimbra@radicalminds:~$";}i:2;i:1315;}i:55;a:3:{i:0;s:7:"p_close";i:1;a:0:{}i:2;i:1597;}i:56;a:3:{i:0;s:2:"hr";i:1;a:0:{}i:2;i:1597;}i:57;a:3:{i:0;s:13:"section_close";i:1;a:0:{}i:2;i:1638;}i:58;a:3:{i:0;s:6:"header";i:1;a:3:{i:0;s:0:"";i:1;i:1;i:2;i:1638;}i:2;i:1638;}i:59;a:3:{i:0;s:12:"section_open";i:1;a:1:{i:0;i:1;}i:2;i:1638;}i:60;a:3:{i:0;s:13:"section_close";i:1;a:0:{}i:2;i:1725;}i:61;a:3:{i:0;s:12:"document_end";i:1;a:0:{}i:2;i:1725;}}