a:56:{i:0;a:3:{i:0;s:14:"document_start";i:1;a:0:{}i:2;i:0;}i:1;a:3:{i:0;s:6:"header";i:1;a:3:{i:0;s:39:"SolusVM System Backup Restore/Migration";i:1;i:1;i:2;i:1;}i:2;i:1;}i:2;a:3:{i:0;s:12:"section_open";i:1;a:1:{i:0;i:1;}i:2;i:1;}i:3;a:3:{i:0;s:6:"p_open";i:1;a:0:{}i:2;i:1;}i:4;a:3:{i:0;s:5:"cdata";i:1;a:1:{i:0;s:80:"- Install the solusVM master with same configuration on the server. Here is the ";}i:2;i:56;}i:5;a:3:{i:0;s:12:"internallink";i:1;a:2:{i:0;s:4:"link";i:1;N;}i:2;i:136;}i:6;a:3:{i:0;s:12:"externallink";i:1;a:2:{i:0;s:56:"http://docs.solusvm.com/installation#installing_a_master";i:1;N;}i:2;i:144;}i:7;a:3:{i:0;s:5:"cdata";i:1;a:1:{i:0;s:1:".";}i:2;i:200;}i:8;a:3:{i:0;s:7:"p_close";i:1;a:0:{}i:2;i:201;}i:9;a:3:{i:0;s:6:"p_open";i:1;a:0:{}i:2;i:201;}i:10;a:3:{i:0;s:5:"cdata";i:1;a:1:{i:0;s:70:"- Transfer the system backup on newly installed system and extract it.";}i:2;i:203;}i:11;a:3:{i:0;s:7:"p_close";i:1;a:0:{}i:2;i:273;}i:12;a:3:{i:0;s:12:"preformatted";i:1;a:1:{i:0;s:42:"   tar -zxvf <file name of solusVM backup>";}i:2;i:273;}i:13;a:3:{i:0;s:6:"p_open";i:1;a:0:{}i:2;i:273;}i:14;a:3:{i:0;s:5:"cdata";i:1;a:1:{i:0;s:33:"- There will be a file with name ";}i:2;i:320;}i:15;a:3:{i:0;s:18:"doublequoteopening";i:1;a:0:{}i:2;i:353;}i:16;a:3:{i:0;s:5:"cdata";i:1;a:1:{i:0;s:11:"database.gz";}i:2;i:354;}i:17;a:3:{i:0;s:18:"doublequoteclosing";i:1;a:0:{}i:2;i:365;}i:18;a:3:{i:0;s:5:"cdata";i:1;a:1:{i:0;s:37:", extract it using following command.";}i:2;i:366;}i:19;a:3:{i:0;s:7:"p_close";i:1;a:0:{}i:2;i:403;}i:20;a:3:{i:0;s:12:"preformatted";i:1;a:1:{i:0;s:25:"   gunzip database.gz
   ";}i:2;i:403;}i:21;a:3:{i:0;s:6:"p_open";i:1;a:0:{}i:2;i:403;}i:22;a:3:{i:0;s:5:"cdata";i:1;a:1:{i:0;s:49:"- After extracting you will get a file with name ";}i:2;i:434;}i:23;a:3:{i:0;s:18:"doublequoteopening";i:1;a:0:{}i:2;i:483;}i:24;a:3:{i:0;s:5:"cdata";i:1;a:1:{i:0;s:8:"database";}i:2;i:484;}i:25;a:3:{i:0;s:18:"doublequoteclosing";i:1;a:0:{}i:2;i:492;}i:26;a:3:{i:0;s:5:"cdata";i:1;a:1:{i:0;s:15:", rename it as ";}i:2;i:493;}i:27;a:3:{i:0;s:18:"doublequoteopening";i:1;a:0:{}i:2;i:508;}i:28;a:3:{i:0;s:5:"cdata";i:1;a:1:{i:0;s:12:"database.sql";}i:2;i:509;}i:29;a:3:{i:0;s:18:"doublequoteclosing";i:1;a:0:{}i:2;i:521;}i:30;a:3:{i:0;s:7:"p_close";i:1;a:0:{}i:2;i:522;}i:31;a:3:{i:0;s:12:"preformatted";i:1;a:1:{i:0;s:27:"   mv database database.sql";}i:2;i:522;}i:32;a:3:{i:0;s:6:"p_open";i:1;a:0:{}i:2;i:522;}i:33;a:3:{i:0;s:5:"cdata";i:1;a:1:{i:0;s:44:"- Copy the database.sql to /var/lib/mysql/ .";}i:2;i:554;}i:34;a:3:{i:0;s:7:"p_close";i:1;a:0:{}i:2;i:598;}i:35;a:3:{i:0;s:12:"preformatted";i:1;a:1:{i:0;s:34:"   cp database.sql /var/lib/mysql/";}i:2;i:598;}i:36;a:3:{i:0;s:6:"p_open";i:1;a:0:{}i:2;i:598;}i:37;a:3:{i:0;s:5:"cdata";i:1;a:1:{i:0;s:109:"- Restore the database.sql to the freshly installed solusvm's database ( solusvm database name would be like ";}i:2;i:637;}i:38;a:3:{i:0;s:18:"doublequoteopening";i:1;a:0:{}i:2;i:746;}i:39;a:3:{i:0;s:5:"cdata";i:1;a:1:{i:0;s:14:"ufg6u5u9jhruvd";}i:2;i:747;}i:40;a:3:{i:0;s:18:"doublequoteclosing";i:1;a:0:{}i:2;i:761;}i:41;a:3:{i:0;s:5:"cdata";i:1;a:1:{i:0;s:25:")using following command.";}i:2;i:762;}i:42;a:3:{i:0;s:7:"p_close";i:1;a:0:{}i:2;i:787;}i:43;a:3:{i:0;s:12:"preformatted";i:1;a:1:{i:0;s:68:"   mysql -u root -p <solusvm database name> < database.sql
    
    ";}i:2;i:787;}i:44;a:3:{i:0;s:6:"p_open";i:1;a:0:{}i:2;i:787;}i:45;a:3:{i:0;s:5:"cdata";i:1;a:1:{i:0;s:64:"Note: If mysql root password is set, you can reset it from here ";}i:2;i:863;}i:46;a:3:{i:0;s:12:"internallink";i:1;a:2:{i:0;s:25:"mysql:reset_root_password";i:1;s:25:"Reset Mysql Root Password";}i:2;i:927;}i:47;a:3:{i:0;s:7:"p_close";i:1;a:0:{}i:2;i:982;}i:48;a:3:{i:0;s:6:"p_open";i:1;a:0:{}i:2;i:982;}i:49;a:3:{i:0;s:5:"cdata";i:1;a:1:{i:0;s:51:"After restoring database all settings will be back.";}i:2;i:985;}i:50;a:3:{i:0;s:7:"p_close";i:1;a:0:{}i:2;i:1036;}i:51;a:3:{i:0;s:6:"p_open";i:1;a:0:{}i:2;i:1036;}i:52;a:3:{i:0;s:5:"cdata";i:1;a:1:{i:0;s:44:"-  Now update the licence of solusVM master.";}i:2;i:1038;}i:53;a:3:{i:0;s:7:"p_close";i:1;a:0:{}i:2;i:1082;}i:54;a:3:{i:0;s:13:"section_close";i:1;a:0:{}i:2;i:1084;}i:55;a:3:{i:0;s:12:"document_end";i:1;a:0:{}i:2;i:1084;}}