a:16:{i:0;a:3:{i:0;s:14:"document_start";i:1;a:0:{}i:2;i:0;}i:1;a:3:{i:0;s:6:"p_open";i:1;a:0:{}i:2;i:0;}i:2;a:3:{i:0;s:5:"cdata";i:1;a:1:{i:0;s:59:"Make sure your iptables support for statistic match module.";}i:2;i:2;}i:3;a:3:{i:0;s:7:"p_close";i:1;a:0:{}i:2;i:62;}i:4;a:3:{i:0;s:12:"preformatted";i:1;a:1:{i:0;s:362:" # iptables -m statistic -h
   ......
   ......
   ......
   statistic match options:
   --mode mode                    Match mode (random, nth)
   random mode:
   --probability p                 Probability
   nth mode:
   --every n                       Match every nth packet
   --packet p                      Initial counter value (0 <= p <= n-1, default 0)";}i:2;i:62;}i:5;a:3:{i:0;s:6:"p_open";i:1;a:0:{}i:2;i:62;}i:6;a:3:{i:0;s:5:"cdata";i:1;a:1:{i:0;s:62:"Apply below iptables rule for rotating source IP addresses.   ";}i:2;i:450;}i:7;a:3:{i:0;s:7:"p_close";i:1;a:0:{}i:2;i:512;}i:8;a:3:{i:0;s:12:"preformatted";i:1;a:1:{i:0;s:739:" # iptables -t nat -I POSTROUTING -m state --state NEW -p tcp --dport 25 -o eth0 -m statistic --mode nth --every 5 -j SNAT --to-source 202.XXX.XX.2
 # iptables -t nat -I POSTROUTING -m state --state NEW -p tcp --dport 25 -o eth0 -m statistic --mode nth --every 5 -j SNAT --to-source 202.XXX.XX.3
 # iptables -t nat -I POSTROUTING -m state --state NEW -p tcp --dport 25 -o eth0 -m statistic --mode nth --every 5 -j SNAT --to-source 202.XXX.XX.4
 # iptables -t nat -I POSTROUTING -m state --state NEW -p tcp --dport 25 -o eth0 -m statistic --mode nth --every 5 -j SNAT --to-source 202.XXX.XX.5
 # iptables -t nat -I POSTROUTING -m state --state NEW -p tcp --dport 25 -o eth0 -m statistic --mode nth --every 5 -j SNAT --to-source 202.XXX.XX.6";}i:2;i:512;}i:9;a:3:{i:0;s:6:"p_open";i:1;a:0:{}i:2;i:512;}i:10;a:3:{i:0;s:5:"cdata";i:1;a:1:{i:0;s:129:"Note: 202.XXX.XX.2, 202.XXX.XX.4 etc. are your additional IP addresses, also make keep in mind main IP interface (here it's eth0)";}i:2;i:1263;}i:11;a:3:{i:0;s:7:"p_close";i:1;a:0:{}i:2;i:1392;}i:12;a:3:{i:0;s:6:"p_open";i:1;a:0:{}i:2;i:1392;}i:13;a:3:{i:0;s:12:"externallink";i:1;a:2:{i:0;s:85:"http://www.kutukupret.com/2009/11/30/postfix-smtp-outgoing-ip-rotator-using-iptables/";i:1;N;}i:2;i:1394;}i:14;a:3:{i:0;s:7:"p_close";i:1;a:0:{}i:2;i:1479;}i:15;a:3:{i:0;s:12:"document_end";i:1;a:0:{}i:2;i:1479;}}