a:49:{i:0;a:3:{i:0;s:14:"document_start";i:1;a:0:{}i:2;i:0;}i:1;a:3:{i:0;s:6:"header";i:1;a:3:{i:0;s:19:"Install DirectAdmin";i:1;i:1;i:2;i:1;}i:2;i:1;}i:2;a:3:{i:0;s:12:"section_open";i:1;a:1:{i:0;i:1;}i:2;i:1;}i:3;a:3:{i:0;s:6:"p_open";i:1;a:0:{}i:2;i:1;}i:4;a:3:{i:0;s:5:"cdata";i:1;a:1:{i:0;s:46:"Login as root and type the following commands:";}i:2;i:38;}i:5;a:3:{i:0;s:7:"p_close";i:1;a:0:{}i:2;i:84;}i:6;a:3:{i:0;s:6:"p_open";i:1;a:0:{}i:2;i:84;}i:7;a:3:{i:0;s:5:"cdata";i:1;a:1:{i:0;s:7:"screen ";}i:2;i:86;}i:8;a:3:{i:0;s:9:"linebreak";i:1;a:0:{}i:2;i:93;}i:9;a:3:{i:0;s:5:"cdata";i:1;a:1:{i:0;s:15:"
yum update -y ";}i:2;i:95;}i:10;a:3:{i:0;s:9:"linebreak";i:1;a:0:{}i:2;i:110;}i:11;a:3:{i:0;s:5:"cdata";i:1;a:1:{i:0;s:37:"
yum install gcc-c++ gcc automake -y ";}i:2;i:112;}i:12;a:3:{i:0;s:9:"linebreak";i:1;a:0:{}i:2;i:149;}i:13;a:3:{i:0;s:5:"cdata";i:1;a:1:{i:0;s:17:"
yum install make";}i:2;i:151;}i:14;a:3:{i:0;s:9:"linebreak";i:1;a:0:{}i:2;i:168;}i:15;a:3:{i:0;s:5:"cdata";i:1;a:1:{i:0;s:17:"
yum install flex";}i:2;i:170;}i:16;a:3:{i:0;s:7:"p_close";i:1;a:0:{}i:2;i:187;}i:17;a:3:{i:0;s:6:"p_open";i:1;a:0:{}i:2;i:187;}i:18;a:3:{i:0;s:5:"cdata";i:1;a:1:{i:0;s:10:"For Centos";}i:2;i:189;}i:19;a:3:{i:0;s:7:"p_close";i:1;a:0:{}i:2;i:199;}i:20;a:3:{i:0;s:12:"preformatted";i:1;a:1:{i:0;s:265:" yum install wget gcc gcc-c++ flex bison make bind bind-libs bind-utils openssl openssl-devel perl quota libaio libcom_err-devel libcurl-devel gd zlib-devel zip unzip libcap-devel cronie bzip2 db4-devel cyrus-sasl-devel perl-ExtUtils-Embed autoconf automake libtool";}i:2;i:199;}i:21;a:3:{i:0;s:6:"p_open";i:1;a:0:{}i:2;i:199;}i:22;a:3:{i:0;s:5:"cdata";i:1;a:1:{i:0;s:11:"For Ubuntu ";}i:2;i:469;}i:23;a:3:{i:0;s:7:"p_close";i:1;a:0:{}i:2;i:480;}i:24;a:3:{i:0;s:12:"preformatted";i:1;a:1:{i:0;s:185:" apt-get install gcc g++ make flex bison openssl libssl-dev perl perl-base perl-modules libperl-dev libaio1 libaio-dev zlib1g zlib1g-dev libcap-dev bzip2 automake autoconf libtool cmake";}i:2;i:480;}i:25;a:3:{i:0;s:6:"p_open";i:1;a:0:{}i:2;i:480;}i:26;a:3:{i:0;s:5:"cdata";i:1;a:1:{i:0;s:32:"yum remove httpd* php* mysql* -y";}i:2;i:672;}i:27;a:3:{i:0;s:9:"linebreak";i:1;a:0:{}i:2;i:704;}i:28;a:3:{i:0;s:5:"cdata";i:1;a:1:{i:0;s:6:"
wget ";}i:2;i:706;}i:29;a:3:{i:0;s:12:"externallink";i:1;a:2:{i:0;s:31:"http://directadmin.com/setup.sh";i:1;N;}i:2;i:712;}i:30;a:3:{i:0;s:9:"linebreak";i:1;a:0:{}i:2;i:743;}i:31;a:3:{i:0;s:5:"cdata";i:1;a:1:{i:0;s:18:"
chmod +x setup.sh";}i:2;i:745;}i:32;a:3:{i:0;s:9:"linebreak";i:1;a:0:{}i:2;i:763;}i:33;a:3:{i:0;s:5:"cdata";i:1;a:1:{i:0;s:12:"
sh setup.sh";}i:2;i:765;}i:34;a:3:{i:0;s:7:"p_close";i:1;a:0:{}i:2;i:777;}i:35;a:3:{i:0;s:6:"p_open";i:1;a:0:{}i:2;i:777;}i:36;a:3:{i:0;s:5:"cdata";i:1;a:1:{i:0;s:130:"After this, it will ask for Client ID and License ID. So, keep it handy.
After entering these, some other questions will be asked:";}i:2;i:779;}i:37;a:3:{i:0;s:7:"p_close";i:1;a:0:{}i:2;i:909;}i:38;a:3:{i:0;s:6:"p_open";i:1;a:0:{}i:2;i:909;}i:39;a:3:{i:0;s:5:"cdata";i:1;a:1:{i:0;s:79:"Enter your hostname (FQDN) : Enter the hostname of the server or the IP address";}i:2;i:911;}i:40;a:3:{i:0;s:7:"p_close";i:1;a:0:{}i:2;i:990;}i:41;a:3:{i:0;s:6:"p_open";i:1;a:0:{}i:2;i:990;}i:42;a:3:{i:0;s:5:"cdata";i:1;a:1:{i:0;s:70:"Is eth0 your network adaptor with the license IP? (y,n) : NO, venet0:0";}i:2;i:992;}i:43;a:3:{i:0;s:7:"p_close";i:1;a:0:{}i:2;i:1062;}i:44;a:3:{i:0;s:6:"p_open";i:1;a:0:{}i:2;i:1062;}i:45;a:3:{i:0;s:5:"cdata";i:1;a:1:{i:0;s:110:"NOTE: Do not close the installation window because the login details are provided at the end of installation!!";}i:2;i:1064;}i:46;a:3:{i:0;s:7:"p_close";i:1;a:0:{}i:2;i:1174;}i:47;a:3:{i:0;s:13:"section_close";i:1;a:0:{}i:2;i:1174;}i:48;a:3:{i:0;s:12:"document_end";i:1;a:0:{}i:2;i:1174;}}