a:48:{i:0;a:3:{i:0;s:14:"document_start";i:1;a:0:{}i:2;i:0;}i:1;a:3:{i:0;s:6:"p_open";i:1;a:0:{}i:2;i:0;}i:2;a:3:{i:0;s:5:"cdata";i:1;a:1:{i:0;s:68:"#It will ignore all IP assigned to India from all checks of csf lfd.";}i:2;i:1;}i:3;a:3:{i:0;s:7:"p_close";i:1;a:0:{}i:2;i:69;}i:4;a:3:{i:0;s:6:"p_open";i:1;a:0:{}i:2;i:69;}i:5;a:3:{i:0;s:5:"cdata";i:1;a:1:{i:0;s:62:"Steps to follow:
Append all IP range in below mentioned files.";}i:2;i:71;}i:6;a:3:{i:0;s:9:"linebreak";i:1;a:0:{}i:2;i:133;}i:7;a:3:{i:0;s:7:"p_close";i:1;a:0:{}i:2;i:135;}i:8;a:3:{i:0;s:6:"p_open";i:1;a:0:{}i:2;i:135;}i:9;a:3:{i:0;s:5:"cdata";i:1;a:1:{i:0;s:37:"## To ignore ip to be checked by lfd.";}i:2;i:137;}i:10;a:3:{i:0;s:9:"linebreak";i:1;a:0:{}i:2;i:174;}i:11;a:3:{i:0;s:5:"cdata";i:1;a:1:{i:0;s:25:"
vim /etc/csf/csf.ignore ";}i:2;i:176;}i:12;a:3:{i:0;s:9:"linebreak";i:1;a:0:{}i:2;i:201;}i:13;a:3:{i:0;s:9:"linebreak";i:1;a:0:{}i:2;i:204;}i:14;a:3:{i:0;s:5:"cdata";i:1;a:1:{i:0;s:29:"
## To allow ip permanently. ";}i:2;i:206;}i:15;a:3:{i:0;s:9:"linebreak";i:1;a:0:{}i:2;i:235;}i:16;a:3:{i:0;s:5:"cdata";i:1;a:1:{i:0;s:24:"
vim /etc/csf/csf.allow ";}i:2;i:237;}i:17;a:3:{i:0;s:9:"linebreak";i:1;a:0:{}i:2;i:261;}i:18;a:3:{i:0;s:7:"p_close";i:1;a:0:{}i:2;i:263;}i:19;a:3:{i:0;s:6:"p_open";i:1;a:0:{}i:2;i:263;}i:20;a:3:{i:0;s:9:"linebreak";i:1;a:0:{}i:2;i:265;}i:21;a:3:{i:0;s:5:"cdata";i:1;a:1:{i:0;s:14:"
#Restart CSF ";}i:2;i:267;}i:22;a:3:{i:0;s:9:"linebreak";i:1;a:0:{}i:2;i:281;}i:23;a:3:{i:0;s:5:"cdata";i:1;a:1:{i:0;s:8:"
csf -r
";}i:2;i:283;}i:24;a:3:{i:0;s:9:"linebreak";i:1;a:0:{}i:2;i:291;}i:25;a:3:{i:0;s:5:"cdata";i:1;a:1:{i:0;s:6:"
File:";}i:2;i:293;}i:26;a:3:{i:0;s:13:"emphasis_open";i:1;a:0:{}i:2;i:299;}i:27;a:3:{i:0;s:5:"cdata";i:1;a:1:{i:0;s:6:" wget ";}i:2;i:301;}i:28;a:3:{i:0;s:12:"externallink";i:1;a:2:{i:0;s:78:"https://raw.githubusercontent.com/ethicalmohit/csf/master/indian_ip_subnet.txt";i:1;N;}i:2;i:307;}i:29;a:3:{i:0;s:5:"cdata";i:1;a:1:{i:0;s:2:" 
";}i:2;i:385;}i:30;a:3:{i:0;s:9:"linebreak";i:1;a:0:{}i:2;i:387;}i:31;a:3:{i:0;s:5:"cdata";i:1;a:1:{i:0;s:1:"
";}i:2;i:389;}i:32;a:3:{i:0;s:9:"linebreak";i:1;a:0:{}i:2;i:390;}i:33;a:3:{i:0;s:5:"cdata";i:1;a:1:{i:0;s:1:"
";}i:2;i:392;}i:34;a:3:{i:0;s:9:"linebreak";i:1;a:0:{}i:2;i:393;}i:35;a:3:{i:0;s:5:"cdata";i:1;a:1:{i:0;s:11:"
## SCRIPT ";}i:2;i:395;}i:36;a:3:{i:0;s:9:"linebreak";i:1;a:0:{}i:2;i:406;}i:37;a:3:{i:0;s:5:"cdata";i:1;a:1:{i:0;s:10:"

wget -q ";}i:2;i:408;}i:38;a:3:{i:0;s:12:"externallink";i:1;a:2:{i:0;s:65:"https://raw.githubusercontent.com/ethicalmohit/csf/master/csfi.sh";i:1;N;}i:2;i:418;}i:39;a:3:{i:0;s:5:"cdata";i:1;a:1:{i:0;s:11:" -O csfi.sh";}i:2;i:483;}i:40;a:3:{i:0;s:9:"linebreak";i:1;a:0:{}i:2;i:494;}i:41;a:3:{i:0;s:5:"cdata";i:1;a:1:{i:0;s:18:"
chmod +x csfi.sh ";}i:2;i:496;}i:42;a:3:{i:0;s:9:"linebreak";i:1;a:0:{}i:2;i:514;}i:43;a:3:{i:0;s:5:"cdata";i:1;a:1:{i:0;s:12:"
sh csfi.sh ";}i:2;i:516;}i:44;a:3:{i:0;s:9:"linebreak";i:1;a:0:{}i:2;i:528;}i:45;a:3:{i:0;s:5:"cdata";i:1;a:1:{i:0;s:0:"";}i:2;i:530;}i:46;a:3:{i:0;s:7:"p_close";i:1;a:0:{}i:2;i:530;}i:47;a:3:{i:0;s:12:"document_end";i:1;a:0:{}i:2;i:530;}}