a:61:{i:0;a:3:{i:0;s:14:"document_start";i:1;a:0:{}i:2;i:0;}i:1;a:3:{i:0;s:6:"p_open";i:1;a:0:{}i:2;i:0;}i:2;a:3:{i:0;s:5:"cdata";i:1;a:1:{i:0;s:99:"Here we are countering restrictions for particular list of user/users to a specific domain/domains.";}i:2;i:1;}i:3;a:3:{i:0;s:7:"p_close";i:1;a:0:{}i:2;i:100;}i:4;a:3:{i:0;s:6:"p_open";i:1;a:0:{}i:2;i:100;}i:5;a:3:{i:0;s:5:"cdata";i:1;a:1:{i:0;s:17:"Open PolicyD Web ";}i:2;i:102;}i:6;a:3:{i:0;s:7:"acronym";i:1;a:1:{i:0;s:3:"URL";}i:2;i:119;}i:7;a:3:{i:0;s:5:"cdata";i:1;a:1:{i:0;s:2:":
";}i:2;i:122;}i:8;a:3:{i:0;s:12:"externallink";i:1;a:2:{i:0;s:30:"http://IP:7780/webui/index.php";i:1;N;}i:2;i:124;}i:9;a:3:{i:0;s:7:"p_close";i:1;a:0:{}i:2;i:154;}i:10;a:3:{i:0;s:6:"p_open";i:1;a:0:{}i:2;i:154;}i:11;a:3:{i:0;s:5:"cdata";i:1;a:1:{i:0;s:68:"Now we have to add two groups one for domains and another for users.";}i:2;i:156;}i:12;a:3:{i:0;s:7:"p_close";i:1;a:0:{}i:2;i:224;}i:13;a:3:{i:0;s:6:"p_open";i:1;a:0:{}i:2;i:224;}i:14;a:3:{i:0;s:5:"cdata";i:1;a:1:{i:0;s:23:"Navigate To Home Group ";}i:2;i:226;}i:15;a:3:{i:0;s:6:"entity";i:1;a:1:{i:0;s:2:"--";}i:2;i:249;}i:16;a:3:{i:0;s:5:"cdata";i:1;a:1:{i:0;s:16:"> Select Action ";}i:2;i:251;}i:17;a:3:{i:0;s:6:"entity";i:1;a:1:{i:0;s:2:"--";}i:2;i:267;}i:18;a:3:{i:0;s:5:"cdata";i:1;a:1:{i:0;s:7:">  Add
";}i:2;i:269;}i:19;a:3:{i:0;s:6:"plugin";i:1;a:4:{i:0;s:9:"code_code";i:1;a:4:{i:0;s:4:"code";i:1;N;i:2;s:0:"";i:3;s:33:"
Name	     Disabled
domainout	no
";}i:2;i:3;i:3;s:34:">
Name	     Disabled
domainout	no
";}i:2;i:281;}i:20;a:3:{i:0;s:5:"cdata";i:1;a:1:{i:0;s:20:"
Back to group
Home ";}i:2;i:322;}i:21;a:3:{i:0;s:6:"entity";i:1;a:1:{i:0;s:2:"--";}i:2;i:342;}i:22;a:3:{i:0;s:5:"cdata";i:1;a:1:{i:0;s:9:"> Groups ";}i:2;i:344;}i:23;a:3:{i:0;s:6:"entity";i:1;a:1:{i:0;s:2:"--";}i:2;i:353;}i:24;a:3:{i:0;s:5:"cdata";i:1;a:1:{i:0;s:37:"> Select your group you have created ";}i:2;i:355;}i:25;a:3:{i:0;s:6:"entity";i:1;a:1:{i:0;s:2:"--";}i:2;i:392;}i:26;a:3:{i:0;s:5:"cdata";i:1;a:1:{i:0;s:10:"> Members
";}i:2;i:394;}i:27;a:3:{i:0;s:6:"plugin";i:1;a:4:{i:0;s:9:"code_code";i:1;a:4:{i:0;s:4:"code";i:1;N;i:2;s:0:"";i:3;s:37:"
Member	      Disabled
@gmail.com	no
";}i:2;i:3;i:3;s:38:">
Member	      Disabled
@gmail.com	no
";}i:2;i:409;}i:28;a:3:{i:0;s:5:"cdata";i:1;a:1:{i:0;s:110:"
Note:#In above section you can add all domains as a member you want to allow.
Back to Groups
Add User group.
";}i:2;i:454;}i:29;a:3:{i:0;s:6:"plugin";i:1;a:4:{i:0;s:9:"code_code";i:1;a:4:{i:0;s:4:"code";i:1;N;i:2;s:0:"";i:3;s:29:"
Name	 Disabled
peruser	  no
";}i:2;i:3;i:3;s:30:">
Name	 Disabled
peruser	  no
";}i:2;i:569;}i:30;a:3:{i:0;s:5:"cdata";i:1;a:1:{i:0;s:1:"
";}i:2;i:606;}i:31;a:3:{i:0;s:6:"plugin";i:1;a:4:{i:0;s:9:"code_code";i:1;a:4:{i:0;s:4:"code";i:1;N;i:2;s:0:"";i:3;s:70:"
Member	                     Disabled
user1@mohit1.mantravault.com	no
";}i:2;i:3;i:3;s:71:">
Member	                     Disabled
user1@mohit1.mantravault.com	no
";}i:2;i:612;}i:32;a:3:{i:0;s:5:"cdata";i:1;a:1:{i:0;s:95:"
Note:#In above section you can add all Users for which you want the policy to be implemented. ";}i:2;i:690;}i:33;a:3:{i:0;s:9:"linebreak";i:1;a:0:{}i:2;i:785;}i:34;a:3:{i:0;s:5:"cdata";i:1;a:1:{i:0;s:19:"
Back to policies. ";}i:2;i:787;}i:35;a:3:{i:0;s:9:"linebreak";i:1;a:0:{}i:2;i:806;}i:36;a:3:{i:0;s:5:"cdata";i:1;a:1:{i:0;s:22:"
Navigate to policies ";}i:2;i:808;}i:37;a:3:{i:0;s:6:"entity";i:1;a:1:{i:0;s:2:"--";}i:2;i:830;}i:38;a:3:{i:0;s:5:"cdata";i:1;a:1:{i:0;s:7:"> Main ";}i:2;i:832;}i:39;a:3:{i:0;s:6:"entity";i:1;a:1:{i:0;s:2:"--";}i:2;i:839;}i:40;a:3:{i:0;s:5:"cdata";i:1;a:1:{i:0;s:16:"> Select Action ";}i:2;i:841;}i:41;a:3:{i:0;s:6:"entity";i:1;a:1:{i:0;s:2:"--";}i:2;i:857;}i:42;a:3:{i:0;s:5:"cdata";i:1;a:1:{i:0;s:6:"> Add
";}i:2;i:859;}i:43;a:3:{i:0;s:6:"plugin";i:1;a:4:{i:0;s:9:"code_code";i:1;a:4:{i:0;s:4:"code";i:1;N;i:2;s:0:"";i:3;s:68:"
Name	     Priority	Description	Disabled
gmailblock	0	gmailblock	no
";}i:2;i:3;i:3;s:69:">
Name	     Priority	Description	Disabled
gmailblock	0	gmailblock	no
";}i:2;i:870;}i:44;a:3:{i:0;s:5:"cdata";i:1;a:1:{i:0;s:18:"
Back to policies ";}i:2;i:946;}i:45;a:3:{i:0;s:6:"entity";i:1;a:1:{i:0;s:2:"--";}i:2;i:964;}i:46;a:3:{i:0;s:5:"cdata";i:1;a:1:{i:0;s:21:"> Select your policy ";}i:2;i:966;}i:47;a:3:{i:0;s:6:"entity";i:1;a:1:{i:0;s:2:"--";}i:2;i:987;}i:48;a:3:{i:0;s:5:"cdata";i:1;a:1:{i:0;s:16:"> Select action ";}i:2;i:989;}i:49;a:3:{i:0;s:6:"entity";i:1;a:1:{i:0;s:2:"--";}i:2;i:1005;}i:50;a:3:{i:0;s:5:"cdata";i:1;a:1:{i:0;s:38:"> Members
Create a member like below.
";}i:2;i:1007;}i:51;a:3:{i:0;s:6:"plugin";i:1;a:4:{i:0;s:9:"code_code";i:1;a:4:{i:0;s:4:"code";i:1;N;i:2;s:0:"";i:3;s:61:"
Source	        Destination	Disabled
%peruser	!%domainout	no
";}i:2;i:3;i:3;s:62:">
Source	        Destination	Disabled
%peruser	!%domainout	no
";}i:2;i:1050;}i:52;a:3:{i:0;s:5:"cdata";i:1;a:1:{i:0;s:36:"
Return back to home
Access control ";}i:2;i:1119;}i:53;a:3:{i:0;s:6:"entity";i:1;a:1:{i:0;s:2:"--";}i:2;i:1155;}i:54;a:3:{i:0;s:5:"cdata";i:1;a:1:{i:0;s:12:"> configure
";}i:2;i:1157;}i:55;a:3:{i:0;s:6:"plugin";i:1;a:4:{i:0;s:9:"code_code";i:1;a:4:{i:0;s:4:"code";i:1;N;i:2;s:0:"";i:3;s:102:"
Policy	            Name	Verdict	    Data      Disabled
gmailblock	gmailblock	REJECT	Access Denied	no
";}i:2;i:3;i:3;s:103:">
Policy	            Name	Verdict	    Data      Disabled
gmailblock	gmailblock	REJECT	Access Denied	no
";}i:2;i:1174;}i:56;a:3:{i:0;s:5:"cdata";i:1;a:1:{i:0;s:39:"
Enable Access control.
Restart zimbra
";}i:2;i:1284;}i:57;a:3:{i:0;s:6:"plugin";i:1;a:4:{i:0;s:9:"code_code";i:1;a:4:{i:0;s:4:"code";i:1;N;i:2;s:0:"";i:3;s:98:"
su zimbra
zmprov ms `zmhostname` zimbraCBPolicydAccessControlEnabled TRUE
zmcbpolicydctl restart
";}i:2;i:3;i:3;s:99:">
su zimbra
zmprov ms `zmhostname` zimbraCBPolicydAccessControlEnabled TRUE
zmcbpolicydctl restart
";}i:2;i:1328;}i:58;a:3:{i:0;s:5:"cdata";i:1;a:1:{i:0;s:0:"";}i:2;i:1434;}i:59;a:3:{i:0;s:7:"p_close";i:1;a:0:{}i:2;i:1434;}i:60;a:3:{i:0;s:12:"document_end";i:1;a:0:{}i:2;i:1434;}}