a:76:{i:0;a:3:{i:0;s:14:"document_start";i:1;a:0:{}i:2;i:0;}i:1;a:3:{i:0;s:6:"header";i:1;a:3:{i:0;s:68:"Install Plesk for windows into the panel Times ERROR: Zend_Exception";i:1;i:1;i:2;i:1;}i:2;i:1;}i:2;a:3:{i:0;s:12:"section_open";i:1;a:1:{i:0;i:1;}i:2;i:1;}i:3;a:3:{i:0;s:6:"p_open";i:1;a:0:{}i:2;i:1;}i:4;a:3:{i:0;s:5:"cdata";i:1;a:1:{i:0;s:16:"Detailed Error: ";}i:2;i:87;}i:5;a:3:{i:0;s:18:"doublequoteopening";i:1;a:0:{}i:2;i:103;}i:6;a:3:{i:0;s:5:"cdata";i:1;a:1:{i:0;s:27:"ERROR: Zend_Exception
File ";}i:2;i:104;}i:7;a:3:{i:0;s:18:"doublequoteopening";i:1;a:0:{}i:2;i:131;}i:8;a:3:{i:0;s:5:"cdata";i:1;a:1:{i:0;s:30:"Db \ Adapter \ Pdo \ Mysql.php";}i:2;i:132;}i:9;a:3:{i:0;s:18:"doublequoteclosing";i:1;a:0:{}i:2;i:162;}i:10;a:3:{i:0;s:5:"cdata";i:1;a:1:{i:0;s:25:" does not exist or class ";}i:2;i:163;}i:11;a:3:{i:0;s:18:"doublequoteopening";i:1;a:0:{}i:2;i:188;}i:12;a:3:{i:0;s:5:"cdata";i:1;a:1:{i:0;s:20:"Db_Adapter_Pdo_Mysql";}i:2;i:189;}i:13;a:3:{i:0;s:18:"doublequoteclosing";i:1;a:0:{}i:2;i:209;}i:14;a:3:{i:0;s:5:"cdata";i:1;a:1:{i:0;s:26:" was not found in the file";}i:2;i:210;}i:15;a:3:{i:0;s:7:"p_close";i:1;a:0:{}i:2;i:236;}i:16;a:3:{i:0;s:6:"p_open";i:1;a:0:{}i:2;i:236;}i:17;a:3:{i:0;s:5:"cdata";i:1;a:1:{i:0;s:74:"0: Loader.php: 99
Zend_Loader :: loadClass (string 'Db_Adapter_Pdo_Mysql')";}i:2;i:238;}i:18;a:3:{i:0;s:7:"p_close";i:1;a:0:{}i:2;i:312;}i:19;a:3:{i:0;s:6:"p_open";i:1;a:0:{}i:2;i:312;}i:20;a:3:{i:0;s:5:"cdata";i:1;a:1:{i:0;s:62:"1: Db.php: 250
Zend_Db :: factory (object of type Zend_Config)";}i:2;i:314;}i:21;a:3:{i:0;s:7:"p_close";i:1;a:0:{}i:2;i:376;}i:22;a:3:{i:0;s:6:"p_open";i:1;a:0:{}i:2;i:376;}i:23;a:3:{i:0;s:5:"cdata";i:1;a:1:{i:0;s:73:"2: Abstract.php: 155
CommonPanel_Application_Abstract :: initDbAdapter ()";}i:2;i:378;}i:24;a:3:{i:0;s:7:"p_close";i:1;a:0:{}i:2;i:451;}i:25;a:3:{i:0;s:6:"p_open";i:1;a:0:{}i:2;i:451;}i:26;a:3:{i:0;s:5:"cdata";i:1;a:1:{i:0;s:53:"3: Abstract.php: 118
CommonPanel_Application_Abstract";}i:2;i:453;}i:27;a:3:{i:0;s:6:"entity";i:1;a:1:{i:0;s:2:"->";}i:2;i:506;}i:28;a:3:{i:0;s:5:"cdata";i:1;a:1:{i:0;s:18:" _initDbAdapter ()";}i:2;i:508;}i:29;a:3:{i:0;s:7:"p_close";i:1;a:0:{}i:2;i:526;}i:30;a:3:{i:0;s:6:"p_open";i:1;a:0:{}i:2;i:526;}i:31;a:3:{i:0;s:5:"cdata";i:1;a:1:{i:0;s:52:"4: Abstract.php: 39
CommonPanel_Application_Abstract";}i:2;i:528;}i:32;a:3:{i:0;s:6:"entity";i:1;a:1:{i:0;s:2:"->";}i:2;i:580;}i:33;a:3:{i:0;s:5:"cdata";i:1;a:1:{i:0;s:7:" Run ()";}i:2;i:582;}i:34;a:3:{i:0;s:7:"p_close";i:1;a:0:{}i:2;i:589;}i:35;a:3:{i:0;s:6:"p_open";i:1;a:0:{}i:2;i:589;}i:36;a:3:{i:0;s:5:"cdata";i:1;a:1:{i:0;s:63:"5: Abstract.php: 24
CommonPanel_Application_Abstract :: init ()";}i:2;i:591;}i:37;a:3:{i:0;s:7:"p_close";i:1;a:0:{}i:2;i:654;}i:38;a:3:{i:0;s:6:"p_open";i:1;a:0:{}i:2;i:654;}i:39;a:3:{i:0;s:5:"cdata";i:1;a:1:{i:0;s:17:"6: auth.php3: 136";}i:2;i:656;}i:40;a:3:{i:0;s:18:"doublequoteclosing";i:1;a:0:{}i:2;i:673;}i:41;a:3:{i:0;s:5:"cdata";i:1;a:1:{i:0;s:1:".";}i:2;i:674;}i:42;a:3:{i:0;s:7:"p_close";i:1;a:0:{}i:2;i:675;}i:43;a:3:{i:0;s:6:"p_open";i:1;a:0:{}i:2;i:675;}i:44;a:3:{i:0;s:5:"cdata";i:1;a:1:{i:0;s:199:"The cause of this problem is when the update due to network or file the request to update the server because of firewall filtering mechanism, resulting in part of the file download incomplete result.";}i:2;i:678;}i:45;a:3:{i:0;s:7:"p_close";i:1;a:0:{}i:2;i:877;}i:46;a:3:{i:0;s:6:"p_open";i:1;a:0:{}i:2;i:877;}i:47;a:3:{i:0;s:5:"cdata";i:1;a:1:{i:0;s:28:"The solution is as follows: ";}i:2;i:879;}i:48;a:3:{i:0;s:7:"p_close";i:1;a:0:{}i:2;i:907;}i:49;a:3:{i:0;s:6:"p_open";i:1;a:0:{}i:2;i:907;}i:50;a:3:{i:0;s:5:"cdata";i:1;a:1:{i:0;s:6:"1. in ";}i:2;i:909;}i:51;a:3:{i:0;s:18:"doublequoteopening";i:1;a:0:{}i:2;i:915;}i:52;a:3:{i:0;s:5:"cdata";i:1;a:1:{i:0;s:35:"% plesk_dir%\admin\plib\Db\Adapter\";}i:2;i:916;}i:53;a:3:{i:0;s:18:"doublequoteclosing";i:1;a:0:{}i:2;i:951;}i:54;a:3:{i:0;s:5:"cdata";i:1;a:1:{i:0;s:44:" folder manually create a new PDO directory ";}i:2;i:952;}i:55;a:3:{i:0;s:7:"p_close";i:1;a:0:{}i:2;i:996;}i:56;a:3:{i:0;s:6:"p_open";i:1;a:0:{}i:2;i:996;}i:57;a:3:{i:0;s:5:"cdata";i:1;a:1:{i:0;s:148:"2.the following directory C:\ParallelsInstaller\Parallels\the panel-WIN_11.0.9\microupdates\MU19\panel\common\the php\plib\Db\Adapter\PDO\Mysql.php ";}i:2;i:998;}i:58;a:3:{i:0;s:7:"p_close";i:1;a:0:{}i:2;i:1146;}i:59;a:3:{i:0;s:6:"p_open";i:1;a:0:{}i:2;i:1146;}i:60;a:3:{i:0;s:5:"cdata";i:1;a:1:{i:0;s:8:"3. copy ";}i:2;i:1148;}i:61;a:3:{i:0;s:18:"doublequoteopening";i:1;a:0:{}i:2;i:1156;}i:62;a:3:{i:0;s:5:"cdata";i:1;a:1:{i:0;s:12:" Mysql.php_ ";}i:2;i:1157;}i:63;a:3:{i:0;s:18:"doublequoteopening";i:1;a:0:{}i:2;i:1169;}i:64;a:3:{i:0;s:5:"cdata";i:1;a:1:{i:0;s:3:"to ";}i:2;i:1170;}i:65;a:3:{i:0;s:18:"doublequoteclosing";i:1;a:0:{}i:2;i:1173;}i:66;a:3:{i:0;s:5:"cdata";i:1;a:1:{i:0;s:38:"% plesk_dir%\admin\plib\Db\Adapter\PDO";}i:2;i:1174;}i:67;a:3:{i:0;s:18:"doublequoteclosing";i:1;a:0:{}i:2;i:1212;}i:68;a:3:{i:0;s:5:"cdata";i:1;a:1:{i:0;s:30:" directory and file Myql.php_ ";}i:2;i:1213;}i:69;a:3:{i:0;s:18:"doublequoteopening";i:1;a:0:{}i:2;i:1243;}i:70;a:3:{i:0;s:5:"cdata";i:1;a:1:{i:0;s:8:" modify ";}i:2;i:1244;}i:71;a:3:{i:0;s:18:"doublequoteclosing";i:1;a:0:{}i:2;i:1252;}i:72;a:3:{i:0;s:5:"cdata";i:1;a:1:{i:0;s:13:" MySQL . php.";}i:2;i:1253;}i:73;a:3:{i:0;s:7:"p_close";i:1;a:0:{}i:2;i:1266;}i:74;a:3:{i:0;s:13:"section_close";i:1;a:0:{}i:2;i:1268;}i:75;a:3:{i:0;s:12:"document_end";i:1;a:0:{}i:2;i:1268;}}