a:179:{i:0;a:3:{i:0;s:14:"document_start";i:1;a:0:{}i:2;i:0;}i:1;a:3:{i:0;s:6:"header";i:1;a:3:{i:0;s:96:"====== How to mirror remote directories on a VPS using lsyncd (Ubuntu 14.04.1 LTS ) ** ====== **";i:1;i:2;i:2;i:1;}i:2;i:1;}i:2;a:3:{i:0;s:12:"section_open";i:1;a:1:{i:0;i:2;}i:2;i:1;}i:3;a:3:{i:0;s:6:"p_open";i:1;a:0:{}i:2;i:1;}i:4;a:3:{i:0;s:11:"strong_open";i:1;a:0:{}i:2;i:111;}i:5;a:3:{i:0;s:5:"cdata";i:1;a:1:{i:0;s:50:"We have two ubuntu machines Server A and Server B ";}i:2;i:113;}i:6;a:3:{i:0;s:12:"strong_close";i:1;a:0:{}i:2;i:163;}i:7;a:3:{i:0;s:7:"p_close";i:1;a:0:{}i:2;i:165;}i:8;a:3:{i:0;s:6:"p_open";i:1;a:0:{}i:2;i:165;}i:9;a:3:{i:0;s:14:"underline_open";i:1;a:0:{}i:2;i:167;}i:10;a:3:{i:0;s:11:"strong_open";i:1;a:0:{}i:2;i:169;}i:11;a:3:{i:0;s:5:"cdata";i:1;a:1:{i:0;s:23:"Step 1 : Install lsycnd";}i:2;i:171;}i:12;a:3:{i:0;s:12:"strong_close";i:1;a:0:{}i:2;i:194;}i:13;a:3:{i:0;s:15:"underline_close";i:1;a:0:{}i:2;i:196;}i:14;a:3:{i:0;s:7:"p_close";i:1;a:0:{}i:2;i:198;}i:15;a:3:{i:0;s:6:"p_open";i:1;a:0:{}i:2;i:198;}i:16;a:3:{i:0;s:5:"cdata";i:1;a:1:{i:0;s:19:"sudo apt-get update";}i:2;i:200;}i:17;a:3:{i:0;s:7:"p_close";i:1;a:0:{}i:2;i:219;}i:18;a:3:{i:0;s:6:"p_open";i:1;a:0:{}i:2;i:219;}i:19;a:3:{i:0;s:5:"cdata";i:1;a:1:{i:0;s:27:"sudo apt-get install lsyncd";}i:2;i:221;}i:20;a:3:{i:0;s:7:"p_close";i:1;a:0:{}i:2;i:248;}i:21;a:3:{i:0;s:6:"p_open";i:1;a:0:{}i:2;i:248;}i:22;a:3:{i:0;s:14:"underline_open";i:1;a:0:{}i:2;i:250;}i:23;a:3:{i:0;s:11:"strong_open";i:1;a:0:{}i:2;i:252;}i:24;a:3:{i:0;s:5:"cdata";i:1;a:1:{i:0;s:28:"Step 2 : Setting Environment";}i:2;i:254;}i:25;a:3:{i:0;s:12:"strong_close";i:1;a:0:{}i:2;i:282;}i:26;a:3:{i:0;s:15:"underline_close";i:1;a:0:{}i:2;i:284;}i:27;a:3:{i:0;s:5:"cdata";i:1;a:1:{i:0;s:1:" ";}i:2;i:286;}i:28;a:3:{i:0;s:9:"linebreak";i:1;a:0:{}i:2;i:287;}i:29;a:3:{i:0;s:5:"cdata";i:1;a:1:{i:0;s:1:"
";}i:2;i:289;}i:30;a:3:{i:0;s:9:"linebreak";i:1;a:0:{}i:2;i:290;}i:31;a:3:{i:0;s:5:"cdata";i:1;a:1:{i:0;s:55:"
Create a directory and log files for lsyncd logs—–";}i:2;i:292;}i:32;a:3:{i:0;s:9:"linebreak";i:1;a:0:{}i:2;i:347;}i:33;a:3:{i:0;s:5:"cdata";i:1;a:1:{i:0;s:27:"
sudo mkdir /var/log/lsyncd";}i:2;i:349;}i:34;a:3:{i:0;s:9:"linebreak";i:1;a:0:{}i:2;i:376;}i:35;a:3:{i:0;s:5:"cdata";i:1;a:1:{i:0;s:106:"
sudo touch /var/log/lsyncd/lsyncd.{log,status} Create the configuration directory and file for lsyncd—-";}i:2;i:378;}i:36;a:3:{i:0;s:9:"linebreak";i:1;a:0:{}i:2;i:484;}i:37;a:3:{i:0;s:5:"cdata";i:1;a:1:{i:0;s:23:"
sudo mkdir /etc/lsyncd";}i:2;i:486;}i:38;a:3:{i:0;s:9:"linebreak";i:1;a:0:{}i:2;i:509;}i:39;a:3:{i:0;s:5:"cdata";i:1;a:1:{i:0;s:34:"
touch /etc/lsyncd/lsyncd.conf.lua";}i:2;i:511;}i:40;a:3:{i:0;s:9:"linebreak";i:1;a:0:{}i:2;i:545;}i:41;a:3:{i:0;s:5:"cdata";i:1;a:1:{i:0;s:1:"
";}i:2;i:547;}i:42;a:3:{i:0;s:9:"linebreak";i:1;a:0:{}i:2;i:548;}i:43;a:3:{i:0;s:5:"cdata";i:1;a:1:{i:0;s:1:"
";}i:2;i:550;}i:44;a:3:{i:0;s:14:"underline_open";i:1;a:0:{}i:2;i:551;}i:45;a:3:{i:0;s:11:"strong_open";i:1;a:0:{}i:2;i:553;}i:46;a:3:{i:0;s:5:"cdata";i:1;a:1:{i:0;s:38:"Step 3 : Do the same in second server.";}i:2;i:555;}i:47;a:3:{i:0;s:12:"strong_close";i:1;a:0:{}i:2;i:593;}i:48;a:3:{i:0;s:5:"cdata";i:1;a:1:{i:0;s:1:" ";}i:2;i:595;}i:49;a:3:{i:0;s:15:"underline_close";i:1;a:0:{}i:2;i:596;}i:50;a:3:{i:0;s:7:"p_close";i:1;a:0:{}i:2;i:598;}i:51;a:3:{i:0;s:6:"p_open";i:1;a:0:{}i:2;i:598;}i:52;a:3:{i:0;s:14:"underline_open";i:1;a:0:{}i:2;i:600;}i:53;a:3:{i:0;s:11:"strong_open";i:1;a:0:{}i:2;i:602;}i:54;a:3:{i:0;s:5:"cdata";i:1;a:1:{i:0;s:47:"Step 4 : Create a directory in both the servers";}i:2;i:604;}i:55;a:3:{i:0;s:12:"strong_close";i:1;a:0:{}i:2;i:651;}i:56;a:3:{i:0;s:15:"underline_close";i:1;a:0:{}i:2;i:653;}i:57;a:3:{i:0;s:5:"cdata";i:1;a:1:{i:0;s:1:" ";}i:2;i:655;}i:58;a:3:{i:0;s:9:"linebreak";i:1;a:0:{}i:2;i:656;}i:59;a:3:{i:0;s:5:"cdata";i:1;a:1:{i:0;s:1:"
";}i:2;i:658;}i:60;a:3:{i:0;s:9:"linebreak";i:1;a:0:{}i:2;i:659;}i:61;a:3:{i:0;s:5:"cdata";i:1;a:1:{i:0;s:34:"
sudo mkdir /remotesync (Server A)";}i:2;i:661;}i:62;a:3:{i:0;s:9:"linebreak";i:1;a:0:{}i:2;i:695;}i:63;a:3:{i:0;s:5:"cdata";i:1;a:1:{i:0;s:34:"
sudo mkdir /remotesync (Server B)";}i:2;i:697;}i:64;a:3:{i:0;s:7:"p_close";i:1;a:0:{}i:2;i:731;}i:65;a:3:{i:0;s:6:"p_open";i:1;a:0:{}i:2;i:731;}i:66;a:3:{i:0;s:9:"linebreak";i:1;a:0:{}i:2;i:733;}i:67;a:3:{i:0;s:5:"cdata";i:1;a:1:{i:0;s:1:"
";}i:2;i:735;}i:68;a:3:{i:0;s:14:"underline_open";i:1;a:0:{}i:2;i:736;}i:69;a:3:{i:0;s:11:"strong_open";i:1;a:0:{}i:2;i:738;}i:70;a:3:{i:0;s:5:"cdata";i:1;a:1:{i:0;s:77:"Step 5 : Configuring the /etc/lsyncd/lsycnd.conf.lua file in both the servers";}i:2;i:740;}i:71;a:3:{i:0;s:12:"strong_close";i:1;a:0:{}i:2;i:817;}i:72;a:3:{i:0;s:15:"underline_close";i:1;a:0:{}i:2;i:819;}i:73;a:3:{i:0;s:7:"p_close";i:1;a:0:{}i:2;i:821;}i:74;a:3:{i:0;s:6:"p_open";i:1;a:0:{}i:2;i:821;}i:75;a:3:{i:0;s:9:"linebreak";i:1;a:0:{}i:2;i:823;}i:76;a:3:{i:0;s:5:"cdata";i:1;a:1:{i:0;s:65:"
Insert these lines in the /etc/lsyncd/lsyncd/conf.lua file……";}i:2;i:825;}i:77;a:3:{i:0;s:9:"linebreak";i:1;a:0:{}i:2;i:890;}i:78;a:3:{i:0;s:5:"cdata";i:1;a:1:{i:0;s:1:"
";}i:2;i:892;}i:79;a:3:{i:0;s:9:"linebreak";i:1;a:0:{}i:2;i:893;}i:80;a:3:{i:0;s:5:"cdata";i:1;a:1:{i:0;s:11:"
settings {";}i:2;i:895;}i:81;a:3:{i:0;s:9:"linebreak";i:1;a:0:{}i:2;i:906;}i:82;a:3:{i:0;s:5:"cdata";i:1;a:1:{i:0;s:11:"
logfile = ";}i:2;i:908;}i:83;a:3:{i:0;s:18:"doublequoteopening";i:1;a:0:{}i:2;i:919;}i:84;a:3:{i:0;s:5:"cdata";i:1;a:1:{i:0;s:26:"/var/log/lsyncd/lsyncd.log";}i:2;i:920;}i:85;a:3:{i:0;s:18:"doublequoteclosing";i:1;a:0:{}i:2;i:946;}i:86;a:3:{i:0;s:5:"cdata";i:1;a:1:{i:0;s:1:",";}i:2;i:947;}i:87;a:3:{i:0;s:9:"linebreak";i:1;a:0:{}i:2;i:948;}i:88;a:3:{i:0;s:5:"cdata";i:1;a:1:{i:0;s:14:"
statusFile = ";}i:2;i:950;}i:89;a:3:{i:0;s:18:"doublequoteopening";i:1;a:0:{}i:2;i:964;}i:90;a:3:{i:0;s:5:"cdata";i:1;a:1:{i:0;s:29:"/var/log/lsyncd/lsyncd.status";}i:2;i:965;}i:91;a:3:{i:0;s:18:"doublequoteclosing";i:1;a:0:{}i:2;i:994;}i:92;a:3:{i:0;s:5:"cdata";i:1;a:1:{i:0;s:1:",";}i:2;i:995;}i:93;a:3:{i:0;s:9:"linebreak";i:1;a:0:{}i:2;i:996;}i:94;a:3:{i:0;s:5:"cdata";i:1;a:1:{i:0;s:10:"
delay = 0";}i:2;i:998;}i:95;a:3:{i:0;s:9:"linebreak";i:1;a:0:{}i:2;i:1008;}i:96;a:3:{i:0;s:5:"cdata";i:1;a:1:{i:0;s:2:"
}";}i:2;i:1010;}i:97;a:3:{i:0;s:9:"linebreak";i:1;a:0:{}i:2;i:1012;}i:98;a:3:{i:0;s:5:"cdata";i:1;a:1:{i:0;s:7:"
sync {";}i:2;i:1014;}i:99;a:3:{i:0;s:9:"linebreak";i:1;a:0:{}i:2;i:1021;}i:100;a:3:{i:0;s:5:"cdata";i:1;a:1:{i:0;s:18:"
default.rsyncssh,";}i:2;i:1023;}i:101;a:3:{i:0;s:9:"linebreak";i:1;a:0:{}i:2;i:1041;}i:102;a:3:{i:0;s:5:"cdata";i:1;a:1:{i:0;s:10:"
source = ";}i:2;i:1043;}i:103;a:3:{i:0;s:18:"doublequoteopening";i:1;a:0:{}i:2;i:1053;}i:104;a:3:{i:0;s:5:"cdata";i:1;a:1:{i:0;s:11:"/remotesync";}i:2;i:1054;}i:105;a:3:{i:0;s:18:"doublequoteclosing";i:1;a:0:{}i:2;i:1065;}i:106;a:3:{i:0;s:5:"cdata";i:1;a:1:{i:0;s:1:",";}i:2;i:1066;}i:107;a:3:{i:0;s:9:"linebreak";i:1;a:0:{}i:2;i:1067;}i:108;a:3:{i:0;s:5:"cdata";i:1;a:1:{i:0;s:8:"
host = ";}i:2;i:1069;}i:109;a:3:{i:0;s:18:"doublequoteopening";i:1;a:0:{}i:2;i:1077;}i:110;a:3:{i:0;s:5:"cdata";i:1;a:1:{i:0;s:16:"Remote-server-IP";}i:2;i:1078;}i:111;a:3:{i:0;s:18:"doublequoteclosing";i:1;a:0:{}i:2;i:1094;}i:112;a:3:{i:0;s:5:"cdata";i:1;a:1:{i:0;s:1:",";}i:2;i:1095;}i:113;a:3:{i:0;s:9:"linebreak";i:1;a:0:{}i:2;i:1096;}i:114;a:3:{i:0;s:5:"cdata";i:1;a:1:{i:0;s:13:"
targetdir = ";}i:2;i:1098;}i:115;a:3:{i:0;s:18:"doublequoteopening";i:1;a:0:{}i:2;i:1111;}i:116;a:3:{i:0;s:5:"cdata";i:1;a:1:{i:0;s:11:"/remotesync";}i:2;i:1112;}i:117;a:3:{i:0;s:18:"doublequoteclosing";i:1;a:0:{}i:2;i:1123;}i:118;a:3:{i:0;s:9:"linebreak";i:1;a:0:{}i:2;i:1124;}i:119;a:3:{i:0;s:5:"cdata";i:1;a:1:{i:0;s:2:"
}";}i:2;i:1126;}i:120;a:3:{i:0;s:7:"p_close";i:1;a:0:{}i:2;i:1128;}i:121;a:3:{i:0;s:6:"p_open";i:1;a:0:{}i:2;i:1128;}i:122;a:3:{i:0;s:14:"underline_open";i:1;a:0:{}i:2;i:1130;}i:123;a:3:{i:0;s:11:"strong_open";i:1;a:0:{}i:2;i:1132;}i:124;a:3:{i:0;s:5:"cdata";i:1;a:1:{i:0;s:39:"Step 6 : Configuring the remote syncing";}i:2;i:1134;}i:125;a:3:{i:0;s:12:"strong_close";i:1;a:0:{}i:2;i:1173;}i:126;a:3:{i:0;s:15:"underline_close";i:1;a:0:{}i:2;i:1175;}i:127;a:3:{i:0;s:7:"p_close";i:1;a:0:{}i:2;i:1177;}i:128;a:3:{i:0;s:6:"p_open";i:1;a:0:{}i:2;i:1177;}i:129;a:3:{i:0;s:9:"linebreak";i:1;a:0:{}i:2;i:1179;}i:130;a:3:{i:0;s:5:"cdata";i:1;a:1:{i:0;s:139:"
To configure the lsyncd syncing we need to be able to sign into the mirroring machine from the original machine through password-less ssh.";}i:2;i:1181;}i:131;a:3:{i:0;s:9:"linebreak";i:1;a:0:{}i:2;i:1320;}i:132;a:3:{i:0;s:5:"cdata";i:1;a:1:{i:0;s:52:"
For password less ssh you can follow this link —-";}i:2;i:1322;}i:133;a:3:{i:0;s:7:"p_close";i:1;a:0:{}i:2;i:1374;}i:134;a:3:{i:0;s:6:"p_open";i:1;a:0:{}i:2;i:1374;}i:135;a:3:{i:0;s:12:"externallink";i:1;a:2:{i:0;s:76:"https://www.digitalocean.com/community/tutorials/how-to-set-up-ssh-keys--2__";i:1;s:74:"https://www.digitalocean.com/community/tutorials/how-to-set-up-ssh-keys--2";}i:2;i:1376;}i:136;a:3:{i:0;s:9:"linebreak";i:1;a:0:{}i:2;i:1531;}i:137;a:3:{i:0;s:5:"cdata";i:1;a:1:{i:0;s:117:"
Make a key pair for your root user, since the lsyncd service will run as root. You can then copy the key file to the";}i:2;i:1533;}i:138;a:3:{i:0;s:9:"linebreak";i:1;a:0:{}i:2;i:1650;}i:139;a:3:{i:0;s:5:"cdata";i:1;a:1:{i:0;s:51:"
remote mirror machine with the following commands:";}i:2;i:1652;}i:140;a:3:{i:0;s:9:"linebreak";i:1;a:0:{}i:2;i:1703;}i:141;a:3:{i:0;s:5:"cdata";i:1;a:1:{i:0;s:1:"
";}i:2;i:1705;}i:142;a:3:{i:0;s:9:"linebreak";i:1;a:0:{}i:2;i:1706;}i:143;a:3:{i:0;s:5:"cdata";i:1;a:1:{i:0;s:8:"
sudo su";}i:2;i:1708;}i:144;a:3:{i:0;s:9:"linebreak";i:1;a:0:{}i:2;i:1716;}i:145;a:3:{i:0;s:5:"cdata";i:1;a:1:{i:0;s:37:"
ssh-copy-id remote_mirror_ip_address";}i:2;i:1718;}i:146;a:3:{i:0;s:7:"p_close";i:1;a:0:{}i:2;i:1755;}i:147;a:3:{i:0;s:6:"p_open";i:1;a:0:{}i:2;i:1755;}i:148;a:3:{i:0;s:11:"strong_open";i:1;a:0:{}i:2;i:1757;}i:149;a:3:{i:0;s:14:"underline_open";i:1;a:0:{}i:2;i:1759;}i:150;a:3:{i:0;s:11:"strong_open";i:1;a:0:{}i:2;i:1761;}i:151;a:3:{i:0;s:5:"cdata";i:1;a:1:{i:0;s:54:"Step 7 : Start the service lsyncd in both the servers.";}i:2;i:1763;}i:152;a:3:{i:0;s:12:"strong_close";i:1;a:0:{}i:2;i:1817;}i:153;a:3:{i:0;s:5:"cdata";i:1;a:1:{i:0;s:1:" ";}i:2;i:1819;}i:154;a:3:{i:0;s:15:"underline_close";i:1;a:0:{}i:2;i:1820;}i:155;a:3:{i:0;s:5:"cdata";i:1;a:1:{i:0;s:1:" ";}i:2;i:1822;}i:156;a:3:{i:0;s:12:"strong_close";i:1;a:0:{}i:2;i:1823;}i:157;a:3:{i:0;s:7:"p_close";i:1;a:0:{}i:2;i:1825;}i:158;a:3:{i:0;s:6:"p_open";i:1;a:0:{}i:2;i:1825;}i:159;a:3:{i:0;s:5:"cdata";i:1;a:1:{i:0;s:24:"/etc/init.d/lsyncd start";}i:2;i:1827;}i:160;a:3:{i:0;s:7:"p_close";i:1;a:0:{}i:2;i:1851;}i:161;a:3:{i:0;s:6:"p_open";i:1;a:0:{}i:2;i:1851;}i:162;a:3:{i:0;s:11:"strong_open";i:1;a:0:{}i:2;i:1853;}i:163;a:3:{i:0;s:14:"underline_open";i:1;a:0:{}i:2;i:1855;}i:164;a:3:{i:0;s:11:"strong_open";i:1;a:0:{}i:2;i:1857;}i:165;a:3:{i:0;s:5:"cdata";i:1;a:1:{i:0;s:45:"Step 8 : Now we are ready to test the syncing";}i:2;i:1859;}i:166;a:3:{i:0;s:12:"strong_close";i:1;a:0:{}i:2;i:1904;}i:167;a:3:{i:0;s:15:"underline_close";i:1;a:0:{}i:2;i:1906;}i:168;a:3:{i:0;s:5:"cdata";i:1;a:1:{i:0;s:1:" ";}i:2;i:1908;}i:169;a:3:{i:0;s:12:"strong_close";i:1;a:0:{}i:2;i:1909;}i:170;a:3:{i:0;s:7:"p_close";i:1;a:0:{}i:2;i:1911;}i:171;a:3:{i:0;s:6:"p_open";i:1;a:0:{}i:2;i:1911;}i:172;a:3:{i:0;s:9:"linebreak";i:1;a:0:{}i:2;i:1913;}i:173;a:3:{i:0;s:5:"cdata";i:1;a:1:{i:0;s:115:"
Create some files in the /remotesync directory of Server A and check for the same files created in the /remotesync";}i:2;i:1915;}i:174;a:3:{i:0;s:9:"linebreak";i:1;a:0:{}i:2;i:2030;}i:175;a:3:{i:0;s:5:"cdata";i:1;a:1:{i:0;s:23:"
directory of Server B.";}i:2;i:2032;}i:176;a:3:{i:0;s:7:"p_close";i:1;a:0:{}i:2;i:2055;}i:177;a:3:{i:0;s:13:"section_close";i:1;a:0:{}i:2;i:2056;}i:178;a:3:{i:0;s:12:"document_end";i:1;a:0:{}i:2;i:2056;}}