a:20:{i:0;a:3:{i:0;s:14:"document_start";i:1;a:0:{}i:2;i:0;}i:1;a:3:{i:0;s:6:"p_open";i:1;a:0:{}i:2;i:0;}i:2;a:3:{i:0;s:5:"cdata";i:1;a:1:{i:0;s:42:"1. Transfer website through transfer tool.";}i:2;i:1;}i:3;a:3:{i:0;s:7:"p_close";i:1;a:0:{}i:2;i:43;}i:4;a:3:{i:0;s:6:"p_open";i:1;a:0:{}i:2;i:43;}i:5;a:3:{i:0;s:6:"plugin";i:1;a:4:{i:0;s:9:"code_code";i:1;a:4:{i:0;s:4:"code";i:1;N;i:2;s:0:"";i:3;s:105:"
Note: If DNS is running on cPanel, then only use express transfer while migrating, otherwise don't use.
";}i:2;i:3;i:3;s:106:">
Note: If DNS is running on cPanel, then only use express transfer while migrating, otherwise don't use.
";}i:2;i:50;}i:6;a:3:{i:0;s:7:"p_close";i:1;a:0:{}i:2;i:163;}i:7;a:3:{i:0;s:6:"p_open";i:1;a:0:{}i:2;i:163;}i:8;a:3:{i:0;s:5:"cdata";i:1;a:1:{i:0;s:34:"2. After successful migration and ";}i:2;i:165;}i:9;a:3:{i:0;s:7:"acronym";i:1;a:1:{i:0;s:3:"DNS";}i:2;i:199;}i:10;a:3:{i:0;s:5:"cdata";i:1;a:1:{i:0;s:28:" update, wait for 5-6 hours.";}i:2;i:202;}i:11;a:3:{i:0;s:7:"p_close";i:1;a:0:{}i:2;i:230;}i:12;a:3:{i:0;s:6:"p_open";i:1;a:0:{}i:2;i:230;}i:13;a:3:{i:0;s:5:"cdata";i:1;a:1:{i:0;s:115:"3. Now, run rsync command from old server to new server for the two directories in order to avoid any loss of data:";}i:2;i:232;}i:14;a:3:{i:0;s:7:"p_close";i:1;a:0:{}i:2;i:347;}i:15;a:3:{i:0;s:6:"p_open";i:1;a:0:{}i:2;i:347;}i:16;a:3:{i:0;s:6:"plugin";i:1;a:4:{i:0;s:9:"code_code";i:1;a:4:{i:0;s:4:"code";i:1;N;i:2;s:0:"";i:3;s:115:"
/home/$user/mail/                 ==>> In case of mails
/home/$user/public_html/          ==>> In case of website
";}i:2;i:3;i:3;s:116:">
/home/$user/mail/                 ==>> In case of mails
/home/$user/public_html/          ==>> In case of website
";}i:2;i:354;}i:17;a:3:{i:0;s:5:"cdata";i:1;a:1:{i:0;s:0:"";}i:2;i:477;}i:18;a:3:{i:0;s:7:"p_close";i:1;a:0:{}i:2;i:477;}i:19;a:3:{i:0;s:12:"document_end";i:1;a:0:{}i:2;i:477;}}