a:15:{i:0;a:3:{i:0;s:14:"document_start";i:1;a:0:{}i:2;i:0;}i:1;a:3:{i:0;s:6:"header";i:1;a:3:{i:0;s:23:"Automatic MySQL backups";i:1;i:1;i:2;i:1;}i:2;i:1;}i:2;a:3:{i:0;s:12:"section_open";i:1;a:1:{i:0;i:1;}i:2;i:1;}i:3;a:3:{i:0;s:6:"p_open";i:1;a:0:{}i:2;i:1;}i:4;a:3:{i:0;s:5:"cdata";i:1;a:1:{i:0;s:50:"1) Create a shell script with following contents:
";}i:2;i:41;}i:5;a:3:{i:0;s:6:"plugin";i:1;a:4:{i:0;s:9:"code_code";i:1;a:4:{i:0;s:4:"code";i:1;N;i:2;s:0:"";i:3;s:195:"
#!/bin/sh

# Dump MySQL database every day using cron

NOW=$(date +"%F")

BACKUP="/home/db_backup_$NOW"

MYSQLDUMP="/usr/bin/mysqldump"

GZIP="/bin/gzip"

$MYSQLDUMP <db_name> | $GZIP > $BACKUP
";}i:2;i:3;i:3;s:196:">
#!/bin/sh

# Dump MySQL database every day using cron

NOW=$(date +"%F")

BACKUP="/home/db_backup_$NOW"

MYSQLDUMP="/usr/bin/mysqldump"

GZIP="/bin/gzip"

$MYSQLDUMP <db_name> | $GZIP > $BACKUP
";}i:2;i:96;}i:6;a:3:{i:0;s:7:"p_close";i:1;a:0:{}i:2;i:299;}i:7;a:3:{i:0;s:6:"p_open";i:1;a:0:{}i:2;i:299;}i:8;a:3:{i:0;s:5:"cdata";i:1;a:1:{i:0;s:25:"2) Add this to cron jobs:";}i:2;i:303;}i:9;a:3:{i:0;s:7:"p_close";i:1;a:0:{}i:2;i:328;}i:10;a:3:{i:0;s:6:"p_open";i:1;a:0:{}i:2;i:328;}i:11;a:3:{i:0;s:5:"cdata";i:1;a:1:{i:0;s:43:"0 0 * * * /bin/sh /root/<name_of_script.sh>";}i:2;i:330;}i:12;a:3:{i:0;s:7:"p_close";i:1;a:0:{}i:2;i:373;}i:13;a:3:{i:0;s:13:"section_close";i:1;a:0:{}i:2;i:373;}i:14;a:3:{i:0;s:12:"document_end";i:1;a:0:{}i:2;i:373;}}