a:10:{i:0;a:3:{i:0;s:14:"document_start";i:1;a:0:{}i:2;i:0;}i:1;a:3:{i:0;s:6:"header";i:1;a:3:{i:0;s:14:"Install Nagios";i:1;i:1;i:2;i:1;}i:2;i:1;}i:2;a:3:{i:0;s:12:"section_open";i:1;a:1:{i:0;i:1;}i:2;i:1;}i:3;a:3:{i:0;s:6:"p_open";i:1;a:0:{}i:2;i:1;}i:4;a:3:{i:0;s:5:"cdata";i:1;a:1:{i:0;s:66:"Login as root in the Host server and type the following commands:
";}i:2;i:32;}i:5;a:3:{i:0;s:6:"plugin";i:1;a:4:{i:0;s:9:"code_code";i:1;a:4:{i:0;s:4:"code";i:1;N;i:2;s:0:"";i:3;s:1260:"
yum install httpd gcc glibc glibc-common gd gd-devel php

useradd -m nagios
groupadd nagcmd
usermod -a -G nagcmd nagios
usermod -a -G nagcmd apache

mkdir /opt/Nagios
cd /opt/Nagios
Now, download the Nagios package from http://www.nagios.org/download/download.php
tar xzf nagios-xxx (version of nagios)
cd nagios-xxx

./configure --with-command-group=nagcmd
make all
make install
make install-init
make install-config
make install-commandmode

make install-webconf
htpasswd -c /usr/local/nagios/etc/htpasswd.users nagiosadmin
(Remember ths password you give here!!)

service httpd restart

http://wiki.mantraventures.com/tiki-editpage.php?page=Install+Nagios&hdr=1

INSTALL NAGIOS PLUGINS:
cd /opt/Nagios
Download plugins package from http://www.nagios.org/download/download.php
tar xzf nagios-plugins-xxx
cd nagios-plugins-xxx

./configure - -with-nagios-user=nagios --with-nagios-group=nagios (Remove space between hyphens)
make
make install
vi /usr/local/nagios/etc/objects/contacts.cfg

Change the email address to yours.

/usr/local/nagios/bin/nagios -v /usr/local/nagios/etc/nagios.cfg
Total Warnings: 0
Total Errors: 0

chkconfig --add nagios
chkconfig nagios on
chkconfig httpd on
service nagios start

Login to Nagios from: http://ip-address/nagios/ ";}i:2;i:3;i:3;s:1261:">
yum install httpd gcc glibc glibc-common gd gd-devel php

useradd -m nagios
groupadd nagcmd
usermod -a -G nagcmd nagios
usermod -a -G nagcmd apache

mkdir /opt/Nagios
cd /opt/Nagios
Now, download the Nagios package from http://www.nagios.org/download/download.php
tar xzf nagios-xxx (version of nagios)
cd nagios-xxx

./configure --with-command-group=nagcmd
make all
make install
make install-init
make install-config
make install-commandmode

make install-webconf
htpasswd -c /usr/local/nagios/etc/htpasswd.users nagiosadmin
(Remember ths password you give here!!)

service httpd restart

http://wiki.mantraventures.com/tiki-editpage.php?page=Install+Nagios&hdr=1

INSTALL NAGIOS PLUGINS:
cd /opt/Nagios
Download plugins package from http://www.nagios.org/download/download.php
tar xzf nagios-plugins-xxx
cd nagios-plugins-xxx

./configure - -with-nagios-user=nagios --with-nagios-group=nagios (Remove space between hyphens)
make
make install
vi /usr/local/nagios/etc/objects/contacts.cfg

Change the email address to yours.

/usr/local/nagios/bin/nagios -v /usr/local/nagios/etc/nagios.cfg
Total Warnings: 0
Total Errors: 0

chkconfig --add nagios
chkconfig nagios on
chkconfig httpd on
service nagios start

Login to Nagios from: http://ip-address/nagios/ ";}i:2;i:103;}i:6;a:3:{i:0;s:5:"cdata";i:1;a:1:{i:0;s:0:"";}i:2;i:1371;}i:7;a:3:{i:0;s:7:"p_close";i:1;a:0:{}i:2;i:1371;}i:8;a:3:{i:0;s:13:"section_close";i:1;a:0:{}i:2;i:1371;}i:9;a:3:{i:0;s:12:"document_end";i:1;a:0:{}i:2;i:1371;}}