a:9:{i:0;a:3:{i:0;s:14:"document_start";i:1;a:0:{}i:2;i:0;}i:1;a:3:{i:0;s:6:"p_open";i:1;a:0:{}i:2;i:0;}i:2;a:3:{i:0;s:5:"cdata";i:1;a:1:{i:0;s:29:"To check problems in Selinux:";}i:2;i:1;}i:3;a:3:{i:0;s:7:"p_close";i:1;a:0:{}i:2;i:30;}i:4;a:3:{i:0;s:6:"p_open";i:1;a:0:{}i:2;i:30;}i:5;a:3:{i:0;s:6:"plugin";i:1;a:4:{i:0;s:9:"code_code";i:1;a:4:{i:0;s:4:"code";i:1;N;i:2;s:0:"";i:3;s:63:"
audit2allow -a
audit2allow -a -M <name>
semodule -i <name.pp>
";}i:2;i:3;i:3;s:64:">
audit2allow -a
audit2allow -a -M <name>
semodule -i <name.pp>
";}i:2;i:37;}i:6;a:3:{i:0;s:5:"cdata";i:1;a:1:{i:0;s:0:"";}i:2;i:108;}i:7;a:3:{i:0;s:7:"p_close";i:1;a:0:{}i:2;i:108;}i:8;a:3:{i:0;s:12:"document_end";i:1;a:0:{}i:2;i:108;}}