a:167:{i:0;a:3:{i:0;s:14:"document_start";i:1;a:0:{}i:2;i:0;}i:1;a:3:{i:0;s:6:"p_open";i:1;a:0:{}i:2;i:0;}i:2;a:3:{i:0;s:5:"cdata";i:1;a:1:{i:0;s:34:"==================================";}i:2;i:1;}i:3;a:3:{i:0;s:9:"linebreak";i:1;a:0:{}i:2;i:35;}i:4;a:3:{i:0;s:5:"cdata";i:1;a:1:{i:0;s:33:"
node.js init.d script for CentOS";}i:2;i:37;}i:5;a:3:{i:0;s:7:"p_close";i:1;a:0:{}i:2;i:70;}i:6;a:3:{i:0;s:6:"header";i:1;a:3:{i:0;s:0:"";i:1;i:1;i:2;i:72;}i:2;i:72;}i:7;a:3:{i:0;s:12:"section_open";i:1;a:1:{i:0;i:1;}i:2;i:72;}i:8;a:3:{i:0;s:6:"p_open";i:1;a:0:{}i:2;i:72;}i:9;a:3:{i:0;s:5:"cdata";i:1;a:1:{i:0;s:6:"Go to ";}i:2;i:89;}i:10;a:3:{i:0;s:18:"doublequoteopening";i:1;a:0:{}i:2;i:95;}i:11;a:3:{i:0;s:5:"cdata";i:1;a:1:{i:0;s:16:"/etc/rc.d/init.d";}i:2;i:96;}i:12;a:3:{i:0;s:18:"doublequoteclosing";i:1;a:0:{}i:2;i:112;}i:13;a:3:{i:0;s:5:"cdata";i:1;a:1:{i:0;s:11:" directory.";}i:2;i:113;}i:14;a:3:{i:0;s:9:"linebreak";i:1;a:0:{}i:2;i:124;}i:15;a:3:{i:0;s:5:"cdata";i:1;a:1:{i:0;s:60:"
Create an file named node-app and change execute permision.";}i:2;i:126;}i:16;a:3:{i:0;s:9:"linebreak";i:1;a:0:{}i:2;i:186;}i:17;a:3:{i:0;s:5:"cdata";i:1;a:1:{i:0;s:17:"
# touch node-app";}i:2;i:188;}i:18;a:3:{i:0;s:9:"linebreak";i:1;a:0:{}i:2;i:205;}i:19;a:3:{i:0;s:5:"cdata";i:1;a:1:{i:0;s:20:"
# chmod +x node-app";}i:2;i:207;}i:20;a:3:{i:0;s:9:"linebreak";i:1;a:0:{}i:2;i:227;}i:21;a:3:{i:0;s:5:"cdata";i:1;a:1:{i:0;s:20:"
# ls -ltrh node-app";}i:2;i:229;}i:22;a:3:{i:0;s:7:"p_close";i:1;a:0:{}i:2;i:249;}i:23;a:3:{i:0;s:6:"p_open";i:1;a:0:{}i:2;i:249;}i:24;a:3:{i:0;s:5:"cdata";i:1;a:1:{i:0;s:41:"Now copy and past all the content in the ";}i:2;i:251;}i:25;a:3:{i:0;s:18:"doublequoteopening";i:1;a:0:{}i:2;i:292;}i:26;a:3:{i:0;s:5:"cdata";i:1;a:1:{i:0;s:8:"node-app";}i:2;i:293;}i:27;a:3:{i:0;s:18:"doublequoteclosing";i:1;a:0:{}i:2;i:301;}i:28;a:3:{i:0;s:5:"cdata";i:1;a:1:{i:0;s:25:" file. You may use below ";}i:2;i:302;}i:29;a:3:{i:0;s:7:"acronym";i:1;a:1:{i:0;s:3:"URL";}i:2;i:327;}i:30;a:3:{i:0;s:5:"cdata";i:1;a:1:{i:0;s:22:" for more information.";}i:2;i:330;}i:31;a:3:{i:0;s:9:"linebreak";i:1;a:0:{}i:2;i:352;}i:32;a:3:{i:0;s:5:"cdata";i:1;a:1:{i:0;s:1:"
";}i:2;i:354;}i:33;a:3:{i:0;s:12:"externallink";i:1;a:2:{i:0;s:38:"https://gist.github.com/nariyu/1211413";i:1;s:38:"https://gist.github.com/nariyu/1211413";}i:2;i:355;}i:34;a:3:{i:0;s:7:"p_close";i:1;a:0:{}i:2;i:436;}i:35;a:3:{i:0;s:6:"p_open";i:1;a:0:{}i:2;i:436;}i:36;a:3:{i:0;s:5:"cdata";i:1;a:1:{i:0;s:44:"root@server [/etc/rc.d/init.d]# vim node-app";}i:2;i:438;}i:37;a:3:{i:0;s:9:"linebreak";i:1;a:0:{}i:2;i:482;}i:38;a:3:{i:0;s:5:"cdata";i:1;a:1:{i:0;s:68:"
===================================================================";}i:2;i:484;}i:39;a:3:{i:0;s:9:"linebreak";i:1;a:0:{}i:2;i:552;}i:40;a:3:{i:0;s:5:"cdata";i:1;a:1:{i:0;s:10:"
#!/bin/sh";}i:2;i:554;}i:41;a:3:{i:0;s:7:"p_close";i:1;a:0:{}i:2;i:564;}i:42;a:3:{i:0;s:6:"p_open";i:1;a:0:{}i:2;i:564;}i:43;a:3:{i:0;s:5:"cdata";i:1;a:1:{i:0;s:1:"#";}i:2;i:566;}i:44;a:3:{i:0;s:9:"linebreak";i:1;a:0:{}i:2;i:567;}i:45;a:3:{i:0;s:5:"cdata";i:1;a:1:{i:0;s:22:"
# chkconfig: 35 99 99";}i:2;i:569;}i:46;a:3:{i:0;s:9:"linebreak";i:1;a:0:{}i:2;i:591;}i:47;a:3:{i:0;s:5:"cdata";i:1;a:1:{i:0;s:50:"
# description: Node.js /home/nodejs/sample/app.js";}i:2;i:593;}i:48;a:3:{i:0;s:9:"linebreak";i:1;a:0:{}i:2;i:643;}i:49;a:3:{i:0;s:5:"cdata";i:1;a:1:{i:0;s:2:"
#";}i:2;i:645;}i:50;a:3:{i:0;s:7:"p_close";i:1;a:0:{}i:2;i:647;}i:51;a:3:{i:0;s:6:"p_open";i:1;a:0:{}i:2;i:647;}i:52;a:3:{i:0;s:5:"cdata";i:1;a:1:{i:0;s:28:". /etc/rc.d/init.d/functions";}i:2;i:649;}i:53;a:3:{i:0;s:7:"p_close";i:1;a:0:{}i:2;i:677;}i:54;a:3:{i:0;s:6:"p_open";i:1;a:0:{}i:2;i:677;}i:55;a:3:{i:0;s:5:"cdata";i:1;a:1:{i:0;s:5:"USER=";}i:2;i:679;}i:56;a:3:{i:0;s:18:"doublequoteopening";i:1;a:0:{}i:2;i:684;}i:57;a:3:{i:0;s:5:"cdata";i:1;a:1:{i:0;s:6:"nodejs";}i:2;i:685;}i:58;a:3:{i:0;s:18:"doublequoteclosing";i:1;a:0:{}i:2;i:691;}i:59;a:3:{i:0;s:5:"cdata";i:1;a:1:{i:0;s:1:"n";}i:2;i:692;}i:60;a:3:{i:0;s:7:"p_close";i:1;a:0:{}i:2;i:693;}i:61;a:3:{i:0;s:6:"p_open";i:1;a:0:{}i:2;i:693;}i:62;a:3:{i:0;s:5:"cdata";i:1;a:1:{i:0;s:7:"DAEMON=";}i:2;i:695;}i:63;a:3:{i:0;s:18:"doublequoteopening";i:1;a:0:{}i:2;i:702;}i:64;a:3:{i:0;s:5:"cdata";i:1;a:1:{i:0;s:34:"/home/nodejs/.nvm/v0.4.10/bin/node";}i:2;i:703;}i:65;a:3:{i:0;s:18:"doublequoteclosing";i:1;a:0:{}i:2;i:737;}i:66;a:3:{i:0;s:9:"linebreak";i:1;a:0:{}i:2;i:738;}i:67;a:3:{i:0;s:5:"cdata";i:1;a:1:{i:0;s:10:"
ROOT_DIR=";}i:2;i:740;}i:68;a:3:{i:0;s:18:"doublequoteopening";i:1;a:0:{}i:2;i:750;}i:69;a:3:{i:0;s:5:"cdata";i:1;a:1:{i:0;s:19:"/home/nodejs/sample";}i:2;i:751;}i:70;a:3:{i:0;s:18:"doublequoteclosing";i:1;a:0:{}i:2;i:770;}i:71;a:3:{i:0;s:7:"p_close";i:1;a:0:{}i:2;i:771;}i:72;a:3:{i:0;s:6:"p_open";i:1;a:0:{}i:2;i:771;}i:73;a:3:{i:0;s:5:"cdata";i:1;a:1:{i:0;s:7:"SERVER=";}i:2;i:773;}i:74;a:3:{i:0;s:18:"doublequoteopening";i:1;a:0:{}i:2;i:780;}i:75;a:3:{i:0;s:5:"cdata";i:1;a:1:{i:0;s:16:"$ROOT_DIR/app.js";}i:2;i:781;}i:76;a:3:{i:0;s:18:"doublequoteclosing";i:1;a:0:{}i:2;i:797;}i:77;a:3:{i:0;s:9:"linebreak";i:1;a:0:{}i:2;i:798;}i:78;a:3:{i:0;s:5:"cdata";i:1;a:1:{i:0;s:10:"
LOG_FILE=";}i:2;i:800;}i:79;a:3:{i:0;s:18:"doublequoteopening";i:1;a:0:{}i:2;i:810;}i:80;a:3:{i:0;s:5:"cdata";i:1;a:1:{i:0;s:20:"$ROOT_DIR/app.js.log";}i:2;i:811;}i:81;a:3:{i:0;s:18:"doublequoteclosing";i:1;a:0:{}i:2;i:831;}i:82;a:3:{i:0;s:7:"p_close";i:1;a:0:{}i:2;i:832;}i:83;a:3:{i:0;s:6:"p_open";i:1;a:0:{}i:2;i:832;}i:84;a:3:{i:0;s:5:"cdata";i:1;a:1:{i:0;s:10:"LOCK_FILE=";}i:2;i:834;}i:85;a:3:{i:0;s:18:"doublequoteopening";i:1;a:0:{}i:2;i:844;}i:86;a:3:{i:0;s:5:"cdata";i:1;a:1:{i:0;s:28:"/var/lock/subsys/node-server";}i:2;i:845;}i:87;a:3:{i:0;s:18:"doublequoteclosing";i:1;a:0:{}i:2;i:873;}i:88;a:3:{i:0;s:7:"p_close";i:1;a:0:{}i:2;i:874;}i:89;a:3:{i:0;s:6:"p_open";i:1;a:0:{}i:2;i:874;}i:90;a:3:{i:0;s:5:"cdata";i:1;a:1:{i:0;s:10:"do_start()";}i:2;i:876;}i:91;a:3:{i:0;s:9:"linebreak";i:1;a:0:{}i:2;i:886;}i:92;a:3:{i:0;s:5:"cdata";i:1;a:1:{i:0;s:2:"
{";}i:2;i:888;}i:93;a:3:{i:0;s:7:"p_close";i:1;a:0:{}i:2;i:890;}i:94;a:3:{i:0;s:6:"p_open";i:1;a:0:{}i:2;i:890;}i:95;a:3:{i:0;s:6:"plugin";i:1;a:4:{i:0;s:9:"code_code";i:1;a:4:{i:0;s:4:"code";i:1;N;i:2;s:0:"";i:3;s:269:"
    if [ ! -f "$LOCK_FILE" ] ; then\\
echo -n $"Starting $SERVER: "\\
runuser -l "$USER" -c "$DAEMON $SERVER>> $LOG_FILE &" && echo_success || echo_failure\\
RETVAL=$?\\
echo\\
[ $RETVAL -eq 0 ] && touch $LOCK_FILE\\
else\\
echo "$SERVER is locked."\\
RETVAL=1\\
fi\\
";}i:2;i:3;i:3;s:270:">
    if [ ! -f "$LOCK_FILE" ] ; then\\
echo -n $"Starting $SERVER: "\\
runuser -l "$USER" -c "$DAEMON $SERVER>> $LOG_FILE &" && echo_success || echo_failure\\
RETVAL=$?\\
echo\\
[ $RETVAL -eq 0 ] && touch $LOCK_FILE\\
else\\
echo "$SERVER is locked."\\
RETVAL=1\\
fi\\
";}i:2;i:897;}i:96;a:3:{i:0;s:7:"p_close";i:1;a:0:{}i:2;i:1174;}i:97;a:3:{i:0;s:6:"p_open";i:1;a:0:{}i:2;i:1174;}i:98;a:3:{i:0;s:5:"cdata";i:1;a:1:{i:0;s:1:"}";}i:2;i:1176;}i:99;a:3:{i:0;s:9:"linebreak";i:1;a:0:{}i:2;i:1177;}i:100;a:3:{i:0;s:5:"cdata";i:1;a:1:{i:0;s:10:"
do_stop()";}i:2;i:1179;}i:101;a:3:{i:0;s:9:"linebreak";i:1;a:0:{}i:2;i:1189;}i:102;a:3:{i:0;s:5:"cdata";i:1;a:1:{i:0;s:2:"
{";}i:2;i:1191;}i:103;a:3:{i:0;s:7:"p_close";i:1;a:0:{}i:2;i:1193;}i:104;a:3:{i:0;s:6:"p_open";i:1;a:0:{}i:2;i:1193;}i:105;a:3:{i:0;s:6:"plugin";i:1;a:4:{i:0;s:9:"code_code";i:1;a:4:{i:0;s:4:"code";i:1;N;i:2;s:0:"";i:3;s:239:"
    echo -n $"Stopping $SERVER: "\\
pid=`ps -aefw | grep "$DAEMON $SERVER" | grep -v " grep " | awk '{print $2}'`\\
kill -9 $pid> /dev/null 2>&1 && echo_success || echo_failure\\
RETVAL=$?\\
echo\\
[ $RETVAL -eq 0 ] && rm -f $LOCK_FILE\\
";}i:2;i:3;i:3;s:240:">
    echo -n $"Stopping $SERVER: "\\
pid=`ps -aefw | grep "$DAEMON $SERVER" | grep -v " grep " | awk '{print $2}'`\\
kill -9 $pid> /dev/null 2>&1 && echo_success || echo_failure\\
RETVAL=$?\\
echo\\
[ $RETVAL -eq 0 ] && rm -f $LOCK_FILE\\
";}i:2;i:1200;}i:106;a:3:{i:0;s:7:"p_close";i:1;a:0:{}i:2;i:1447;}i:107;a:3:{i:0;s:6:"p_open";i:1;a:0:{}i:2;i:1447;}i:108;a:3:{i:0;s:5:"cdata";i:1;a:1:{i:0;s:1:"}";}i:2;i:1449;}i:109;a:3:{i:0;s:7:"p_close";i:1;a:0:{}i:2;i:1450;}i:110;a:3:{i:0;s:6:"p_open";i:1;a:0:{}i:2;i:1450;}i:111;a:3:{i:0;s:5:"cdata";i:1;a:1:{i:0;s:5:"case ";}i:2;i:1452;}i:112;a:3:{i:0;s:18:"doublequoteopening";i:1;a:0:{}i:2;i:1457;}i:113;a:3:{i:0;s:5:"cdata";i:1;a:1:{i:0;s:2:"$1";}i:2;i:1458;}i:114;a:3:{i:0;s:18:"doublequoteclosing";i:1;a:0:{}i:2;i:1460;}i:115;a:3:{i:0;s:5:"cdata";i:1;a:1:{i:0;s:3:" in";}i:2;i:1461;}i:116;a:3:{i:0;s:7:"p_close";i:1;a:0:{}i:2;i:1464;}i:117;a:3:{i:0;s:6:"p_open";i:1;a:0:{}i:2;i:1464;}i:118;a:3:{i:0;s:6:"plugin";i:1;a:4:{i:0;s:9:"code_code";i:1;a:4:{i:0;s:4:"code";i:1;N;i:2;s:0:"";i:3;s:146:"
    start)\\
do_start\\
;;\\
stop)\\
do_stop\\
;;\\
restart)\\
do_stop\\
do_start\\
;;\\
*)\\
echo "Usage: $0 {start|stop|restart}"\\
RETVAL=1\\
";}i:2;i:3;i:3;s:147:">
    start)\\
do_start\\
;;\\
stop)\\
do_stop\\
;;\\
restart)\\
do_stop\\
do_start\\
;;\\
*)\\
echo "Usage: $0 {start|stop|restart}"\\
RETVAL=1\\
";}i:2;i:1471;}i:119;a:3:{i:0;s:7:"p_close";i:1;a:0:{}i:2;i:1625;}i:120;a:3:{i:0;s:6:"p_open";i:1;a:0:{}i:2;i:1625;}i:121;a:3:{i:0;s:5:"cdata";i:1;a:1:{i:0;s:4:"esac";}i:2;i:1627;}i:122;a:3:{i:0;s:7:"p_close";i:1;a:0:{}i:2;i:1631;}i:123;a:3:{i:0;s:6:"p_open";i:1;a:0:{}i:2;i:1631;}i:124;a:3:{i:0;s:5:"cdata";i:1;a:1:{i:0;s:12:"exit $RETVAL";}i:2;i:1633;}i:125;a:3:{i:0;s:7:"p_close";i:1;a:0:{}i:2;i:1645;}i:126;a:3:{i:0;s:13:"section_close";i:1;a:0:{}i:2;i:1647;}i:127;a:3:{i:0;s:6:"header";i:1;a:3:{i:0;s:0:"";i:1;i:1;i:2;i:1647;}i:2;i:1647;}i:128;a:3:{i:0;s:12:"section_open";i:1;a:1:{i:0;i:1;}i:2;i:1647;}i:129;a:3:{i:0;s:6:"p_open";i:1;a:0:{}i:2;i:1647;}i:130;a:3:{i:0;s:9:"linebreak";i:1;a:0:{}i:2;i:1664;}i:131;a:3:{i:0;s:5:"cdata";i:1;a:1:{i:0;s:43:"
Now edit the below line and save the file.";}i:2;i:1666;}i:132;a:3:{i:0;s:9:"linebreak";i:1;a:0:{}i:2;i:1709;}i:133;a:3:{i:0;s:5:"cdata";i:1;a:1:{i:0;s:56:"
——————————————————-";}i:2;i:1711;}i:134;a:3:{i:0;s:9:"linebreak";i:1;a:0:{}i:2;i:1767;}i:135;a:3:{i:0;s:5:"cdata";i:1;a:1:{i:0;s:6:"
USER=";}i:2;i:1769;}i:136;a:3:{i:0;s:18:"doublequoteopening";i:1;a:0:{}i:2;i:1775;}i:137;a:3:{i:0;s:5:"cdata";i:1;a:1:{i:0;s:4:"zest";}i:2;i:1776;}i:138;a:3:{i:0;s:18:"doublequoteclosing";i:1;a:0:{}i:2;i:1780;}i:139;a:3:{i:0;s:9:"linebreak";i:1;a:0:{}i:2;i:1781;}i:140;a:3:{i:0;s:5:"cdata";i:1;a:1:{i:0;s:8:"
DAEMON=";}i:2;i:1783;}i:141;a:3:{i:0;s:18:"doublequoteopening";i:1;a:0:{}i:2;i:1791;}i:142;a:3:{i:0;s:5:"cdata";i:1;a:1:{i:0;s:19:"/usr/local/bin/node";}i:2;i:1792;}i:143;a:3:{i:0;s:18:"doublequoteclosing";i:1;a:0:{}i:2;i:1811;}i:144;a:3:{i:0;s:9:"linebreak";i:1;a:0:{}i:2;i:1812;}i:145;a:3:{i:0;s:5:"cdata";i:1;a:1:{i:0;s:10:"
ROOT_DIR=";}i:2;i:1814;}i:146;a:3:{i:0;s:18:"doublequoteopening";i:1;a:0:{}i:2;i:1824;}i:147;a:3:{i:0;s:5:"cdata";i:1;a:1:{i:0;s:41:"/home/zest/public_html/clinic/assets/node";}i:2;i:1825;}i:148;a:3:{i:0;s:18:"doublequoteclosing";i:1;a:0:{}i:2;i:1866;}i:149;a:3:{i:0;s:9:"linebreak";i:1;a:0:{}i:2;i:1867;}i:150;a:3:{i:0;s:5:"cdata";i:1;a:1:{i:0;s:10:"
LOG_FILE=";}i:2;i:1869;}i:151;a:3:{i:0;s:18:"doublequoteopening";i:1;a:0:{}i:2;i:1879;}i:152;a:3:{i:0;s:5:"cdata";i:1;a:1:{i:0;s:22:"$ROOT_DIR/index.js.log";}i:2;i:1880;}i:153;a:3:{i:0;s:18:"doublequoteclosing";i:1;a:0:{}i:2;i:1902;}i:154;a:3:{i:0;s:5:"cdata";i:1;a:1:{i:0;s:0:"";}i:2;i:1903;}i:155;a:3:{i:0;s:7:"p_close";i:1;a:0:{}i:2;i:1904;}i:156;a:3:{i:0;s:2:"hr";i:1;a:0:{}i:2;i:1904;}i:157;a:3:{i:0;s:6:"p_open";i:1;a:0:{}i:2;i:1904;}i:158;a:3:{i:0;s:9:"linebreak";i:1;a:0:{}i:2;i:1911;}i:159;a:3:{i:0;s:5:"cdata";i:1;a:1:{i:0;s:30:"
# /etc/init.d/node-app status";}i:2;i:1913;}i:160;a:3:{i:0;s:9:"linebreak";i:1;a:0:{}i:2;i:1943;}i:161;a:3:{i:0;s:5:"cdata";i:1;a:1:{i:0;s:29:"
# /etc/init.d/node-app start";}i:2;i:1945;}i:162;a:3:{i:0;s:9:"linebreak";i:1;a:0:{}i:2;i:1974;}i:163;a:3:{i:0;s:5:"cdata";i:1;a:1:{i:0;s:24:"
# chkconfig node-app on";}i:2;i:1976;}i:164;a:3:{i:0;s:7:"p_close";i:1;a:0:{}i:2;i:2000;}i:165;a:3:{i:0;s:13:"section_close";i:1;a:0:{}i:2;i:2001;}i:166;a:3:{i:0;s:12:"document_end";i:1;a:0:{}i:2;i:2001;}}