a:17:{i:0;a:3:{i:0;s:14:"document_start";i:1;a:0:{}i:2;i:0;}i:1;a:3:{i:0;s:6:"p_open";i:1;a:0:{}i:2;i:0;}i:2;a:3:{i:0;s:5:"cdata";i:1;a:1:{i:0;s:68:"#Create script with any name in /opt/zimbra/ with the below contents";}i:2;i:1;}i:3;a:3:{i:0;s:7:"p_close";i:1;a:0:{}i:2;i:69;}i:4;a:3:{i:0;s:6:"p_open";i:1;a:0:{}i:2;i:69;}i:5;a:3:{i:0;s:5:"cdata";i:1;a:1:{i:0;s:31:"vim /opt/zimbra/amavis_start.sh";}i:2;i:71;}i:6;a:3:{i:0;s:7:"p_close";i:1;a:0:{}i:2;i:102;}i:7;a:3:{i:0;s:6:"p_open";i:1;a:0:{}i:2;i:102;}i:8;a:3:{i:0;s:6:"plugin";i:1;a:4:{i:0;s:9:"code_code";i:1;a:4:{i:0;s:4:"code";i:1;N;i:2;s:0:"";i:3;s:223:"
#!/bin/bash

exec &>> /tmp/amavis_service_logs.txt

USER=`whoami`

if [ $USER != zimbra ]; then echo "Use this script using zimbra user."; exit; fi

zmamavisdctl status

s1=$?

if [ $s1 != 0 ]; then zmamavisdctl start; fi
";}i:2;i:3;i:3;s:224:">
#!/bin/bash

exec &>> /tmp/amavis_service_logs.txt

USER=`whoami`

if [ $USER != zimbra ]; then echo "Use this script using zimbra user."; exit; fi

zmamavisdctl status

s1=$?

if [ $s1 != 0 ]; then zmamavisdctl start; fi
";}i:2;i:109;}i:9;a:3:{i:0;s:7:"p_close";i:1;a:0:{}i:2;i:340;}i:10;a:3:{i:0;s:6:"p_open";i:1;a:0:{}i:2;i:340;}i:11;a:3:{i:0;s:5:"cdata";i:1;a:1:{i:0;s:48:"# Change permission and ownership of the script.";}i:2;i:342;}i:12;a:3:{i:0;s:7:"p_close";i:1;a:0:{}i:2;i:390;}i:13;a:3:{i:0;s:6:"p_open";i:1;a:0:{}i:2;i:390;}i:14;a:3:{i:0;s:6:"plugin";i:1;a:4:{i:0;s:9:"code_code";i:1;a:4:{i:0;s:4:"code";i:1;N;i:2;s:0:"";i:3;s:87:"
chmod +x /opt/zimbra/amavis_start.sh

chown zimbra:zimbra /opt/zimbra/amavis_start.sh
";}i:2;i:3;i:3;s:88:">
chmod +x /opt/zimbra/amavis_start.sh

chown zimbra:zimbra /opt/zimbra/amavis_start.sh
";}i:2;i:397;}i:15;a:3:{i:0;s:7:"p_close";i:1;a:0:{}i:2;i:492;}i:16;a:3:{i:0;s:12:"document_end";i:1;a:0:{}i:2;i:492;}}