a:164:{i:0;a:3:{i:0;s:14:"document_start";i:1;a:0:{}i:2;i:0;}i:1;a:3:{i:0;s:6:"header";i:1;a:3:{i:0;s:11:"/etc/my.cnf";i:1;i:2;i:2;i:1;}i:2;i:1;}i:2;a:3:{i:0;s:12:"section_open";i:1;a:1:{i:0;i:2;}i:2;i:1;}i:3;a:3:{i:0;s:2:"hr";i:1;a:0:{}i:2;i:25;}i:4;a:3:{i:0;s:6:"p_open";i:1;a:0:{}i:2;i:25;}i:5;a:3:{i:0;s:5:"cdata";i:1;a:1:{i:0;s:7:"[mysql]";}i:2;i:32;}i:6;a:3:{i:0;s:7:"p_close";i:1;a:0:{}i:2;i:39;}i:7;a:3:{i:0;s:6:"p_open";i:1;a:0:{}i:2;i:39;}i:8;a:3:{i:0;s:5:"cdata";i:1;a:1:{i:0;s:10:"# CLIENT #";}i:2;i:41;}i:9;a:3:{i:0;s:9:"linebreak";i:1;a:0:{}i:2;i:51;}i:10;a:3:{i:0;s:5:"cdata";i:1;a:1:{i:0;s:14:"
#port = 3306 ";}i:2;i:53;}i:11;a:3:{i:0;s:14:"monospace_open";i:1;a:0:{}i:2;i:67;}i:12;a:3:{i:0;s:5:"cdata";i:1;a:1:{i:0;s:51:"# only if mysql needs to access from outside server";}i:2;i:69;}i:13;a:3:{i:0;s:15:"monospace_close";i:1;a:0:{}i:2;i:120;}i:14;a:3:{i:0;s:5:"cdata";i:1;a:1:{i:0;s:1:" ";}i:2;i:122;}i:15;a:3:{i:0;s:9:"linebreak";i:1;a:0:{}i:2;i:123;}i:16;a:3:{i:0;s:5:"cdata";i:1;a:1:{i:0;s:35:"
socket = /var/lib/mysql/mysql.sock";}i:2;i:125;}i:17;a:3:{i:0;s:7:"p_close";i:1;a:0:{}i:2;i:160;}i:18;a:3:{i:0;s:6:"p_open";i:1;a:0:{}i:2;i:160;}i:19;a:3:{i:0;s:5:"cdata";i:1;a:1:{i:0;s:8:"[mysqld]";}i:2;i:162;}i:20;a:3:{i:0;s:9:"linebreak";i:1;a:0:{}i:2;i:170;}i:21;a:3:{i:0;s:5:"cdata";i:1;a:1:{i:0;s:17:"
symbolic-links=0";}i:2;i:172;}i:22;a:3:{i:0;s:7:"p_close";i:1;a:0:{}i:2;i:189;}i:23;a:3:{i:0;s:6:"p_open";i:1;a:0:{}i:2;i:189;}i:24;a:3:{i:0;s:5:"cdata";i:1;a:1:{i:0;s:11:"# GENERAL #";}i:2;i:191;}i:25;a:3:{i:0;s:9:"linebreak";i:1;a:0:{}i:2;i:202;}i:26;a:3:{i:0;s:5:"cdata";i:1;a:1:{i:0;s:13:"
user = mysql";}i:2;i:204;}i:27;a:3:{i:0;s:9:"linebreak";i:1;a:0:{}i:2;i:217;}i:28;a:3:{i:0;s:5:"cdata";i:1;a:1:{i:0;s:32:"
default-storage-engine = InnoDB";}i:2;i:219;}i:29;a:3:{i:0;s:9:"linebreak";i:1;a:0:{}i:2;i:251;}i:30;a:3:{i:0;s:5:"cdata";i:1;a:1:{i:0;s:35:"
socket = /var/lib/mysql/mysql.sock";}i:2;i:253;}i:31;a:3:{i:0;s:9:"linebreak";i:1;a:0:{}i:2;i:288;}i:32;a:3:{i:0;s:5:"cdata";i:1;a:1:{i:0;s:36:"
pid-file = /var/lib/mysql/mysql.pid";}i:2;i:290;}i:33;a:3:{i:0;s:7:"p_close";i:1;a:0:{}i:2;i:326;}i:34;a:3:{i:0;s:6:"p_open";i:1;a:0:{}i:2;i:326;}i:35;a:3:{i:0;s:5:"cdata";i:1;a:1:{i:0;s:10:"# MyISAM #";}i:2;i:328;}i:36;a:3:{i:0;s:9:"linebreak";i:1;a:0:{}i:2;i:338;}i:37;a:3:{i:0;s:5:"cdata";i:1;a:1:{i:0;s:23:"
key-buffer-size = 16M ";}i:2;i:340;}i:38;a:3:{i:0;s:14:"monospace_open";i:1;a:0:{}i:2;i:363;}i:39;a:3:{i:0;s:5:"cdata";i:1;a:1:{i:0;s:18:"# permanent buffer";}i:2;i:365;}i:40;a:3:{i:0;s:15:"monospace_close";i:1;a:0:{}i:2;i:383;}i:41;a:3:{i:0;s:5:"cdata";i:1;a:1:{i:0;s:1:" ";}i:2;i:385;}i:42;a:3:{i:0;s:9:"linebreak";i:1;a:0:{}i:2;i:386;}i:43;a:3:{i:0;s:5:"cdata";i:1;a:1:{i:0;s:30:"
myisam-recover = FORCE,BACKUP";}i:2;i:388;}i:44;a:3:{i:0;s:7:"p_close";i:1;a:0:{}i:2;i:418;}i:45;a:3:{i:0;s:6:"p_open";i:1;a:0:{}i:2;i:418;}i:46;a:3:{i:0;s:5:"cdata";i:1;a:1:{i:0;s:10:"# SAFETY #";}i:2;i:420;}i:47;a:3:{i:0;s:9:"linebreak";i:1;a:0:{}i:2;i:430;}i:48;a:3:{i:0;s:5:"cdata";i:1;a:1:{i:0;s:24:"
max-allowed-packet = 4M";}i:2;i:432;}i:49;a:3:{i:0;s:9:"linebreak";i:1;a:0:{}i:2;i:456;}i:50;a:3:{i:0;s:5:"cdata";i:1;a:1:{i:0;s:29:"
max-connect-errors = 1000000";}i:2;i:458;}i:51;a:3:{i:0;s:7:"p_close";i:1;a:0:{}i:2;i:487;}i:52;a:3:{i:0;s:6:"p_open";i:1;a:0:{}i:2;i:487;}i:53;a:3:{i:0;s:5:"cdata";i:1;a:1:{i:0;s:42:"# DATA STORAGE # datadir = /var/lib/mysql/";}i:2;i:489;}i:54;a:3:{i:0;s:7:"p_close";i:1;a:0:{}i:2;i:531;}i:55;a:3:{i:0;s:6:"p_open";i:1;a:0:{}i:2;i:531;}i:56;a:3:{i:0;s:5:"cdata";i:1;a:1:{i:0;s:21:"# CACHES AND LIMITS #";}i:2;i:533;}i:57;a:3:{i:0;s:9:"linebreak";i:1;a:0:{}i:2;i:554;}i:58;a:3:{i:0;s:5:"cdata";i:1;a:1:{i:0;s:22:"
tmp-table-size = 16M ";}i:2;i:556;}i:59;a:3:{i:0;s:14:"monospace_open";i:1;a:0:{}i:2;i:578;}i:60;a:3:{i:0;s:5:"cdata";i:1;a:1:{i:0;s:18:"# temporary buffer";}i:2;i:580;}i:61;a:3:{i:0;s:15:"monospace_close";i:1;a:0:{}i:2;i:598;}i:62;a:3:{i:0;s:5:"cdata";i:1;a:1:{i:0;s:1:" ";}i:2;i:600;}i:63;a:3:{i:0;s:9:"linebreak";i:1;a:0:{}i:2;i:601;}i:64;a:3:{i:0;s:5:"cdata";i:1;a:1:{i:0;s:27:"
max-heap-table-size = 16M ";}i:2;i:603;}i:65;a:3:{i:0;s:14:"monospace_open";i:1;a:0:{}i:2;i:630;}i:66;a:3:{i:0;s:5:"cdata";i:1;a:1:{i:0;s:18:"# temporary buffer";}i:2;i:632;}i:67;a:3:{i:0;s:15:"monospace_close";i:1;a:0:{}i:2;i:650;}i:68;a:3:{i:0;s:5:"cdata";i:1;a:1:{i:0;s:1:" ";}i:2;i:652;}i:69;a:3:{i:0;s:9:"linebreak";i:1;a:0:{}i:2;i:653;}i:70;a:3:{i:0;s:5:"cdata";i:1;a:1:{i:0;s:21:"
query-cache-type = 1";}i:2;i:655;}i:71;a:3:{i:0;s:9:"linebreak";i:1;a:0:{}i:2;i:676;}i:72;a:3:{i:0;s:5:"cdata";i:1;a:1:{i:0;s:23:"
query-cache-size = 16M";}i:2;i:678;}i:73;a:3:{i:0;s:9:"linebreak";i:1;a:0:{}i:2;i:701;}i:74;a:3:{i:0;s:5:"cdata";i:1;a:1:{i:0;s:22:"
max-connections = 500";}i:2;i:703;}i:75;a:3:{i:0;s:9:"linebreak";i:1;a:0:{}i:2;i:725;}i:76;a:3:{i:0;s:5:"cdata";i:1;a:1:{i:0;s:23:"
thread-cache-size = 30";}i:2;i:727;}i:77;a:3:{i:0;s:9:"linebreak";i:1;a:0:{}i:2;i:750;}i:78;a:3:{i:0;s:5:"cdata";i:1;a:1:{i:0;s:22:"
read_buffer_size = 1M";}i:2;i:752;}i:79;a:3:{i:0;s:9:"linebreak";i:1;a:0:{}i:2;i:774;}i:80;a:3:{i:0;s:5:"cdata";i:1;a:1:{i:0;s:22:"
sort_buffer_size = 1M";}i:2;i:776;}i:81;a:3:{i:0;s:9:"linebreak";i:1;a:0:{}i:2;i:798;}i:82;a:3:{i:0;s:5:"cdata";i:1;a:1:{i:0;s:25:"
open-files-limit = 65535";}i:2;i:800;}i:83;a:3:{i:0;s:9:"linebreak";i:1;a:0:{}i:2;i:825;}i:84;a:3:{i:0;s:5:"cdata";i:1;a:1:{i:0;s:31:"
table-definition-cache = 1024 ";}i:2;i:827;}i:85;a:3:{i:0;s:14:"monospace_open";i:1;a:0:{}i:2;i:858;}i:86;a:3:{i:0;s:5:"cdata";i:1;a:1:{i:0;s:18:"# temporary buffer";}i:2;i:860;}i:87;a:3:{i:0;s:15:"monospace_close";i:1;a:0:{}i:2;i:878;}i:88;a:3:{i:0;s:5:"cdata";i:1;a:1:{i:0;s:1:" ";}i:2;i:880;}i:89;a:3:{i:0;s:9:"linebreak";i:1;a:0:{}i:2;i:881;}i:90;a:3:{i:0;s:5:"cdata";i:1;a:1:{i:0;s:24:"
table-open-cache = 16M ";}i:2;i:883;}i:91;a:3:{i:0;s:14:"monospace_open";i:1;a:0:{}i:2;i:907;}i:92;a:3:{i:0;s:5:"cdata";i:1;a:1:{i:0;s:18:"# temporary buffer";}i:2;i:909;}i:93;a:3:{i:0;s:15:"monospace_close";i:1;a:0:{}i:2;i:927;}i:94;a:3:{i:0;s:7:"p_close";i:1;a:0:{}i:2;i:929;}i:95;a:3:{i:0;s:6:"p_open";i:1;a:0:{}i:2;i:929;}i:96;a:3:{i:0;s:5:"cdata";i:1;a:1:{i:0;s:10:"# INNODB #";}i:2;i:931;}i:97;a:3:{i:0;s:9:"linebreak";i:1;a:0:{}i:2;i:941;}i:98;a:3:{i:0;s:5:"cdata";i:1;a:1:{i:0;s:31:"
innodb-flush-method = O_DIRECT";}i:2;i:943;}i:99;a:3:{i:0;s:9:"linebreak";i:1;a:0:{}i:2;i:974;}i:100;a:3:{i:0;s:5:"cdata";i:1;a:1:{i:0;s:30:"
innodb-log-files-in-group = 2";}i:2;i:976;}i:101;a:3:{i:0;s:9:"linebreak";i:1;a:0:{}i:2;i:1006;}i:102;a:3:{i:0;s:5:"cdata";i:1;a:1:{i:0;s:28:"
innodb-log-file-size = 128M";}i:2;i:1008;}i:103;a:3:{i:0;s:9:"linebreak";i:1;a:0:{}i:2;i:1036;}i:104;a:3:{i:0;s:5:"cdata";i:1;a:1:{i:0;s:35:"
innodb-flush-log-at-trx-commit = 1";}i:2;i:1038;}i:105;a:3:{i:0;s:9:"linebreak";i:1;a:0:{}i:2;i:1073;}i:106;a:3:{i:0;s:5:"cdata";i:1;a:1:{i:0;s:26:"
innodb-file-per-table = 1";}i:2;i:1075;}i:107;a:3:{i:0;s:9:"linebreak";i:1;a:0:{}i:2;i:1101;}i:108;a:3:{i:0;s:5:"cdata";i:1;a:1:{i:0;s:33:"
innodb-buffer-pool-size = 1024M ";}i:2;i:1103;}i:109;a:3:{i:0;s:14:"monospace_open";i:1;a:0:{}i:2;i:1136;}i:110;a:3:{i:0;s:5:"cdata";i:1;a:1:{i:0;s:25:"#must be 1/4 of total RAM";}i:2;i:1138;}i:111;a:3:{i:0;s:15:"monospace_close";i:1;a:0:{}i:2;i:1163;}i:112;a:3:{i:0;s:7:"p_close";i:1;a:0:{}i:2;i:1165;}i:113;a:3:{i:0;s:6:"p_open";i:1;a:0:{}i:2;i:1165;}i:114;a:3:{i:0;s:5:"cdata";i:1;a:1:{i:0;s:11:"# LOGGING #";}i:2;i:1167;}i:115;a:3:{i:0;s:9:"linebreak";i:1;a:0:{}i:2;i:1178;}i:116;a:3:{i:0;s:5:"cdata";i:1;a:1:{i:0;s:44:"
log-error = /var/log/mysql/mysql-error.log ";}i:2;i:1180;}i:117;a:3:{i:0;s:14:"monospace_open";i:1;a:0:{}i:2;i:1224;}i:118;a:3:{i:0;s:5:"cdata";i:1;a:1:{i:0;s:32:"#/var/log/mysql dir. must exists";}i:2;i:1226;}i:119;a:3:{i:0;s:15:"monospace_close";i:1;a:0:{}i:2;i:1258;}i:120;a:3:{i:0;s:5:"cdata";i:1;a:1:{i:0;s:1:" ";}i:2;i:1260;}i:121;a:3:{i:0;s:9:"linebreak";i:1;a:0:{}i:2;i:1261;}i:122;a:3:{i:0;s:5:"cdata";i:1;a:1:{i:0;s:1:"
";}i:2;i:1263;}i:123;a:3:{i:0;s:14:"monospace_open";i:1;a:0:{}i:2;i:1264;}i:124;a:3:{i:0;s:5:"cdata";i:1;a:1:{i:0;s:20:"# Slow query logging";}i:2;i:1266;}i:125;a:3:{i:0;s:15:"monospace_close";i:1;a:0:{}i:2;i:1286;}i:126;a:3:{i:0;s:5:"cdata";i:1;a:1:{i:0;s:1:" ";}i:2;i:1288;}i:127;a:3:{i:0;s:9:"linebreak";i:1;a:0:{}i:2;i:1289;}i:128;a:3:{i:0;s:5:"cdata";i:1;a:1:{i:0;s:35:"
#log-queries-not-using-indexes = 1";}i:2;i:1291;}i:129;a:3:{i:0;s:9:"linebreak";i:1;a:0:{}i:2;i:1326;}i:130;a:3:{i:0;s:5:"cdata";i:1;a:1:{i:0;s:21:"
#slow-query-log = 2 ";}i:2;i:1328;}i:131;a:3:{i:0;s:14:"monospace_open";i:1;a:0:{}i:2;i:1349;}i:132;a:3:{i:0;s:5:"cdata";i:1;a:1:{i:0;s:36:"# slow query logging time in seconds";}i:2;i:1351;}i:133;a:3:{i:0;s:15:"monospace_close";i:1;a:0:{}i:2;i:1387;}i:134;a:3:{i:0;s:5:"cdata";i:1;a:1:{i:0;s:1:" ";}i:2;i:1389;}i:135;a:3:{i:0;s:9:"linebreak";i:1;a:0:{}i:2;i:1390;}i:136;a:3:{i:0;s:5:"cdata";i:1;a:1:{i:0;s:53:"
#slow-query-log-file = /var/log/mysql/mysql-slow.log";}i:2;i:1392;}i:137;a:3:{i:0;s:7:"p_close";i:1;a:0:{}i:2;i:1445;}i:138;a:3:{i:0;s:6:"p_open";i:1;a:0:{}i:2;i:1445;}i:139;a:3:{i:0;s:5:"cdata";i:1;a:1:{i:0;s:11:"[mysqldump]";}i:2;i:1447;}i:140;a:3:{i:0;s:9:"linebreak";i:1;a:0:{}i:2;i:1458;}i:141;a:3:{i:0;s:5:"cdata";i:1;a:1:{i:0;s:6:"
quick";}i:2;i:1460;}i:142;a:3:{i:0;s:9:"linebreak";i:1;a:0:{}i:2;i:1466;}i:143;a:3:{i:0;s:5:"cdata";i:1;a:1:{i:0;s:24:"
max_allowed_packet = 4M";}i:2;i:1468;}i:144;a:3:{i:0;s:7:"p_close";i:1;a:0:{}i:2;i:1493;}i:145;a:3:{i:0;s:2:"hr";i:1;a:0:{}i:2;i:1493;}i:146;a:3:{i:0;s:6:"p_open";i:1;a:0:{}i:2;i:1493;}i:147;a:3:{i:0;s:11:"strong_open";i:1;a:0:{}i:2;i:1500;}i:148;a:3:{i:0;s:13:"emphasis_open";i:1;a:0:{}i:2;i:1502;}i:149;a:3:{i:0;s:5:"cdata";i:1;a:1:{i:0;s:75:"Note : Values above are editable as per requirement in different scenarios.";}i:2;i:1504;}i:150;a:3:{i:0;s:14:"emphasis_close";i:1;a:0:{}i:2;i:1579;}i:151;a:3:{i:0;s:5:"cdata";i:1;a:1:{i:0;s:1:" ";}i:2;i:1581;}i:152;a:3:{i:0;s:12:"strong_close";i:1;a:0:{}i:2;i:1582;}i:153;a:3:{i:0;s:7:"p_close";i:1;a:0:{}i:2;i:1584;}i:154;a:3:{i:0;s:6:"p_open";i:1;a:0:{}i:2;i:1584;}i:155;a:3:{i:0;s:11:"strong_open";i:1;a:0:{}i:2;i:1586;}i:156;a:3:{i:0;s:13:"emphasis_open";i:1;a:0:{}i:2;i:1588;}i:157;a:3:{i:0;s:5:"cdata";i:1;a:1:{i:0;s:55:"Only for centos 6.x with mysql OR perconaDB (5.5 & 5.6)";}i:2;i:1590;}i:158;a:3:{i:0;s:14:"emphasis_close";i:1;a:0:{}i:2;i:1645;}i:159;a:3:{i:0;s:5:"cdata";i:1;a:1:{i:0;s:1:" ";}i:2;i:1647;}i:160;a:3:{i:0;s:12:"strong_close";i:1;a:0:{}i:2;i:1648;}i:161;a:3:{i:0;s:7:"p_close";i:1;a:0:{}i:2;i:1650;}i:162;a:3:{i:0;s:13:"section_close";i:1;a:0:{}i:2;i:1651;}i:163;a:3:{i:0;s:12:"document_end";i:1;a:0:{}i:2;i:1651;}}