a:40:{i:0;a:3:{i:0;s:14:"document_start";i:1;a:0:{}i:2;i:0;}i:1;a:3:{i:0;s:6:"p_open";i:1;a:0:{}i:2;i:0;}i:2;a:3:{i:0;s:5:"cdata";i:1;a:1:{i:0;s:50:"Edit /etc/my.cnf file and add the following lines:";}i:2;i:1;}i:3;a:3:{i:0;s:7:"p_close";i:1;a:0:{}i:2;i:51;}i:4;a:3:{i:0;s:6:"p_open";i:1;a:0:{}i:2;i:51;}i:5;a:3:{i:0;s:6:"plugin";i:1;a:4:{i:0;s:9:"code_code";i:1;a:4:{i:0;s:4:"code";i:1;N;i:2;s:0:"";i:3;s:85:"
long_query_time         = 1
log-slow-queries        = /var/log/mysql/mysql-slow.log
";}i:2;i:3;i:3;s:86:">
long_query_time         = 1
log-slow-queries        = /var/log/mysql/mysql-slow.log
";}i:2;i:58;}i:6;a:3:{i:0;s:7:"p_close";i:1;a:0:{}i:2;i:151;}i:7;a:3:{i:0;s:6:"p_open";i:1;a:0:{}i:2;i:151;}i:8;a:3:{i:0;s:5:"cdata";i:1;a:1:{i:0;s:20:"Create the log file:";}i:2;i:153;}i:9;a:3:{i:0;s:7:"p_close";i:1;a:0:{}i:2;i:173;}i:10;a:3:{i:0;s:6:"p_open";i:1;a:0:{}i:2;i:173;}i:11;a:3:{i:0;s:14:"monospace_open";i:1;a:0:{}i:2;i:175;}i:12;a:3:{i:0;s:5:"cdata";i:1;a:1:{i:0;s:35:"touch /var/log/mysql/mysql-slow.log";}i:2;i:177;}i:13;a:3:{i:0;s:15:"monospace_close";i:1;a:0:{}i:2;i:212;}i:14;a:3:{i:0;s:7:"p_close";i:1;a:0:{}i:2;i:214;}i:15;a:3:{i:0;s:6:"p_open";i:1;a:0:{}i:2;i:214;}i:16;a:3:{i:0;s:5:"cdata";i:1;a:1:{i:0;s:45:"Change the ownership of /var/log/mysql folder";}i:2;i:216;}i:17;a:3:{i:0;s:7:"p_close";i:1;a:0:{}i:2;i:261;}i:18;a:3:{i:0;s:6:"p_open";i:1;a:0:{}i:2;i:261;}i:19;a:3:{i:0;s:14:"monospace_open";i:1;a:0:{}i:2;i:263;}i:20;a:3:{i:0;s:5:"cdata";i:1;a:1:{i:0;s:30:"chown -R mysql /var/log/mysql/";}i:2;i:265;}i:21;a:3:{i:0;s:15:"monospace_close";i:1;a:0:{}i:2;i:295;}i:22;a:3:{i:0;s:7:"p_close";i:1;a:0:{}i:2;i:297;}i:23;a:3:{i:0;s:6:"p_open";i:1;a:0:{}i:2;i:297;}i:24;a:3:{i:0;s:5:"cdata";i:1;a:1:{i:0;s:14:"Restart mysql:";}i:2;i:299;}i:25;a:3:{i:0;s:7:"p_close";i:1;a:0:{}i:2;i:313;}i:26;a:3:{i:0;s:6:"p_open";i:1;a:0:{}i:2;i:313;}i:27;a:3:{i:0;s:14:"monospace_open";i:1;a:0:{}i:2;i:315;}i:28;a:3:{i:0;s:5:"cdata";i:1;a:1:{i:0;s:25:"/etc/init.d/mysql restart";}i:2;i:317;}i:29;a:3:{i:0;s:15:"monospace_close";i:1;a:0:{}i:2;i:342;}i:30;a:3:{i:0;s:7:"p_close";i:1;a:0:{}i:2;i:344;}i:31;a:3:{i:0;s:6:"p_open";i:1;a:0:{}i:2;i:344;}i:32;a:3:{i:0;s:5:"cdata";i:1;a:1:{i:0;s:2:"OR";}i:2;i:346;}i:33;a:3:{i:0;s:7:"p_close";i:1;a:0:{}i:2;i:348;}i:34;a:3:{i:0;s:6:"p_open";i:1;a:0:{}i:2;i:348;}i:35;a:3:{i:0;s:14:"monospace_open";i:1;a:0:{}i:2;i:350;}i:36;a:3:{i:0;s:5:"cdata";i:1;a:1:{i:0;s:26:"/etc/init.d/mysqld restart";}i:2;i:352;}i:37;a:3:{i:0;s:15:"monospace_close";i:1;a:0:{}i:2;i:378;}i:38;a:3:{i:0;s:7:"p_close";i:1;a:0:{}i:2;i:380;}i:39;a:3:{i:0;s:12:"document_end";i:1;a:0:{}i:2;i:380;}}