a:140:{i:0;a:3:{i:0;s:14:"document_start";i:1;a:0:{}i:2;i:0;}i:1;a:3:{i:0;s:6:"plugin";i:1;a:4:{i:0;s:7:"tag_tag";i:1;a:1:{i:0;s:7:"magento";}i:2;i:5;i:3;s:15:"{{tag>magento}}";}i:2;i:1;}i:2;a:3:{i:0;s:6:"p_open";i:1;a:0:{}i:2;i:1;}i:3;a:3:{i:0;s:13:"emphasis_open";i:1;a:0:{}i:2;i:18;}i:4;a:3:{i:0;s:5:"cdata";i:1;a:1:{i:0;s:54:"Note : these rules are not only restricted to magento ";}i:2;i:20;}i:5;a:3:{i:0;s:14:"emphasis_close";i:1;a:0:{}i:2;i:74;}i:6;a:3:{i:0;s:5:"cdata";i:1;a:1:{i:0;s:1:" ";}i:2;i:76;}i:7;a:3:{i:0;s:9:"linebreak";i:1;a:0:{}i:2;i:77;}i:8;a:3:{i:0;s:5:"cdata";i:1;a:1:{i:0;s:1:"
";}i:2;i:79;}i:9;a:3:{i:0;s:11:"strong_open";i:1;a:0:{}i:2;i:80;}i:10;a:3:{i:0;s:5:"cdata";i:1;a:1:{i:0;s:42:"What is the requirement of rewrite rules? ";}i:2;i:82;}i:11;a:3:{i:0;s:12:"strong_close";i:1;a:0:{}i:2;i:124;}i:12;a:3:{i:0;s:5:"cdata";i:1;a:1:{i:0;s:1:" ";}i:2;i:126;}i:13;a:3:{i:0;s:9:"linebreak";i:1;a:0:{}i:2;i:127;}i:14;a:3:{i:0;s:5:"cdata";i:1;a:1:{i:0;s:85:"
You must have to know answer of above question before proceeding to use below rules.";}i:2;i:129;}i:15;a:3:{i:0;s:7:"p_close";i:1;a:0:{}i:2;i:214;}i:16;a:3:{i:0;s:6:"p_open";i:1;a:0:{}i:2;i:214;}i:17;a:3:{i:0;s:5:"cdata";i:1;a:1:{i:0;s:721:"Nginx is ideally a reverse-proxy web server, unlike Apache it does not have in-bulit modules to interpret dynamic contents (like php) to produce static pages (like html). Nginx is capable of only serving static content by itself. To process dynamic requests we need to tell nginx, How it modify or break down the request string into smaller parts, identify it and then passes it to another relevant element/process which is designed to handel certain type of requests (like pass all php requests to php-fpm). So that it could simplifies that request and translate it into static language (like html) which Nginx could understand and pass it back to Nginx and later information generate is passes on to original requester.";}i:2;i:216;}i:18;a:3:{i:0;s:7:"p_close";i:1;a:0:{}i:2;i:937;}i:19;a:3:{i:0;s:6:"header";i:1;a:3:{i:0;s:15:"Rewrite Rules :";i:1;i:3;i:2;i:939;}i:2;i:939;}i:20;a:3:{i:0;s:12:"section_open";i:1;a:1:{i:0;i:3;}i:2;i:939;}i:21;a:3:{i:0;s:6:"p_open";i:1;a:0:{}i:2;i:939;}i:22;a:3:{i:0;s:5:"cdata";i:1;a:1:{i:0;s:14:"# First block ";}i:2;i:966;}i:23;a:3:{i:0;s:18:"doublequoteopening";i:1;a:0:{}i:2;i:980;}i:24;a:3:{i:0;s:5:"cdata";i:1;a:1:{i:0;s:10:"location /";}i:2;i:981;}i:25;a:3:{i:0;s:18:"doublequoteopening";i:1;a:0:{}i:2;i:991;}i:26;a:3:{i:0;s:9:"linebreak";i:1;a:0:{}i:2;i:992;}i:27;a:3:{i:0;s:5:"cdata";i:1;a:1:{i:0;s:37:"
A url can be broken into two parts :";}i:2;i:994;}i:28;a:3:{i:0;s:9:"linebreak";i:1;a:0:{}i:2;i:1031;}i:29;a:3:{i:0;s:5:"cdata";i:1;a:1:{i:0;s:19:"
1. Base url. like ";}i:2;i:1033;}i:30;a:3:{i:0;s:12:"externallink";i:1;a:2:{i:0;s:17:"http://domain.com";i:1;s:17:"http://domain.com";}i:2;i:1052;}i:31;a:3:{i:0;s:9:"linebreak";i:1;a:0:{}i:2;i:1091;}i:32;a:3:{i:0;s:5:"cdata";i:1;a:1:{i:0;s:83:"
2. Request string, which concatenates after base url. like [Base Url]/$request_uri";}i:2;i:1093;}i:33;a:3:{i:0;s:7:"p_close";i:1;a:0:{}i:2;i:1176;}i:34;a:3:{i:0;s:6:"p_open";i:1;a:0:{}i:2;i:1176;}i:35;a:3:{i:0;s:13:"emphasis_open";i:1;a:0:{}i:2;i:1178;}i:36;a:3:{i:0;s:14:"underline_open";i:1;a:0:{}i:2;i:1180;}i:37;a:3:{i:0;s:5:"cdata";i:1;a:1:{i:0;s:10:"location /";}i:2;i:1182;}i:38;a:3:{i:0;s:15:"underline_close";i:1;a:0:{}i:2;i:1192;}i:39;a:3:{i:0;s:14:"emphasis_close";i:1;a:0:{}i:2;i:1194;}i:40;a:3:{i:0;s:5:"cdata";i:1;a:1:{i:0;s:133:" : represent top level location in file system hierarchy of a web site data files. Which we call Document_Root in technical language.";}i:2;i:1196;}i:41;a:3:{i:0;s:9:"linebreak";i:1;a:0:{}i:2;i:1329;}i:42;a:3:{i:0;s:5:"cdata";i:1;a:1:{i:0;s:1:"
";}i:2;i:1331;}i:43;a:3:{i:0;s:13:"emphasis_open";i:1;a:0:{}i:2;i:1332;}i:44;a:3:{i:0;s:14:"underline_open";i:1;a:0:{}i:2;i:1334;}i:45;a:3:{i:0;s:5:"cdata";i:1;a:1:{i:0;s:16:"index [filename]";}i:2;i:1336;}i:46;a:3:{i:0;s:15:"underline_close";i:1;a:0:{}i:2;i:1352;}i:47;a:3:{i:0;s:14:"emphasis_close";i:1;a:0:{}i:2;i:1354;}i:48;a:3:{i:0;s:5:"cdata";i:1;a:1:{i:0;s:254:" : this filename represents a bootstrap file. It task is to initiate any kind of task that needs to be accomplished by website code. Multiple filenames represents priority of bootstrap files which need to be access when file higher in priority not found.";}i:2;i:1356;}i:49;a:3:{i:0;s:9:"linebreak";i:1;a:0:{}i:2;i:1610;}i:50;a:3:{i:0;s:5:"cdata";i:1;a:1:{i:0;s:1:"
";}i:2;i:1612;}i:51;a:3:{i:0;s:13:"emphasis_open";i:1;a:0:{}i:2;i:1613;}i:52;a:3:{i:0;s:14:"underline_open";i:1;a:0:{}i:2;i:1615;}i:53;a:3:{i:0;s:5:"cdata";i:1;a:1:{i:0;s:9:"try_files";}i:2;i:1617;}i:54;a:3:{i:0;s:15:"underline_close";i:1;a:0:{}i:2;i:1626;}i:55;a:3:{i:0;s:14:"emphasis_close";i:1;a:0:{}i:2;i:1628;}i:56;a:3:{i:0;s:5:"cdata";i:1;a:1:{i:0;s:188:" : is a flag or a switch that will try to broken down or simplify request_uri then again try to parse it from beginning of rewrite rules. when nothing works it will passes that request to ";}i:2;i:1630;}i:57;a:3:{i:0;s:14:"underline_open";i:1;a:0:{}i:2;i:1818;}i:58;a:3:{i:0;s:13:"emphasis_open";i:1;a:0:{}i:2;i:1820;}i:59;a:3:{i:0;s:18:"doublequoteopening";i:1;a:0:{}i:2;i:1822;}i:60;a:3:{i:0;s:5:"cdata";i:1;a:1:{i:0;s:7:"handler";}i:2;i:1823;}i:61;a:3:{i:0;s:18:"doublequoteclosing";i:1;a:0:{}i:2;i:1830;}i:62;a:3:{i:0;s:14:"emphasis_close";i:1;a:0:{}i:2;i:1831;}i:63;a:3:{i:0;s:15:"underline_close";i:1;a:0:{}i:2;i:1833;}i:64;a:3:{i:0;s:7:"p_close";i:1;a:0:{}i:2;i:1835;}i:65;a:3:{i:0;s:6:"p_open";i:1;a:0:{}i:2;i:1835;}i:66;a:3:{i:0;s:14:"monospace_open";i:1;a:0:{}i:2;i:1837;}i:67;a:3:{i:0;s:5:"cdata";i:1;a:1:{i:0;s:12:"location / {";}i:2;i:1839;}i:68;a:3:{i:0;s:9:"linebreak";i:1;a:0:{}i:2;i:1851;}i:69;a:3:{i:0;s:5:"cdata";i:1;a:1:{i:0;s:38:"
index index.php index.htm index.html;";}i:2;i:1853;}i:70;a:3:{i:0;s:9:"linebreak";i:1;a:0:{}i:2;i:1891;}i:71;a:3:{i:0;s:5:"cdata";i:1;a:1:{i:0;s:31:"
try_files $uri $uri/ @handler;";}i:2;i:1893;}i:72;a:3:{i:0;s:9:"linebreak";i:1;a:0:{}i:2;i:1924;}i:73;a:3:{i:0;s:5:"cdata";i:1;a:1:{i:0;s:3:"
} ";}i:2;i:1926;}i:74;a:3:{i:0;s:15:"monospace_close";i:1;a:0:{}i:2;i:1929;}i:75;a:3:{i:0;s:7:"p_close";i:1;a:0:{}i:2;i:1931;}i:76;a:3:{i:0;s:6:"p_open";i:1;a:0:{}i:2;i:1931;}i:77;a:3:{i:0;s:5:"cdata";i:1;a:1:{i:0;s:2:"# ";}i:2;i:1933;}i:78;a:3:{i:0;s:11:"strong_open";i:1;a:0:{}i:2;i:1935;}i:79;a:3:{i:0;s:5:"cdata";i:1;a:1:{i:0;s:7:"handler";}i:2;i:1937;}i:80;a:3:{i:0;s:12:"strong_close";i:1;a:0:{}i:2;i:1944;}i:81;a:3:{i:0;s:5:"cdata";i:1;a:1:{i:0;s:7:" block ";}i:2;i:1946;}i:82;a:3:{i:0;s:13:"emphasis_open";i:1;a:0:{}i:2;i:1953;}i:83;a:3:{i:0;s:5:"cdata";i:1;a:1:{i:0;s:2:": ";}i:2;i:1955;}i:84;a:3:{i:0;s:14:"emphasis_close";i:1;a:0:{}i:2;i:1957;}i:85;a:3:{i:0;s:5:"cdata";i:1;a:1:{i:0;s:108:" It only knows that what ever comes to him must be rewritten and passed on to bootstrap file as an argument.";}i:2;i:1959;}i:86;a:3:{i:0;s:9:"linebreak";i:1;a:0:{}i:2;i:2067;}i:87;a:3:{i:0;s:5:"cdata";i:1;a:1:{i:0;s:1:"
";}i:2;i:2069;}i:88;a:3:{i:0;s:14:"monospace_open";i:1;a:0:{}i:2;i:2070;}i:89;a:3:{i:0;s:5:"cdata";i:1;a:1:{i:0;s:19:"location @handler {";}i:2;i:2072;}i:90;a:3:{i:0;s:9:"linebreak";i:1;a:0:{}i:2;i:2091;}i:91;a:3:{i:0;s:5:"cdata";i:1;a:1:{i:0;s:28:"
rewrite / /index.php?$args;";}i:2;i:2093;}i:92;a:3:{i:0;s:9:"linebreak";i:1;a:0:{}i:2;i:2121;}i:93;a:3:{i:0;s:5:"cdata";i:1;a:1:{i:0;s:3:"
} ";}i:2;i:2123;}i:94;a:3:{i:0;s:15:"monospace_close";i:1;a:0:{}i:2;i:2126;}i:95;a:3:{i:0;s:7:"p_close";i:1;a:0:{}i:2;i:2128;}i:96;a:3:{i:0;s:6:"p_open";i:1;a:0:{}i:2;i:2128;}i:97;a:3:{i:0;s:5:"cdata";i:1;a:1:{i:0;s:102:"# This block is like a technically smart person, it interprets complex request_uri strings containing ";}i:2;i:2130;}i:98;a:3:{i:0;s:18:"doublequoteclosing";i:1;a:0:{}i:2;i:2232;}i:99;a:3:{i:0;s:5:"cdata";i:1;a:1:{i:0;s:4:".php";}i:2;i:2233;}i:100;a:3:{i:0;s:18:"doublequoteclosing";i:1;a:0:{}i:2;i:2237;}i:101;a:3:{i:0;s:5:"cdata";i:1;a:1:{i:0;s:100:" and rewrites them in a simplified form. # Forward paths like /js/index.php/x.js to relevant handler";}i:2;i:2238;}i:102;a:3:{i:0;s:9:"linebreak";i:1;a:0:{}i:2;i:2338;}i:103;a:3:{i:0;s:5:"cdata";i:1;a:1:{i:0;s:1:"
";}i:2;i:2340;}i:104;a:3:{i:0;s:14:"monospace_open";i:1;a:0:{}i:2;i:2341;}i:105;a:3:{i:0;s:5:"cdata";i:1;a:1:{i:0;s:18:"location ~ .php/ {";}i:2;i:2343;}i:106;a:3:{i:0;s:9:"linebreak";i:1;a:0:{}i:2;i:2361;}i:107;a:3:{i:0;s:5:"cdata";i:1;a:1:{i:0;s:28:"
rewrite ^(.*.php)/ $1 last;";}i:2;i:2363;}i:108;a:3:{i:0;s:9:"linebreak";i:1;a:0:{}i:2;i:2391;}i:109;a:3:{i:0;s:5:"cdata";i:1;a:1:{i:0;s:3:"
} ";}i:2;i:2393;}i:110;a:3:{i:0;s:15:"monospace_close";i:1;a:0:{}i:2;i:2396;}i:111;a:3:{i:0;s:7:"p_close";i:1;a:0:{}i:2;i:2398;}i:112;a:3:{i:0;s:6:"p_open";i:1;a:0:{}i:2;i:2398;}i:113;a:3:{i:0;s:5:"cdata";i:1;a:1:{i:0;s:9:"# Passes ";}i:2;i:2400;}i:114;a:3:{i:0;s:18:"doublequoteopening";i:1;a:0:{}i:2;i:2409;}i:115;a:3:{i:0;s:5:"cdata";i:1;a:1:{i:0;s:4:".php";}i:2;i:2410;}i:116;a:3:{i:0;s:18:"doublequoteclosing";i:1;a:0:{}i:2;i:2414;}i:117;a:3:{i:0;s:5:"cdata";i:1;a:1:{i:0;s:107:" files to relevant processor who will understand php very well @ the location where php processor/ resides?";}i:2;i:2415;}i:118;a:3:{i:0;s:9:"linebreak";i:1;a:0:{}i:2;i:2522;}i:119;a:3:{i:0;s:5:"cdata";i:1;a:1:{i:0;s:1:"
";}i:2;i:2524;}i:120;a:3:{i:0;s:14:"monospace_open";i:1;a:0:{}i:2;i:2525;}i:121;a:3:{i:0;s:5:"cdata";i:1;a:1:{i:0;s:18:"location ~ .php$ {";}i:2;i:2527;}i:122;a:3:{i:0;s:9:"linebreak";i:1;a:0:{}i:2;i:2545;}i:123;a:3:{i:0;s:5:"cdata";i:1;a:1:{i:0;s:28:"
try_files $uri /?error=404;";}i:2;i:2547;}i:124;a:3:{i:0;s:9:"linebreak";i:1;a:0:{}i:2;i:2575;}i:125;a:3:{i:0;s:5:"cdata";i:1;a:1:{i:0;s:42:"
fastcgi_split_path_info ^(.+\.php)(/.+)$;";}i:2;i:2577;}i:126;a:3:{i:0;s:9:"linebreak";i:1;a:0:{}i:2;i:2619;}i:127;a:3:{i:0;s:5:"cdata";i:1;a:1:{i:0;s:24:"
include fastcgi_params;";}i:2;i:2621;}i:128;a:3:{i:0;s:9:"linebreak";i:1;a:0:{}i:2;i:2645;}i:129;a:3:{i:0;s:5:"cdata";i:1;a:1:{i:0;s:25:"
fastcgi_index index.php;";}i:2;i:2647;}i:130;a:3:{i:0;s:9:"linebreak";i:1;a:0:{}i:2;i:2672;}i:131;a:3:{i:0;s:5:"cdata";i:1;a:1:{i:0;s:66:"
fastcgi_param SCRIPT_FILENAME $document_root$fastcgi_script_name;";}i:2;i:2674;}i:132;a:3:{i:0;s:9:"linebreak";i:1;a:0:{}i:2;i:2740;}i:133;a:3:{i:0;s:5:"cdata";i:1;a:1:{i:0;s:29:"
fastcgi_pass 127.0.0.1:9000;";}i:2;i:2742;}i:134;a:3:{i:0;s:9:"linebreak";i:1;a:0:{}i:2;i:2771;}i:135;a:3:{i:0;s:5:"cdata";i:1;a:1:{i:0;s:3:"
} ";}i:2;i:2773;}i:136;a:3:{i:0;s:15:"monospace_close";i:1;a:0:{}i:2;i:2776;}i:137;a:3:{i:0;s:7:"p_close";i:1;a:0:{}i:2;i:2778;}i:138;a:3:{i:0;s:13:"section_close";i:1;a:0:{}i:2;i:2779;}i:139;a:3:{i:0;s:12:"document_end";i:1;a:0:{}i:2;i:2779;}}