a:33:{i:0;a:3:{i:0;s:14:"document_start";i:1;a:0:{}i:2;i:0;}i:1;a:3:{i:0;s:6:"header";i:1;a:3:{i:0;s:52:"Test If Linux Server SCSI / SATA Hard Disk Going Bad";i:1;i:1;i:2;i:1;}i:2;i:1;}i:2;a:3:{i:0;s:12:"section_open";i:1;a:1:{i:0;i:1;}i:2;i:1;}i:3;a:3:{i:0;s:6:"p_open";i:1;a:0:{}i:2;i:1;}i:4;a:3:{i:0;s:5:"cdata";i:1;a:1:{i:0;s:154:"First, make sure S.M.A.R.T. support is enabled in the BIOS. Next, run the following command to see if your hard disks support S.M.A.R.T technology or not:";}i:2;i:70;}i:5;a:3:{i:0;s:7:"p_close";i:1;a:0:{}i:2;i:225;}i:6;a:3:{i:0;s:12:"preformatted";i:1;a:1:{i:0;s:25:"   # smartctl -i /dev/sdb";}i:2;i:225;}i:7;a:3:{i:0;s:6:"p_open";i:1;a:0:{}i:2;i:225;}i:8;a:3:{i:0;s:5:"cdata";i:1;a:1:{i:0;s:21:"To enable SMART, run:";}i:2;i:255;}i:9;a:3:{i:0;s:7:"p_close";i:1;a:0:{}i:2;i:277;}i:10;a:3:{i:0;s:12:"preformatted";i:1;a:1:{i:0;s:39:"   # smartctl -s on -d ata /dev/sdb
   ";}i:2;i:277;}i:11;a:3:{i:0;s:6:"p_open";i:1;a:0:{}i:2;i:277;}i:12;a:3:{i:0;s:5:"cdata";i:1;a:1:{i:0;s:47:"Run overall-health self-assessment test, enter:";}i:2;i:322;}i:13;a:3:{i:0;s:7:"p_close";i:1;a:0:{}i:2;i:370;}i:14;a:3:{i:0;s:12:"preformatted";i:1;a:1:{i:0;s:36:"   # smartctl -d ata -H /dev/sdb
   ";}i:2;i:370;}i:15;a:3:{i:0;s:6:"p_open";i:1;a:0:{}i:2;i:370;}i:16;a:3:{i:0;s:5:"cdata";i:1;a:1:{i:0;s:39:"A sample output from failing hard disk:";}i:2;i:413;}i:17;a:3:{i:0;s:7:"p_close";i:1;a:0:{}i:2;i:453;}i:18;a:3:{i:0;s:12:"preformatted";i:1;a:1:{i:0;s:470:"  smartctl version 5.38 [i686-pc-linux-gnu] Copyright (C) 2002-8 Bruce Allen
  Home page is http://smartmontools.sourceforge.net/
  === START OF READ SMART DATA SECTION ===
  SMART overall-health self-assessment test result: PASSED
  Please note the following marginal Attributes:
  ID# ATTRIBUTE_NAME          FLAG     VALUE WORST THRESH TYPE      UPDATED  WHEN_FAILED RAW_VALUE
  190 Airflow_Temperature_Cel 0x0022   044   033   045    Old_age   Always   FAILING_NO
  ";}i:2;i:453;}i:19;a:3:{i:0;s:6:"p_open";i:1;a:0:{}i:2;i:453;}i:20;a:3:{i:0;s:5:"cdata";i:1;a:1:{i:0;s:73:"The following will provide even more information about failing hard disk:";}i:2;i:941;}i:21;a:3:{i:0;s:7:"p_close";i:1;a:0:{}i:2;i:1015;}i:22;a:3:{i:0;s:12:"preformatted";i:1;a:1:{i:0;s:52:"  # smartctl --attributes --log=selftest /dev/sda
  ";}i:2;i:1015;}i:23;a:3:{i:0;s:6:"p_open";i:1;a:0:{}i:2;i:1015;}i:24;a:3:{i:0;s:5:"cdata";i:1;a:1:{i:0;s:70:"You can read more data from hard disk by typing the following command:";}i:2;i:1073;}i:25;a:3:{i:0;s:7:"p_close";i:1;a:0:{}i:2;i:1144;}i:26;a:3:{i:0;s:12:"preformatted";i:1;a:1:{i:0;s:34:"  # smartctl -d ata -a /dev/sdb
  ";}i:2;i:1144;}i:27;a:3:{i:0;s:6:"p_open";i:1;a:0:{}i:2;i:1144;}i:28;a:3:{i:0;s:5:"cdata";i:1;a:1:{i:0;s:71:"To look at ATA disks behind 3ware SCSI RAID controllers, the syntax is:";}i:2;i:1184;}i:29;a:3:{i:0;s:7:"p_close";i:1;a:0:{}i:2;i:1255;}i:30;a:3:{i:0;s:12:"preformatted";i:1;a:1:{i:0;s:82:"   
   # smartctl -a -d 3ware,2 /dev/sda
   
   # smartctl -a -d 3ware,0 /dev/twe0";}i:2;i:1255;}i:31;a:3:{i:0;s:13:"section_close";i:1;a:0:{}i:2;i:1347;}i:32;a:3:{i:0;s:12:"document_end";i:1;a:0:{}i:2;i:1347;}}