a:66:{i:0;a:3:{i:0;s:14:"document_start";i:1;a:0:{}i:2;i:0;}i:1;a:3:{i:0;s:6:"p_open";i:1;a:0:{}i:2;i:0;}i:2;a:3:{i:0;s:5:"cdata";i:1;a:1:{i:0;s:121:"1) Create a directory in /usr/local/apache to store your custom error messages. In this case, I have named the directory ";}i:2;i:2;}i:3;a:3:{i:0;s:18:"doublequoteopening";i:1;a:0:{}i:2;i:123;}i:4;a:3:{i:0;s:5:"cdata";i:1;a:1:{i:0;s:11:"customerror";}i:2;i:124;}i:5;a:3:{i:0;s:18:"doublequoteclosing";i:1;a:0:{}i:2;i:135;}i:6;a:3:{i:0;s:5:"cdata";i:1;a:1:{i:0;s:1:":";}i:2;i:136;}i:7;a:3:{i:0;s:7:"p_close";i:1;a:0:{}i:2;i:137;}i:8;a:3:{i:0;s:6:"p_open";i:1;a:0:{}i:2;i:137;}i:9;a:3:{i:0;s:5:"cdata";i:1;a:1:{i:0;s:35:"mkdir /usr/local/apache/customerror";}i:2;i:139;}i:10;a:3:{i:0;s:7:"p_close";i:1;a:0:{}i:2;i:174;}i:11;a:3:{i:0;s:6:"p_open";i:1;a:0:{}i:2;i:174;}i:12;a:3:{i:0;s:5:"cdata";i:1;a:1:{i:0;s:96:"2) Ensure your custom error pages have been added to this directory (400.shtml, 404.shtml, etc).";}i:2;i:178;}i:13;a:3:{i:0;s:7:"p_close";i:1;a:0:{}i:2;i:274;}i:14;a:3:{i:0;s:6:"p_open";i:1;a:0:{}i:2;i:274;}i:15;a:3:{i:0;s:5:"cdata";i:1;a:1:{i:0;s:34:"3) In Web Host Manager, browse to:";}i:2;i:279;}i:16;a:3:{i:0;s:7:"p_close";i:1;a:0:{}i:2;i:313;}i:17;a:3:{i:0;s:6:"p_open";i:1;a:0:{}i:2;i:313;}i:18;a:3:{i:0;s:18:"doublequoteopening";i:1;a:0:{}i:2;i:315;}i:19;a:3:{i:0;s:5:"cdata";i:1;a:1:{i:0;s:9:"WHM Main ";}i:2;i:316;}i:20;a:3:{i:0;s:6:"entity";i:1;a:1:{i:0;s:2:">>";}i:2;i:325;}i:21;a:3:{i:0;s:5:"cdata";i:1;a:1:{i:0;s:23:" Service Configuration ";}i:2;i:327;}i:22;a:3:{i:0;s:6:"entity";i:1;a:1:{i:0;s:2:">>";}i:2;i:350;}i:23;a:3:{i:0;s:5:"cdata";i:1;a:1:{i:0;s:22:" Apache Configuration ";}i:2;i:352;}i:24;a:3:{i:0;s:6:"entity";i:1;a:1:{i:0;s:2:">>";}i:2;i:374;}i:25;a:3:{i:0;s:5:"cdata";i:1;a:1:{i:0;s:15:" Include Editor";}i:2;i:376;}i:26;a:3:{i:0;s:18:"doublequoteclosing";i:1;a:0:{}i:2;i:391;}i:27;a:3:{i:0;s:5:"cdata";i:1;a:1:{i:0;s:9:", select ";}i:2;i:392;}i:28;a:3:{i:0;s:18:"doublequoteopening";i:1;a:0:{}i:2;i:401;}i:29;a:3:{i:0;s:5:"cdata";i:1;a:1:{i:0;s:12:"All Versions";}i:2;i:402;}i:30;a:3:{i:0;s:18:"doublequoteclosing";i:1;a:0:{}i:2;i:414;}i:31;a:3:{i:0;s:5:"cdata";i:1;a:1:{i:0;s:7:" under ";}i:2;i:415;}i:32;a:3:{i:0;s:18:"doublequoteopening";i:1;a:0:{}i:2;i:422;}i:33;a:3:{i:0;s:5:"cdata";i:1;a:1:{i:0;s:24:"Pre Virtual Host Include";}i:2;i:423;}i:34;a:3:{i:0;s:18:"doublequoteclosing";i:1;a:0:{}i:2;i:447;}i:35;a:3:{i:0;s:5:"cdata";i:1;a:1:{i:0;s:1:".";}i:2;i:448;}i:36;a:3:{i:0;s:7:"p_close";i:1;a:0:{}i:2;i:449;}i:37;a:3:{i:0;s:6:"p_open";i:1;a:0:{}i:2;i:449;}i:38;a:3:{i:0;s:5:"cdata";i:1;a:1:{i:0;s:37:"4) Add the following to the text box:";}i:2;i:454;}i:39;a:3:{i:0;s:7:"p_close";i:1;a:0:{}i:2;i:491;}i:40;a:3:{i:0;s:6:"p_open";i:1;a:0:{}i:2;i:491;}i:41;a:3:{i:0;s:5:"cdata";i:1;a:1:{i:0;s:50:"Alias /errorfolder /usr/local/apache/customerror/ ";}i:2;i:494;}i:42;a:3:{i:0;s:9:"linebreak";i:1;a:0:{}i:2;i:544;}i:43;a:3:{i:0;s:5:"cdata";i:1;a:1:{i:0;s:41:"
ErrorDocument 400 /errorfolder/400.shtml";}i:2;i:547;}i:44;a:3:{i:0;s:9:"linebreak";i:1;a:0:{}i:2;i:588;}i:45;a:3:{i:0;s:5:"cdata";i:1;a:1:{i:0;s:41:"
ErrorDocument 401 /errorfolder/401.shtml";}i:2;i:590;}i:46;a:3:{i:0;s:9:"linebreak";i:1;a:0:{}i:2;i:631;}i:47;a:3:{i:0;s:5:"cdata";i:1;a:1:{i:0;s:41:"
ErrorDocument 403 /errorfolder/403.shtml";}i:2;i:633;}i:48;a:3:{i:0;s:9:"linebreak";i:1;a:0:{}i:2;i:674;}i:49;a:3:{i:0;s:5:"cdata";i:1;a:1:{i:0;s:41:"
ErrorDocument 404 /errorfolder/404.shtml";}i:2;i:676;}i:50;a:3:{i:0;s:9:"linebreak";i:1;a:0:{}i:2;i:717;}i:51;a:3:{i:0;s:5:"cdata";i:1;a:1:{i:0;s:41:"
ErrorDocument 500 /errorfolder/500.shtml";}i:2;i:719;}i:52;a:3:{i:0;s:9:"linebreak";i:1;a:0:{}i:2;i:760;}i:53;a:3:{i:0;s:7:"p_close";i:1;a:0:{}i:2;i:762;}i:54;a:3:{i:0;s:6:"p_open";i:1;a:0:{}i:2;i:762;}i:55;a:3:{i:0;s:5:"cdata";i:1;a:1:{i:0;s:9:"5) Click ";}i:2;i:765;}i:56;a:3:{i:0;s:18:"doublequoteopening";i:1;a:0:{}i:2;i:774;}i:57;a:3:{i:0;s:5:"cdata";i:1;a:1:{i:0;s:6:"Update";}i:2;i:775;}i:58;a:3:{i:0;s:18:"doublequoteclosing";i:1;a:0:{}i:2;i:781;}i:59;a:3:{i:0;s:5:"cdata";i:1;a:1:{i:0;s:17:", and then click ";}i:2;i:782;}i:60;a:3:{i:0;s:18:"doublequoteopening";i:1;a:0:{}i:2;i:799;}i:61;a:3:{i:0;s:5:"cdata";i:1;a:1:{i:0;s:14:"Restart Apache";}i:2;i:800;}i:62;a:3:{i:0;s:18:"doublequoteclosing";i:1;a:0:{}i:2;i:814;}i:63;a:3:{i:0;s:5:"cdata";i:1;a:1:{i:0;s:1:".";}i:2;i:815;}i:64;a:3:{i:0;s:7:"p_close";i:1;a:0:{}i:2;i:815;}i:65;a:3:{i:0;s:12:"document_end";i:1;a:0:{}i:2;i:815;}}