a:51:{i:0;a:3:{i:0;s:14:"document_start";i:1;a:0:{}i:2;i:0;}i:1;a:3:{i:0;s:6:"p_open";i:1;a:0:{}i:2;i:0;}i:2;a:3:{i:0;s:5:"cdata";i:1;a:1:{i:0;s:42:"You can restrict the IP by going into WHM ";}i:2;i:1;}i:3;a:3:{i:0;s:6:"entity";i:1;a:1:{i:0;s:2:">>";}i:2;i:43;}i:4;a:3:{i:0;s:5:"cdata";i:1;a:1:{i:0;s:17:" Security Center ";}i:2;i:45;}i:5;a:3:{i:0;s:6:"entity";i:1;a:1:{i:0;s:2:">>";}i:2;i:62;}i:6;a:3:{i:0;s:5:"cdata";i:1;a:1:{i:0;s:39:" Host Access Control (block IP access) ";}i:2;i:64;}i:7;a:3:{i:0;s:6:"entity";i:1;a:1:{i:0;s:2:">>";}i:2;i:103;}i:8;a:3:{i:0;s:5:"cdata";i:1;a:1:{i:0;s:51:" Enter the following values in the specified fields";}i:2;i:105;}i:9;a:3:{i:0;s:7:"p_close";i:1;a:0:{}i:2;i:156;}i:10;a:3:{i:0;s:6:"p_open";i:1;a:0:{}i:2;i:156;}i:11;a:3:{i:0;s:11:"strong_open";i:1;a:0:{}i:2;i:161;}i:12;a:3:{i:0;s:5:"cdata";i:1;a:1:{i:0;s:29:" Allow your IP first

Daemon ";}i:2;i:163;}i:13;a:3:{i:0;s:6:"entity";i:1;a:1:{i:0;s:2:">>";}i:2;i:192;}i:14;a:3:{i:0;s:5:"cdata";i:1;a:1:{i:0;s:24:" whostmgrd

Access List ";}i:2;i:194;}i:15;a:3:{i:0;s:6:"entity";i:1;a:1:{i:0;s:2:">>";}i:2;i:218;}i:16;a:3:{i:0;s:5:"cdata";i:1;a:1:{i:0;s:40:" your ip that you want to allow

Action ";}i:2;i:220;}i:17;a:3:{i:0;s:6:"entity";i:1;a:1:{i:0;s:2:">>";}i:2;i:260;}i:18;a:3:{i:0;s:5:"cdata";i:1;a:1:{i:0;s:16:" allow

Comment ";}i:2;i:262;}i:19;a:3:{i:0;s:6:"entity";i:1;a:1:{i:0;s:2:">>";}i:2;i:278;}i:20;a:3:{i:0;s:5:"cdata";i:1;a:1:{i:0;s:18:" your comment

 

";}i:2;i:280;}i:21;a:3:{i:0;s:12:"strong_close";i:1;a:0:{}i:2;i:298;}i:22;a:3:{i:0;s:5:"cdata";i:1;a:1:{i:0;s:21:" Block all other IP's";}i:2;i:300;}i:23;a:3:{i:0;s:7:"p_close";i:1;a:0:{}i:2;i:321;}i:24;a:3:{i:0;s:6:"p_open";i:1;a:0:{}i:2;i:321;}i:25;a:3:{i:0;s:5:"cdata";i:1;a:1:{i:0;s:7:"Daemon ";}i:2;i:323;}i:26;a:3:{i:0;s:6:"entity";i:1;a:1:{i:0;s:2:">>";}i:2;i:330;}i:27;a:3:{i:0;s:5:"cdata";i:1;a:1:{i:0;s:10:" whostmgrd";}i:2;i:332;}i:28;a:3:{i:0;s:7:"p_close";i:1;a:0:{}i:2;i:342;}i:29;a:3:{i:0;s:6:"p_open";i:1;a:0:{}i:2;i:342;}i:30;a:3:{i:0;s:5:"cdata";i:1;a:1:{i:0;s:12:"Access List ";}i:2;i:344;}i:31;a:3:{i:0;s:6:"entity";i:1;a:1:{i:0;s:2:">>";}i:2;i:356;}i:32;a:3:{i:0;s:5:"cdata";i:1;a:1:{i:0;s:4:" all";}i:2;i:358;}i:33;a:3:{i:0;s:7:"p_close";i:1;a:0:{}i:2;i:362;}i:34;a:3:{i:0;s:6:"p_open";i:1;a:0:{}i:2;i:362;}i:35;a:3:{i:0;s:5:"cdata";i:1;a:1:{i:0;s:7:"Action ";}i:2;i:364;}i:36;a:3:{i:0;s:6:"entity";i:1;a:1:{i:0;s:2:">>";}i:2;i:371;}i:37;a:3:{i:0;s:5:"cdata";i:1;a:1:{i:0;s:5:" deny";}i:2;i:373;}i:38;a:3:{i:0;s:7:"p_close";i:1;a:0:{}i:2;i:378;}i:39;a:3:{i:0;s:6:"p_open";i:1;a:0:{}i:2;i:378;}i:40;a:3:{i:0;s:5:"cdata";i:1;a:1:{i:0;s:8:"Comment ";}i:2;i:380;}i:41;a:3:{i:0;s:6:"entity";i:1;a:1:{i:0;s:2:">>";}i:2;i:388;}i:42;a:3:{i:0;s:5:"cdata";i:1;a:1:{i:0;s:13:" your comment";}i:2;i:390;}i:43;a:3:{i:0;s:7:"p_close";i:1;a:0:{}i:2;i:403;}i:44;a:3:{i:0;s:6:"p_open";i:1;a:0:{}i:2;i:403;}i:45;a:3:{i:0;s:5:"cdata";i:1;a:1:{i:0;s:91:"For cpanel you can add the same entires, expect in the Daemon field you should put cpaneld.";}i:2;i:408;}i:46;a:3:{i:0;s:7:"p_close";i:1;a:0:{}i:2;i:499;}i:47;a:3:{i:0;s:6:"p_open";i:1;a:0:{}i:2;i:499;}i:48;a:3:{i:0;s:5:"cdata";i:1;a:1:{i:0;s:184:"NOTE :: You should first add the rule to allow your ip and then deny all other ip's as the rules have order of precedence. If you add the deny rule first, you will get yourself blocked";}i:2;i:504;}i:49;a:3:{i:0;s:7:"p_close";i:1;a:0:{}i:2;i:504;}i:50;a:3:{i:0;s:12:"document_end";i:1;a:0:{}i:2;i:504;}}