a:32:{i:0;a:3:{i:0;s:14:"document_start";i:1;a:0:{}i:2;i:0;}i:1;a:3:{i:0;s:6:"header";i:1;a:3:{i:0;s:37:"Dealing with WordPress Post Revisions";i:1;i:1;i:2;i:1;}i:2;i:1;}i:2;a:3:{i:0;s:12:"section_open";i:1;a:1:{i:0;i:1;}i:2;i:1;}i:3;a:3:{i:0;s:6:"p_open";i:1;a:0:{}i:2;i:1;}i:4;a:3:{i:0;s:9:"linebreak";i:1;a:0:{}i:2;i:55;}i:5;a:3:{i:0;s:5:"cdata";i:1;a:1:{i:0;s:66:"
1. Download latest Wordpress Database Optimizer tool from  Here. ";}i:2;i:57;}i:6;a:3:{i:0;s:9:"linebreak";i:1;a:0:{}i:2;i:123;}i:7;a:3:{i:0;s:5:"cdata";i:1;a:1:{i:0;s:153:"
2. Install the Plug-in.
 After installation you get a new menu entry in WordPress Dashboard — DB Optimizer as you can see in the following screenshot.";}i:2;i:125;}i:8;a:3:{i:0;s:7:"p_close";i:1;a:0:{}i:2;i:278;}i:9;a:3:{i:0;s:6:"p_open";i:1;a:0:{}i:2;i:278;}i:10;a:3:{i:0;s:13:"internalmedia";i:1;a:7:{i:0;s:37:":wp-database-optimizer-tools-menu.jpg";i:1;s:0:"";i:2;N;i:3;N;i:4;N;i:5;s:5:"cache";i:6;s:7:"details";}i:2;i:281;}i:11;a:3:{i:0;s:7:"p_close";i:1;a:0:{}i:2;i:323;}i:12;a:3:{i:0;s:6:"p_open";i:1;a:0:{}i:2;i:323;}i:13;a:3:{i:0;s:5:"cdata";i:1;a:1:{i:0;s:53:"3. Go to the DB Optimizer –> DB Optimizer sub-menu.";}i:2;i:325;}i:14;a:3:{i:0;s:7:"p_close";i:1;a:0:{}i:2;i:378;}i:15;a:3:{i:0;s:6:"p_open";i:1;a:0:{}i:2;i:378;}i:16;a:3:{i:0;s:5:"cdata";i:1;a:1:{i:0;s:265:"Under the DB Optimizer section, it shows the number of revisions that are stored in the DB, and enables with a way to delete them at one go. It additionally takes care of stored auto-drafts, trashed posts, comment spam, etc. Have a look at the following screenshot.";}i:2;i:380;}i:17;a:3:{i:0;s:7:"p_close";i:1;a:0:{}i:2;i:645;}i:18;a:3:{i:0;s:6:"p_open";i:1;a:0:{}i:2;i:645;}i:19;a:3:{i:0;s:13:"internalmedia";i:1;a:7:{i:0;s:43:":wp-database-optimizer-tools-revisions1.jpg";i:1;s:0:"";i:2;N;i:3;N;i:4;N;i:5;s:5:"cache";i:6;s:7:"details";}i:2;i:647;}i:20;a:3:{i:0;s:7:"p_close";i:1;a:0:{}i:2;i:695;}i:21;a:3:{i:0;s:6:"p_open";i:1;a:0:{}i:2;i:695;}i:22;a:3:{i:0;s:5:"cdata";i:1;a:1:{i:0;s:102:"4. Check all the boxes — most important is the optimise DB table box at the end — and hit Process.";}i:2;i:699;}i:23;a:3:{i:0;s:7:"p_close";i:1;a:0:{}i:2;i:801;}i:24;a:3:{i:0;s:6:"p_open";i:1;a:0:{}i:2;i:801;}i:25;a:3:{i:0;s:5:"cdata";i:1;a:1:{i:0;s:35:"Now, checkout this next screenshot.";}i:2;i:803;}i:26;a:3:{i:0;s:7:"p_close";i:1;a:0:{}i:2;i:838;}i:27;a:3:{i:0;s:6:"p_open";i:1;a:0:{}i:2;i:838;}i:28;a:3:{i:0;s:13:"internalmedia";i:1;a:7:{i:0;s:50:":wp-database-optimiser-tools-revisions-deleted.jpg";i:1;s:0:"";i:2;N;i:3;N;i:4;N;i:5;s:5:"cache";i:6;s:7:"details";}i:2;i:840;}i:29;a:3:{i:0;s:7:"p_close";i:1;a:0:{}i:2;i:895;}i:30;a:3:{i:0;s:13:"section_close";i:1;a:0:{}i:2;i:899;}i:31;a:3:{i:0;s:12:"document_end";i:1;a:0:{}i:2;i:899;}}