a:32:{i:0;a:3:{i:0;s:14:"document_start";i:1;a:0:{}i:2;i:0;}i:1;a:3:{i:0;s:6:"p_open";i:1;a:0:{}i:2;i:0;}i:2;a:3:{i:0;s:5:"cdata";i:1;a:1:{i:0;s:47:"1. Open a command prompt and type “netsh”. ";}i:2;i:1;}i:3;a:3:{i:0;s:9:"linebreak";i:1;a:0:{}i:2;i:48;}i:4;a:3:{i:0;s:5:"cdata";i:1;a:1:{i:0;s:6:"
netsh";}i:2;i:50;}i:5;a:3:{i:0;s:7:"p_close";i:1;a:0:{}i:2;i:56;}i:6;a:3:{i:0;s:6:"p_open";i:1;a:0:{}i:2;i:56;}i:7;a:3:{i:0;s:5:"cdata";i:1;a:1:{i:0;s:20:"2. Type “http”. ";}i:2;i:58;}i:8;a:3:{i:0;s:9:"linebreak";i:1;a:0:{}i:2;i:78;}i:9;a:3:{i:0;s:5:"cdata";i:1;a:1:{i:0;s:5:"
http";}i:2;i:80;}i:10;a:3:{i:0;s:7:"p_close";i:1;a:0:{}i:2;i:85;}i:11;a:3:{i:0;s:6:"p_open";i:1;a:0:{}i:2;i:85;}i:12;a:3:{i:0;s:5:"cdata";i:1;a:1:{i:0;s:172:"3. Enter the following command to display the current list of IPs to listen on. Note if no IPs are displayed like in the below image, IIS will listen on all IPs (default). ";}i:2;i:87;}i:13;a:3:{i:0;s:9:"linebreak";i:1;a:0:{}i:2;i:259;}i:14;a:3:{i:0;s:5:"cdata";i:1;a:1:{i:0;s:14:"
show iplisten";}i:2;i:261;}i:15;a:3:{i:0;s:7:"p_close";i:1;a:0:{}i:2;i:275;}i:16;a:3:{i:0;s:6:"p_open";i:1;a:0:{}i:2;i:275;}i:17;a:3:{i:0;s:5:"cdata";i:1;a:1:{i:0;s:171:"4. Use the command below to set IIS to listen on a specific IP. Make sure to replace 127.0.0.1 with the correct IP and run the command again for any additional addresses. ";}i:2;i:277;}i:18;a:3:{i:0;s:9:"linebreak";i:1;a:0:{}i:2;i:448;}i:19;a:3:{i:0;s:5:"cdata";i:1;a:1:{i:0;s:33:"
add iplisten ipaddress=127.0.0.1";}i:2;i:450;}i:20;a:3:{i:0;s:7:"p_close";i:1;a:0:{}i:2;i:483;}i:21;a:3:{i:0;s:6:"p_open";i:1;a:0:{}i:2;i:483;}i:22;a:3:{i:0;s:5:"cdata";i:1;a:1:{i:0;s:79:"5. In case you need to delete an IP from this list, use the following command. ";}i:2;i:485;}i:23;a:3:{i:0;s:9:"linebreak";i:1;a:0:{}i:2;i:564;}i:24;a:3:{i:0;s:5:"cdata";i:1;a:1:{i:0;s:36:"
delete iplisten ipaddress=127.0.0.1";}i:2;i:566;}i:25;a:3:{i:0;s:7:"p_close";i:1;a:0:{}i:2;i:602;}i:26;a:3:{i:0;s:6:"p_open";i:1;a:0:{}i:2;i:602;}i:27;a:3:{i:0;s:5:"cdata";i:1;a:1:{i:0;s:39:"6. Restart IIS to apply these changes. ";}i:2;i:604;}i:28;a:3:{i:0;s:9:"linebreak";i:1;a:0:{}i:2;i:643;}i:29;a:3:{i:0;s:5:"cdata";i:1;a:1:{i:0;s:9:"
iisreset";}i:2;i:645;}i:30;a:3:{i:0;s:7:"p_close";i:1;a:0:{}i:2;i:654;}i:31;a:3:{i:0;s:12:"document_end";i:1;a:0:{}i:2;i:654;}}