a:49:{i:0;a:3:{i:0;s:14:"document_start";i:1;a:0:{}i:2;i:0;}i:1;a:3:{i:0;s:6:"header";i:1;a:3:{i:0;s:29:"Configure Backup MX in Cpanel";i:1;i:1;i:2;i:1;}i:2;i:1;}i:2;a:3:{i:0;s:12:"section_open";i:1;a:1:{i:0;i:1;}i:2;i:1;}i:3;a:3:{i:0;s:6:"p_open";i:1;a:0:{}i:2;i:1;}i:4;a:3:{i:0;s:5:"cdata";i:1;a:1:{i:0;s:84:"- Create a cpanel account for mailing domain for which Backup MX is to be configure.";}i:2;i:46;}i:5;a:3:{i:0;s:7:"p_close";i:1;a:0:{}i:2;i:130;}i:6;a:3:{i:0;s:6:"p_open";i:1;a:0:{}i:2;i:130;}i:7;a:3:{i:0;s:11:"strong_open";i:1;a:0:{}i:2;i:132;}i:8;a:3:{i:0;s:5:"cdata";i:1;a:1:{i:0;s:26:"(NOTE: MAKE SURE THERE IS ";}i:2;i:134;}i:9;a:3:{i:0;s:18:"doublequoteopening";i:1;a:0:{}i:2;i:160;}i:10;a:3:{i:0;s:5:"cdata";i:1;a:1:{i:0;s:21:"Backup Mail Exchanger";}i:2;i:161;}i:11;a:3:{i:0;s:18:"doublequoteclosing";i:1;a:0:{}i:2;i:182;}i:12;a:3:{i:0;s:5:"cdata";i:1;a:1:{i:0;s:16:" SELECTED UNDER ";}i:2;i:183;}i:13;a:3:{i:0;s:18:"doublequoteopening";i:1;a:0:{}i:2;i:199;}i:14;a:3:{i:0;s:5:"cdata";i:1;a:1:{i:0;s:21:"Mail Routing Settings";}i:2;i:200;}i:15;a:3:{i:0;s:18:"doublequoteclosing";i:1;a:0:{}i:2;i:221;}i:16;a:3:{i:0;s:5:"cdata";i:1;a:1:{i:0;s:24:" WHILE CREATING ACCOUNT)";}i:2;i:222;}i:17;a:3:{i:0;s:12:"strong_close";i:1;a:0:{}i:2;i:246;}i:18;a:3:{i:0;s:7:"p_close";i:1;a:0:{}i:2;i:248;}i:19;a:3:{i:0;s:6:"p_open";i:1;a:0:{}i:2;i:248;}i:20;a:3:{i:0;s:5:"cdata";i:1;a:1:{i:0;s:19:"- Open the current ";}i:2;i:252;}i:21;a:3:{i:0;s:7:"acronym";i:1;a:1:{i:0;s:3:"DNS";}i:2;i:271;}i:22;a:3:{i:0;s:5:"cdata";i:1;a:1:{i:0;s:163:" entries of the mailing domain and add a MX entries which pointing to the newly created cpanel account's server with higher priority value than existing MX entry. ";}i:2;i:274;}i:23;a:3:{i:0;s:7:"p_close";i:1;a:0:{}i:2;i:437;}i:24;a:3:{i:0;s:6:"p_open";i:1;a:0:{}i:2;i:437;}i:25;a:3:{i:0;s:5:"cdata";i:1;a:1:{i:0;s:12:"    e.g.    ";}i:2;i:440;}i:26;a:3:{i:0;s:7:"p_close";i:1;a:0:{}i:2;i:452;}i:27;a:3:{i:0;s:12:"preformatted";i:1;a:1:{i:0;s:247:"         Doamain        Priority    Hostname 
         mailing.com        0          abc.com  (Existed MX entry)
         mailing.com        10         xyz.com  (Newly added MX entry where xyz.com is pointing to new cpanel account server)
        ";}i:2;i:452;}i:28;a:3:{i:0;s:6:"p_open";i:1;a:0:{}i:2;i:452;}i:29;a:3:{i:0;s:5:"cdata";i:1;a:1:{i:0;s:15:"- Now open the ";}i:2;i:709;}i:30;a:3:{i:0;s:7:"acronym";i:1;a:1:{i:0;s:3:"DNS";}i:2;i:724;}i:31;a:3:{i:0;s:5:"cdata";i:1;a:1:{i:0;s:90:" setting of newly created cpanel account and change the MX entries EXACT as in above step.";}i:2;i:727;}i:32;a:3:{i:0;s:7:"p_close";i:1;a:0:{}i:2;i:817;}i:33;a:3:{i:0;s:12:"preformatted";i:1;a:1:{i:0;s:80:"i.e. EXACT MX entries as in current DNS entries of the mailing domain.          ";}i:2;i:817;}i:34;a:3:{i:0;s:6:"p_open";i:1;a:0:{}i:2;i:817;}i:35;a:3:{i:0;s:5:"cdata";i:1;a:1:{i:0;s:28:"- Save the entries and EXIT.";}i:2;i:902;}i:36;a:3:{i:0;s:7:"p_close";i:1;a:0:{}i:2;i:930;}i:37;a:3:{i:0;s:6:"p_open";i:1;a:0:{}i:2;i:930;}i:38;a:3:{i:0;s:5:"cdata";i:1;a:1:{i:0;s:208:"Now, if primary mailing server abc.com goes down the mails will routed to xyz.com and held until abc.com available, once abc.com comes live all held mails will be delivered to respective mail ID's on abc.com.";}i:2;i:932;}i:39;a:3:{i:0;s:7:"p_close";i:1;a:0:{}i:2;i:1140;}i:40;a:3:{i:0;s:6:"p_open";i:1;a:0:{}i:2;i:1140;}i:41;a:3:{i:0;s:11:"strong_open";i:1;a:0:{}i:2;i:1142;}i:42;a:3:{i:0;s:5:"cdata";i:1;a:1:{i:0;s:44:"(NOTE: FOR ALL ABOVE THERE MUST BE SEPARATE ";}i:2;i:1144;}i:43;a:3:{i:0;s:7:"acronym";i:1;a:1:{i:0;s:3:"DNS";}i:2;i:1188;}i:44;a:3:{i:0;s:5:"cdata";i:1;a:1:{i:0;s:45:" Server, Mailing Server and Backup MX Server)";}i:2;i:1191;}i:45;a:3:{i:0;s:12:"strong_close";i:1;a:0:{}i:2;i:1236;}i:46;a:3:{i:0;s:7:"p_close";i:1;a:0:{}i:2;i:1238;}i:47;a:3:{i:0;s:13:"section_close";i:1;a:0:{}i:2;i:1240;}i:48;a:3:{i:0;s:12:"document_end";i:1;a:0:{}i:2;i:1240;}}