a:47:{i:0;a:3:{i:0;s:14:"document_start";i:1;a:0:{}i:2;i:0;}i:1;a:3:{i:0;s:6:"p_open";i:1;a:0:{}i:2;i:0;}i:2;a:3:{i:0;s:5:"cdata";i:1;a:1:{i:0;s:34:"Login in the admin panel of zimbra";}i:2;i:1;}i:3;a:3:{i:0;s:7:"p_close";i:1;a:0:{}i:2;i:35;}i:4;a:3:{i:0;s:6:"p_open";i:1;a:0:{}i:2;i:35;}i:5;a:3:{i:0;s:9:"linebreak";i:1;a:0:{}i:2;i:37;}i:6;a:3:{i:0;s:5:"cdata";i:1;a:1:{i:0;s:17:"
Go to Configure ";}i:2;i:39;}i:7;a:3:{i:0;s:6:"entity";i:1;a:1:{i:0;s:2:"->";}i:2;i:56;}i:8;a:3:{i:0;s:5:"cdata";i:1;a:1:{i:0;s:17:" Global Settings ";}i:2;i:58;}i:9;a:3:{i:0;s:6:"entity";i:1;a:1:{i:0;s:2:"->";}i:2;i:75;}i:10;a:3:{i:0;s:5:"cdata";i:1;a:1:{i:0;s:6:" Proxy";}i:2;i:77;}i:11;a:3:{i:0;s:9:"linebreak";i:1;a:0:{}i:2;i:83;}i:12;a:3:{i:0;s:5:"cdata";i:1;a:1:{i:0;s:28:"
Set the following settings.";}i:2;i:85;}i:13;a:3:{i:0;s:9:"linebreak";i:1;a:0:{}i:2;i:113;}i:14;a:3:{i:0;s:5:"cdata";i:1;a:1:{i:0;s:23:"
 Tick Enable web proxy";}i:2;i:115;}i:15;a:3:{i:0;s:9:"linebreak";i:1;a:0:{}i:2;i:138;}i:16;a:3:{i:0;s:5:"cdata";i:1;a:1:{i:0;s:22:"
 Web proxy mode: both";}i:2;i:140;}i:17;a:3:{i:0;s:9:"linebreak";i:1;a:0:{}i:2;i:162;}i:18;a:3:{i:0;s:5:"cdata";i:1;a:1:{i:0;s:12:"
 Click Save";}i:2;i:164;}i:19;a:3:{i:0;s:7:"p_close";i:1;a:0:{}i:2;i:176;}i:20;a:3:{i:0;s:6:"p_open";i:1;a:0:{}i:2;i:176;}i:21;a:3:{i:0;s:9:"linebreak";i:1;a:0:{}i:2;i:178;}i:22;a:3:{i:0;s:5:"cdata";i:1;a:1:{i:0;s:17:"
Go to Configure ";}i:2;i:180;}i:23;a:3:{i:0;s:6:"entity";i:1;a:1:{i:0;s:2:"->";}i:2;i:197;}i:24;a:3:{i:0;s:5:"cdata";i:1;a:1:{i:0;s:9:" Servers ";}i:2;i:199;}i:25;a:3:{i:0;s:6:"entity";i:1;a:1:{i:0;s:2:"->";}i:2;i:208;}i:26;a:3:{i:0;s:5:"cdata";i:1;a:1:{i:0;s:21:" Click on the server ";}i:2;i:210;}i:27;a:3:{i:0;s:6:"entity";i:1;a:1:{i:0;s:2:"->";}i:2;i:231;}i:28;a:3:{i:0;s:5:"cdata";i:1;a:1:{i:0;s:6:" Proxy";}i:2;i:233;}i:29;a:3:{i:0;s:9:"linebreak";i:1;a:0:{}i:2;i:239;}i:30;a:3:{i:0;s:5:"cdata";i:1;a:1:{i:0;s:28:"
Set the following settings.";}i:2;i:241;}i:31;a:3:{i:0;s:9:"linebreak";i:1;a:0:{}i:2;i:269;}i:32;a:3:{i:0;s:5:"cdata";i:1;a:1:{i:0;s:23:"
 Tick Enable web proxy";}i:2;i:271;}i:33;a:3:{i:0;s:9:"linebreak";i:1;a:0:{}i:2;i:294;}i:34;a:3:{i:0;s:5:"cdata";i:1;a:1:{i:0;s:22:"
 Web proxy mode: both";}i:2;i:296;}i:35;a:3:{i:0;s:9:"linebreak";i:1;a:0:{}i:2;i:318;}i:36;a:3:{i:0;s:5:"cdata";i:1;a:1:{i:0;s:42:"
 Untick Proxy to upstream servers via SSL";}i:2;i:320;}i:37;a:3:{i:0;s:9:"linebreak";i:1;a:0:{}i:2;i:362;}i:38;a:3:{i:0;s:5:"cdata";i:1;a:1:{i:0;s:12:"
 Click Save";}i:2;i:364;}i:39;a:3:{i:0;s:7:"p_close";i:1;a:0:{}i:2;i:376;}i:40;a:3:{i:0;s:6:"p_open";i:1;a:0:{}i:2;i:376;}i:41;a:3:{i:0;s:5:"cdata";i:1;a:1:{i:0;s:46:"Login as root user and run following commands-";}i:2;i:378;}i:42;a:3:{i:0;s:7:"p_close";i:1;a:0:{}i:2;i:424;}i:43;a:3:{i:0;s:6:"p_open";i:1;a:0:{}i:2;i:424;}i:44;a:3:{i:0;s:6:"plugin";i:1;a:4:{i:0;s:9:"code_code";i:1;a:4:{i:0;s:4:"code";i:1;N;i:2;s:0:"";i:3;s:280:"
su - zimbra
zmlocalconfig zimbraReverseProxySSLToUpstreamEnabled FALSE
/opt/zimbra/libexec/zmproxyconfig -e -w -o -a 8080:80:8443:443 -x both -H $HOSTNAME
zmtlsctl both
zmprov ms $HOSTNAME zimbraReverseProxyMailMode both
zmprov ms $HOSTNAME zimbraMailMode both
zmcontrol restart
";}i:2;i:3;i:3;s:281:">
su - zimbra
zmlocalconfig zimbraReverseProxySSLToUpstreamEnabled FALSE
/opt/zimbra/libexec/zmproxyconfig -e -w -o -a 8080:80:8443:443 -x both -H $HOSTNAME
zmtlsctl both
zmprov ms $HOSTNAME zimbraReverseProxyMailMode both
zmprov ms $HOSTNAME zimbraMailMode both
zmcontrol restart
";}i:2;i:431;}i:45;a:3:{i:0;s:7:"p_close";i:1;a:0:{}i:2;i:719;}i:46;a:3:{i:0;s:12:"document_end";i:1;a:0:{}i:2;i:719;}}