a:10:{i:0;a:3:{i:0;s:14:"document_start";i:1;a:0:{}i:2;i:0;}i:1;a:3:{i:0;s:6:"header";i:1;a:3:{i:0;s:34:"Zimbra Account Usage Report Script";i:1;i:1;i:2;i:1;}i:2;i:1;}i:2;a:3:{i:0;s:12:"section_open";i:1;a:1:{i:0;i:1;}i:2;i:1;}i:3;a:3:{i:0;s:6:"p_open";i:1;a:0:{}i:2;i:1;}i:4;a:3:{i:0;s:5:"cdata";i:1;a:1:{i:0;s:54:"Create a file accountusage.sh with following content:
";}i:2;i:52;}i:5;a:3:{i:0;s:6:"plugin";i:1;a:4:{i:0;s:9:"code_code";i:1;a:4:{i:0;s:4:"code";i:1;N;i:2;s:0:"";i:3;s:666:"
#!/bin/bash
output="/tmp/accountusage"
domain="<yourdomainnamehere.com>"
SendTo="<notification_email>"

rm -f $output
touch $output

server=`hostname`
/opt/zimbra/bin/zmprov gqu $server|grep $domain|awk {'print $1" "$3" "$2'}|sort|while read line
do
usage=`echo $line|cut -f2 -d " "`
quota=`echo $line|cut -f3 -d " "`
user=`echo $line|cut -f1 -d " "`
status=`/opt/zimbra/bin/zmprov ga $user | grep  ^zimbraAccountStatus | cut -f2 -d " "`
echo "$user `expr $usage / 1024 / 1024`Mb `expr $quota / 1024 / 1024`Mb ($status account)" >> $output
done

cat $output | mail @SendTo -s"Mailbox Usages for $domain"
 

Add this script to cron jobs:

0 0 0 * * <path_to_script> ";}i:2;i:3;i:3;s:667:">
#!/bin/bash
output="/tmp/accountusage"
domain="<yourdomainnamehere.com>"
SendTo="<notification_email>"

rm -f $output
touch $output

server=`hostname`
/opt/zimbra/bin/zmprov gqu $server|grep $domain|awk {'print $1" "$3" "$2'}|sort|while read line
do
usage=`echo $line|cut -f2 -d " "`
quota=`echo $line|cut -f3 -d " "`
user=`echo $line|cut -f1 -d " "`
status=`/opt/zimbra/bin/zmprov ga $user | grep  ^zimbraAccountStatus | cut -f2 -d " "`
echo "$user `expr $usage / 1024 / 1024`Mb `expr $quota / 1024 / 1024`Mb ($status account)" >> $output
done

cat $output | mail @SendTo -s"Mailbox Usages for $domain"
 

Add this script to cron jobs:

0 0 0 * * <path_to_script> ";}i:2;i:111;}i:6;a:3:{i:0;s:5:"cdata";i:1;a:1:{i:0;s:0:"";}i:2;i:785;}i:7;a:3:{i:0;s:7:"p_close";i:1;a:0:{}i:2;i:785;}i:8;a:3:{i:0;s:13:"section_close";i:1;a:0:{}i:2;i:785;}i:9;a:3:{i:0;s:12:"document_end";i:1;a:0:{}i:2;i:785;}}