a:49:{i:0;a:3:{i:0;s:14:"document_start";i:1;a:0:{}i:2;i:0;}i:1;a:3:{i:0;s:6:"p_open";i:1;a:0:{}i:2;i:0;}i:2;a:3:{i:0;s:5:"cdata";i:1;a:1:{i:0;s:58:"Most of the Time permalinks should be in post name format.";}i:2;i:1;}i:3;a:3:{i:0;s:7:"p_close";i:1;a:0:{}i:2;i:59;}i:4;a:3:{i:0;s:6:"p_open";i:1;a:0:{}i:2;i:59;}i:5;a:3:{i:0;s:11:"strong_open";i:1;a:0:{}i:2;i:61;}i:6;a:3:{i:0;s:5:"cdata";i:1;a:1:{i:0;s:13:"Automatic Way";}i:2;i:63;}i:7;a:3:{i:0;s:12:"strong_close";i:1;a:0:{}i:2;i:76;}i:8;a:3:{i:0;s:7:"p_close";i:1;a:0:{}i:2;i:78;}i:9;a:3:{i:0;s:6:"p_open";i:1;a:0:{}i:2;i:78;}i:10;a:3:{i:0;s:5:"cdata";i:1;a:1:{i:0;s:47:"Go to Wordpress Dashboard > Setting > Permainks";}i:2;i:80;}i:11;a:3:{i:0;s:7:"p_close";i:1;a:0:{}i:2;i:127;}i:12;a:3:{i:0;s:6:"p_open";i:1;a:0:{}i:2;i:127;}i:13;a:3:{i:0;s:13:"internalmedia";i:1;a:7:{i:0;s:23:":permalink-settings.png";i:1;s:0:"";i:2;s:6:"center";i:3;s:3:"200";i:4;N;i:5;s:5:"cache";i:6;s:6:"nolink";}i:2;i:129;}i:14;a:3:{i:0;s:7:"p_close";i:1;a:0:{}i:2;i:170;}i:15;a:3:{i:0;s:6:"p_open";i:1;a:0:{}i:2;i:170;}i:16;a:3:{i:0;s:5:"cdata";i:1;a:1:{i:0;s:23:"then Select Permalinks ";}i:2;i:173;}i:17;a:3:{i:0;s:6:"entity";i:1;a:1:{i:0;s:2:">>";}i:2;i:196;}i:18;a:3:{i:0;s:5:"cdata";i:1;a:1:{i:0;s:5:" SAVE";}i:2;i:198;}i:19;a:3:{i:0;s:7:"p_close";i:1;a:0:{}i:2;i:203;}i:20;a:3:{i:0;s:6:"p_open";i:1;a:0:{}i:2;i:203;}i:21;a:3:{i:0;s:5:"cdata";i:1;a:1:{i:0;s:93:"If wordpress give error of permission then give CHMOD 644 write permission of .htaccess file.";}i:2;i:205;}i:22;a:3:{i:0;s:7:"p_close";i:1;a:0:{}i:2;i:298;}i:23;a:3:{i:0;s:6:"p_open";i:1;a:0:{}i:2;i:298;}i:24;a:3:{i:0;s:11:"strong_open";i:1;a:0:{}i:2;i:300;}i:25;a:3:{i:0;s:5:"cdata";i:1;a:1:{i:0;s:10:"Manual way";}i:2;i:302;}i:26;a:3:{i:0;s:12:"strong_close";i:1;a:0:{}i:2;i:312;}i:27;a:3:{i:0;s:7:"p_close";i:1;a:0:{}i:2;i:314;}i:28;a:3:{i:0;s:6:"p_open";i:1;a:0:{}i:2;i:314;}i:29;a:3:{i:0;s:5:"cdata";i:1;a:1:{i:0;s:4:"SSH ";}i:2;i:316;}i:30;a:3:{i:0;s:6:"entity";i:1;a:1:{i:0;s:2:">>";}i:2;i:320;}i:31;a:3:{i:0;s:5:"cdata";i:1;a:1:{i:0;s:12:" Go to Root ";}i:2;i:322;}i:32;a:3:{i:0;s:6:"entity";i:1;a:1:{i:0;s:2:">>";}i:2;i:334;}i:33;a:3:{i:0;s:5:"cdata";i:1;a:1:{i:0;s:74:" EDIT .htaccess file and append below lines according domain or subdomain.";}i:2;i:336;}i:34;a:3:{i:0;s:7:"p_close";i:1;a:0:{}i:2;i:410;}i:35;a:3:{i:0;s:6:"p_open";i:1;a:0:{}i:2;i:410;}i:36;a:3:{i:0;s:5:"cdata";i:1;a:1:{i:0;s:54:"[ #1 ] If WordPress installed in the root directory »";}i:2;i:412;}i:37;a:3:{i:0;s:7:"p_close";i:1;a:0:{}i:2;i:466;}i:38;a:3:{i:0;s:6:"p_open";i:1;a:0:{}i:2;i:466;}i:39;a:3:{i:0;s:5:"cdata";i:1;a:1:{i:0;s:289:"# BEGIN WordPress
<IfModule mod_rewrite.c>
RewriteEngine On
RewriteBase /
RewriteRule ^index\.php$ - [L]
RewriteCond %{REQUEST_FILENAME} !-f
RewriteCond %{REQUEST_FILENAME} !-d
RewriteRule . /index.php [L]
</IfModule>
# END WordPress
[ #2 ] If WordPress installed in a subdirectory called ";}i:2;i:468;}i:40;a:3:{i:0;s:18:"doublequoteopening";i:1;a:0:{}i:2;i:757;}i:41;a:3:{i:0;s:5:"cdata";i:1;a:1:{i:0;s:3:"foo";}i:2;i:758;}i:42;a:3:{i:0;s:18:"doublequoteclosing";i:1;a:0:{}i:2;i:761;}i:43;a:3:{i:0;s:5:"cdata";i:1;a:1:{i:0;s:3:" »";}i:2;i:762;}i:44;a:3:{i:0;s:7:"p_close";i:1;a:0:{}i:2;i:765;}i:45;a:3:{i:0;s:6:"p_open";i:1;a:0:{}i:2;i:765;}i:46;a:3:{i:0;s:5:"cdata";i:1;a:1:{i:0;s:241:"# BEGIN WordPress
<IfModule mod_rewrite.c>
RewriteEngine On
RewriteBase /foo/
RewriteRule ^index\.php$ - [L]
RewriteCond %{REQUEST_FILENAME} !-f
RewriteCond %{REQUEST_FILENAME} !-d
RewriteRule . /foo/index.php [L]
</IfModule>
# END WordPress";}i:2;i:767;}i:47;a:3:{i:0;s:7:"p_close";i:1;a:0:{}i:2;i:767;}i:48;a:3:{i:0;s:12:"document_end";i:1;a:0:{}i:2;i:767;}}