a:137:{i:0;a:3:{i:0;s:14:"document_start";i:1;a:0:{}i:2;i:0;}i:1;a:3:{i:0;s:6:"p_open";i:1;a:0:{}i:2;i:0;}i:2;a:3:{i:0;s:5:"cdata";i:1;a:1:{i:0;s:38:"Make sure PolicyD should be installed.";}i:2;i:1;}i:3;a:3:{i:0;s:9:"linebreak";i:1;a:0:{}i:2;i:39;}i:4;a:3:{i:0;s:7:"p_close";i:1;a:0:{}i:2;i:41;}i:5;a:3:{i:0;s:6:"p_open";i:1;a:0:{}i:2;i:41;}i:6;a:3:{i:0;s:5:"cdata";i:1;a:1:{i:0;s:34:"Limit Per user Per Email per Hour.";}i:2;i:43;}i:7;a:3:{i:0;s:9:"linebreak";i:1;a:0:{}i:2;i:77;}i:8;a:3:{i:0;s:7:"p_close";i:1;a:0:{}i:2;i:79;}i:9;a:3:{i:0;s:6:"p_open";i:1;a:0:{}i:2;i:79;}i:10;a:3:{i:0;s:5:"cdata";i:1;a:1:{i:0;s:12:"PolicyD WEB ";}i:2;i:81;}i:11;a:3:{i:0;s:7:"acronym";i:1;a:1:{i:0;s:3:"URL";}i:2;i:93;}i:12;a:3:{i:0;s:5:"cdata";i:1;a:1:{i:0;s:2:": ";}i:2;i:96;}i:13;a:3:{i:0;s:12:"externallink";i:1;a:2:{i:0;s:30:"http://IP:7780/webui/index.php";i:1;N;}i:2;i:98;}i:14;a:3:{i:0;s:9:"linebreak";i:1;a:0:{}i:2;i:128;}i:15;a:3:{i:0;s:7:"p_close";i:1;a:0:{}i:2;i:130;}i:16;a:3:{i:0;s:6:"p_open";i:1;a:0:{}i:2;i:130;}i:17;a:3:{i:0;s:5:"cdata";i:1;a:1:{i:0;s:9:"Policies ";}i:2;i:132;}i:18;a:3:{i:0;s:6:"entity";i:1;a:1:{i:0;s:2:"->";}i:2;i:141;}i:19;a:3:{i:0;s:5:"cdata";i:1;a:1:{i:0;s:7:" Group ";}i:2;i:143;}i:20;a:3:{i:0;s:6:"entity";i:1;a:1:{i:0;s:2:"--";}i:2;i:150;}i:21;a:3:{i:0;s:5:"cdata";i:1;a:1:{i:0;s:16:"> Select Action ";}i:2;i:152;}i:22;a:3:{i:0;s:6:"entity";i:1;a:1:{i:0;s:2:"--";}i:2;i:168;}i:23;a:3:{i:0;s:5:"cdata";i:1;a:1:{i:0;s:6:"> Add ";}i:2;i:170;}i:24;a:3:{i:0;s:9:"linebreak";i:1;a:0:{}i:2;i:176;}i:25;a:3:{i:0;s:5:"cdata";i:1;a:1:{i:0;s:18:"
Add Policy Group ";}i:2;i:178;}i:26;a:3:{i:0;s:9:"linebreak";i:1;a:0:{}i:2;i:196;}i:27;a:3:{i:0;s:5:"cdata";i:1;a:1:{i:0;s:20:"
Name: list_domains ";}i:2;i:198;}i:28;a:3:{i:0;s:9:"linebreak";i:1;a:0:{}i:2;i:218;}i:29;a:3:{i:0;s:5:"cdata";i:1;a:1:{i:0;s:50:"
Comment: It can be empty or filled with comment. ";}i:2;i:220;}i:30;a:3:{i:0;s:9:"linebreak";i:1;a:0:{}i:2;i:270;}i:31;a:3:{i:0;s:7:"p_close";i:1;a:0:{}i:2;i:272;}i:32;a:3:{i:0;s:6:"p_open";i:1;a:0:{}i:2;i:272;}i:33;a:3:{i:0;s:5:"cdata";i:1;a:1:{i:0;s:9:"Policies ";}i:2;i:274;}i:34;a:3:{i:0;s:6:"entity";i:1;a:1:{i:0;s:2:"--";}i:2;i:283;}i:35;a:3:{i:0;s:5:"cdata";i:1;a:1:{i:0;s:8:"> Group ";}i:2;i:285;}i:36;a:3:{i:0;s:6:"entity";i:1;a:1:{i:0;s:2:"--";}i:2;i:293;}i:37;a:3:{i:0;s:5:"cdata";i:1;a:1:{i:0;s:21:"> Select your group. ";}i:2;i:295;}i:38;a:3:{i:0;s:6:"entity";i:1;a:1:{i:0;s:2:"--";}i:2;i:316;}i:39;a:3:{i:0;s:5:"cdata";i:1;a:1:{i:0;s:44:"> Select members from Select action option. ";}i:2;i:318;}i:40;a:3:{i:0;s:9:"linebreak";i:1;a:0:{}i:2;i:362;}i:41;a:3:{i:0;s:5:"cdata";i:1;a:1:{i:0;s:62:"
Make sure disabled status is no at groups or members groups. ";}i:2;i:364;}i:42;a:3:{i:0;s:9:"linebreak";i:1;a:0:{}i:2;i:426;}i:43;a:3:{i:0;s:7:"p_close";i:1;a:0:{}i:2;i:428;}i:44;a:3:{i:0;s:6:"p_open";i:1;a:0:{}i:2;i:428;}i:45;a:3:{i:0;s:5:"cdata";i:1;a:1:{i:0;s:21:"Policy Group Members ";}i:2;i:431;}i:46;a:3:{i:0;s:9:"linebreak";i:1;a:0:{}i:2;i:452;}i:47;a:3:{i:0;s:5:"cdata";i:1;a:1:{i:0;s:15:"
Select action ";}i:2;i:454;}i:48;a:3:{i:0;s:6:"entity";i:1;a:1:{i:0;s:2:"--";}i:2;i:469;}i:49;a:3:{i:0;s:5:"cdata";i:1;a:1:{i:0;s:6:"> add ";}i:2;i:471;}i:50;a:3:{i:0;s:9:"linebreak";i:1;a:0:{}i:2;i:477;}i:51;a:3:{i:0;s:7:"p_close";i:1;a:0:{}i:2;i:479;}i:52;a:3:{i:0;s:6:"p_open";i:1;a:0:{}i:2;i:479;}i:53;a:3:{i:0;s:5:"cdata";i:1;a:1:{i:0;s:11:"Add member ";}i:2;i:481;}i:54;a:3:{i:0;s:6:"entity";i:1;a:1:{i:0;s:2:"--";}i:2;i:492;}i:55;a:3:{i:0;s:5:"cdata";i:1;a:1:{i:0;s:10:"> @domain ";}i:2;i:494;}i:56;a:3:{i:0;s:9:"linebreak";i:1;a:0:{}i:2;i:504;}i:57;a:3:{i:0;s:7:"p_close";i:1;a:0:{}i:2;i:506;}i:58;a:3:{i:0;s:6:"p_open";i:1;a:0:{}i:2;i:506;}i:59;a:3:{i:0;s:5:"cdata";i:1;a:1:{i:0;s:16:"Select Policies ";}i:2;i:508;}i:60;a:3:{i:0;s:6:"entity";i:1;a:1:{i:0;s:2:"--";}i:2;i:524;}i:61;a:3:{i:0;s:5:"cdata";i:1;a:1:{i:0;s:68:"> Main. Create new policy and give name rate limit sending message. ";}i:2;i:526;}i:62;a:3:{i:0;s:9:"linebreak";i:1;a:0:{}i:2;i:594;}i:63;a:3:{i:0;s:7:"p_close";i:1;a:0:{}i:2;i:596;}i:64;a:3:{i:0;s:6:"p_open";i:1;a:0:{}i:2;i:596;}i:65;a:3:{i:0;s:5:"cdata";i:1;a:1:{i:0;s:11:"Add Policy ";}i:2;i:599;}i:66;a:3:{i:0;s:9:"linebreak";i:1;a:0:{}i:2;i:610;}i:67;a:3:{i:0;s:5:"cdata";i:1;a:1:{i:0;s:18:"
Name: rate limit ";}i:2;i:612;}i:68;a:3:{i:0;s:9:"linebreak";i:1;a:0:{}i:2;i:630;}i:69;a:3:{i:0;s:5:"cdata";i:1;a:1:{i:0;s:14:"
Priority: 20 ";}i:2;i:633;}i:70;a:3:{i:0;s:9:"linebreak";i:1;a:0:{}i:2;i:647;}i:71;a:3:{i:0;s:7:"p_close";i:1;a:0:{}i:2;i:649;}i:72;a:3:{i:0;s:6:"p_open";i:1;a:0:{}i:2;i:649;}i:73;a:3:{i:0;s:5:"cdata";i:1;a:1:{i:0;s:14:"Select Policy ";}i:2;i:651;}i:74;a:3:{i:0;s:6:"entity";i:1;a:1:{i:0;s:2:"--";}i:2;i:665;}i:75;a:3:{i:0;s:5:"cdata";i:1;a:1:{i:0;s:16:"> Select Action ";}i:2;i:667;}i:76;a:3:{i:0;s:6:"entity";i:1;a:1:{i:0;s:2:"--";}i:2;i:683;}i:77;a:3:{i:0;s:5:"cdata";i:1;a:1:{i:0;s:17:"> Select members ";}i:2;i:685;}i:78;a:3:{i:0;s:6:"entity";i:1;a:1:{i:0;s:2:"--";}i:2;i:702;}i:79;a:3:{i:0;s:5:"cdata";i:1;a:1:{i:0;s:6:"> Add ";}i:2;i:704;}i:80;a:3:{i:0;s:9:"linebreak";i:1;a:0:{}i:2;i:710;}i:81;a:3:{i:0;s:7:"p_close";i:1;a:0:{}i:2;i:712;}i:82;a:3:{i:0;s:6:"p_open";i:1;a:0:{}i:2;i:712;}i:83;a:3:{i:0;s:5:"cdata";i:1;a:1:{i:0;s:14:"Select Quotas ";}i:2;i:714;}i:84;a:3:{i:0;s:6:"entity";i:1;a:1:{i:0;s:2:"--";}i:2;i:728;}i:85;a:3:{i:0;s:5:"cdata";i:1;a:1:{i:0;s:13:"> Configure. ";}i:2;i:730;}i:86;a:3:{i:0;s:9:"linebreak";i:1;a:0:{}i:2;i:743;}i:87;a:3:{i:0;s:5:"cdata";i:1;a:1:{i:0;s:15:"
Select action ";}i:2;i:745;}i:88;a:3:{i:0;s:6:"entity";i:1;a:1:{i:0;s:2:"--";}i:2;i:760;}i:89;a:3:{i:0;s:5:"cdata";i:1;a:1:{i:0;s:7:"> add. ";}i:2;i:762;}i:90;a:3:{i:0;s:9:"linebreak";i:1;a:0:{}i:2;i:769;}i:91;a:3:{i:0;s:5:"cdata";i:1;a:1:{i:0;s:33:"
fill with the following example ";}i:2;i:771;}i:92;a:3:{i:0;s:9:"linebreak";i:1;a:0:{}i:2;i:804;}i:93;a:3:{i:0;s:7:"p_close";i:1;a:0:{}i:2;i:806;}i:94;a:3:{i:0;s:6:"p_open";i:1;a:0:{}i:2;i:806;}i:95;a:3:{i:0;s:5:"cdata";i:1;a:1:{i:0;s:18:"Name : Rate Limit ";}i:2;i:808;}i:96;a:3:{i:0;s:9:"linebreak";i:1;a:0:{}i:2;i:826;}i:97;a:3:{i:0;s:5:"cdata";i:1;a:1:{i:0;s:28:"
Track : sender:user@domain ";}i:2;i:828;}i:98;a:3:{i:0;s:9:"linebreak";i:1;a:0:{}i:2;i:856;}i:99;a:3:{i:0;s:5:"cdata";i:1;a:1:{i:0;s:15:"
Period : 3600 ";}i:2;i:858;}i:100;a:3:{i:0;s:9:"linebreak";i:1;a:0:{}i:2;i:873;}i:101;a:3:{i:0;s:5:"cdata";i:1;a:1:{i:0;s:45:"
Link to policy : Rate Limit Sending Message ";}i:2;i:875;}i:102;a:3:{i:0;s:9:"linebreak";i:1;a:0:{}i:2;i:920;}i:103;a:3:{i:0;s:5:"cdata";i:1;a:1:{i:0;s:25:"
Verdict : Defer (delay) ";}i:2;i:922;}i:104;a:3:{i:0;s:9:"linebreak";i:1;a:0:{}i:2;i:947;}i:105;a:3:{i:0;s:5:"cdata";i:1;a:1:{i:0;s:81:"
Data : information who give to users if policy have been meet or you can empty. ";}i:2;i:949;}i:106;a:3:{i:0;s:9:"linebreak";i:1;a:0:{}i:2;i:1030;}i:107;a:3:{i:0;s:7:"p_close";i:1;a:0:{}i:2;i:1033;}i:108;a:3:{i:0;s:6:"p_open";i:1;a:0:{}i:2;i:1033;}i:109;a:3:{i:0;s:5:"cdata";i:1;a:1:{i:0;s:51:"Select new quota that had been previously created. ";}i:2;i:1035;}i:110;a:3:{i:0;s:9:"linebreak";i:1;a:0:{}i:2;i:1086;}i:111;a:3:{i:0;s:5:"cdata";i:1;a:1:{i:0;s:16:"
select actions ";}i:2;i:1088;}i:112;a:3:{i:0;s:6:"entity";i:1;a:1:{i:0;s:2:"--";}i:2;i:1104;}i:113;a:3:{i:0;s:5:"cdata";i:1;a:1:{i:0;s:9:"> limits ";}i:2;i:1106;}i:114;a:3:{i:0;s:9:"linebreak";i:1;a:0:{}i:2;i:1115;}i:115;a:3:{i:0;s:7:"p_close";i:1;a:0:{}i:2;i:1117;}i:116;a:3:{i:0;s:6:"p_open";i:1;a:0:{}i:2;i:1117;}i:117;a:3:{i:0;s:5:"cdata";i:1;a:1:{i:0;s:25:"Add limit and configure. ";}i:2;i:1119;}i:118;a:3:{i:0;s:9:"linebreak";i:1;a:0:{}i:2;i:1144;}i:119;a:3:{i:0;s:7:"p_close";i:1;a:0:{}i:2;i:1146;}i:120;a:3:{i:0;s:6:"p_open";i:1;a:0:{}i:2;i:1146;}i:121;a:3:{i:0;s:5:"cdata";i:1;a:1:{i:0;s:20:"Type: Message Count ";}i:2;i:1148;}i:122;a:3:{i:0;s:9:"linebreak";i:1;a:0:{}i:2;i:1168;}i:123;a:3:{i:0;s:5:"cdata";i:1;a:1:{i:0;s:20:"
Counter Limit: 200 ";}i:2;i:1170;}i:124;a:3:{i:0;s:9:"linebreak";i:1;a:0:{}i:2;i:1190;}i:125;a:3:{i:0;s:7:"p_close";i:1;a:0:{}i:2;i:1192;}i:126;a:3:{i:0;s:6:"p_open";i:1;a:0:{}i:2;i:1192;}i:127;a:3:{i:0;s:5:"cdata";i:1;a:1:{i:0;s:44:"Ensure disabled status is no in quota limit.";}i:2;i:1194;}i:128;a:3:{i:0;s:9:"linebreak";i:1;a:0:{}i:2;i:1238;}i:129;a:3:{i:0;s:7:"p_close";i:1;a:0:{}i:2;i:1240;}i:130;a:3:{i:0;s:6:"p_open";i:1;a:0:{}i:2;i:1240;}i:131;a:3:{i:0;s:5:"cdata";i:1;a:1:{i:0;s:39:"Log file: /opt/zimbra/log/cbpolicyd.log";}i:2;i:1242;}i:132;a:3:{i:0;s:7:"p_close";i:1;a:0:{}i:2;i:1281;}i:133;a:3:{i:0;s:6:"p_open";i:1;a:0:{}i:2;i:1281;}i:134;a:3:{i:0;s:5:"cdata";i:1;a:1:{i:0;s:143:"Above configuration will limit sending message from local domain to outside and outside to any domain with maximum message 200 email/user/hour.";}i:2;i:1283;}i:135;a:3:{i:0;s:7:"p_close";i:1;a:0:{}i:2;i:1426;}i:136;a:3:{i:0;s:12:"document_end";i:1;a:0:{}i:2;i:1426;}}