a:6:{i:0;a:3:{i:0;s:14:"document_start";i:1;a:0:{}i:2;i:0;}i:1;a:3:{i:0;s:6:"p_open";i:1;a:0:{}i:2;i:0;}i:2;a:3:{i:0;s:6:"plugin";i:1;a:4:{i:0;s:9:"code_code";i:1;a:4:{i:0;s:4:"code";i:1;N;i:2;s:0:"";i:3;s:1215:"
#!/bin/bash
# Installs Newrelic System Monitor Daemon on CentOS/Ubuntu

os=`cat /etc/issue | head -n1 | awk '{print $1;}'`

if [ $os == "CentOS" ];
then

   echo "CentOS found"
   service newrelic-sysmond status
   var=`echo $?`
   if (($var == "0")) || (($var == "3")); then
		echo "Newrelic Server Monitor is already installed, exiting.."
		service newrelic-sysmond restart
		exit 1	
	else
    cd /root
	rpm -Uvh http://download.newrelic.com/pub/newrelic/el5/i386/newrelic-repo-5-3.noarch.rpm
	yum install newrelic-sysmond -y
	nrsysmond-config --set license_key=ffd8b9c03d076faf63a1701a3a85f3115b2123a4
	/etc/init.d/newrelic-sysmond start
	echo "Newrelic agent installed successfully"
	exit 0
    fi  
elif [ $os == "Ubuntu" ];
then
   echo "Ubuntu found, starting installation"
   
    cd /root
    echo deb http://apt.newrelic.com/debian/ newrelic non-free >> /etc/apt/sources.list.d/newrelic.list
    wget -O- https://download.newrelic.com/548C16BF.gpg | apt-key add -
    apt-get update
    apt-get install newrelic-sysmond -y
    nrsysmond-config --set license_key=ffd8b9c03d076faf63a1701a3a85f3115b2123a4
    /etc/init.d/newrelic-sysmond start
    exit 0
else
   echo "Unsupported OS"
   exit 1
fi   
exit
";}i:2;i:3;i:3;s:1216:">
#!/bin/bash
# Installs Newrelic System Monitor Daemon on CentOS/Ubuntu

os=`cat /etc/issue | head -n1 | awk '{print $1;}'`

if [ $os == "CentOS" ];
then

   echo "CentOS found"
   service newrelic-sysmond status
   var=`echo $?`
   if (($var == "0")) || (($var == "3")); then
		echo "Newrelic Server Monitor is already installed, exiting.."
		service newrelic-sysmond restart
		exit 1	
	else
    cd /root
	rpm -Uvh http://download.newrelic.com/pub/newrelic/el5/i386/newrelic-repo-5-3.noarch.rpm
	yum install newrelic-sysmond -y
	nrsysmond-config --set license_key=ffd8b9c03d076faf63a1701a3a85f3115b2123a4
	/etc/init.d/newrelic-sysmond start
	echo "Newrelic agent installed successfully"
	exit 0
    fi  
elif [ $os == "Ubuntu" ];
then
   echo "Ubuntu found, starting installation"
   
    cd /root
    echo deb http://apt.newrelic.com/debian/ newrelic non-free >> /etc/apt/sources.list.d/newrelic.list
    wget -O- https://download.newrelic.com/548C16BF.gpg | apt-key add -
    apt-get update
    apt-get install newrelic-sysmond -y
    nrsysmond-config --set license_key=ffd8b9c03d076faf63a1701a3a85f3115b2123a4
    /etc/init.d/newrelic-sysmond start
    exit 0
else
   echo "Unsupported OS"
   exit 1
fi   
exit
";}i:2;i:6;}i:3;a:3:{i:0;s:5:"cdata";i:1;a:1:{i:0;s:0:"";}i:2;i:1229;}i:4;a:3:{i:0;s:7:"p_close";i:1;a:0:{}i:2;i:1229;}i:5;a:3:{i:0;s:12:"document_end";i:1;a:0:{}i:2;i:1229;}}