a:9:{i:0;a:3:{i:0;s:14:"document_start";i:1;a:0:{}i:2;i:0;}i:1;a:3:{i:0;s:6:"p_open";i:1;a:0:{}i:2;i:0;}i:2;a:3:{i:0;s:5:"cdata";i:1;a:1:{i:0;s:51:"Add below lines in /opt/zimbra/conf/salocal.cf.in 
";}i:2;i:3;}i:3;a:3:{i:0;s:6:"plugin";i:1;a:4:{i:0;s:9:"code_code";i:1;a:4:{i:0;s:4:"code";i:1;N;i:2;s:0:"";i:3;s:105:"
blacklist_from *mantraventures.com 
whitelist_from m.rajesh@yahoo.com 
whitelist_from ganesh@gmail.com 
";}i:2;i:3;i:3;s:106:">
blacklist_from *mantraventures.com 
whitelist_from m.rajesh@yahoo.com 
whitelist_from ganesh@gmail.com 
";}i:2;i:59;}i:4;a:3:{i:0;s:7:"p_close";i:1;a:0:{}i:2;i:172;}i:5;a:3:{i:0;s:6:"p_open";i:1;a:0:{}i:2;i:172;}i:6;a:3:{i:0;s:5:"cdata";i:1;a:1:{i:0;s:69:"Restart Zimbra spamassassin.
zmmtactl restart && zmamavisdctl restart";}i:2;i:174;}i:7;a:3:{i:0;s:7:"p_close";i:1;a:0:{}i:2;i:174;}i:8;a:3:{i:0;s:12:"document_end";i:1;a:0:{}i:2;i:174;}}