a:39:{i:0;a:3:{i:0;s:14:"document_start";i:1;a:0:{}i:2;i:0;}i:1;a:3:{i:0;s:6:"p_open";i:1;a:0:{}i:2;i:0;}i:2;a:3:{i:0;s:5:"cdata";i:1;a:1:{i:0;s:15:"1. open my.cnf
";}i:2;i:2;}i:3;a:3:{i:0;s:6:"plugin";i:1;a:4:{i:0;s:9:"code_code";i:1;a:4:{i:0;s:4:"code";i:1;N;i:2;s:0:"";i:3;s:16:"
vi /etc/my.cnf
";}i:2;i:3;i:3;s:17:">
vi /etc/my.cnf
";}i:2;i:22;}i:4;a:3:{i:0;s:7:"p_close";i:1;a:0:{}i:2;i:46;}i:5;a:3:{i:0;s:6:"p_open";i:1;a:0:{}i:2;i:46;}i:6;a:3:{i:0;s:5:"cdata";i:1;a:1:{i:0;s:9:"and add :";}i:2;i:48;}i:7;a:3:{i:0;s:7:"p_close";i:1;a:0:{}i:2;i:57;}i:8;a:3:{i:0;s:6:"p_open";i:1;a:0:{}i:2;i:57;}i:9;a:3:{i:0;s:6:"plugin";i:1;a:4:{i:0;s:9:"code_code";i:1;a:4:{i:0;s:4:"code";i:1;N;i:2;s:0:"";i:3;s:44:"
bind-address= <IP address of your machine>
";}i:2;i:3;i:3;s:45:">
bind-address= <IP address of your machine>
";}i:2;i:64;}i:10;a:3:{i:0;s:7:"p_close";i:1;a:0:{}i:2;i:116;}i:11;a:3:{i:0;s:6:"p_open";i:1;a:0:{}i:2;i:116;}i:12;a:3:{i:0;s:5:"cdata";i:1;a:1:{i:0;s:32:"then restart mysql server with :";}i:2;i:118;}i:13;a:3:{i:0;s:7:"p_close";i:1;a:0:{}i:2;i:150;}i:14;a:3:{i:0;s:6:"p_open";i:1;a:0:{}i:2;i:150;}i:15;a:3:{i:0;s:6:"plugin";i:1;a:4:{i:0;s:9:"code_code";i:1;a:4:{i:0;s:4:"code";i:1;N;i:2;s:0:"";i:3;s:24:"
service mysqld restart
";}i:2;i:3;i:3;s:25:">
service mysqld restart
";}i:2;i:157;}i:16;a:3:{i:0;s:7:"p_close";i:1;a:0:{}i:2;i:189;}i:17;a:3:{i:0;s:6:"p_open";i:1;a:0:{}i:2;i:189;}i:18;a:3:{i:0;s:5:"cdata";i:1;a:1:{i:0;s:11:"2. Iptables";}i:2;i:191;}i:19;a:3:{i:0;s:7:"p_close";i:1;a:0:{}i:2;i:202;}i:20;a:3:{i:0;s:6:"p_open";i:1;a:0:{}i:2;i:202;}i:21;a:3:{i:0;s:6:"plugin";i:1;a:4:{i:0;s:9:"code_code";i:1;a:4:{i:0;s:4:"code";i:1;N;i:2;s:0:"";i:3;s:160:"
iptables -I INPUT -p tcp --dport 3306 -m state --state NEW,ESTABLISHED -j ACCEPT
iptables -I OUTPUT -p tcp --sport 3306 -m state --state ESTABLISHED -j ACCEPT
";}i:2;i:3;i:3;s:161:">
iptables -I INPUT -p tcp --dport 3306 -m state --state NEW,ESTABLISHED -j ACCEPT
iptables -I OUTPUT -p tcp --sport 3306 -m state --state ESTABLISHED -j ACCEPT
";}i:2;i:209;}i:22;a:3:{i:0;s:7:"p_close";i:1;a:0:{}i:2;i:377;}i:23;a:3:{i:0;s:6:"p_open";i:1;a:0:{}i:2;i:377;}i:24;a:3:{i:0;s:5:"cdata";i:1;a:1:{i:0;s:31:"3. login to mysql database with";}i:2;i:379;}i:25;a:3:{i:0;s:7:"p_close";i:1;a:0:{}i:2;i:410;}i:26;a:3:{i:0;s:6:"p_open";i:1;a:0:{}i:2;i:410;}i:27;a:3:{i:0;s:6:"plugin";i:1;a:4:{i:0;s:9:"code_code";i:1;a:4:{i:0;s:4:"code";i:1;N;i:2;s:0:"";i:3;s:19:"
mysql -u root -p 
";}i:2;i:3;i:3;s:20:">
mysql -u root -p 
";}i:2;i:417;}i:28;a:3:{i:0;s:7:"p_close";i:1;a:0:{}i:2;i:444;}i:29;a:3:{i:0;s:6:"p_open";i:1;a:0:{}i:2;i:444;}i:30;a:3:{i:0;s:5:"cdata";i:1;a:1:{i:0;s:42:"and give all privilages to the user r1soft";}i:2;i:446;}i:31;a:3:{i:0;s:7:"p_close";i:1;a:0:{}i:2;i:488;}i:32;a:3:{i:0;s:6:"p_open";i:1;a:0:{}i:2;i:488;}i:33;a:3:{i:0;s:6:"plugin";i:1;a:4:{i:0;s:9:"code_code";i:1;a:4:{i:0;s:4:"code";i:1;N;i:2;s:0:"";i:3;s:227:"
GRANT ALL PRIVILEGES ON *.* TO r1soft@'5.9.15.178' IDENTIFIED BY 'r1soft1';
GRANT ALL PRIVILEGES ON *.* TO r1soft@'127.0.0.1' IDENTIFIED BY 'r1soft1';
GRANT ALL PRIVILEGES ON *.* TO r1soft@'localhost' IDENTIFIED BY 'r1soft1';
";}i:2;i:3;i:3;s:228:">
GRANT ALL PRIVILEGES ON *.* TO r1soft@'5.9.15.178' IDENTIFIED BY 'r1soft1';
GRANT ALL PRIVILEGES ON *.* TO r1soft@'127.0.0.1' IDENTIFIED BY 'r1soft1';
GRANT ALL PRIVILEGES ON *.* TO r1soft@'localhost' IDENTIFIED BY 'r1soft1';
";}i:2;i:495;}i:34;a:3:{i:0;s:7:"p_close";i:1;a:0:{}i:2;i:730;}i:35;a:3:{i:0;s:6:"p_open";i:1;a:0:{}i:2;i:730;}i:36;a:3:{i:0;s:5:"cdata";i:1;a:1:{i:0;s:97:"NOTE: here 5.9.15.178 is the ip address of CDP server, r1soft is the user and r1soft1 is password";}i:2;i:732;}i:37;a:3:{i:0;s:7:"p_close";i:1;a:0:{}i:2;i:732;}i:38;a:3:{i:0;s:12:"document_end";i:1;a:0:{}i:2;i:732;}}