a:9:{i:0;a:3:{i:0;s:14:"document_start";i:1;a:0:{}i:2;i:0;}i:1;a:3:{i:0;s:6:"p_open";i:1;a:0:{}i:2;i:0;}i:2;a:3:{i:0;s:5:"cdata";i:1;a:1:{i:0;s:85:"Create a file facebook.com.php in Plugins folder. Add the following code to the file:";}i:2;i:1;}i:3;a:3:{i:0;s:7:"p_close";i:1;a:0:{}i:2;i:86;}i:4;a:3:{i:0;s:6:"p_open";i:1;a:0:{}i:2;i:86;}i:5;a:3:{i:0;s:6:"plugin";i:1;a:4:{i:0;s:9:"code_code";i:1;a:4:{i:0;s:4:"code";i:1;s:3:"php";i:2;s:12:"facebook.php";i:3;s:318:"

<?php
/****************************************************************/

* Plugin: Facebook
* Description:
* Changes the user-agent so Facebook sends us the mobile version.

function preRequest() {

global $toSet;
$toSet\[CURLOPT_USERAGENT\] = 'Mozilla/4.0 (compatible; MSIE 6.0; Windows CE; IEMobile 6.1)';

}
?>

";}i:2;i:3;i:3;s:338:" php | facebook.php>

<?php
/****************************************************************/

* Plugin: Facebook
* Description:
* Changes the user-agent so Facebook sends us the mobile version.

function preRequest() {

global $toSet;
$toSet\[CURLOPT_USERAGENT\] = 'Mozilla/4.0 (compatible; MSIE 6.0; Windows CE; IEMobile 6.1)';

}
?>

";}i:2;i:93;}i:6;a:3:{i:0;s:5:"cdata";i:1;a:1:{i:0;s:37:"
Save and enjoy Facebook with Glype\!";}i:2;i:438;}i:7;a:3:{i:0;s:7:"p_close";i:1;a:0:{}i:2;i:438;}i:8;a:3:{i:0;s:12:"document_end";i:1;a:0:{}i:2;i:438;}}