a:52:{i:0;a:3:{i:0;s:14:"document_start";i:1;a:0:{}i:2;i:0;}i:1;a:3:{i:0;s:12:"preformatted";i:1;a:1:{i:0;s:88:"                             //Migrating To a New Server//
                             ";}i:2;i:0;}i:2;a:3:{i:0;s:6:"p_open";i:1;a:0:{}i:2;i:0;}i:3;a:3:{i:0;s:5:"cdata";i:1;a:1:{i:0;s:11:"1. Install ";}i:2;i:94;}i:4;a:3:{i:0;s:7:"acronym";i:1;a:1:{i:0;s:2:"OS";}i:2;i:105;}i:5;a:3:{i:0;s:5:"cdata";i:1;a:1:{i:0;s:14:" on New Server";}i:2;i:107;}i:6;a:3:{i:0;s:7:"p_close";i:1;a:0:{}i:2;i:121;}i:7;a:3:{i:0;s:6:"p_open";i:1;a:0:{}i:2;i:121;}i:8;a:3:{i:0;s:5:"cdata";i:1;a:1:{i:0;s:21:"2. Install Virtualmin";}i:2;i:123;}i:9;a:3:{i:0;s:7:"p_close";i:1;a:0:{}i:2;i:144;}i:10;a:3:{i:0;s:6:"p_open";i:1;a:0:{}i:2;i:144;}i:11;a:3:{i:0;s:5:"cdata";i:1;a:1:{i:0;s:18:"3. Generate Backup";}i:2;i:146;}i:12;a:3:{i:0;s:7:"p_close";i:1;a:0:{}i:2;i:164;}i:13;a:3:{i:0;s:6:"p_open";i:1;a:0:{}i:2;i:164;}i:14;a:3:{i:0;s:5:"cdata";i:1;a:1:{i:0;s:45:"mkdir /root/backups
virtualmin backup-domain ";}i:2;i:166;}i:15;a:3:{i:0;s:6:"entity";i:1;a:1:{i:0;s:2:"--";}i:2;i:211;}i:16;a:3:{i:0;s:5:"cdata";i:1;a:1:{i:0;s:20:"dest /root/backups/ ";}i:2;i:213;}i:17;a:3:{i:0;s:6:"entity";i:1;a:1:{i:0;s:2:"--";}i:2;i:233;}i:18;a:3:{i:0;s:5:"cdata";i:1;a:1:{i:0;s:12:"all-domains ";}i:2;i:235;}i:19;a:3:{i:0;s:6:"entity";i:1;a:1:{i:0;s:2:"--";}i:2;i:247;}i:20;a:3:{i:0;s:5:"cdata";i:1;a:1:{i:0;s:13:"all-features ";}i:2;i:249;}i:21;a:3:{i:0;s:6:"entity";i:1;a:1:{i:0;s:2:"--";}i:2;i:262;}i:22;a:3:{i:0;s:5:"cdata";i:1;a:1:{i:0;s:10:"newformat ";}i:2;i:264;}i:23;a:3:{i:0;s:6:"entity";i:1;a:1:{i:0;s:2:"--";}i:2;i:274;}i:24;a:3:{i:0;s:5:"cdata";i:1;a:1:{i:0;s:44:"all-virtualmin                              ";}i:2;i:276;}i:25;a:3:{i:0;s:7:"p_close";i:1;a:0:{}i:2;i:320;}i:26;a:3:{i:0;s:6:"p_open";i:1;a:0:{}i:2;i:320;}i:27;a:3:{i:0;s:5:"cdata";i:1;a:1:{i:0;s:15:"4. Copy Backups";}i:2;i:322;}i:28;a:3:{i:0;s:7:"p_close";i:1;a:0:{}i:2;i:337;}i:29;a:3:{i:0;s:6:"p_open";i:1;a:0:{}i:2;i:337;}i:30;a:3:{i:0;s:5:"cdata";i:1;a:1:{i:0;s:47:"scp -r /root/backups root@new_server.com:/root/";}i:2;i:339;}i:31;a:3:{i:0;s:7:"p_close";i:1;a:0:{}i:2;i:386;}i:32;a:3:{i:0;s:6:"p_open";i:1;a:0:{}i:2;i:386;}i:33;a:3:{i:0;s:5:"cdata";i:1;a:1:{i:0;s:23:"5. Restore your domains";}i:2;i:388;}i:34;a:3:{i:0;s:7:"p_close";i:1;a:0:{}i:2;i:411;}i:35;a:3:{i:0;s:6:"p_open";i:1;a:0:{}i:2;i:411;}i:36;a:3:{i:0;s:5:"cdata";i:1;a:1:{i:0;s:26:"virtualmin restore-domain ";}i:2;i:413;}i:37;a:3:{i:0;s:6:"entity";i:1;a:1:{i:0;s:2:"--";}i:2;i:439;}i:38;a:3:{i:0;s:5:"cdata";i:1;a:1:{i:0;s:39:"source /root/backups/virtualmin.tar.gz ";}i:2;i:441;}i:39;a:3:{i:0;s:6:"entity";i:1;a:1:{i:0;s:2:"--";}i:2;i:480;}i:40;a:3:{i:0;s:5:"cdata";i:1;a:1:{i:0;s:41:"all-virtualmin
virtualmin restore-domain ";}i:2;i:482;}i:41;a:3:{i:0;s:6:"entity";i:1;a:1:{i:0;s:2:"--";}i:2;i:523;}i:42;a:3:{i:0;s:5:"cdata";i:1;a:1:{i:0;s:22:"source /root/backups/ ";}i:2;i:525;}i:43;a:3:{i:0;s:6:"entity";i:1;a:1:{i:0;s:2:"--";}i:2;i:547;}i:44;a:3:{i:0;s:5:"cdata";i:1;a:1:{i:0;s:12:"all-domains ";}i:2;i:549;}i:45;a:3:{i:0;s:6:"entity";i:1;a:1:{i:0;s:2:"--";}i:2;i:561;}i:46;a:3:{i:0;s:5:"cdata";i:1;a:1:{i:0;s:12:"all-features";}i:2;i:563;}i:47;a:3:{i:0;s:7:"p_close";i:1;a:0:{}i:2;i:575;}i:48;a:3:{i:0;s:6:"p_open";i:1;a:0:{}i:2;i:575;}i:49;a:3:{i:0;s:12:"externallink";i:1;a:2:{i:0;s:54:"http://www.virtualmin.com/documentation/system/migrate";i:1;N;}i:2;i:577;}i:50;a:3:{i:0;s:7:"p_close";i:1;a:0:{}i:2;i:635;}i:51;a:3:{i:0;s:12:"document_end";i:1;a:0:{}i:2;i:635;}}