a:14:{i:0;a:3:{i:0;s:14:"document_start";i:1;a:0:{}i:2;i:0;}i:1;a:3:{i:0;s:6:"p_open";i:1;a:0:{}i:2;i:0;}i:2;a:3:{i:0;s:5:"cdata";i:1;a:1:{i:0;s:444:"Ansible playbooks are a way to send commands to remote computers in a scripted way. Instead of using Ansible commands individually to remotely configure computers from the command line, you can configure entire complex environments by passing a script to one or more systems.
Ansible playbooks are written in the YAML format. 
Simply put, in a playbook you define what actions Ansible should take to get the remote server in the state you want.";}i:2;i:1;}i:3;a:3:{i:0;s:7:"p_close";i:1;a:0:{}i:2;i:445;}i:4;a:3:{i:0;s:6:"p_open";i:1;a:0:{}i:2;i:445;}i:5;a:3:{i:0;s:5:"cdata";i:1;a:1:{i:0;s:255:"Each playbook is composed of one or more ‘plays’ in a list.
The goal of a play is to map a group of hosts to some well defined roles, represented by things Ansible calls tasks. At a basic level, a task is nothing more than a call to an Ansible module.";}i:2;i:447;}i:6;a:3:{i:0;s:7:"p_close";i:1;a:0:{}i:2;i:702;}i:7;a:3:{i:0;s:6:"p_open";i:1;a:0:{}i:2;i:702;}i:8;a:3:{i:0;s:6:"entity";i:1;a:1:{i:0;s:3:"---";}i:2;i:704;}i:9;a:3:{i:0;s:5:"cdata";i:1;a:1:{i:0;s:5:"To-Do";}i:2;i:707;}i:10;a:3:{i:0;s:6:"entity";i:1;a:1:{i:0;s:3:"---";}i:2;i:712;}i:11;a:3:{i:0;s:5:"cdata";i:1;a:1:{i:0;s:54:"
scripts to be placed in /usr/share/ansible/utilities/";}i:2;i:715;}i:12;a:3:{i:0;s:7:"p_close";i:1;a:0:{}i:2;i:715;}i:13;a:3:{i:0;s:12:"document_end";i:1;a:0:{}i:2;i:715;}}