a:83:{i:0;a:3:{i:0;s:14:"document_start";i:1;a:0:{}i:2;i:0;}i:1;a:3:{i:0;s:6:"p_open";i:1;a:0:{}i:2;i:0;}i:2;a:3:{i:0;s:5:"cdata";i:1;a:1:{i:0;s:25:"BMR ( Bear Metal Restore)";}i:2;i:1;}i:3;a:3:{i:0;s:9:"linebreak";i:1;a:0:{}i:2;i:26;}i:4;a:3:{i:0;s:5:"cdata";i:1;a:1:{i:0;s:0:"";}i:2;i:28;}i:5;a:3:{i:0;s:7:"p_close";i:1;a:0:{}i:2;i:29;}i:6;a:3:{i:0;s:6:"header";i:1;a:3:{i:0;s:0:"";i:1;i:1;i:2;i:29;}i:2;i:29;}i:7;a:3:{i:0;s:12:"section_open";i:1;a:1:{i:0;i:1;}i:2;i:29;}i:8;a:3:{i:0;s:6:"p_open";i:1;a:0:{}i:2;i:29;}i:9;a:3:{i:0;s:5:"cdata";i:1;a:1:{i:0;s:80:"1. Create XEN-PV VM with same config as same old server.- Let us name it: BMR-PV";}i:2;i:61;}i:10;a:3:{i:0;s:9:"linebreak";i:1;a:0:{}i:2;i:141;}i:11;a:3:{i:0;s:5:"cdata";i:1;a:1:{i:0;s:5:"
e.g.";}i:2;i:143;}i:12;a:3:{i:0;s:9:"linebreak";i:1;a:0:{}i:2;i:148;}i:13;a:3:{i:0;s:5:"cdata";i:1;a:1:{i:0;s:21:"
VM-IP: 43.252.88.164";}i:2;i:150;}i:14;a:3:{i:0;s:9:"linebreak";i:1;a:0:{}i:2;i:171;}i:15;a:3:{i:0;s:5:"cdata";i:1;a:1:{i:0;s:13:"
VN-ID: VM784";}i:2;i:173;}i:16;a:3:{i:0;s:7:"p_close";i:1;a:0:{}i:2;i:186;}i:17;a:3:{i:0;s:6:"p_open";i:1;a:0:{}i:2;i:186;}i:18;a:3:{i:0;s:5:"cdata";i:1;a:1:{i:0;s:16:"2. Install Same ";}i:2;i:188;}i:19;a:3:{i:0;s:7:"acronym";i:1;a:1:{i:0;s:2:"OS";}i:2;i:204;}i:20;a:3:{i:0;s:5:"cdata";i:1;a:1:{i:0;s:18:" as on old server.";}i:2;i:206;}i:21;a:3:{i:0;s:7:"p_close";i:1;a:0:{}i:2;i:224;}i:22;a:3:{i:0;s:6:"p_open";i:1;a:0:{}i:2;i:224;}i:23;a:3:{i:0;s:5:"cdata";i:1;a:1:{i:0;s:21:"3. Stop the BMR-PV VM";}i:2;i:226;}i:24;a:3:{i:0;s:7:"p_close";i:1;a:0:{}i:2;i:247;}i:25;a:3:{i:0;s:6:"p_open";i:1;a:0:{}i:2;i:247;}i:26;a:3:{i:0;s:5:"cdata";i:1;a:1:{i:0;s:110:"4. Create a basic XEN-HVM and boot form BMR ISO (CDP_BARE_METAL_RESTORE_DISK-Debian). Let is name it: BOOT-HVM";}i:2;i:249;}i:27;a:3:{i:0;s:9:"linebreak";i:1;a:0:{}i:2;i:359;}i:28;a:3:{i:0;s:5:"cdata";i:1;a:1:{i:0;s:5:"
e.g.";}i:2;i:361;}i:29;a:3:{i:0;s:9:"linebreak";i:1;a:0:{}i:2;i:366;}i:30;a:3:{i:0;s:5:"cdata";i:1;a:1:{i:0;s:21:"
VM-IP: 43.252.88.166";}i:2;i:368;}i:31;a:3:{i:0;s:9:"linebreak";i:1;a:0:{}i:2;i:389;}i:32;a:3:{i:0;s:5:"cdata";i:1;a:1:{i:0;s:13:"
VN-ID: VM785";}i:2;i:391;}i:33;a:3:{i:0;s:7:"p_close";i:1;a:0:{}i:2;i:404;}i:34;a:3:{i:0;s:6:"p_open";i:1;a:0:{}i:2;i:404;}i:35;a:3:{i:0;s:5:"cdata";i:1;a:1:{i:0;s:23:"5. Stop the BOOT-HVM VM";}i:2;i:406;}i:36;a:3:{i:0;s:7:"p_close";i:1;a:0:{}i:2;i:429;}i:37;a:3:{i:0;s:6:"p_open";i:1;a:0:{}i:2;i:429;}i:38;a:3:{i:0;s:5:"cdata";i:1;a:1:{i:0;s:72:"6. Note Down the VM-ID for BMR-PV (i.e. VM784) and BOOT-HVM (i.e. VM785)";}i:2;i:431;}i:39;a:3:{i:0;s:7:"p_close";i:1;a:0:{}i:2;i:503;}i:40;a:3:{i:0;s:6:"p_open";i:1;a:0:{}i:2;i:503;}i:41;a:3:{i:0;s:5:"cdata";i:1;a:1:{i:0;s:104:"7. Now login to main node and make backup of file (vm785.cfg) for BOOT-HVM at location (/home/xen/vm785)";}i:2;i:505;}i:42;a:3:{i:0;s:7:"p_close";i:1;a:0:{}i:2;i:609;}i:43;a:3:{i:0;s:6:"p_open";i:1;a:0:{}i:2;i:609;}i:44;a:3:{i:0;s:5:"cdata";i:1;a:1:{i:0;s:105:"8. Open .cfg file for BOOT-HVM (i.e vm785.cfg) and edit the file ( change BMR-PV vm-id to BOOT-HVM vm-id)";}i:2;i:611;}i:45;a:3:{i:0;s:9:"linebreak";i:1;a:0:{}i:2;i:716;}i:46;a:3:{i:0;s:5:"cdata";i:1;a:1:{i:0;s:4:"
i.e";}i:2;i:718;}i:47;a:3:{i:0;s:9:"linebreak";i:1;a:0:{}i:2;i:722;}i:48;a:3:{i:0;s:5:"cdata";i:1;a:1:{i:0;s:29:"
From: vm785_img to vm784_img";}i:2;i:724;}i:49;a:3:{i:0;s:7:"p_close";i:1;a:0:{}i:2;i:753;}i:50;a:3:{i:0;s:6:"p_open";i:1;a:0:{}i:2;i:753;}i:51;a:3:{i:0;s:5:"cdata";i:1;a:1:{i:0;s:21:"9. Type below command";}i:2;i:755;}i:52;a:3:{i:0;s:7:"p_close";i:1;a:0:{}i:2;i:776;}i:53;a:3:{i:0;s:6:"p_open";i:1;a:0:{}i:2;i:776;}i:54;a:3:{i:0;s:5:"cdata";i:1;a:1:{i:0;s:38:"[root@node vm785]# xl create vm785.cfg";}i:2;i:778;}i:55;a:3:{i:0;s:7:"p_close";i:1;a:0:{}i:2;i:816;}i:56;a:3:{i:0;s:6:"p_open";i:1;a:0:{}i:2;i:816;}i:57;a:3:{i:0;s:5:"cdata";i:1;a:1:{i:0;s:38:"10. Now Boot the BOOT-HVM from solusvm";}i:2;i:818;}i:58;a:3:{i:0;s:7:"p_close";i:1;a:0:{}i:2;i:856;}i:59;a:3:{i:0;s:6:"p_open";i:1;a:0:{}i:2;i:856;}i:60;a:3:{i:0;s:5:"cdata";i:1;a:1:{i:0;s:82:"11. Now open re1soft-panel and start the BMR at desired time follow the below link";}i:2;i:858;}i:61;a:3:{i:0;s:7:"p_close";i:1;a:0:{}i:2;i:940;}i:62;a:3:{i:0;s:6:"p_open";i:1;a:0:{}i:2;i:940;}i:63;a:3:{i:0;s:12:"externallink";i:1;a:2:{i:0;s:71:"http://wiki.r1soft.com/display/ServerBackup/Launch+a+bare-metal+restore";i:1;N;}i:2;i:942;}i:64;a:3:{i:0;s:7:"p_close";i:1;a:0:{}i:2;i:1013;}i:65;a:3:{i:0;s:6:"p_open";i:1;a:0:{}i:2;i:1013;}i:66;a:3:{i:0;s:5:"cdata";i:1;a:1:{i:0;s:26:"12. Shut Down the BOOT-HVM";}i:2;i:1015;}i:67;a:3:{i:0;s:7:"p_close";i:1;a:0:{}i:2;i:1041;}i:68;a:3:{i:0;s:6:"p_open";i:1;a:0:{}i:2;i:1041;}i:69;a:3:{i:0;s:5:"cdata";i:1;a:1:{i:0;s:37:"13. Replace the .cfg file to original";}i:2;i:1043;}i:70;a:3:{i:0;s:9:"linebreak";i:1;a:0:{}i:2;i:1080;}i:71;a:3:{i:0;s:5:"cdata";i:1;a:1:{i:0;s:4:"
i.e";}i:2;i:1082;}i:72;a:3:{i:0;s:9:"linebreak";i:1;a:0:{}i:2;i:1086;}i:73;a:3:{i:0;s:5:"cdata";i:1;a:1:{i:0;s:29:"
From: vm784_img to vm785_img";}i:2;i:1088;}i:74;a:3:{i:0;s:7:"p_close";i:1;a:0:{}i:2;i:1117;}i:75;a:3:{i:0;s:6:"p_open";i:1;a:0:{}i:2;i:1117;}i:76;a:3:{i:0;s:5:"cdata";i:1;a:1:{i:0;s:27:"14. Shutdown the Old Server";}i:2;i:1119;}i:77;a:3:{i:0;s:7:"p_close";i:1;a:0:{}i:2;i:1146;}i:78;a:3:{i:0;s:6:"p_open";i:1;a:0:{}i:2;i:1146;}i:79;a:3:{i:0;s:5:"cdata";i:1;a:1:{i:0;s:47:"13. Boot the BRM-PV and replace the IP with old";}i:2;i:1148;}i:80;a:3:{i:0;s:7:"p_close";i:1;a:0:{}i:2;i:1195;}i:81;a:3:{i:0;s:13:"section_close";i:1;a:0:{}i:2;i:1196;}i:82;a:3:{i:0;s:12:"document_end";i:1;a:0:{}i:2;i:1196;}}