a:62:{i:0;a:3:{i:0;s:14:"document_start";i:1;a:0:{}i:2;i:0;}i:1;a:3:{i:0;s:6:"p_open";i:1;a:0:{}i:2;i:0;}i:2;a:3:{i:0;s:5:"cdata";i:1;a:1:{i:0;s:32:"Automatic Installation On CentOS";}i:2;i:1;}i:3;a:3:{i:0;s:7:"p_close";i:1;a:0:{}i:2;i:33;}i:4;a:3:{i:0;s:6:"p_open";i:1;a:0:{}i:2;i:33;}i:5;a:3:{i:0;s:5:"cdata";i:1;a:1:{i:0;s:35:"Create a new repo file r1soft.repo.";}i:2;i:35;}i:6;a:3:{i:0;s:7:"p_close";i:1;a:0:{}i:2;i:70;}i:7;a:3:{i:0;s:6:"p_open";i:1;a:0:{}i:2;i:70;}i:8;a:3:{i:0;s:6:"plugin";i:1;a:4:{i:0;s:9:"code_code";i:1;a:4:{i:0;s:4:"code";i:1;N;i:2;s:0:"";i:3;s:34:" vim /etc/yum.repos.d/r1soft.repo ";}i:2;i:3;i:3;s:35:"> vim /etc/yum.repos.d/r1soft.repo ";}i:2;i:77;}i:9;a:3:{i:0;s:7:"p_close";i:1;a:0:{}i:2;i:119;}i:10;a:3:{i:0;s:6:"p_open";i:1;a:0:{}i:2;i:119;}i:11;a:3:{i:0;s:5:"cdata";i:1;a:1:{i:0;s:40:"Insert the following text into the file.";}i:2;i:121;}i:12;a:3:{i:0;s:7:"p_close";i:1;a:0:{}i:2;i:161;}i:13;a:3:{i:0;s:6:"p_open";i:1;a:0:{}i:2;i:161;}i:14;a:3:{i:0;s:6:"plugin";i:1;a:4:{i:0;s:9:"code_code";i:1;a:4:{i:0;s:4:"code";i:1;N;i:2;s:0:"";i:3;s:116:"

[r1soft]
name=R1Soft Repository Server
baseurl=http://repo.r1soft.com/yum/stable/$basearch/
enabled=1
gpgcheck=0

";}i:2;i:3;i:3;s:117:">

[r1soft]
name=R1Soft Repository Server
baseurl=http://repo.r1soft.com/yum/stable/$basearch/
enabled=1
gpgcheck=0

";}i:2;i:168;}i:15;a:3:{i:0;s:7:"p_close";i:1;a:0:{}i:2;i:292;}i:16;a:3:{i:0;s:6:"p_open";i:1;a:0:{}i:2;i:292;}i:17;a:3:{i:0;s:6:"plugin";i:1;a:4:{i:0;s:9:"code_code";i:1;a:4:{i:0;s:4:"code";i:1;N;i:2;s:0:"";i:3;s:43:" yum install r1soft-cdp-datacenter-console ";}i:2;i:3;i:3;s:44:"> yum install r1soft-cdp-datacenter-console ";}i:2;i:299;}i:18;a:3:{i:0;s:7:"p_close";i:1;a:0:{}i:2;i:350;}i:19;a:3:{i:0;s:6:"p_open";i:1;a:0:{}i:2;i:350;}i:20;a:3:{i:0;s:6:"plugin";i:1;a:4:{i:0;s:9:"code_code";i:1;a:4:{i:0;s:4:"code";i:1;N;i:2;s:0:"";i:3;s:33:" /etc/init.d/cdp-console restart ";}i:2;i:3;i:3;s:34:"> /etc/init.d/cdp-console restart ";}i:2;i:357;}i:21;a:3:{i:0;s:7:"p_close";i:1;a:0:{}i:2;i:398;}i:22;a:3:{i:0;s:6:"p_open";i:1;a:0:{}i:2;i:398;}i:23;a:3:{i:0;s:6:"plugin";i:1;a:4:{i:0;s:9:"code_code";i:1;a:4:{i:0;s:4:"code";i:1;N;i:2;s:0:"";i:3;s:85:" wget https://dev.mysql.com/get/Downloads/Connector-J/mysql-connector-java-5.1.38.zip";}i:2;i:3;i:3;s:86:"> wget https://dev.mysql.com/get/Downloads/Connector-J/mysql-connector-java-5.1.38.zip";}i:2;i:405;}i:24;a:3:{i:0;s:7:"p_close";i:1;a:0:{}i:2;i:498;}i:25;a:3:{i:0;s:6:"p_open";i:1;a:0:{}i:2;i:498;}i:26;a:3:{i:0;s:6:"plugin";i:1;a:4:{i:0;s:9:"code_code";i:1;a:4:{i:0;s:4:"code";i:1;N;i:2;s:0:"";i:3;s:39:" unzip mysql-connector-java-5.1.38.zip ";}i:2;i:3;i:3;s:40:"> unzip mysql-connector-java-5.1.38.zip ";}i:2;i:505;}i:27;a:3:{i:0;s:7:"p_close";i:1;a:0:{}i:2;i:552;}i:28;a:3:{i:0;s:6:"p_open";i:1;a:0:{}i:2;i:552;}i:29;a:3:{i:0;s:6:"plugin";i:1;a:4:{i:0;s:9:"code_code";i:1;a:4:{i:0;s:4:"code";i:1;N;i:2;s:0:"";i:3;s:126:" cp mysql-connector-java-5.1.38/mysql-connector-java-5.1.38-bin.jar /usr/sbin/r1soft-datacenter-console/conf/database-drivers ";}i:2;i:3;i:3;s:127:"> cp mysql-connector-java-5.1.38/mysql-connector-java-5.1.38-bin.jar /usr/sbin/r1soft-datacenter-console/conf/database-drivers ";}i:2;i:559;}i:30;a:3:{i:0;s:7:"p_close";i:1;a:0:{}i:2;i:693;}i:31;a:3:{i:0;s:6:"p_open";i:1;a:0:{}i:2;i:693;}i:32;a:3:{i:0;s:5:"cdata";i:1;a:1:{i:0;s:22:"Install MySQL Server.
";}i:2;i:696;}i:33;a:3:{i:0;s:6:"plugin";i:1;a:4:{i:0;s:9:"code_code";i:1;a:4:{i:0;s:4:"code";i:1;N;i:2;s:0:"";i:3;s:26:"
yum install mysql-server
";}i:2;i:3;i:3;s:27:">
yum install mysql-server
";}i:2;i:723;}i:34;a:3:{i:0;s:7:"p_close";i:1;a:0:{}i:2;i:757;}i:35;a:3:{i:0;s:6:"p_open";i:1;a:0:{}i:2;i:757;}i:36;a:3:{i:0;s:5:"cdata";i:1;a:1:{i:0;s:24:"Configure MySql Server.
";}i:2;i:759;}i:37;a:3:{i:0;s:6:"plugin";i:1;a:4:{i:0;s:9:"code_code";i:1;a:4:{i:0;s:4:"code";i:1;N;i:2;s:0:"";i:3;s:36:"
/usr/bin/mysql_secure_installation
";}i:2;i:3;i:3;s:37:">
/usr/bin/mysql_secure_installation
";}i:2;i:788;}i:38;a:3:{i:0;s:7:"p_close";i:1;a:0:{}i:2;i:832;}i:39;a:3:{i:0;s:6:"p_open";i:1;a:0:{}i:2;i:832;}i:40;a:3:{i:0;s:5:"cdata";i:1;a:1:{i:0;s:17:"Create Database.
";}i:2;i:834;}i:41;a:3:{i:0;s:6:"plugin";i:1;a:4:{i:0;s:9:"code_code";i:1;a:4:{i:0;s:4:"code";i:1;N;i:2;s:0:"";i:3;s:22:"
create database cdp;
";}i:2;i:3;i:3;s:23:">
create database cdp;
";}i:2;i:856;}i:42;a:3:{i:0;s:7:"p_close";i:1;a:0:{}i:2;i:886;}i:43;a:3:{i:0;s:6:"p_open";i:1;a:0:{}i:2;i:886;}i:44;a:3:{i:0;s:5:"cdata";i:1;a:1:{i:0;s:35:"Grant Permissions on CDP Database.
";}i:2;i:888;}i:45;a:3:{i:0;s:6:"plugin";i:1;a:4:{i:0;s:9:"code_code";i:1;a:4:{i:0;s:4:"code";i:1;N;i:2;s:0:"";i:3;s:68:"
grant all on cdp.* to 'cdp'@'localhost' identified by 'mohit$123';
";}i:2;i:3;i:3;s:69:">
grant all on cdp.* to 'cdp'@'localhost' identified by 'mohit$123';
";}i:2;i:928;}i:46;a:3:{i:0;s:7:"p_close";i:1;a:0:{}i:2;i:1004;}i:47;a:3:{i:0;s:6:"p_open";i:1;a:0:{}i:2;i:1004;}i:48;a:3:{i:0;s:5:"cdata";i:1;a:1:{i:0;s:29:"Enter Database Details Here:
";}i:2;i:1006;}i:49;a:3:{i:0;s:6:"plugin";i:1;a:4:{i:0;s:9:"code_code";i:1;a:4:{i:0;s:4:"code";i:1;N;i:2;s:0:"";i:3;s:64:"
vim /usr/sbin/r1soft-datacenter-console/conf/server.properties
";}i:2;i:3;i:3;s:65:">
vim /usr/sbin/r1soft-datacenter-console/conf/server.properties
";}i:2;i:1040;}i:50;a:3:{i:0;s:7:"p_close";i:1;a:0:{}i:2;i:1112;}i:51;a:3:{i:0;s:6:"p_open";i:1;a:0:{}i:2;i:1112;}i:52;a:3:{i:0;s:5:"cdata";i:1;a:1:{i:0;s:68:"Log File:
tail -f /usr/sbin/r1soft-datacenter-console/log/server.log";}i:2;i:1115;}i:53;a:3:{i:0;s:7:"p_close";i:1;a:0:{}i:2;i:1183;}i:54;a:3:{i:0;s:6:"p_open";i:1;a:0:{}i:2;i:1183;}i:55;a:3:{i:0;s:6:"plugin";i:1;a:4:{i:0;s:9:"code_code";i:1;a:4:{i:0;s:4:"code";i:1;N;i:2;s:0:"";i:3;s:1557:"
2016-04-04 16:31:21,868 INFO   - Starting Data Center Console 5.12.1 build 54
2016-04-04 16:31:22,070 INFO   - Operating System: Linux
2016-04-04 16:31:22,070 INFO   - Architecture: amd64
2016-04-04 16:31:22,070 INFO   - OS Version: 2.6.32-573.el6.x86_64
2016-04-04 16:31:22,070 INFO   - Processors Detected: 1
2016-04-04 16:31:22,081 INFO   - Max Configured Heap Memory: 989.9 MB
2016-04-04 16:31:22,087 INFO   - Total Physical Memory: 3.7 GB
2016-04-04 16:31:22,087 INFO   - Free Physical Memory: 2.5 GB
2016-04-04 16:31:23,936 INFO   - checkpointClose start
2016-04-04 16:31:24,270 INFO   - checkpointClose end
2016-04-04 16:31:24,526 INFO   - Database schema version 25 Last changed by Data Center Console Server version 5.12.1
2016-04-04 16:31:24,596 INFO   - Database Service started
2016-04-04 16:31:27,016 INFO   - Hibernate Service started
2016-04-04 16:31:30,169 INFO   - Message Event Service Wrapper started
2016-04-04 16:31:30,415 INFO   - Event Service Wrapper started
2016-04-04 16:31:30,415 INFO   - General Service started
2016-04-04 16:31:40,186 INFO   - Tomcat Wrapper started
2016-04-04 16:31:40,623 INFO   - Control Cache started
2016-04-04 16:31:40,664 INFO   - Started COM Server Wrapper on Port: 6443
2016-04-04 16:31:40,664 INFO   - Com Service Wrapper started
2016-04-04 16:31:40,795 INFO   - Velocity Service started
2016-04-04 16:31:40,797 INFO   - Task Scheduler Service started
2016-04-04 16:31:40,798 INFO   - DCC Message Publisher Wrapper started
2016-04-04 16:31:40,799 INFO   - Data Center Console 5.12.1 build 54 Started
";}i:2;i:3;i:3;s:1558:">
2016-04-04 16:31:21,868 INFO   - Starting Data Center Console 5.12.1 build 54
2016-04-04 16:31:22,070 INFO   - Operating System: Linux
2016-04-04 16:31:22,070 INFO   - Architecture: amd64
2016-04-04 16:31:22,070 INFO   - OS Version: 2.6.32-573.el6.x86_64
2016-04-04 16:31:22,070 INFO   - Processors Detected: 1
2016-04-04 16:31:22,081 INFO   - Max Configured Heap Memory: 989.9 MB
2016-04-04 16:31:22,087 INFO   - Total Physical Memory: 3.7 GB
2016-04-04 16:31:22,087 INFO   - Free Physical Memory: 2.5 GB
2016-04-04 16:31:23,936 INFO   - checkpointClose start
2016-04-04 16:31:24,270 INFO   - checkpointClose end
2016-04-04 16:31:24,526 INFO   - Database schema version 25 Last changed by Data Center Console Server version 5.12.1
2016-04-04 16:31:24,596 INFO   - Database Service started
2016-04-04 16:31:27,016 INFO   - Hibernate Service started
2016-04-04 16:31:30,169 INFO   - Message Event Service Wrapper started
2016-04-04 16:31:30,415 INFO   - Event Service Wrapper started
2016-04-04 16:31:30,415 INFO   - General Service started
2016-04-04 16:31:40,186 INFO   - Tomcat Wrapper started
2016-04-04 16:31:40,623 INFO   - Control Cache started
2016-04-04 16:31:40,664 INFO   - Started COM Server Wrapper on Port: 6443
2016-04-04 16:31:40,664 INFO   - Com Service Wrapper started
2016-04-04 16:31:40,795 INFO   - Velocity Service started
2016-04-04 16:31:40,797 INFO   - Task Scheduler Service started
2016-04-04 16:31:40,798 INFO   - DCC Message Publisher Wrapper started
2016-04-04 16:31:40,799 INFO   - Data Center Console 5.12.1 build 54 Started
";}i:2;i:1190;}i:56;a:3:{i:0;s:7:"p_close";i:1;a:0:{}i:2;i:2755;}i:57;a:3:{i:0;s:6:"p_open";i:1;a:0:{}i:2;i:2755;}i:58;a:3:{i:0;s:5:"cdata";i:1;a:1:{i:0;s:8:"WEB UI:
";}i:2;i:2758;}i:59;a:3:{i:0;s:6:"plugin";i:1;a:4:{i:0;s:9:"code_code";i:1;a:4:{i:0;s:4:"code";i:1;N;i:2;s:0:"";i:3;s:19:"
http://localhost/
";}i:2;i:3;i:3;s:20:">
http://localhost/
";}i:2;i:2771;}i:60;a:3:{i:0;s:7:"p_close";i:1;a:0:{}i:2;i:2798;}i:61;a:3:{i:0;s:12:"document_end";i:1;a:0:{}i:2;i:2798;}}