a:13:{i:0;a:3:{i:0;s:14:"document_start";i:1;a:0:{}i:2;i:0;}i:1;a:3:{i:0;s:6:"p_open";i:1;a:0:{}i:2;i:0;}i:2;a:3:{i:0;s:5:"cdata";i:1;a:1:{i:0;s:40:"Enter password when prompted after this:";}i:2;i:1;}i:3;a:3:{i:0;s:7:"p_close";i:1;a:0:{}i:2;i:41;}i:4;a:3:{i:0;s:6:"p_open";i:1;a:0:{}i:2;i:41;}i:5;a:3:{i:0;s:6:"plugin";i:1;a:4:{i:0;s:9:"code_code";i:1;a:4:{i:0;s:4:"code";i:1;N;i:2;s:0:"";i:3;s:68:"Give root Password for maintenance
(or type Control-D to Continue):
";}i:2;i:3;i:3;s:69:">Give root Password for maintenance
(or type Control-D to Continue):
";}i:2;i:48;}i:6;a:3:{i:0;s:7:"p_close";i:1;a:0:{}i:2;i:124;}i:7;a:3:{i:0;s:6:"p_open";i:1;a:0:{}i:2;i:124;}i:8;a:3:{i:0;s:5:"cdata";i:1;a:1:{i:0;s:45:"Then type following command to do the magic:
";}i:2;i:127;}i:9;a:3:{i:0;s:6:"plugin";i:1;a:4:{i:0;s:9:"code_code";i:1;a:4:{i:0;s:4:"code";i:1;N;i:2;s:0:"";i:3;s:24:"# mount -o remount, rw /";}i:2;i:3;i:3;s:25:"># mount -o remount, rw /";}i:2;i:177;}i:10;a:3:{i:0;s:5:"cdata";i:1;a:1:{i:0;s:0:"";}i:2;i:209;}i:11;a:3:{i:0;s:7:"p_close";i:1;a:0:{}i:2;i:209;}i:12;a:3:{i:0;s:12:"document_end";i:1;a:0:{}i:2;i:209;}}