a:171:{i:0;a:3:{i:0;s:14:"document_start";i:1;a:0:{}i:2;i:0;}i:1;a:3:{i:0;s:6:"p_open";i:1;a:0:{}i:2;i:0;}i:2;a:3:{i:0;s:5:"cdata";i:1;a:1:{i:0;s:49:"# First take backup of the mail folder in cpanel.";}i:2;i:1;}i:3;a:3:{i:0;s:7:"p_close";i:1;a:0:{}i:2;i:50;}i:4;a:3:{i:0;s:6:"p_open";i:1;a:0:{}i:2;i:50;}i:5;a:3:{i:0;s:5:"cdata";i:1;a:1:{i:0;s:35:"# Download shadow file from cpanel ";}i:2;i:52;}i:6;a:3:{i:0;s:18:"doublequoteopening";i:1;a:0:{}i:2;i:87;}i:7;a:3:{i:0;s:5:"cdata";i:1;a:1:{i:0;s:34:"/home/$username/etc/$domain/shadow";}i:2;i:88;}i:8;a:3:{i:0;s:18:"doublequoteclosing";i:1;a:0:{}i:2;i:122;}i:9;a:3:{i:0;s:5:"cdata";i:1;a:1:{i:0;s:33:" for passwords of the Email-ID's.";}i:2;i:123;}i:10;a:3:{i:0;s:7:"p_close";i:1;a:0:{}i:2;i:156;}i:11;a:3:{i:0;s:6:"p_open";i:1;a:0:{}i:2;i:156;}i:12;a:3:{i:0;s:5:"cdata";i:1;a:1:{i:0;s:72:"# Move mail folder backup file to zimbra server in any location for now.";}i:2;i:158;}i:13;a:3:{i:0;s:7:"p_close";i:1;a:0:{}i:2;i:230;}i:14;a:3:{i:0;s:6:"p_open";i:1;a:0:{}i:2;i:230;}i:15;a:3:{i:0;s:5:"cdata";i:1;a:1:{i:0;s:87:"# Extract the mail folder backup file and move or change directory to that mail folder.";}i:2;i:232;}i:16;a:3:{i:0;s:7:"p_close";i:1;a:0:{}i:2;i:319;}i:17;a:3:{i:0;s:6:"p_open";i:1;a:0:{}i:2;i:319;}i:18;a:3:{i:0;s:5:"cdata";i:1;a:1:{i:0;s:49:"# Now copy the shadow file here in this location.";}i:2;i:321;}i:19;a:3:{i:0;s:7:"p_close";i:1;a:0:{}i:2;i:370;}i:20;a:3:{i:0;s:6:"p_open";i:1;a:0:{}i:2;i:370;}i:21;a:3:{i:0;s:5:"cdata";i:1;a:1:{i:0;s:30:"# Create one script here like ";}i:2;i:372;}i:22;a:3:{i:0;s:18:"doublequoteopening";i:1;a:0:{}i:2;i:402;}i:23;a:3:{i:0;s:5:"cdata";i:1;a:1:{i:0;s:9:"create.sh";}i:2;i:403;}i:24;a:3:{i:0;s:18:"doublequoteclosing";i:1;a:0:{}i:2;i:412;}i:25;a:3:{i:0;s:5:"cdata";i:1;a:1:{i:0;s:25:" with the below contents:";}i:2;i:413;}i:26;a:3:{i:0;s:7:"p_close";i:1;a:0:{}i:2;i:438;}i:27;a:3:{i:0;s:6:"p_open";i:1;a:0:{}i:2;i:438;}i:28;a:3:{i:0;s:11:"strong_open";i:1;a:0:{}i:2;i:440;}i:29;a:3:{i:0;s:5:"cdata";i:1;a:1:{i:0;s:13:"vim create.sh";}i:2;i:442;}i:30;a:3:{i:0;s:12:"strong_close";i:1;a:0:{}i:2;i:455;}i:31;a:3:{i:0;s:7:"p_close";i:1;a:0:{}i:2;i:457;}i:32;a:3:{i:0;s:6:"p_open";i:1;a:0:{}i:2;i:457;}i:33;a:3:{i:0;s:6:"plugin";i:1;a:4:{i:0;s:9:"code_code";i:1;a:4:{i:0;s:4:"code";i:1;N;i:2;s:0:"";i:3;s:717:"
#!/bin/bash

# Shadow to Zimbra import
#
# Created by Jarosław Czarniak on 26-10-2008
#

clear
echo "Usage: as \"zimbra\" user on destination server"
echo "# zmprov < shadow.file"

domain="crimsouneclub.com"  # change to your domain!
file="shadow.file"
x=0
echo ''>$file

for linia in `cat shadow`
do
    user=`echo $linia|cut -f1 -d":"`
    pass=`echo $linia|cut -f2 -d":"`

    if [ "$pass" != "*" ]
    then
        if [ "$pass" != "!" ]
        then
            echo "ca $user@$domain temppasswordQAZXSW displayName $user">>$file
            echo "ma $user@$domain userPassword '{crypt}$pass'">>$file
            x=$[x+1]
        fi
    fi
done

echo
echo
echo "$x accounts exported to \"$PWD/$file\""

sleep 5
";}i:2;i:3;i:3;s:718:">
#!/bin/bash

# Shadow to Zimbra import
#
# Created by Jarosław Czarniak on 26-10-2008
#

clear
echo "Usage: as \"zimbra\" user on destination server"
echo "# zmprov < shadow.file"

domain="crimsouneclub.com"  # change to your domain!
file="shadow.file"
x=0
echo ''>$file

for linia in `cat shadow`
do
    user=`echo $linia|cut -f1 -d":"`
    pass=`echo $linia|cut -f2 -d":"`

    if [ "$pass" != "*" ]
    then
        if [ "$pass" != "!" ]
        then
            echo "ca $user@$domain temppasswordQAZXSW displayName $user">>$file
            echo "ma $user@$domain userPassword '{crypt}$pass'">>$file
            x=$[x+1]
        fi
    fi
done

echo
echo
echo "$x accounts exported to \"$PWD/$file\""

sleep 5
";}i:2;i:464;}i:34;a:3:{i:0;s:7:"p_close";i:1;a:0:{}i:2;i:1189;}i:35;a:3:{i:0;s:6:"p_open";i:1;a:0:{}i:2;i:1189;}i:36;a:3:{i:0;s:5:"cdata";i:1;a:1:{i:0;s:54:"# Here in this script change the domain name to yours.";}i:2;i:1191;}i:37;a:3:{i:0;s:7:"p_close";i:1;a:0:{}i:2;i:1245;}i:38;a:3:{i:0;s:6:"p_open";i:1;a:0:{}i:2;i:1245;}i:39;a:3:{i:0;s:5:"cdata";i:1;a:1:{i:0;s:18:"# Run this script:";}i:2;i:1247;}i:40;a:3:{i:0;s:7:"p_close";i:1;a:0:{}i:2;i:1265;}i:41;a:3:{i:0;s:6:"p_open";i:1;a:0:{}i:2;i:1265;}i:42;a:3:{i:0;s:6:"plugin";i:1;a:4:{i:0;s:9:"code_code";i:1;a:4:{i:0;s:4:"code";i:1;N;i:2;s:0:"";i:3;s:13:"
./create.sh
";}i:2;i:3;i:3;s:14:">
./create.sh
";}i:2;i:1272;}i:43;a:3:{i:0;s:7:"p_close";i:1;a:0:{}i:2;i:1293;}i:44;a:3:{i:0;s:6:"p_open";i:1;a:0:{}i:2;i:1293;}i:45;a:3:{i:0;s:5:"cdata";i:1;a:1:{i:0;s:59:"# After that you will find a file in the same folder named ";}i:2;i:1295;}i:46;a:3:{i:0;s:18:"doublequoteopening";i:1;a:0:{}i:2;i:1354;}i:47;a:3:{i:0;s:5:"cdata";i:1;a:1:{i:0;s:11:"shadow.file";}i:2;i:1355;}i:48;a:3:{i:0;s:18:"doublequoteclosing";i:1;a:0:{}i:2;i:1366;}i:49;a:3:{i:0;s:5:"cdata";i:1;a:1:{i:0;s:1:".";}i:2;i:1367;}i:50;a:3:{i:0;s:7:"p_close";i:1;a:0:{}i:2;i:1368;}i:51;a:3:{i:0;s:6:"p_open";i:1;a:0:{}i:2;i:1368;}i:52;a:3:{i:0;s:5:"cdata";i:1;a:1:{i:0;s:7:"# Copy ";}i:2;i:1370;}i:53;a:3:{i:0;s:18:"doublequoteopening";i:1;a:0:{}i:2;i:1377;}i:54;a:3:{i:0;s:5:"cdata";i:1;a:1:{i:0;s:11:"shadow.file";}i:2;i:1378;}i:55;a:3:{i:0;s:18:"doublequoteclosing";i:1;a:0:{}i:2;i:1389;}i:56;a:3:{i:0;s:5:"cdata";i:1;a:1:{i:0;s:16:" in /opt/zimbra/";}i:2;i:1390;}i:57;a:3:{i:0;s:7:"p_close";i:1;a:0:{}i:2;i:1406;}i:58;a:3:{i:0;s:6:"p_open";i:1;a:0:{}i:2;i:1406;}i:59;a:3:{i:0;s:6:"plugin";i:1;a:4:{i:0;s:9:"code_code";i:1;a:4:{i:0;s:4:"code";i:1;N;i:2;s:0:"";i:3;s:29:"
cp shadow.file /opt/zimbra/
";}i:2;i:3;i:3;s:30:">
cp shadow.file /opt/zimbra/
";}i:2;i:1413;}i:60;a:3:{i:0;s:7:"p_close";i:1;a:0:{}i:2;i:1450;}i:61;a:3:{i:0;s:6:"p_open";i:1;a:0:{}i:2;i:1450;}i:62;a:3:{i:0;s:5:"cdata";i:1;a:1:{i:0;s:65:"# Change the ownership and permissions of the file in /opt/zimbra";}i:2;i:1452;}i:63;a:3:{i:0;s:7:"p_close";i:1;a:0:{}i:2;i:1517;}i:64;a:3:{i:0;s:6:"p_open";i:1;a:0:{}i:2;i:1517;}i:65;a:3:{i:0;s:6:"plugin";i:1;a:4:{i:0;s:9:"code_code";i:1;a:4:{i:0;s:4:"code";i:1;N;i:2;s:0:"";i:3;s:78:"
chmod +x /opt/zimbra/shadow.file
chown zimbra:zimbra /opt/zimbra/shadow.file
";}i:2;i:3;i:3;s:79:">
chmod +x /opt/zimbra/shadow.file
chown zimbra:zimbra /opt/zimbra/shadow.file
";}i:2;i:1524;}i:66;a:3:{i:0;s:7:"p_close";i:1;a:0:{}i:2;i:1610;}i:67;a:3:{i:0;s:6:"p_open";i:1;a:0:{}i:2;i:1610;}i:68;a:3:{i:0;s:5:"cdata";i:1;a:1:{i:0;s:28:"# Now login from zimbra user";}i:2;i:1612;}i:69;a:3:{i:0;s:7:"p_close";i:1;a:0:{}i:2;i:1640;}i:70;a:3:{i:0;s:6:"p_open";i:1;a:0:{}i:2;i:1640;}i:71;a:3:{i:0;s:6:"plugin";i:1;a:4:{i:0;s:9:"code_code";i:1;a:4:{i:0;s:4:"code";i:1;N;i:2;s:0:"";i:3;s:13:"
su - zimbra
";}i:2;i:3;i:3;s:14:">
su - zimbra
";}i:2;i:1647;}i:72;a:3:{i:0;s:7:"p_close";i:1;a:0:{}i:2;i:1668;}i:73;a:3:{i:0;s:6:"p_open";i:1;a:0:{}i:2;i:1668;}i:74;a:3:{i:0;s:5:"cdata";i:1;a:1:{i:0;s:61:"# Now finally run the below command to create Email accounts:";}i:2;i:1670;}i:75;a:3:{i:0;s:7:"p_close";i:1;a:0:{}i:2;i:1731;}i:76;a:3:{i:0;s:6:"p_open";i:1;a:0:{}i:2;i:1731;}i:77;a:3:{i:0;s:6:"plugin";i:1;a:4:{i:0;s:9:"code_code";i:1;a:4:{i:0;s:4:"code";i:1;N;i:2;s:0:"";i:3;s:22:"
zmprov < shadow.file
";}i:2;i:3;i:3;s:23:">
zmprov < shadow.file
";}i:2;i:1738;}i:78;a:3:{i:0;s:7:"p_close";i:1;a:0:{}i:2;i:1768;}i:79;a:3:{i:0;s:6:"p_open";i:1;a:0:{}i:2;i:1768;}i:80;a:3:{i:0;s:5:"cdata";i:1;a:1:{i:0;s:119:"# From the above process, all the email accounts will be created with same password. Now, we have to migrate the mails.";}i:2;i:1772;}i:81;a:3:{i:0;s:7:"p_close";i:1;a:0:{}i:2;i:1891;}i:82;a:3:{i:0;s:6:"p_open";i:1;a:0:{}i:2;i:1891;}i:83;a:3:{i:0;s:5:"cdata";i:1;a:1:{i:0;s:78:"# Change the directory or move to the mail folder created above by extracting.";}i:2;i:1893;}i:84;a:3:{i:0;s:7:"p_close";i:1;a:0:{}i:2;i:1971;}i:85;a:3:{i:0;s:6:"p_open";i:1;a:0:{}i:2;i:1971;}i:86;a:3:{i:0;s:5:"cdata";i:1;a:1:{i:0;s:91:"# In the mail folder you will find one folder with your domain name, move into that folder.";}i:2;i:1973;}i:87;a:3:{i:0;s:7:"p_close";i:1;a:0:{}i:2;i:2064;}i:88;a:3:{i:0;s:6:"p_open";i:1;a:0:{}i:2;i:2064;}i:89;a:3:{i:0;s:5:"cdata";i:1;a:1:{i:0;s:67:"# Now we have to create three scripts here for migrating the mails.";}i:2;i:2066;}i:90;a:3:{i:0;s:7:"p_close";i:1;a:0:{}i:2;i:2133;}i:91;a:3:{i:0;s:6:"p_open";i:1;a:0:{}i:2;i:2133;}i:92;a:3:{i:0;s:5:"cdata";i:1;a:1:{i:0;s:15:"# First script:";}i:2;i:2135;}i:93;a:3:{i:0;s:7:"p_close";i:1;a:0:{}i:2;i:2150;}i:94;a:3:{i:0;s:6:"p_open";i:1;a:0:{}i:2;i:2150;}i:95;a:3:{i:0;s:11:"strong_open";i:1;a:0:{}i:2;i:2152;}i:96;a:3:{i:0;s:5:"cdata";i:1;a:1:{i:0;s:13:"vim script.sh";}i:2;i:2154;}i:97;a:3:{i:0;s:12:"strong_close";i:1;a:0:{}i:2;i:2167;}i:98;a:3:{i:0;s:7:"p_close";i:1;a:0:{}i:2;i:2169;}i:99;a:3:{i:0;s:6:"p_open";i:1;a:0:{}i:2;i:2169;}i:100;a:3:{i:0;s:6:"plugin";i:1;a:4:{i:0;s:9:"code_code";i:1;a:4:{i:0;s:4:"code";i:1;N;i:2;s:0:"";i:3;s:107:"
#!/bin/bash
for linia in `cat shadow`
do
    user=`echo $linia|cut -f1 -d":"`
	echo $user >> vpasswd
done
";}i:2;i:3;i:3;s:108:">
#!/bin/bash
for linia in `cat shadow`
do
    user=`echo $linia|cut -f1 -d":"`
	echo $user >> vpasswd
done
";}i:2;i:2176;}i:101;a:3:{i:0;s:7:"p_close";i:1;a:0:{}i:2;i:2291;}i:102;a:3:{i:0;s:6:"p_open";i:1;a:0:{}i:2;i:2291;}i:103;a:3:{i:0;s:5:"cdata";i:1;a:1:{i:0;s:49:"# Second script for migrating INBOX of all users:";}i:2;i:2293;}i:104;a:3:{i:0;s:7:"p_close";i:1;a:0:{}i:2;i:2342;}i:105;a:3:{i:0;s:6:"p_open";i:1;a:0:{}i:2;i:2342;}i:106;a:3:{i:0;s:11:"strong_open";i:1;a:0:{}i:2;i:2344;}i:107;a:3:{i:0;s:5:"cdata";i:1;a:1:{i:0;s:16:"vim oldimport.sh";}i:2;i:2346;}i:108;a:3:{i:0;s:12:"strong_close";i:1;a:0:{}i:2;i:2362;}i:109;a:3:{i:0;s:7:"p_close";i:1;a:0:{}i:2;i:2364;}i:110;a:3:{i:0;s:6:"p_open";i:1;a:0:{}i:2;i:2364;}i:111;a:3:{i:0;s:6:"plugin";i:1;a:4:{i:0;s:9:"code_code";i:1;a:4:{i:0;s:4:"code";i:1;N;i:2;s:0:"";i:3;s:7541:"
#!/bin/bash
#
# courier/vpopmail Maildir to Zimbra Import
#
# This script can be stored anywhere, but you should run it while in the root
# of the domain's users.  It looks for the file vpasswd which contains a
# line-separated list of users and uses that to import.  You can also run the
# script with a user name to process a single user.  Additionally, you can
# specify a folder name (courier format) to process a single folder for that
# user.

# We assume the folder structure is like this:
# Inbox: <working directory>/<user>/Maildir/<cur|new>
# Subfolder: <working directory>/<user>/Maildir/.Subfolder/<cur|new>
# If this is not what your structure looks like, you need to change the
# "folderpath" variable construction down further in this script.

# This is the command to run to run mailbox commands.
ZMCMD='/opt/zimbra/bin/zmmailbox -z'

# This will be used for temporary/log files during the import process
TEMP='/tmp/'

# We assume the working directory's name is the domain.
# Otherwise, override this with your actual domain name.
domain=`basename ${PWD}`

echo Process ID: $$

if [[ $1 != "" ]] ; then
  USERS=$1;
else
  USERS=`cat vpasswd | cut -f1 -d:`
fi

for user in ${USERS}; do
  echo "Beginning User: $user..."

  if [[ $2 != "" ]] ; then
    FOLDERS="$user/Maildir/$2/cur";
  else
    FOLDERS=`find $user -maxdepth 1 -type d -name cur | sort`
  fi

  echo "$FOLDERS" | while read line; do
    folderdir=`echo ${line} | cut -f3 -d"/"`
    if [[ ${folderdir} == "cur" ]] ; then
      folderdir="";
    fi 
    folder=`echo ${folderdir} | sed 's/^\.//; s%\.%/%g; s%\&-%\&%g'`
    folderpath=${PWD}/${user}/${folderdir}/
    
    # If the folder name is blank, this is the top level folder,
    # Zimbra calls it "Inbox" (so do most clients/servers).
    if [[ $folder == "" ]] ; then
      folder="Inbox";
    fi
    # In Courier IMAP, all folders must be children of the root
    # folder, which means Trash, Junk, Sent, Drafts are typically
    # under Inbox. This is not the case with Zimbra, so we will
    # slide these mailboxes to the top level so they behave properly,
    # For all "non-special" mailboxes, we will keep them as children
    # so they remain where the user had them before.
    if [[ $folder != "Trash" && $folder != "Junk" && $folder != "Sent"
       && $folder != "Drafts" && $folder != "Inbox" ]] ; then
      folder="Inbox/${folder}";
    fi
    echo "* Working on Folder $folder..."

    # Courier allows heirarchy where non-folders (literally nothing) are
    # able to have children.  Zimbra does not.  It's also possible that
    # we will process the folders out of heirarchical order for some reason
    # Here we separate the path and make sure all the parent folders exist
    # before trying to create the folder we're working on.
    parts=(`echo $folder | sed 's% %\x1a%g; s%/% %g'`);
    hier="";
    for i in "${parts[@]}"; do
      hier=`echo ${hier}/$i | sed 's%^/%%; s%\x1a% %g'`;
      ${ZMCMD} -m ${user}@${domain} getFolder "/${hier}" >/dev/null 2>&1 ||
      ( echo -n "  + Creating folder $hier... " &&
      ${ZMCMD} -m ${user}@${domain} createFolder "/${hier}" )
    done

    # Figure out how many messages we have
    count=`find "${folderpath}new/" "${folderpath}cur/" -type f | wc -l`;
    imported=0;
    echo "  * $count messages to process..."

    # Define the temporary file names we will need
    importfn="${TEMP}/import-$domain-$user-$folderdir-$$"
    implogfn="${TEMP}/import-$domain-$user-$folderdir-$$-log"
    impflogfn="${TEMP}/import-$domain-$user-$folderdir-$$-flaglog"
    impflagfn="${TEMP}/import-$domain-$user-$folderdir-$$-flags"
    touch "$importfn"

    # Determine the courier extended flag identifiers ("keywords")
    flagid=0
    if [[ -f "${folderpath}courierimapkeywords/:list" ]] ; then
      extflags="YES"
      cat "${folderpath}courierimapkeywords/:list" 2>/dev/null | while read line; do
        # A blank line indicates the end of the definitions.
        if [[ "${line}" == "" ]]; then break; fi

        # To avoid escape character madness, I'm swapping $ with % here.
        flag=`echo ${line} | sed 's/\\\$/%/'`
        echo courierflag[${flagid}]="'$flag'";
        flagid=$(( flagid + 1 ));

        # Create the tag if it doesn't start with '%'
        if [[ `echo ${flag} | grep '%'` == "" ]] ; then
	  echo -n "  + Attemping to create tag ${flag}... " >&2
          ${ZMCMD} -m ${user}@${domain} createTag "${flag}" >&2
        fi

      done > "$impflagfn"
      source "$impflagfn"
    fi

    echo -n "  * Queuing messages for import...        " 

    # Find all "cur" or "new" messages in this folder and import them.
    find "${folderpath}new/" "${folderpath}cur/" -type f | while read msg; do
      flags="";
      tags="";
      msgid=`echo $msg | cut -d: -f1 | sed s%.*/%%`

      # Determine the old maildir style flags
      oldflags=`echo $msg | cut -d: -f2`
      # Replied
      if [[ `echo ${oldflags} | grep 'R'` != "" ]] ; then flags="${flags}r"; fi
      # Seen
      if [[ `echo ${oldflags} | grep 'S'` == "" ]] ; then flags="${flags}u"; fi
      # Trashed
      if [[ `echo ${oldflags} | grep 'T'` != "" ]] ; then flags="${flags}x"; fi
      # Draft
      if [[ `echo ${oldflags} | grep 'D'` != "" ]] ; then flags="${flags}d"; fi
      # Flagged
      if [[ `echo ${oldflags} | grep 'F'` != "" ]] ; then flags="${flags}f"; fi

      # Determine the courier-imap extended flags for this message
      if [[ ${extflags} == "YES" ]] ; then
        oldflags2=`grep $msgid "${folderpath}courierimapkeywords/:list" 2>/dev/null | cut -d: -f2`
        for flag in ${oldflags2}; do
          # Forwarded
          if [[ ${courierflag[$flag]} == '%Forwarded' ]] ; then flags="${flags}w"; fi
          # Sent by me
          if [[ ${courierflag[$flag]} == '%MDNSent' ]] ;   then flags="${flags}s"; fi
          # Convert non-system flags to Zimbra tags
          if [[ `echo ${courierflag[$flag]} | grep '%'` == "" ]] ; then
            tags="${tags},${courierflag[$flag]}"
          fi
        done
        # Clean up the tag list for the command line
        if [[ ${tags} != "" ]]; then
          tags=`echo ${tags} | sed "s/^,\?/--tags \'/; s/\$/\'/"`;
        fi
      fi

      # Log the result of flag processing for debugging
      if [[ $flags != "" || $tags != "" ]] ; then
        echo `date +%c` "$msg had flags $oldflags and $oldflags2, now $flags and $tags in folder $folder" >> "$impflogfn"
      fi

      # Add the command to the queue file to import this message
      echo "addMessage --flags \"${flags}\" ${tags} --noValidation \"/$folder\" \"${msg}\"" >> "$importfn"

      imported=$(( $imported + 1 ));
      printf "\b\b\b\b\b\b\b\b%7d " $imported;
    done

    echo "...done";

    # Since we redirect the queue file to the mailbox tool, we end with "quit"
    echo "quit" >> "$importfn"

    # We're counting "prompts" from the zmmailbox utility here.  The first
    # one comes up before a message is imported, so we start at -1 to offset
    # its existence.
    imported=-1;

    # We do this redirect because running the command for each message is very
    # slow.  We can't just pass the directory to the command, despite Zimbra's
    # support because we can't tag or flag the messages that way.
    echo -n "  * Running import process...             "
    ${ZMCMD} -m $user@$domain < "${importfn}" 2> "${implogfn}" | while read; do
      imported=$(( $imported + 1 ));
      printf "\b\b\b\b\b\b\b\b%7d " $imported;
    done

  done
done
echo "Import Process Complete!"
";}i:2;i:3;i:3;s:7542:">
#!/bin/bash
#
# courier/vpopmail Maildir to Zimbra Import
#
# This script can be stored anywhere, but you should run it while in the root
# of the domain's users.  It looks for the file vpasswd which contains a
# line-separated list of users and uses that to import.  You can also run the
# script with a user name to process a single user.  Additionally, you can
# specify a folder name (courier format) to process a single folder for that
# user.

# We assume the folder structure is like this:
# Inbox: <working directory>/<user>/Maildir/<cur|new>
# Subfolder: <working directory>/<user>/Maildir/.Subfolder/<cur|new>
# If this is not what your structure looks like, you need to change the
# "folderpath" variable construction down further in this script.

# This is the command to run to run mailbox commands.
ZMCMD='/opt/zimbra/bin/zmmailbox -z'

# This will be used for temporary/log files during the import process
TEMP='/tmp/'

# We assume the working directory's name is the domain.
# Otherwise, override this with your actual domain name.
domain=`basename ${PWD}`

echo Process ID: $$

if [[ $1 != "" ]] ; then
  USERS=$1;
else
  USERS=`cat vpasswd | cut -f1 -d:`
fi

for user in ${USERS}; do
  echo "Beginning User: $user..."

  if [[ $2 != "" ]] ; then
    FOLDERS="$user/Maildir/$2/cur";
  else
    FOLDERS=`find $user -maxdepth 1 -type d -name cur | sort`
  fi

  echo "$FOLDERS" | while read line; do
    folderdir=`echo ${line} | cut -f3 -d"/"`
    if [[ ${folderdir} == "cur" ]] ; then
      folderdir="";
    fi 
    folder=`echo ${folderdir} | sed 's/^\.//; s%\.%/%g; s%\&-%\&%g'`
    folderpath=${PWD}/${user}/${folderdir}/
    
    # If the folder name is blank, this is the top level folder,
    # Zimbra calls it "Inbox" (so do most clients/servers).
    if [[ $folder == "" ]] ; then
      folder="Inbox";
    fi
    # In Courier IMAP, all folders must be children of the root
    # folder, which means Trash, Junk, Sent, Drafts are typically
    # under Inbox. This is not the case with Zimbra, so we will
    # slide these mailboxes to the top level so they behave properly,
    # For all "non-special" mailboxes, we will keep them as children
    # so they remain where the user had them before.
    if [[ $folder != "Trash" && $folder != "Junk" && $folder != "Sent"
       && $folder != "Drafts" && $folder != "Inbox" ]] ; then
      folder="Inbox/${folder}";
    fi
    echo "* Working on Folder $folder..."

    # Courier allows heirarchy where non-folders (literally nothing) are
    # able to have children.  Zimbra does not.  It's also possible that
    # we will process the folders out of heirarchical order for some reason
    # Here we separate the path and make sure all the parent folders exist
    # before trying to create the folder we're working on.
    parts=(`echo $folder | sed 's% %\x1a%g; s%/% %g'`);
    hier="";
    for i in "${parts[@]}"; do
      hier=`echo ${hier}/$i | sed 's%^/%%; s%\x1a% %g'`;
      ${ZMCMD} -m ${user}@${domain} getFolder "/${hier}" >/dev/null 2>&1 ||
      ( echo -n "  + Creating folder $hier... " &&
      ${ZMCMD} -m ${user}@${domain} createFolder "/${hier}" )
    done

    # Figure out how many messages we have
    count=`find "${folderpath}new/" "${folderpath}cur/" -type f | wc -l`;
    imported=0;
    echo "  * $count messages to process..."

    # Define the temporary file names we will need
    importfn="${TEMP}/import-$domain-$user-$folderdir-$$"
    implogfn="${TEMP}/import-$domain-$user-$folderdir-$$-log"
    impflogfn="${TEMP}/import-$domain-$user-$folderdir-$$-flaglog"
    impflagfn="${TEMP}/import-$domain-$user-$folderdir-$$-flags"
    touch "$importfn"

    # Determine the courier extended flag identifiers ("keywords")
    flagid=0
    if [[ -f "${folderpath}courierimapkeywords/:list" ]] ; then
      extflags="YES"
      cat "${folderpath}courierimapkeywords/:list" 2>/dev/null | while read line; do
        # A blank line indicates the end of the definitions.
        if [[ "${line}" == "" ]]; then break; fi

        # To avoid escape character madness, I'm swapping $ with % here.
        flag=`echo ${line} | sed 's/\\\$/%/'`
        echo courierflag[${flagid}]="'$flag'";
        flagid=$(( flagid + 1 ));

        # Create the tag if it doesn't start with '%'
        if [[ `echo ${flag} | grep '%'` == "" ]] ; then
	  echo -n "  + Attemping to create tag ${flag}... " >&2
          ${ZMCMD} -m ${user}@${domain} createTag "${flag}" >&2
        fi

      done > "$impflagfn"
      source "$impflagfn"
    fi

    echo -n "  * Queuing messages for import...        " 

    # Find all "cur" or "new" messages in this folder and import them.
    find "${folderpath}new/" "${folderpath}cur/" -type f | while read msg; do
      flags="";
      tags="";
      msgid=`echo $msg | cut -d: -f1 | sed s%.*/%%`

      # Determine the old maildir style flags
      oldflags=`echo $msg | cut -d: -f2`
      # Replied
      if [[ `echo ${oldflags} | grep 'R'` != "" ]] ; then flags="${flags}r"; fi
      # Seen
      if [[ `echo ${oldflags} | grep 'S'` == "" ]] ; then flags="${flags}u"; fi
      # Trashed
      if [[ `echo ${oldflags} | grep 'T'` != "" ]] ; then flags="${flags}x"; fi
      # Draft
      if [[ `echo ${oldflags} | grep 'D'` != "" ]] ; then flags="${flags}d"; fi
      # Flagged
      if [[ `echo ${oldflags} | grep 'F'` != "" ]] ; then flags="${flags}f"; fi

      # Determine the courier-imap extended flags for this message
      if [[ ${extflags} == "YES" ]] ; then
        oldflags2=`grep $msgid "${folderpath}courierimapkeywords/:list" 2>/dev/null | cut -d: -f2`
        for flag in ${oldflags2}; do
          # Forwarded
          if [[ ${courierflag[$flag]} == '%Forwarded' ]] ; then flags="${flags}w"; fi
          # Sent by me
          if [[ ${courierflag[$flag]} == '%MDNSent' ]] ;   then flags="${flags}s"; fi
          # Convert non-system flags to Zimbra tags
          if [[ `echo ${courierflag[$flag]} | grep '%'` == "" ]] ; then
            tags="${tags},${courierflag[$flag]}"
          fi
        done
        # Clean up the tag list for the command line
        if [[ ${tags} != "" ]]; then
          tags=`echo ${tags} | sed "s/^,\?/--tags \'/; s/\$/\'/"`;
        fi
      fi

      # Log the result of flag processing for debugging
      if [[ $flags != "" || $tags != "" ]] ; then
        echo `date +%c` "$msg had flags $oldflags and $oldflags2, now $flags and $tags in folder $folder" >> "$impflogfn"
      fi

      # Add the command to the queue file to import this message
      echo "addMessage --flags \"${flags}\" ${tags} --noValidation \"/$folder\" \"${msg}\"" >> "$importfn"

      imported=$(( $imported + 1 ));
      printf "\b\b\b\b\b\b\b\b%7d " $imported;
    done

    echo "...done";

    # Since we redirect the queue file to the mailbox tool, we end with "quit"
    echo "quit" >> "$importfn"

    # We're counting "prompts" from the zmmailbox utility here.  The first
    # one comes up before a message is imported, so we start at -1 to offset
    # its existence.
    imported=-1;

    # We do this redirect because running the command for each message is very
    # slow.  We can't just pass the directory to the command, despite Zimbra's
    # support because we can't tag or flag the messages that way.
    echo -n "  * Running import process...             "
    ${ZMCMD} -m $user@$domain < "${importfn}" 2> "${implogfn}" | while read; do
      imported=$(( $imported + 1 ));
      printf "\b\b\b\b\b\b\b\b%7d " $imported;
    done

  done
done
echo "Import Process Complete!"
";}i:2;i:2371;}i:112;a:3:{i:0;s:7:"p_close";i:1;a:0:{}i:2;i:9920;}i:113;a:3:{i:0;s:6:"p_open";i:1;a:0:{}i:2;i:9920;}i:114;a:3:{i:0;s:5:"cdata";i:1;a:1:{i:0;s:43:"# Third script is for migrating Sent items:";}i:2;i:9922;}i:115;a:3:{i:0;s:7:"p_close";i:1;a:0:{}i:2;i:9965;}i:116;a:3:{i:0;s:6:"p_open";i:1;a:0:{}i:2;i:9965;}i:117;a:3:{i:0;s:11:"strong_open";i:1;a:0:{}i:2;i:9967;}i:118;a:3:{i:0;s:5:"cdata";i:1;a:1:{i:0;s:15:"vim movesent.sh";}i:2;i:9969;}i:119;a:3:{i:0;s:12:"strong_close";i:1;a:0:{}i:2;i:9984;}i:120;a:3:{i:0;s:7:"p_close";i:1;a:0:{}i:2;i:9986;}i:121;a:3:{i:0;s:6:"p_open";i:1;a:0:{}i:2;i:9986;}i:122;a:3:{i:0;s:6:"plugin";i:1;a:4:{i:0;s:9:"code_code";i:1;a:4:{i:0;s:4:"code";i:1;N;i:2;s:0:"";i:3;s:91:"
#!/bin/bash
BASEDIR=`pwd`

for user in `cat vpasswd`
do
./oldimport.sh $user ".Sent"
done
";}i:2;i:3;i:3;s:92:">
#!/bin/bash
BASEDIR=`pwd`

for user in `cat vpasswd`
do
./oldimport.sh $user ".Sent"
done
";}i:2;i:9993;}i:123;a:3:{i:0;s:7:"p_close";i:1;a:0:{}i:2;i:10092;}i:124;a:3:{i:0;s:6:"p_open";i:1;a:0:{}i:2;i:10092;}i:125;a:3:{i:0;s:5:"cdata";i:1;a:1:{i:0;s:51:"# Copy the shadow file here in this directory also:";}i:2;i:10094;}i:126;a:3:{i:0;s:7:"p_close";i:1;a:0:{}i:2;i:10145;}i:127;a:3:{i:0;s:6:"p_open";i:1;a:0:{}i:2;i:10145;}i:128;a:3:{i:0;s:6:"plugin";i:1;a:4:{i:0;s:9:"code_code";i:1;a:4:{i:0;s:4:"code";i:1;N;i:2;s:0:"";i:3;s:16:"
cp ../shadow .
";}i:2;i:3;i:3;s:17:">
cp ../shadow .
";}i:2;i:10152;}i:129;a:3:{i:0;s:7:"p_close";i:1;a:0:{}i:2;i:10176;}i:130;a:3:{i:0;s:6:"p_open";i:1;a:0:{}i:2;i:10176;}i:131;a:3:{i:0;s:5:"cdata";i:1;a:1:{i:0;s:12:"# First run ";}i:2;i:10178;}i:132;a:3:{i:0;s:18:"doublequoteopening";i:1;a:0:{}i:2;i:10190;}i:133;a:3:{i:0;s:5:"cdata";i:1;a:1:{i:0;s:9:"script.sh";}i:2;i:10191;}i:134;a:3:{i:0;s:18:"doublequoteclosing";i:1;a:0:{}i:2;i:10200;}i:135;a:3:{i:0;s:5:"cdata";i:1;a:1:{i:0;s:72:" for creating the vpasswd file that is required in the migration script:";}i:2;i:10201;}i:136;a:3:{i:0;s:7:"p_close";i:1;a:0:{}i:2;i:10273;}i:137;a:3:{i:0;s:6:"p_open";i:1;a:0:{}i:2;i:10273;}i:138;a:3:{i:0;s:6:"plugin";i:1;a:4:{i:0;s:9:"code_code";i:1;a:4:{i:0;s:4:"code";i:1;N;i:2;s:0:"";i:3;s:13:"
./script.sh
";}i:2;i:3;i:3;s:14:">
./script.sh
";}i:2;i:10280;}i:139;a:3:{i:0;s:7:"p_close";i:1;a:0:{}i:2;i:10301;}i:140;a:3:{i:0;s:6:"p_open";i:1;a:0:{}i:2;i:10301;}i:141;a:3:{i:0;s:5:"cdata";i:1;a:1:{i:0;s:49:"# Now vpasswd file is created in the same folder.";}i:2;i:10303;}i:142;a:3:{i:0;s:7:"p_close";i:1;a:0:{}i:2;i:10352;}i:143;a:3:{i:0;s:6:"p_open";i:1;a:0:{}i:2;i:10352;}i:144;a:3:{i:0;s:5:"cdata";i:1;a:1:{i:0;s:13:"# Simply run ";}i:2;i:10354;}i:145;a:3:{i:0;s:18:"doublequoteopening";i:1;a:0:{}i:2;i:10367;}i:146;a:3:{i:0;s:5:"cdata";i:1;a:1:{i:0;s:12:"oldimport.sh";}i:2;i:10368;}i:147;a:3:{i:0;s:18:"doublequoteclosing";i:1;a:0:{}i:2;i:10380;}i:148;a:3:{i:0;s:5:"cdata";i:1;a:1:{i:0;s:102:" for migrating INBOX of all users in screen mode because it will take some time according to the size:";}i:2;i:10381;}i:149;a:3:{i:0;s:7:"p_close";i:1;a:0:{}i:2;i:10483;}i:150;a:3:{i:0;s:6:"p_open";i:1;a:0:{}i:2;i:10483;}i:151;a:3:{i:0;s:6:"plugin";i:1;a:4:{i:0;s:9:"code_code";i:1;a:4:{i:0;s:4:"code";i:1;N;i:2;s:0:"";i:3;s:16:"
./oldimport.sh
";}i:2;i:3;i:3;s:17:">
./oldimport.sh
";}i:2;i:10490;}i:152;a:3:{i:0;s:7:"p_close";i:1;a:0:{}i:2;i:10514;}i:153;a:3:{i:0;s:6:"p_open";i:1;a:0:{}i:2;i:10514;}i:154;a:3:{i:0;s:5:"cdata";i:1;a:1:{i:0;s:11:"# Then run ";}i:2;i:10516;}i:155;a:3:{i:0;s:18:"doublequoteopening";i:1;a:0:{}i:2;i:10527;}i:156;a:3:{i:0;s:5:"cdata";i:1;a:1:{i:0;s:11:"movesent.sh";}i:2;i:10528;}i:157;a:3:{i:0;s:18:"doublequoteclosing";i:1;a:0:{}i:2;i:10539;}i:158;a:3:{i:0;s:5:"cdata";i:1;a:1:{i:0;s:26:" for migrating Sent items:";}i:2;i:10540;}i:159;a:3:{i:0;s:7:"p_close";i:1;a:0:{}i:2;i:10566;}i:160;a:3:{i:0;s:6:"p_open";i:1;a:0:{}i:2;i:10566;}i:161;a:3:{i:0;s:6:"plugin";i:1;a:4:{i:0;s:9:"code_code";i:1;a:4:{i:0;s:4:"code";i:1;N;i:2;s:0:"";i:3;s:15:"
./movesent.sh
";}i:2;i:3;i:3;s:16:">
./movesent.sh
";}i:2;i:10573;}i:162;a:3:{i:0;s:7:"p_close";i:1;a:0:{}i:2;i:10596;}i:163;a:3:{i:0;s:6:"p_open";i:1;a:0:{}i:2;i:10596;}i:164;a:3:{i:0;s:5:"cdata";i:1;a:1:{i:0;s:37:"# Now all the mails has been migrated";}i:2;i:10598;}i:165;a:3:{i:0;s:6:"entity";i:1;a:1:{i:0;s:3:"...";}i:2;i:10635;}i:166;a:3:{i:0;s:6:"entity";i:1;a:1:{i:0;s:3:"...";}i:2;i:10638;}i:167;a:3:{i:0;s:6:"entity";i:1;a:1:{i:0;s:3:"...";}i:2;i:10641;}i:168;a:3:{i:0;s:5:"cdata";i:1;a:1:{i:0;s:6:".Enjoy";}i:2;i:10644;}i:169;a:3:{i:0;s:7:"p_close";i:1;a:0:{}i:2;i:10644;}i:170;a:3:{i:0;s:12:"document_end";i:1;a:0:{}i:2;i:10644;}}