a:215:{i:0;a:3:{i:0;s:14:"document_start";i:1;a:0:{}i:2;i:0;}i:1;a:3:{i:0;s:6:"p_open";i:1;a:0:{}i:2;i:0;}i:2;a:3:{i:0;s:5:"cdata";i:1;a:1:{i:0;s:37:"Open Policyd Web ui by going to link ";}i:2;i:1;}i:3;a:3:{i:0;s:12:"externallink";i:1;a:2:{i:0;s:30:"http://ip:7780/webui/index.php";i:1;s:30:"http://ip:7780/webui/index.php";}i:2;i:38;}i:4;a:3:{i:0;s:7:"p_close";i:1;a:0:{}i:2;i:103;}i:5;a:3:{i:0;s:6:"p_open";i:1;a:0:{}i:2;i:103;}i:6;a:3:{i:0;s:5:"cdata";i:1;a:1:{i:0;s:47:"Make sure all policies and Quotas aer disabled.";}i:2;i:105;}i:7;a:3:{i:0;s:7:"p_close";i:1;a:0:{}i:2;i:152;}i:8;a:3:{i:0;s:6:"p_open";i:1;a:0:{}i:2;i:152;}i:9;a:3:{i:0;s:5:"cdata";i:1;a:1:{i:0;s:28:"Click on Policies → Groups";}i:2;i:154;}i:10;a:3:{i:0;s:9:"linebreak";i:1;a:0:{}i:2;i:182;}i:11;a:3:{i:0;s:5:"cdata";i:1;a:1:{i:0;s:22:"
Select Action → Add";}i:2;i:184;}i:12;a:3:{i:0;s:9:"linebreak";i:1;a:0:{}i:2;i:206;}i:13;a:3:{i:0;s:5:"cdata";i:1;a:1:{i:0;s:16:"
Name: all_users";}i:2;i:208;}i:14;a:3:{i:0;s:9:"linebreak";i:1;a:0:{}i:2;i:224;}i:15;a:3:{i:0;s:5:"cdata";i:1;a:1:{i:0;s:7:"
Submit";}i:2;i:226;}i:16;a:3:{i:0;s:9:"linebreak";i:1;a:0:{}i:2;i:233;}i:17;a:3:{i:0;s:5:"cdata";i:1;a:1:{i:0;s:15:"
Back to Groups";}i:2;i:235;}i:18;a:3:{i:0;s:9:"linebreak";i:1;a:0:{}i:2;i:250;}i:19;a:3:{i:0;s:5:"cdata";i:1;a:1:{i:0;s:73:"
Select the created group all_users and Click on Select Action → Change";}i:2;i:252;}i:20;a:3:{i:0;s:9:"linebreak";i:1;a:0:{}i:2;i:325;}i:21;a:3:{i:0;s:5:"cdata";i:1;a:1:{i:0;s:17:"
Set Disabled: no";}i:2;i:327;}i:22;a:3:{i:0;s:9:"linebreak";i:1;a:0:{}i:2;i:344;}i:23;a:3:{i:0;s:5:"cdata";i:1;a:1:{i:0;s:26:"
Submit and Back to groups";}i:2;i:346;}i:24;a:3:{i:0;s:9:"linebreak";i:1;a:0:{}i:2;i:372;}i:25;a:3:{i:0;s:5:"cdata";i:1;a:1:{i:0;s:14:"
Select group ";}i:2;i:374;}i:26;a:3:{i:0;s:18:"doublequoteopening";i:1;a:0:{}i:2;i:388;}i:27;a:3:{i:0;s:5:"cdata";i:1;a:1:{i:0;s:9:"all_users";}i:2;i:389;}i:28;a:3:{i:0;s:18:"doublequoteclosing";i:1;a:0:{}i:2;i:398;}i:29;a:3:{i:0;s:5:"cdata";i:1;a:1:{i:0;s:39:" and click on Select Action → Members";}i:2;i:399;}i:30;a:3:{i:0;s:9:"linebreak";i:1;a:0:{}i:2;i:438;}i:31;a:3:{i:0;s:5:"cdata";i:1;a:1:{i:0;s:22:"
Select Action → Add";}i:2;i:440;}i:32;a:3:{i:0;s:9:"linebreak";i:1;a:0:{}i:2;i:462;}i:33;a:3:{i:0;s:5:"cdata";i:1;a:1:{i:0;s:52:"
Member: @domain (Add all domains one by one with @)";}i:2;i:464;}i:34;a:3:{i:0;s:9:"linebreak";i:1;a:0:{}i:2;i:516;}i:35;a:3:{i:0;s:5:"cdata";i:1;a:1:{i:0;s:10:"
Example -";}i:2;i:518;}i:36;a:3:{i:0;s:9:"linebreak";i:1;a:0:{}i:2;i:528;}i:37;a:3:{i:0;s:5:"cdata";i:1;a:1:{i:0;s:19:"
@ globalinfonet.in";}i:2;i:530;}i:38;a:3:{i:0;s:9:"linebreak";i:1;a:0:{}i:2;i:549;}i:39;a:3:{i:0;s:5:"cdata";i:1;a:1:{i:0;s:17:"
@zetabytecomp.in";}i:2;i:551;}i:40;a:3:{i:0;s:9:"linebreak";i:1;a:0:{}i:2;i:568;}i:41;a:3:{i:0;s:5:"cdata";i:1;a:1:{i:0;s:25:"
@zimbra.globalinfonet.in";}i:2;i:570;}i:42;a:3:{i:0;s:9:"linebreak";i:1;a:0:{}i:2;i:595;}i:43;a:3:{i:0;s:5:"cdata";i:1;a:1:{i:0;s:26:"
Make Sure Disabled is No.";}i:2;i:597;}i:44;a:3:{i:0;s:7:"p_close";i:1;a:0:{}i:2;i:623;}i:45;a:3:{i:0;s:6:"p_open";i:1;a:0:{}i:2;i:623;}i:46;a:3:{i:0;s:5:"cdata";i:1;a:1:{i:0;s:26:"Click on Policies → Main";}i:2;i:625;}i:47;a:3:{i:0;s:9:"linebreak";i:1;a:0:{}i:2;i:651;}i:48;a:3:{i:0;s:5:"cdata";i:1;a:1:{i:0;s:22:"
Select Action → Add";}i:2;i:653;}i:49;a:3:{i:0;s:9:"linebreak";i:1;a:0:{}i:2;i:675;}i:50;a:3:{i:0;s:5:"cdata";i:1;a:1:{i:0;s:22:"
Name: All user Policy";}i:2;i:677;}i:51;a:3:{i:0;s:9:"linebreak";i:1;a:0:{}i:2;i:699;}i:52;a:3:{i:0;s:5:"cdata";i:1;a:1:{i:0;s:12:"
Priority: 6";}i:2;i:701;}i:53;a:3:{i:0;s:9:"linebreak";i:1;a:0:{}i:2;i:713;}i:54;a:3:{i:0;s:5:"cdata";i:1;a:1:{i:0;s:34:"
Description: Policy for all users";}i:2;i:715;}i:55;a:3:{i:0;s:9:"linebreak";i:1;a:0:{}i:2;i:749;}i:56;a:3:{i:0;s:5:"cdata";i:1;a:1:{i:0;s:43:"
Submit and make sure Disabled is set as No";}i:2;i:751;}i:57;a:3:{i:0;s:9:"linebreak";i:1;a:0:{}i:2;i:794;}i:58;a:3:{i:0;s:5:"cdata";i:1;a:1:{i:0;s:17:"
Back to Policies";}i:2;i:796;}i:59;a:3:{i:0;s:9:"linebreak";i:1;a:0:{}i:2;i:813;}i:60;a:3:{i:0;s:5:"cdata";i:1;a:1:{i:0;s:33:"
Select the newly created Policy ";}i:2;i:815;}i:61;a:3:{i:0;s:18:"doublequoteopening";i:1;a:0:{}i:2;i:848;}i:62;a:3:{i:0;s:5:"cdata";i:1;a:1:{i:0;s:15:"All user Policy";}i:2;i:849;}i:63;a:3:{i:0;s:18:"doublequoteclosing";i:1;a:0:{}i:2;i:864;}i:64;a:3:{i:0;s:9:"linebreak";i:1;a:0:{}i:2;i:865;}i:65;a:3:{i:0;s:5:"cdata";i:1;a:1:{i:0;s:26:"
Select Action → Members";}i:2;i:867;}i:66;a:3:{i:0;s:9:"linebreak";i:1;a:0:{}i:2;i:893;}i:67;a:3:{i:0;s:5:"cdata";i:1;a:1:{i:0;s:22:"
Select Action → Add";}i:2;i:895;}i:68;a:3:{i:0;s:9:"linebreak";i:1;a:0:{}i:2;i:917;}i:69;a:3:{i:0;s:5:"cdata";i:1;a:1:{i:0;s:19:"
Source: %all_users";}i:2;i:919;}i:70;a:3:{i:0;s:9:"linebreak";i:1;a:0:{}i:2;i:938;}i:71;a:3:{i:0;s:5:"cdata";i:1;a:1:{i:0;s:17:"
Destination: any";}i:2;i:940;}i:72;a:3:{i:0;s:9:"linebreak";i:1;a:0:{}i:2;i:957;}i:73;a:3:{i:0;s:5:"cdata";i:1;a:1:{i:0;s:43:"
Submit and make sure Disabled is set as No";}i:2;i:959;}i:74;a:3:{i:0;s:7:"p_close";i:1;a:0:{}i:2;i:1002;}i:75;a:3:{i:0;s:6:"p_open";i:1;a:0:{}i:2;i:1002;}i:76;a:3:{i:0;s:5:"cdata";i:1;a:1:{i:0;s:29:"Click on Quotas → Configure";}i:2;i:1004;}i:77;a:3:{i:0;s:9:"linebreak";i:1;a:0:{}i:2;i:1033;}i:78;a:3:{i:0;s:5:"cdata";i:1;a:1:{i:0;s:22:"
Select Action → Add";}i:2;i:1035;}i:79;a:3:{i:0;s:9:"linebreak";i:1;a:0:{}i:2;i:1057;}i:80;a:3:{i:0;s:5:"cdata";i:1;a:1:{i:0;s:29:"
Name: All users policy quota";}i:2;i:1059;}i:81;a:3:{i:0;s:9:"linebreak";i:1;a:0:{}i:2;i:1088;}i:82;a:3:{i:0;s:5:"cdata";i:1;a:1:{i:0;s:26:"
Track: Sender:user@domain";}i:2;i:1090;}i:83;a:3:{i:0;s:9:"linebreak";i:1;a:0:{}i:2;i:1116;}i:84;a:3:{i:0;s:5:"cdata";i:1;a:1:{i:0;s:13:"
Period: 3600";}i:2;i:1118;}i:85;a:3:{i:0;s:9:"linebreak";i:1;a:0:{}i:2;i:1131;}i:86;a:3:{i:0;s:5:"cdata";i:1;a:1:{i:0;s:32:"
Link to Policy: All user Policy";}i:2;i:1133;}i:87;a:3:{i:0;s:9:"linebreak";i:1;a:0:{}i:2;i:1165;}i:88;a:3:{i:0;s:5:"cdata";i:1;a:1:{i:0;s:16:"
Verdict: Reject";}i:2;i:1167;}i:89;a:3:{i:0;s:9:"linebreak";i:1;a:0:{}i:2;i:1183;}i:90;a:3:{i:0;s:5:"cdata";i:1;a:1:{i:0;s:71:"
Data: Sorry, your quota to sending mail in this hour has been exceeded";}i:2;i:1185;}i:91;a:3:{i:0;s:9:"linebreak";i:1;a:0:{}i:2;i:1256;}i:92;a:3:{i:0;s:5:"cdata";i:1;a:1:{i:0;s:26:"
Stop Processing here: yes";}i:2;i:1258;}i:93;a:3:{i:0;s:9:"linebreak";i:1;a:0:{}i:2;i:1284;}i:94;a:3:{i:0;s:5:"cdata";i:1;a:1:{i:0;s:74:"
Comment: Sorry, your quota to sending mail in this hour has been exceeded";}i:2;i:1286;}i:95;a:3:{i:0;s:9:"linebreak";i:1;a:0:{}i:2;i:1360;}i:96;a:3:{i:0;s:5:"cdata";i:1;a:1:{i:0;s:36:"
Submit and make sure Disabled as No";}i:2;i:1362;}i:97;a:3:{i:0;s:9:"linebreak";i:1;a:0:{}i:2;i:1398;}i:98;a:3:{i:0;s:5:"cdata";i:1;a:1:{i:0;s:26:"
Select the created Quota ";}i:2;i:1400;}i:99;a:3:{i:0;s:18:"doublequoteopening";i:1;a:0:{}i:2;i:1426;}i:100;a:3:{i:0;s:5:"cdata";i:1;a:1:{i:0;s:22:"All users policy quota";}i:2;i:1427;}i:101;a:3:{i:0;s:18:"doublequoteclosing";i:1;a:0:{}i:2;i:1449;}i:102;a:3:{i:0;s:9:"linebreak";i:1;a:0:{}i:2;i:1450;}i:103;a:3:{i:0;s:5:"cdata";i:1;a:1:{i:0;s:25:"
Select Action → Limits";}i:2;i:1452;}i:104;a:3:{i:0;s:9:"linebreak";i:1;a:0:{}i:2;i:1477;}i:105;a:3:{i:0;s:5:"cdata";i:1;a:1:{i:0;s:22:"
Select Action → Add";}i:2;i:1479;}i:106;a:3:{i:0;s:9:"linebreak";i:1;a:0:{}i:2;i:1501;}i:107;a:3:{i:0;s:5:"cdata";i:1;a:1:{i:0;s:19:"
Type: MessageCount";}i:2;i:1503;}i:108;a:3:{i:0;s:9:"linebreak";i:1;a:0:{}i:2;i:1522;}i:109;a:3:{i:0;s:5:"cdata";i:1;a:1:{i:0;s:19:"
Counter Limit: 200";}i:2;i:1524;}i:110;a:3:{i:0;s:9:"linebreak";i:1;a:0:{}i:2;i:1543;}i:111;a:3:{i:0;s:5:"cdata";i:1;a:1:{i:0;s:43:"
Submit and make sure Disabled is set as No";}i:2;i:1545;}i:112;a:3:{i:0;s:7:"p_close";i:1;a:0:{}i:2;i:1588;}i:113;a:3:{i:0;s:6:"p_open";i:1;a:0:{}i:2;i:1588;}i:114;a:3:{i:0;s:9:"linebreak";i:1;a:0:{}i:2;i:1590;}i:115;a:3:{i:0;s:5:"cdata";i:1;a:1:{i:0;s:29:"
Click on Policies → Groups";}i:2;i:1592;}i:116;a:3:{i:0;s:9:"linebreak";i:1;a:0:{}i:2;i:1621;}i:117;a:3:{i:0;s:5:"cdata";i:1;a:1:{i:0;s:22:"
Select Action → Add";}i:2;i:1623;}i:118;a:3:{i:0;s:9:"linebreak";i:1;a:0:{}i:2;i:1645;}i:119;a:3:{i:0;s:5:"cdata";i:1;a:1:{i:0;s:20:"
Name: special_users";}i:2;i:1647;}i:120;a:3:{i:0;s:9:"linebreak";i:1;a:0:{}i:2;i:1667;}i:121;a:3:{i:0;s:5:"cdata";i:1;a:1:{i:0;s:7:"
Submit";}i:2;i:1669;}i:122;a:3:{i:0;s:9:"linebreak";i:1;a:0:{}i:2;i:1676;}i:123;a:3:{i:0;s:5:"cdata";i:1;a:1:{i:0;s:15:"
Back to Groups";}i:2;i:1678;}i:124;a:3:{i:0;s:9:"linebreak";i:1;a:0:{}i:2;i:1693;}i:125;a:3:{i:0;s:5:"cdata";i:1;a:1:{i:0;s:77:"
Select the created group special_users and Click on Select Action → Change";}i:2;i:1695;}i:126;a:3:{i:0;s:9:"linebreak";i:1;a:0:{}i:2;i:1772;}i:127;a:3:{i:0;s:5:"cdata";i:1;a:1:{i:0;s:17:"
Set Disabled: no";}i:2;i:1774;}i:128;a:3:{i:0;s:9:"linebreak";i:1;a:0:{}i:2;i:1791;}i:129;a:3:{i:0;s:5:"cdata";i:1;a:1:{i:0;s:26:"
Submit and Back to groups";}i:2;i:1793;}i:130;a:3:{i:0;s:9:"linebreak";i:1;a:0:{}i:2;i:1819;}i:131;a:3:{i:0;s:5:"cdata";i:1;a:1:{i:0;s:14:"
Select group ";}i:2;i:1821;}i:132;a:3:{i:0;s:18:"doublequoteopening";i:1;a:0:{}i:2;i:1835;}i:133;a:3:{i:0;s:5:"cdata";i:1;a:1:{i:0;s:13:"special_users";}i:2;i:1836;}i:134;a:3:{i:0;s:18:"doublequoteclosing";i:1;a:0:{}i:2;i:1849;}i:135;a:3:{i:0;s:5:"cdata";i:1;a:1:{i:0;s:39:" and click on Select Action → Members";}i:2;i:1850;}i:136;a:3:{i:0;s:9:"linebreak";i:1;a:0:{}i:2;i:1889;}i:137;a:3:{i:0;s:5:"cdata";i:1;a:1:{i:0;s:22:"
Select Action → Add";}i:2;i:1891;}i:138;a:3:{i:0;s:9:"linebreak";i:1;a:0:{}i:2;i:1913;}i:139;a:3:{i:0;s:5:"cdata";i:1;a:1:{i:0;s:88:"
Member: email@example.com (Add all emails one by one which need to be given more quota)";}i:2;i:1915;}i:140;a:3:{i:0;s:9:"linebreak";i:1;a:0:{}i:2;i:2003;}i:141;a:3:{i:0;s:5:"cdata";i:1;a:1:{i:0;s:26:"
Make Sure Disabled is No.";}i:2;i:2005;}i:142;a:3:{i:0;s:7:"p_close";i:1;a:0:{}i:2;i:2031;}i:143;a:3:{i:0;s:6:"p_open";i:1;a:0:{}i:2;i:2031;}i:144;a:3:{i:0;s:5:"cdata";i:1;a:1:{i:0;s:26:"Click on Policies → Main";}i:2;i:2033;}i:145;a:3:{i:0;s:9:"linebreak";i:1;a:0:{}i:2;i:2059;}i:146;a:3:{i:0;s:5:"cdata";i:1;a:1:{i:0;s:22:"
Select Action → Add";}i:2;i:2061;}i:147;a:3:{i:0;s:9:"linebreak";i:1;a:0:{}i:2;i:2083;}i:148;a:3:{i:0;s:5:"cdata";i:1;a:1:{i:0;s:26:"
Name: Special user Policy";}i:2;i:2085;}i:149;a:3:{i:0;s:9:"linebreak";i:1;a:0:{}i:2;i:2111;}i:150;a:3:{i:0;s:5:"cdata";i:1;a:1:{i:0;s:12:"
Priority: 5";}i:2;i:2113;}i:151;a:3:{i:0;s:9:"linebreak";i:1;a:0:{}i:2;i:2125;}i:152;a:3:{i:0;s:5:"cdata";i:1;a:1:{i:0;s:33:"
Description: Special user Policy";}i:2;i:2127;}i:153;a:3:{i:0;s:9:"linebreak";i:1;a:0:{}i:2;i:2160;}i:154;a:3:{i:0;s:5:"cdata";i:1;a:1:{i:0;s:43:"
Submit and make sure Disabled is set as No";}i:2;i:2162;}i:155;a:3:{i:0;s:9:"linebreak";i:1;a:0:{}i:2;i:2205;}i:156;a:3:{i:0;s:5:"cdata";i:1;a:1:{i:0;s:17:"
Back to Policies";}i:2;i:2207;}i:157;a:3:{i:0;s:9:"linebreak";i:1;a:0:{}i:2;i:2224;}i:158;a:3:{i:0;s:5:"cdata";i:1;a:1:{i:0;s:33:"
Select the newly created Policy ";}i:2;i:2226;}i:159;a:3:{i:0;s:18:"doublequoteopening";i:1;a:0:{}i:2;i:2259;}i:160;a:3:{i:0;s:5:"cdata";i:1;a:1:{i:0;s:19:"Special user Policy";}i:2;i:2260;}i:161;a:3:{i:0;s:18:"doublequoteclosing";i:1;a:0:{}i:2;i:2279;}i:162;a:3:{i:0;s:9:"linebreak";i:1;a:0:{}i:2;i:2280;}i:163;a:3:{i:0;s:5:"cdata";i:1;a:1:{i:0;s:26:"
Select Action → Members";}i:2;i:2282;}i:164;a:3:{i:0;s:9:"linebreak";i:1;a:0:{}i:2;i:2308;}i:165;a:3:{i:0;s:5:"cdata";i:1;a:1:{i:0;s:22:"
Select Action → Add";}i:2;i:2310;}i:166;a:3:{i:0;s:9:"linebreak";i:1;a:0:{}i:2;i:2332;}i:167;a:3:{i:0;s:5:"cdata";i:1;a:1:{i:0;s:23:"
Source: %special_users";}i:2;i:2334;}i:168;a:3:{i:0;s:9:"linebreak";i:1;a:0:{}i:2;i:2357;}i:169;a:3:{i:0;s:5:"cdata";i:1;a:1:{i:0;s:17:"
Destination: any";}i:2;i:2359;}i:170;a:3:{i:0;s:9:"linebreak";i:1;a:0:{}i:2;i:2376;}i:171;a:3:{i:0;s:5:"cdata";i:1;a:1:{i:0;s:43:"
Submit and make sure Disabled is set as No";}i:2;i:2378;}i:172;a:3:{i:0;s:7:"p_close";i:1;a:0:{}i:2;i:2421;}i:173;a:3:{i:0;s:6:"p_open";i:1;a:0:{}i:2;i:2421;}i:174;a:3:{i:0;s:5:"cdata";i:1;a:1:{i:0;s:29:"Click on Quotas → Configure";}i:2;i:2423;}i:175;a:3:{i:0;s:9:"linebreak";i:1;a:0:{}i:2;i:2452;}i:176;a:3:{i:0;s:5:"cdata";i:1;a:1:{i:0;s:22:"
Select Action → Add";}i:2;i:2454;}i:177;a:3:{i:0;s:9:"linebreak";i:1;a:0:{}i:2;i:2476;}i:178;a:3:{i:0;s:5:"cdata";i:1;a:1:{i:0;s:33:"
Name: Special users policy quota";}i:2;i:2478;}i:179;a:3:{i:0;s:9:"linebreak";i:1;a:0:{}i:2;i:2511;}i:180;a:3:{i:0;s:5:"cdata";i:1;a:1:{i:0;s:26:"
Track: Sender:user@domain";}i:2;i:2513;}i:181;a:3:{i:0;s:9:"linebreak";i:1;a:0:{}i:2;i:2539;}i:182;a:3:{i:0;s:5:"cdata";i:1;a:1:{i:0;s:13:"
Period: 3600";}i:2;i:2541;}i:183;a:3:{i:0;s:9:"linebreak";i:1;a:0:{}i:2;i:2554;}i:184;a:3:{i:0;s:5:"cdata";i:1;a:1:{i:0;s:36:"
Link to Policy: Special user Policy";}i:2;i:2556;}i:185;a:3:{i:0;s:9:"linebreak";i:1;a:0:{}i:2;i:2592;}i:186;a:3:{i:0;s:5:"cdata";i:1;a:1:{i:0;s:16:"
Verdict: Reject";}i:2;i:2594;}i:187;a:3:{i:0;s:9:"linebreak";i:1;a:0:{}i:2;i:2610;}i:188;a:3:{i:0;s:5:"cdata";i:1;a:1:{i:0;s:72:"
Data: Sorry, your quota for sending mail in this hour has been exceeded";}i:2;i:2612;}i:189;a:3:{i:0;s:9:"linebreak";i:1;a:0:{}i:2;i:2684;}i:190;a:3:{i:0;s:5:"cdata";i:1;a:1:{i:0;s:26:"
Stop Processing here: yes";}i:2;i:2686;}i:191;a:3:{i:0;s:9:"linebreak";i:1;a:0:{}i:2;i:2712;}i:192;a:3:{i:0;s:5:"cdata";i:1;a:1:{i:0;s:75:"
Comment: Sorry, your quota for sending mail in this hour has been exceeded";}i:2;i:2714;}i:193;a:3:{i:0;s:9:"linebreak";i:1;a:0:{}i:2;i:2789;}i:194;a:3:{i:0;s:5:"cdata";i:1;a:1:{i:0;s:36:"
Submit and make sure Disabled as No";}i:2;i:2791;}i:195;a:3:{i:0;s:9:"linebreak";i:1;a:0:{}i:2;i:2827;}i:196;a:3:{i:0;s:5:"cdata";i:1;a:1:{i:0;s:26:"
Select the created Quota ";}i:2;i:2829;}i:197;a:3:{i:0;s:18:"doublequoteopening";i:1;a:0:{}i:2;i:2855;}i:198;a:3:{i:0;s:5:"cdata";i:1;a:1:{i:0;s:26:"Special users policy quota";}i:2;i:2856;}i:199;a:3:{i:0;s:18:"doublequoteclosing";i:1;a:0:{}i:2;i:2882;}i:200;a:3:{i:0;s:9:"linebreak";i:1;a:0:{}i:2;i:2883;}i:201;a:3:{i:0;s:5:"cdata";i:1;a:1:{i:0;s:25:"
Select Action → Limits";}i:2;i:2885;}i:202;a:3:{i:0;s:9:"linebreak";i:1;a:0:{}i:2;i:2910;}i:203;a:3:{i:0;s:5:"cdata";i:1;a:1:{i:0;s:22:"
Select Action → Add";}i:2;i:2912;}i:204;a:3:{i:0;s:9:"linebreak";i:1;a:0:{}i:2;i:2934;}i:205;a:3:{i:0;s:5:"cdata";i:1;a:1:{i:0;s:19:"
Type: MessageCount";}i:2;i:2936;}i:206;a:3:{i:0;s:9:"linebreak";i:1;a:0:{}i:2;i:2955;}i:207;a:3:{i:0;s:5:"cdata";i:1;a:1:{i:0;s:19:"
Counter Limit: 500";}i:2;i:2957;}i:208;a:3:{i:0;s:9:"linebreak";i:1;a:0:{}i:2;i:2976;}i:209;a:3:{i:0;s:5:"cdata";i:1;a:1:{i:0;s:43:"
Submit and make sure Disabled is set as No";}i:2;i:2978;}i:210;a:3:{i:0;s:7:"p_close";i:1;a:0:{}i:2;i:3021;}i:211;a:3:{i:0;s:6:"p_open";i:1;a:0:{}i:2;i:3021;}i:212;a:3:{i:0;s:5:"cdata";i:1;a:1:{i:0;s:86:"Note: Make sure all other policies and Disabled and only these 2 policies are enabled.";}i:2;i:3023;}i:213;a:3:{i:0;s:7:"p_close";i:1;a:0:{}i:2;i:3109;}i:214;a:3:{i:0;s:12:"document_end";i:1;a:0:{}i:2;i:3109;}}