a:101:{i:0;a:3:{i:0;s:14:"document_start";i:1;a:0:{}i:2;i:0;}i:1;a:3:{i:0;s:6:"header";i:1;a:3:{i:0;s:77:"Interspire Bounce processing test does not work (IMAP-issue) with DirectAdmin";i:1;i:1;i:2;i:1;}i:2;i:1;}i:2;a:3:{i:0;s:12:"section_open";i:1;a:1:{i:0;i:1;}i:2;i:1;}i:3;a:3:{i:0;s:6:"p_open";i:1;a:0:{}i:2;i:1;}i:4;a:3:{i:0;s:5:"cdata";i:1;a:1:{i:0;s:25:"yum -y install krb5-devel";}i:2;i:96;}i:5;a:3:{i:0;s:7:"p_close";i:1;a:0:{}i:2;i:121;}i:6;a:3:{i:0;s:6:"p_open";i:1;a:0:{}i:2;i:121;}i:7;a:3:{i:0;s:5:"cdata";i:1;a:1:{i:0;s:44:"yum -y install libc-client-devel libc-client";}i:2;i:123;}i:8;a:3:{i:0;s:7:"p_close";i:1;a:0:{}i:2;i:167;}i:9;a:3:{i:0;s:6:"p_open";i:1;a:0:{}i:2;i:167;}i:10;a:3:{i:0;s:5:"cdata";i:1;a:1:{i:0;s:5:"Then:";}i:2;i:171;}i:11;a:3:{i:0;s:7:"p_close";i:1;a:0:{}i:2;i:176;}i:12;a:3:{i:0;s:6:"p_open";i:1;a:0:{}i:2;i:176;}i:13;a:3:{i:0;s:5:"cdata";i:1;a:1:{i:0;s:37:"1: Go to the DA custombuild directory";}i:2;i:178;}i:14;a:3:{i:0;s:7:"p_close";i:1;a:0:{}i:2;i:215;}i:15;a:3:{i:0;s:6:"p_open";i:1;a:0:{}i:2;i:215;}i:16;a:3:{i:0;s:5:"cdata";i:1;a:1:{i:0;s:37:"cd /usr/local/directadmin/custombuild";}i:2;i:217;}i:17;a:3:{i:0;s:7:"p_close";i:1;a:0:{}i:2;i:254;}i:18;a:3:{i:0;s:6:"p_open";i:1;a:0:{}i:2;i:254;}i:19;a:3:{i:0;s:5:"cdata";i:1;a:1:{i:0;s:36:"2: Edit configure/ap2/configure.php5";}i:2;i:259;}i:20;a:3:{i:0;s:7:"p_close";i:1;a:0:{}i:2;i:295;}i:21;a:3:{i:0;s:6:"p_open";i:1;a:0:{}i:2;i:295;}i:22;a:3:{i:0;s:5:"cdata";i:1;a:1:{i:0;s:33:"nano configure/ap2/configure.php5";}i:2;i:297;}i:23;a:3:{i:0;s:7:"p_close";i:1;a:0:{}i:2;i:330;}i:24;a:3:{i:0;s:6:"p_open";i:1;a:0:{}i:2;i:330;}i:25;a:3:{i:0;s:5:"cdata";i:1;a:1:{i:0;s:91:"3: Add the next 2 lines at the end of the file. Be sure that ONLY the last options have no ";}i:2;i:335;}i:26;a:3:{i:0;s:18:"doublequoteopening";i:1;a:0:{}i:2;i:426;}i:27;a:3:{i:0;s:5:"cdata";i:1;a:1:{i:0;s:1:"\";}i:2;i:427;}i:28;a:3:{i:0;s:18:"doublequoteclosing";i:1;a:0:{}i:2;i:428;}i:29;a:3:{i:0;s:5:"cdata";i:1;a:1:{i:0;s:47:" at the end and save (CTRL-O) and quit (CTRL-Q)";}i:2;i:429;}i:30;a:3:{i:0;s:7:"p_close";i:1;a:0:{}i:2;i:476;}i:31;a:3:{i:0;s:6:"p_open";i:1;a:0:{}i:2;i:476;}i:32;a:3:{i:0;s:6:"entity";i:1;a:1:{i:0;s:2:"--";}i:2;i:478;}i:33;a:3:{i:0;s:5:"cdata";i:1;a:1:{i:0;s:11:"with-imap \";}i:2;i:480;}i:34;a:3:{i:0;s:7:"p_close";i:1;a:0:{}i:2;i:491;}i:35;a:3:{i:0;s:6:"p_open";i:1;a:0:{}i:2;i:491;}i:36;a:3:{i:0;s:6:"entity";i:1;a:1:{i:0;s:2:"--";}i:2;i:493;}i:37;a:3:{i:0;s:5:"cdata";i:1;a:1:{i:0;s:13:"with-imap-ssl";}i:2;i:495;}i:38;a:3:{i:0;s:7:"p_close";i:1;a:0:{}i:2;i:508;}i:39;a:3:{i:0;s:6:"p_open";i:1;a:0:{}i:2;i:508;}i:40;a:3:{i:0;s:5:"cdata";i:1;a:1:{i:0;s:20:"4: Re-compilling PHP";}i:2;i:513;}i:41;a:3:{i:0;s:7:"p_close";i:1;a:0:{}i:2;i:533;}i:42;a:3:{i:0;s:6:"p_open";i:1;a:0:{}i:2;i:533;}i:43;a:3:{i:0;s:5:"cdata";i:1;a:1:{i:0;s:13:"./build php n";}i:2;i:535;}i:44;a:3:{i:0;s:7:"p_close";i:1;a:0:{}i:2;i:549;}i:45;a:3:{i:0;s:2:"hr";i:1;a:0:{}i:2;i:549;}i:46;a:3:{i:0;s:6:"p_open";i:1;a:0:{}i:2;i:549;}i:47;a:3:{i:0;s:5:"cdata";i:1;a:1:{i:0;s:159:"If following error comes, then use given commands:
Error - configure: error: Cannot find imap library (libc-client.a). Please check your c-client installation.";}i:2;i:581;}i:48;a:3:{i:0;s:7:"p_close";i:1;a:0:{}i:2;i:740;}i:49;a:3:{i:0;s:6:"p_open";i:1;a:0:{}i:2;i:740;}i:50;a:3:{i:0;s:5:"cdata";i:1;a:1:{i:0;s:44:"1. yum install libc-client libc-client-devel";}i:2;i:742;}i:51;a:3:{i:0;s:9:"linebreak";i:1;a:0:{}i:2;i:786;}i:52;a:3:{i:0;s:5:"cdata";i:1;a:1:{i:0;s:40:"
2. yum install krb5-appl-clients.x86_64";}i:2;i:789;}i:53;a:3:{i:0;s:9:"linebreak";i:1;a:0:{}i:2;i:829;}i:54;a:3:{i:0;s:5:"cdata";i:1;a:1:{i:0;s:37:"
yum install krb5-appl-servers.x86_64";}i:2;i:832;}i:55;a:3:{i:0;s:9:"linebreak";i:1;a:0:{}i:2;i:869;}i:56;a:3:{i:0;s:5:"cdata";i:1;a:1:{i:0;s:18:"
3. cd /usr/local ";}i:2;i:871;}i:57;a:3:{i:0;s:9:"linebreak";i:1;a:0:{}i:2;i:889;}i:58;a:3:{i:0;s:5:"cdata";i:1;a:1:{i:0;s:1:"
";}i:2;i:891;}i:59;a:3:{i:0;s:12:"externallink";i:1;a:2:{i:0;s:50:"ftp://ftp.cac.washington.edu/imap/imap-2007e.tar.Z";i:1;N;}i:2;i:892;}i:60;a:3:{i:0;s:5:"cdata";i:1;a:1:{i:0;s:1:" ";}i:2;i:942;}i:61;a:3:{i:0;s:9:"linebreak";i:1;a:0:{}i:2;i:943;}i:62;a:3:{i:0;s:5:"cdata";i:1;a:1:{i:0;s:27:"
tar xvzf imap-2007e.tar.Z ";}i:2;i:945;}i:63;a:3:{i:0;s:9:"linebreak";i:1;a:0:{}i:2;i:972;}i:64;a:3:{i:0;s:5:"cdata";i:1;a:1:{i:0;s:15:"
cd imap-2007e ";}i:2;i:974;}i:65;a:3:{i:0;s:9:"linebreak";i:1;a:0:{}i:2;i:989;}i:66;a:3:{i:0;s:5:"cdata";i:1;a:1:{i:0;s:98:"
4. Edit the 2 files src/osdep/unix/os_art.c and src/osdep/unix/os_sv2.c and replace the value of ";}i:2;i:991;}i:67;a:3:{i:0;s:18:"doublequoteopening";i:1;a:0:{}i:2;i:1089;}i:68;a:3:{i:0;s:5:"cdata";i:1;a:1:{i:0;s:10:"FD_SETSIZE";}i:2;i:1090;}i:69;a:3:{i:0;s:18:"doublequoteclosing";i:1;a:0:{}i:2;i:1100;}i:70;a:3:{i:0;s:5:"cdata";i:1;a:1:{i:0;s:20:" from 256 to 32768. ";}i:2;i:1101;}i:71;a:3:{i:0;s:9:"linebreak";i:1;a:0:{}i:2;i:1121;}i:72;a:3:{i:0;s:5:"cdata";i:1;a:1:{i:0;s:53:"
5. ln -s /usr/lib64/openssl/engines/ /usr/local/ssl ";}i:2;i:1123;}i:73;a:3:{i:0;s:9:"linebreak";i:1;a:0:{}i:2;i:1176;}i:74;a:3:{i:0;s:5:"cdata";i:1;a:1:{i:0;s:44:"
ln -s /usr/include/ /usr/local/ssl/include ";}i:2;i:1178;}i:75;a:3:{i:0;s:9:"linebreak";i:1;a:0:{}i:2;i:1222;}i:76;a:3:{i:0;s:5:"cdata";i:1;a:1:{i:0;s:44:"
6. make lnp SSLTYPE=unix EXTRACFLAGS=-fPIC ";}i:2;i:1224;}i:77;a:3:{i:0;s:9:"linebreak";i:1;a:0:{}i:2;i:1268;}i:78;a:3:{i:0;s:5:"cdata";i:1;a:1:{i:0;s:14:"
7. mkdir lib ";}i:2;i:1270;}i:79;a:3:{i:0;s:9:"linebreak";i:1;a:0:{}i:2;i:1284;}i:80;a:3:{i:0;s:5:"cdata";i:1;a:1:{i:0;s:15:"
mkdir include ";}i:2;i:1286;}i:81;a:3:{i:0;s:9:"linebreak";i:1;a:0:{}i:2;i:1301;}i:82;a:3:{i:0;s:5:"cdata";i:1;a:1:{i:0;s:22:"
cp c-client/*.c lib/ ";}i:2;i:1303;}i:83;a:3:{i:0;s:9:"linebreak";i:1;a:0:{}i:2;i:1325;}i:84;a:3:{i:0;s:5:"cdata";i:1;a:1:{i:0;s:26:"
cp c-client/*.h include/ ";}i:2;i:1327;}i:85;a:3:{i:0;s:9:"linebreak";i:1;a:0:{}i:2;i:1353;}i:86;a:3:{i:0;s:5:"cdata";i:1;a:1:{i:0;s:42:"
cp c-client/c-client.a lib/libc-client.a ";}i:2;i:1355;}i:87;a:3:{i:0;s:9:"linebreak";i:1;a:0:{}i:2;i:1397;}i:88;a:3:{i:0;s:5:"cdata";i:1;a:1:{i:0;s:42:"
8. cd /usr/local/directadmin/custombuild ";}i:2;i:1399;}i:89;a:3:{i:0;s:9:"linebreak";i:1;a:0:{}i:2;i:1441;}i:90;a:3:{i:0;s:5:"cdata";i:1;a:1:{i:0;s:33:"
vi configure/ap2/configure.php5 ";}i:2;i:1443;}i:91;a:3:{i:0;s:9:"linebreak";i:1;a:0:{}i:2;i:1476;}i:92;a:3:{i:0;s:5:"cdata";i:1;a:1:{i:0;s:25:"
Add the following line: ";}i:2;i:1478;}i:93;a:3:{i:0;s:6:"entity";i:1;a:1:{i:0;s:2:"--";}i:2;i:1503;}i:94;a:3:{i:0;s:5:"cdata";i:1;a:1:{i:0;s:32:"with-imap=/usr/local/imap-2007e ";}i:2;i:1505;}i:95;a:3:{i:0;s:9:"linebreak";i:1;a:0:{}i:2;i:1537;}i:96;a:3:{i:0;s:5:"cdata";i:1;a:1:{i:0;s:18:"
9. ./build php n ";}i:2;i:1539;}i:97;a:3:{i:0;s:9:"linebreak";i:1;a:0:{}i:2;i:1557;}i:98;a:3:{i:0;s:7:"p_close";i:1;a:0:{}i:2;i:1559;}i:99;a:3:{i:0;s:13:"section_close";i:1;a:0:{}i:2;i:1560;}i:100;a:3:{i:0;s:12:"document_end";i:1;a:0:{}i:2;i:1560;}}