a:12:{i:0;a:3:{i:0;s:14:"document_start";i:1;a:0:{}i:2;i:0;}i:1;a:3:{i:0;s:6:"p_open";i:1;a:0:{}i:2;i:0;}i:2;a:3:{i:0;s:5:"cdata";i:1;a:1:{i:0;s:15:"Email archiving";}i:2;i:1;}i:3;a:3:{i:0;s:7:"p_close";i:1;a:0:{}i:2;i:16;}i:4;a:3:{i:0;s:6:"p_open";i:1;a:0:{}i:2;i:16;}i:5;a:3:{i:0;s:5:"cdata";i:1;a:1:{i:0;s:126:"Login as root in the server and open the file /etc/cpanel_exim_system_filter. Add the following lines in the file at the end:
";}i:2;i:19;}i:6;a:3:{i:0;s:6:"plugin";i:1;a:4:{i:0;s:9:"code_code";i:1;a:4:{i:0;s:4:"code";i:1;N;i:2;s:0:"";i:3;s:151:"
if first_delivery
and ( ("$h_from:" contains "<domain.com>")
or ("$h_to:" contains "<domain.com>")
)
then
unseen deliver "<archive@domain.com>"
endif
";}i:2;i:3;i:3;s:152:">
if first_delivery
and ( ("$h_from:" contains "<domain.com>")
or ("$h_to:" contains "<domain.com>")
)
then
unseen deliver "<archive@domain.com>"
endif
";}i:2;i:150;}i:7;a:3:{i:0;s:7:"p_close";i:1;a:0:{}i:2;i:309;}i:8;a:3:{i:0;s:6:"p_open";i:1;a:0:{}i:2;i:309;}i:9;a:3:{i:0;s:5:"cdata";i:1;a:1:{i:0;s:211:"Finally, we need to modify the default Exim filter file in the WHM so that this new file is used. Go to Main » Service Configuration » Exim Configuration Editor and modify the System Filter File line and save.";}i:2;i:312;}i:10;a:3:{i:0;s:7:"p_close";i:1;a:0:{}i:2;i:312;}i:11;a:3:{i:0;s:12:"document_end";i:1;a:0:{}i:2;i:312;}}