a:10:{i:0;a:3:{i:0;s:14:"document_start";i:1;a:0:{}i:2;i:0;}i:1;a:3:{i:0;s:6:"header";i:1;a:3:{i:0;s:37:"Increase /tmp partition cPanel server";i:1;i:1;i:2;i:1;}i:2;i:1;}i:2;a:3:{i:0;s:12:"section_open";i:1;a:1:{i:0;i:1;}i:2;i:1;}i:3;a:3:{i:0;s:6:"p_open";i:1;a:0:{}i:2;i:1;}i:4;a:3:{i:0;s:5:"cdata";i:1;a:1:{i:0;s:483:"Stop MySQL, Apache, and cPanel to prevent writing to the /tmp partition
Copy the contents of /tmp to another location, such as /home (cp -rfp /tmp /home)
Unmount /tmp. If you’re unable to, you can do an lsof (lsof |grep /tmp) to see what processes are still writing to it, and kill them off. Or do a lazy unmount (umount -l /tmp)
Delete /usr/tmpDSK (rm -rf /usr/tmpDSK)
Now open /scripts/securetmp and look for the line:
my $tmpdsksize     = 512000;    # Must be larger than 250000";}i:2;i:55;}i:5;a:3:{i:0;s:7:"p_close";i:1;a:0:{}i:2;i:538;}i:6;a:3:{i:0;s:12:"preformatted";i:1;a:1:{i:0;s:130:"   And change the “512000″ value to your desired size in MB, and save the file. Now run the following script to recreate /tmp:";}i:2;i:538;}i:7;a:3:{i:0;s:12:"preformatted";i:1;a:1:{i:0;s:21:"   /scripts/securetmp";}i:2;i:672;}i:8;a:3:{i:0;s:13:"section_close";i:1;a:0:{}i:2;i:672;}i:9;a:3:{i:0;s:12:"document_end";i:1;a:0:{}i:2;i:672;}}