a:3:{i:0;a:3:{i:0;s:14:"document_start";i:1;a:0:{}i:2;i:0;}i:1;a:3:{i:0;s:4:"code";i:1;a:3:{i:0;s:279:"
root@mail:#~ su – zimbra
zimbra@mail:~$ /opt/zimbra/bin/zmmailbox -z -m user_to_be_merged@domain.com getRestURL "//?fmt=tgz" > /tmp/user1.tgz
zimbra@mail:~$ /opt/zimbra/bin/zmmailbox -z -m final_merged_account@domain.com postRestURL "//?fmt=tgz&resolve=modify" /tmp/user1.tgz
";i:1;N;i:2;N;}i:2;i:6;}i:2;a:3:{i:0;s:12:"document_end";i:1;a:0:{}i:2;i:6;}}