a:96:{i:0;a:3:{i:0;s:14:"document_start";i:1;a:0:{}i:2;i:0;}i:1;a:3:{i:0;s:6:"p_open";i:1;a:0:{}i:2;i:0;}i:2;a:3:{i:0;s:11:"strong_open";i:1;a:0:{}i:2;i:1;}i:3;a:3:{i:0;s:5:"cdata";i:1;a:1:{i:0;s:7:"Problem";}i:2;i:3;}i:4;a:3:{i:0;s:12:"strong_close";i:1;a:0:{}i:2;i:10;}i:5;a:3:{i:0;s:9:"linebreak";i:1;a:0:{}i:2;i:12;}i:6;a:3:{i:0;s:5:"cdata";i:1;a:1:{i:0;s:161:"
A table in MySQL has a limitation of 65535 bytes of overall row length. It may severely limit the number of columns in a table when it has
varchar/char columns.";}i:2;i:14;}i:7;a:3:{i:0;s:7:"p_close";i:1;a:0:{}i:2;i:175;}i:8;a:3:{i:0;s:6:"p_open";i:1;a:0:{}i:2;i:175;}i:9;a:3:{i:0;s:5:"cdata";i:1;a:1:{i:0;s:57:"In Magento starting from 1.3 the products catalog in the ";}i:2;i:177;}i:10;a:3:{i:0;s:18:"doublequoteopening";i:1;a:0:{}i:2;i:234;}i:11;a:3:{i:0;s:5:"cdata";i:1;a:1:{i:0;s:4:"flat";}i:2;i:235;}i:12;a:3:{i:0;s:18:"doublequoteclosing";i:1;a:0:{}i:2;i:239;}i:13;a:3:{i:0;s:5:"cdata";i:1;a:1:{i:0;s:144:" mode suffers from this limitation depending on the number and combination of the
product attributes that participate in the flat product index.";}i:2;i:240;}i:14;a:3:{i:0;s:7:"p_close";i:1;a:0:{}i:2;i:384;}i:15;a:3:{i:0;s:6:"p_open";i:1;a:0:{}i:2;i:384;}i:16;a:3:{i:0;s:11:"strong_open";i:1;a:0:{}i:2;i:387;}i:17;a:3:{i:0;s:5:"cdata";i:1;a:1:{i:0;s:10:"Background";}i:2;i:389;}i:18;a:3:{i:0;s:12:"strong_close";i:1;a:0:{}i:2;i:399;}i:19;a:3:{i:0;s:9:"linebreak";i:1;a:0:{}i:2;i:401;}i:20;a:3:{i:0;s:5:"cdata";i:1;a:1:{i:0;s:106:"
A product attribute gets into the flat tables and gets affected by the issue in the following conditions:";}i:2;i:403;}i:21;a:3:{i:0;s:7:"p_close";i:1;a:0:{}i:2;i:509;}i:22;a:3:{i:0;s:10:"listo_open";i:1;a:0:{}i:2;i:509;}i:23;a:3:{i:0;s:13:"listitem_open";i:1;a:1:{i:0;i:1;}i:2;i:509;}i:24;a:3:{i:0;s:16:"listcontent_open";i:1;a:0:{}i:2;i:509;}i:25;a:3:{i:0;s:5:"cdata";i:1;a:1:{i:0;s:40:" The flat product catalog is enabled in ";}i:2;i:513;}i:26;a:3:{i:0;s:18:"doublequoteopening";i:1;a:0:{}i:2;i:553;}i:27;a:3:{i:0;s:5:"cdata";i:1;a:1:{i:0;s:11:"Sys Config ";}i:2;i:554;}i:28;a:3:{i:0;s:6:"entity";i:1;a:1:{i:0;s:2:"->";}i:2;i:565;}i:29;a:3:{i:0;s:5:"cdata";i:1;a:1:{i:0;s:9:" Catalog ";}i:2;i:567;}i:30;a:3:{i:0;s:6:"entity";i:1;a:1:{i:0;s:2:"->";}i:2;i:576;}i:31;a:3:{i:0;s:5:"cdata";i:1;a:1:{i:0;s:10:" Frontend ";}i:2;i:578;}i:32;a:3:{i:0;s:6:"entity";i:1;a:1:{i:0;s:2:"->";}i:2;i:588;}i:33;a:3:{i:0;s:5:"cdata";i:1;a:1:{i:0;s:25:" Use Flat Catalog Product";}i:2;i:590;}i:34;a:3:{i:0;s:18:"doublequoteclosing";i:1;a:0:{}i:2;i:615;}i:35;a:3:{i:0;s:17:"listcontent_close";i:1;a:0:{}i:2;i:616;}i:36;a:3:{i:0;s:14:"listitem_close";i:1;a:0:{}i:2;i:616;}i:37;a:3:{i:0;s:13:"listitem_open";i:1;a:1:{i:0;i:1;}i:2;i:616;}i:38;a:3:{i:0;s:16:"listcontent_open";i:1;a:0:{}i:2;i:616;}i:39;a:3:{i:0;s:5:"cdata";i:1;a:1:{i:0;s:65:" When a product attribute is added with the following parameters:";}i:2;i:620;}i:40;a:3:{i:0;s:17:"listcontent_close";i:1;a:0:{}i:2;i:685;}i:41;a:3:{i:0;s:14:"listitem_close";i:1;a:0:{}i:2;i:685;}i:42;a:3:{i:0;s:11:"listo_close";i:1;a:0:{}i:2;i:685;}i:43;a:3:{i:0;s:12:"preformatted";i:1;a:1:{i:0;s:333:"  1) Frontend Properties – "Yes" one of: "Used in Product Listing", "Use in Layered Navigation", "Used for Sorting in Product Listing"
  2) Input Type – one of:
   a. Unordered List ItemUnordered List ItemDate
   b. Yes/No (boolean)
   c.  Multiple Select
   d. Dropdown
   e.  Price
   f. Media Image
   g. Fixed Product Tax
 
 ";}i:2;i:686;}i:44;a:3:{i:0;s:6:"p_open";i:1;a:0:{}i:2;i:686;}i:45;a:3:{i:0;s:5:"cdata";i:1;a:1:{i:0;s:8:"Result:
";}i:2;i:1045;}i:46;a:3:{i:0;s:6:"plugin";i:1;a:4:{i:0;s:9:"code_code";i:1;a:4:{i:0;s:4:"code";i:1;N;i:2;s:0:"";i:3;s:203:""SQLSTATE[42000]: Syntax error or access violation: 1118 Row size too large. The maximum row
size for the used table type, not counting BLOBs, is 65535. You have to change some columns to
TEXT or BLOBs".";}i:2;i:3;i:3;s:204:">"SQLSTATE[42000]: Syntax error or access violation: 1118 Row size too large. The maximum row
size for the used table type, not counting BLOBs, is 65535. You have to change some columns to
TEXT or BLOBs".";}i:2;i:1058;}i:47;a:3:{i:0;s:7:"p_close";i:1;a:0:{}i:2;i:1269;}i:48;a:3:{i:0;s:6:"p_open";i:1;a:0:{}i:2;i:1269;}i:49;a:3:{i:0;s:11:"strong_open";i:1;a:0:{}i:2;i:1271;}i:50;a:3:{i:0;s:5:"cdata";i:1;a:1:{i:0;s:11:"Workarounds";}i:2;i:1273;}i:51;a:3:{i:0;s:12:"strong_close";i:1;a:0:{}i:2;i:1284;}i:52;a:3:{i:0;s:9:"linebreak";i:1;a:0:{}i:2;i:1286;}i:53;a:3:{i:0;s:7:"p_close";i:1;a:0:{}i:2;i:1288;}i:54;a:3:{i:0;s:10:"listu_open";i:1;a:0:{}i:2;i:1288;}i:55;a:3:{i:0;s:13:"listitem_open";i:1;a:1:{i:0;i:1;}i:2;i:1288;}i:56;a:3:{i:0;s:16:"listcontent_open";i:1;a:0:{}i:2;i:1288;}i:57;a:3:{i:0;s:5:"cdata";i:1;a:1:{i:0;s:137:" Minimize usage of the varchar (Text Field, Multiple Select) product attributes on the frontend by avoiding to put them into flat index: ";}i:2;i:1292;}i:58;a:3:{i:0;s:18:"doublequoteopening";i:1;a:0:{}i:2;i:1429;}i:59;a:3:{i:0;s:5:"cdata";i:1;a:1:{i:0;s:23:"Used in Product Listing";}i:2;i:1430;}i:60;a:3:{i:0;s:18:"doublequoteclosing";i:1;a:0:{}i:2;i:1453;}i:61;a:3:{i:0;s:5:"cdata";i:1;a:1:{i:0;s:7:" = No, ";}i:2;i:1454;}i:62;a:3:{i:0;s:18:"doublequoteopening";i:1;a:0:{}i:2;i:1461;}i:63;a:3:{i:0;s:5:"cdata";i:1;a:1:{i:0;s:25:"Use in Layered Navigation";}i:2;i:1462;}i:64;a:3:{i:0;s:18:"doublequoteclosing";i:1;a:0:{}i:2;i:1487;}i:65;a:3:{i:0;s:5:"cdata";i:1;a:1:{i:0;s:7:" = No, ";}i:2;i:1488;}i:66;a:3:{i:0;s:18:"doublequoteopening";i:1;a:0:{}i:2;i:1495;}i:67;a:3:{i:0;s:5:"cdata";i:1;a:1:{i:0;s:35:"Used for Sorting in Product Listing";}i:2;i:1496;}i:68;a:3:{i:0;s:18:"doublequoteclosing";i:1;a:0:{}i:2;i:1531;}i:69;a:3:{i:0;s:5:"cdata";i:1;a:1:{i:0;s:5:" = No";}i:2;i:1532;}i:70;a:3:{i:0;s:17:"listcontent_close";i:1;a:0:{}i:2;i:1537;}i:71;a:3:{i:0;s:14:"listitem_close";i:1;a:0:{}i:2;i:1537;}i:72;a:3:{i:0;s:13:"listitem_open";i:1;a:1:{i:0;i:1;}i:2;i:1537;}i:73;a:3:{i:0;s:16:"listcontent_open";i:1;a:0:{}i:2;i:1537;}i:74;a:3:{i:0;s:5:"cdata";i:1;a:1:{i:0;s:5:" Use ";}i:2;i:1541;}i:75;a:3:{i:0;s:18:"doublequoteopening";i:1;a:0:{}i:2;i:1546;}i:76;a:3:{i:0;s:5:"cdata";i:1;a:1:{i:0;s:8:"Dropdown";}i:2;i:1547;}i:77;a:3:{i:0;s:18:"doublequoteclosing";i:1;a:0:{}i:2;i:1555;}i:78;a:3:{i:0;s:5:"cdata";i:1;a:1:{i:0;s:23:" input type instead of ";}i:2;i:1556;}i:79;a:3:{i:0;s:18:"doublequoteopening";i:1;a:0:{}i:2;i:1579;}i:80;a:3:{i:0;s:5:"cdata";i:1;a:1:{i:0;s:15:"Multiple Select";}i:2;i:1580;}i:81;a:3:{i:0;s:18:"doublequoteclosing";i:1;a:0:{}i:2;i:1595;}i:82;a:3:{i:0;s:5:"cdata";i:1;a:1:{i:0;s:25:" (int instead of varchar)";}i:2;i:1596;}i:83;a:3:{i:0;s:17:"listcontent_close";i:1;a:0:{}i:2;i:1621;}i:84;a:3:{i:0;s:14:"listitem_close";i:1;a:0:{}i:2;i:1621;}i:85;a:3:{i:0;s:11:"listu_close";i:1;a:0:{}i:2;i:1621;}i:86;a:3:{i:0;s:6:"p_open";i:1;a:0:{}i:2;i:1621;}i:87;a:3:{i:0;s:11:"strong_open";i:1;a:0:{}i:2;i:1624;}i:88;a:3:{i:0;s:5:"cdata";i:1;a:1:{i:0;s:4:"Note";}i:2;i:1626;}i:89;a:3:{i:0;s:12:"strong_close";i:1;a:0:{}i:2;i:1630;}i:90;a:3:{i:0;s:5:"cdata";i:1;a:1:{i:0;s:2:": ";}i:2;i:1632;}i:91;a:3:{i:0;s:13:"emphasis_open";i:1;a:0:{}i:2;i:1634;}i:92;a:3:{i:0;s:5:"cdata";i:1;a:1:{i:0;s:132:"It is suggested to NOT use product_flat_data when the row size is nearing its limit, as its performance benefits are negated anyway.";}i:2;i:1636;}i:93;a:3:{i:0;s:14:"emphasis_close";i:1;a:0:{}i:2;i:1768;}i:94;a:3:{i:0;s:7:"p_close";i:1;a:0:{}i:2;i:1770;}i:95;a:3:{i:0;s:12:"document_end";i:1;a:0:{}i:2;i:1770;}}