a:55:{i:0;a:3:{i:0;s:14:"document_start";i:1;a:0:{}i:2;i:0;}i:1;a:3:{i:0;s:6:"header";i:1;a:3:{i:0;s:39:"SolusVM System Backup Restore/Migration";i:1;i:1;i:2;i:1;}i:2;i:1;}i:2;a:3:{i:0;s:12:"section_open";i:1;a:1:{i:0;i:1;}i:2;i:1;}i:3;a:3:{i:0;s:6:"p_open";i:1;a:0:{}i:2;i:1;}i:4;a:3:{i:0;s:5:"cdata";i:1;a:1:{i:0;s:80:"- Install the solusVM master with same configuration on the server. Here is the ";}i:2;i:56;}i:5;a:3:{i:0;s:12:"internallink";i:1;a:2:{i:0;s:4:"link";i:1;N;}i:2;i:136;}i:6;a:3:{i:0;s:12:"externallink";i:1;a:2:{i:0;s:72:"https://documentation.solusvm.com/display/DOCS/Moving+the+SolusVM+Master";i:1;N;}i:2;i:144;}i:7;a:3:{i:0;s:7:"p_close";i:1;a:0:{}i:2;i:216;}i:8;a:3:{i:0;s:6:"p_open";i:1;a:0:{}i:2;i:216;}i:9;a:3:{i:0;s:5:"cdata";i:1;a:1:{i:0;s:70:"- Transfer the system backup on newly installed system and extract it.";}i:2;i:218;}i:10;a:3:{i:0;s:7:"p_close";i:1;a:0:{}i:2;i:288;}i:11;a:3:{i:0;s:12:"preformatted";i:1;a:1:{i:0;s:42:"   tar -zxvf <file name of solusVM backup>";}i:2;i:288;}i:12;a:3:{i:0;s:6:"p_open";i:1;a:0:{}i:2;i:288;}i:13;a:3:{i:0;s:5:"cdata";i:1;a:1:{i:0;s:33:"- There will be a file with name ";}i:2;i:335;}i:14;a:3:{i:0;s:18:"doublequoteopening";i:1;a:0:{}i:2;i:368;}i:15;a:3:{i:0;s:5:"cdata";i:1;a:1:{i:0;s:11:"database.gz";}i:2;i:369;}i:16;a:3:{i:0;s:18:"doublequoteclosing";i:1;a:0:{}i:2;i:380;}i:17;a:3:{i:0;s:5:"cdata";i:1;a:1:{i:0;s:37:", extract it using following command.";}i:2;i:381;}i:18;a:3:{i:0;s:7:"p_close";i:1;a:0:{}i:2;i:418;}i:19;a:3:{i:0;s:12:"preformatted";i:1;a:1:{i:0;s:25:"   gunzip database.gz
   ";}i:2;i:418;}i:20;a:3:{i:0;s:6:"p_open";i:1;a:0:{}i:2;i:418;}i:21;a:3:{i:0;s:5:"cdata";i:1;a:1:{i:0;s:49:"- After extracting you will get a file with name ";}i:2;i:449;}i:22;a:3:{i:0;s:18:"doublequoteopening";i:1;a:0:{}i:2;i:498;}i:23;a:3:{i:0;s:5:"cdata";i:1;a:1:{i:0;s:8:"database";}i:2;i:499;}i:24;a:3:{i:0;s:18:"doublequoteclosing";i:1;a:0:{}i:2;i:507;}i:25;a:3:{i:0;s:5:"cdata";i:1;a:1:{i:0;s:15:", rename it as ";}i:2;i:508;}i:26;a:3:{i:0;s:18:"doublequoteopening";i:1;a:0:{}i:2;i:523;}i:27;a:3:{i:0;s:5:"cdata";i:1;a:1:{i:0;s:12:"database.sql";}i:2;i:524;}i:28;a:3:{i:0;s:18:"doublequoteclosing";i:1;a:0:{}i:2;i:536;}i:29;a:3:{i:0;s:7:"p_close";i:1;a:0:{}i:2;i:537;}i:30;a:3:{i:0;s:12:"preformatted";i:1;a:1:{i:0;s:27:"   mv database database.sql";}i:2;i:537;}i:31;a:3:{i:0;s:6:"p_open";i:1;a:0:{}i:2;i:537;}i:32;a:3:{i:0;s:5:"cdata";i:1;a:1:{i:0;s:44:"- Copy the database.sql to /var/lib/mysql/ .";}i:2;i:569;}i:33;a:3:{i:0;s:7:"p_close";i:1;a:0:{}i:2;i:613;}i:34;a:3:{i:0;s:12:"preformatted";i:1;a:1:{i:0;s:34:"   cp database.sql /var/lib/mysql/";}i:2;i:613;}i:35;a:3:{i:0;s:6:"p_open";i:1;a:0:{}i:2;i:613;}i:36;a:3:{i:0;s:5:"cdata";i:1;a:1:{i:0;s:109:"- Restore the database.sql to the freshly installed solusvm's database ( solusvm database name would be like ";}i:2;i:652;}i:37;a:3:{i:0;s:18:"doublequoteopening";i:1;a:0:{}i:2;i:761;}i:38;a:3:{i:0;s:5:"cdata";i:1;a:1:{i:0;s:14:"ufg6u5u9jhruvd";}i:2;i:762;}i:39;a:3:{i:0;s:18:"doublequoteclosing";i:1;a:0:{}i:2;i:776;}i:40;a:3:{i:0;s:5:"cdata";i:1;a:1:{i:0;s:25:")using following command.";}i:2;i:777;}i:41;a:3:{i:0;s:7:"p_close";i:1;a:0:{}i:2;i:802;}i:42;a:3:{i:0;s:12:"preformatted";i:1;a:1:{i:0;s:68:"   mysql -u root -p <solusvm database name> < database.sql
    
    ";}i:2;i:802;}i:43;a:3:{i:0;s:6:"p_open";i:1;a:0:{}i:2;i:802;}i:44;a:3:{i:0;s:5:"cdata";i:1;a:1:{i:0;s:64:"Note: If mysql root password is set, you can reset it from here ";}i:2;i:878;}i:45;a:3:{i:0;s:12:"internallink";i:1;a:2:{i:0;s:25:"mysql:reset_root_password";i:1;s:25:"Reset Mysql Root Password";}i:2;i:942;}i:46;a:3:{i:0;s:7:"p_close";i:1;a:0:{}i:2;i:997;}i:47;a:3:{i:0;s:6:"p_open";i:1;a:0:{}i:2;i:997;}i:48;a:3:{i:0;s:5:"cdata";i:1;a:1:{i:0;s:51:"After restoring database all settings will be back.";}i:2;i:1000;}i:49;a:3:{i:0;s:7:"p_close";i:1;a:0:{}i:2;i:1051;}i:50;a:3:{i:0;s:6:"p_open";i:1;a:0:{}i:2;i:1051;}i:51;a:3:{i:0;s:5:"cdata";i:1;a:1:{i:0;s:44:"-  Now update the licence of solusVM master.";}i:2;i:1053;}i:52;a:3:{i:0;s:7:"p_close";i:1;a:0:{}i:2;i:1097;}i:53;a:3:{i:0;s:13:"section_close";i:1;a:0:{}i:2;i:1099;}i:54;a:3:{i:0;s:12:"document_end";i:1;a:0:{}i:2;i:1099;}}