a:95:{i:0;a:3:{i:0;s:14:"document_start";i:1;a:0:{}i:2;i:0;}i:1;a:3:{i:0;s:6:"p_open";i:1;a:0:{}i:2;i:0;}i:2;a:3:{i:0;s:5:"cdata";i:1;a:1:{i:0;s:17:"Open PolicyD Web ";}i:2;i:1;}i:3;a:3:{i:0;s:7:"acronym";i:1;a:1:{i:0;s:3:"GUI";}i:2;i:18;}i:4;a:3:{i:0;s:5:"cdata";i:1;a:1:{i:0;s:2:".
";}i:2;i:21;}i:5;a:3:{i:0;s:7:"acronym";i:1;a:1:{i:0;s:3:"URL";}i:2;i:23;}i:6;a:3:{i:0;s:5:"cdata";i:1;a:1:{i:0;s:2:": ";}i:2;i:26;}i:7;a:3:{i:0;s:12:"externallink";i:1;a:2:{i:0;s:41:"http://43.252.89.206:7780/webui/index.php";i:1;N;}i:2;i:28;}i:8;a:3:{i:0;s:5:"cdata";i:1;a:1:{i:0;s:22:"
Navigate to Policies ";}i:2;i:69;}i:9;a:3:{i:0;s:6:"entity";i:1;a:1:{i:0;s:2:"--";}i:2;i:91;}i:10;a:3:{i:0;s:5:"cdata";i:1;a:1:{i:0;s:8:"> group ";}i:2;i:93;}i:11;a:3:{i:0;s:6:"entity";i:1;a:1:{i:0;s:2:"--";}i:2;i:101;}i:12;a:3:{i:0;s:5:"cdata";i:1;a:1:{i:0;s:16:"> select action ";}i:2;i:103;}i:13;a:3:{i:0;s:6:"entity";i:1;a:1:{i:0;s:2:"--";}i:2;i:119;}i:14;a:3:{i:0;s:5:"cdata";i:1;a:1:{i:0;s:6:"> add
";}i:2;i:121;}i:15;a:3:{i:0;s:6:"plugin";i:1;a:4:{i:0;s:9:"code_code";i:1;a:4:{i:0;s:4:"code";i:1;N;i:2;s:0:"";i:3;s:38:"
Name:        Disabled:
domainwise	no
";}i:2;i:3;i:3;s:39:">
Name:        Disabled:
domainwise	no
";}i:2;i:132;}i:16;a:3:{i:0;s:5:"cdata";i:1;a:1:{i:0;s:23:"
#Name can be anything.";}i:2;i:178;}i:17;a:3:{i:0;s:9:"linebreak";i:1;a:0:{}i:2;i:201;}i:18;a:3:{i:0;s:5:"cdata";i:1;a:1:{i:0;s:24:"
#Disabled should be no.";}i:2;i:203;}i:19;a:3:{i:0;s:9:"linebreak";i:1;a:0:{}i:2;i:227;}i:20;a:3:{i:0;s:7:"p_close";i:1;a:0:{}i:2;i:229;}i:21;a:3:{i:0;s:6:"p_open";i:1;a:0:{}i:2;i:229;}i:22;a:3:{i:0;s:5:"cdata";i:1;a:1:{i:0;s:23:"Back to policies group.";}i:2;i:231;}i:23;a:3:{i:0;s:9:"linebreak";i:1;a:0:{}i:2;i:254;}i:24;a:3:{i:0;s:5:"cdata";i:1;a:1:{i:0;s:61:"
Select policy group you have created by using above members ";}i:2;i:256;}i:25;a:3:{i:0;s:6:"entity";i:1;a:1:{i:0;s:2:"--";}i:2;i:317;}i:26;a:3:{i:0;s:5:"cdata";i:1;a:1:{i:0;s:16:"> select action ";}i:2;i:319;}i:27;a:3:{i:0;s:6:"entity";i:1;a:1:{i:0;s:2:"--";}i:2;i:335;}i:28;a:3:{i:0;s:5:"cdata";i:1;a:1:{i:0;s:10:"> members ";}i:2;i:337;}i:29;a:3:{i:0;s:6:"entity";i:1;a:1:{i:0;s:2:"--";}i:2;i:347;}i:30;a:3:{i:0;s:5:"cdata";i:1;a:1:{i:0;s:5:"> add";}i:2;i:349;}i:31;a:3:{i:0;s:9:"linebreak";i:1;a:0:{}i:2;i:354;}i:32;a:3:{i:0;s:5:"cdata";i:1;a:1:{i:0;s:1:"
";}i:2;i:356;}i:33;a:3:{i:0;s:6:"plugin";i:1;a:4:{i:0;s:9:"code_code";i:1;a:4:{i:0;s:4:"code";i:1;N;i:2;s:0:"";i:3;s:64:"
Member	                 Disabled
@mohit1.mantravault.com	   no
";}i:2;i:3;i:3;s:65:">
Member	                 Disabled
@mohit1.mantravault.com	   no
";}i:2;i:362;}i:34;a:3:{i:0;s:5:"cdata";i:1;a:1:{i:0;s:36:"
#Member name should be @domainname.";}i:2;i:434;}i:35;a:3:{i:0;s:9:"linebreak";i:1;a:0:{}i:2;i:470;}i:36;a:3:{i:0;s:5:"cdata";i:1;a:1:{i:0;s:24:"
#Disabled should be no.";}i:2;i:472;}i:37;a:3:{i:0;s:9:"linebreak";i:1;a:0:{}i:2;i:496;}i:38;a:3:{i:0;s:7:"p_close";i:1;a:0:{}i:2;i:498;}i:39;a:3:{i:0;s:6:"p_open";i:1;a:0:{}i:2;i:498;}i:40;a:3:{i:0;s:5:"cdata";i:1;a:1:{i:0;s:21:"Navigate to policies ";}i:2;i:500;}i:41;a:3:{i:0;s:6:"entity";i:1;a:1:{i:0;s:2:"--";}i:2;i:521;}i:42;a:3:{i:0;s:5:"cdata";i:1;a:1:{i:0;s:6:"> Main";}i:2;i:523;}i:43;a:3:{i:0;s:9:"linebreak";i:1;a:0:{}i:2;i:529;}i:44;a:3:{i:0;s:5:"cdata";i:1;a:1:{i:0;s:1:"
";}i:2;i:531;}i:45;a:3:{i:0;s:6:"plugin";i:1;a:4:{i:0;s:9:"code_code";i:1;a:4:{i:0;s:4:"code";i:1;N;i:2;s:0:"";i:3;s:68:"
Name	Priority	Description	Disabled
domainwise	0	domainwiselimit	no
";}i:2;i:3;i:3;s:69:">
Name	Priority	Description	Disabled
domainwise	0	domainwiselimit	no
";}i:2;i:537;}i:46;a:3:{i:0;s:5:"cdata";i:1;a:1:{i:0;s:23:"
#Name can be anything.";}i:2;i:613;}i:47;a:3:{i:0;s:9:"linebreak";i:1;a:0:{}i:2;i:636;}i:48;a:3:{i:0;s:5:"cdata";i:1;a:1:{i:0;s:43:"
#Priority: 0 is highest and 100 is lowest.";}i:2;i:638;}i:49;a:3:{i:0;s:9:"linebreak";i:1;a:0:{}i:2;i:681;}i:50;a:3:{i:0;s:5:"cdata";i:1;a:1:{i:0;s:36:"
#Description should not be blanked.";}i:2;i:683;}i:51;a:3:{i:0;s:9:"linebreak";i:1;a:0:{}i:2;i:719;}i:52;a:3:{i:0;s:5:"cdata";i:1;a:1:{i:0;s:24:"
#Disabled should be no.";}i:2;i:721;}i:53;a:3:{i:0;s:9:"linebreak";i:1;a:0:{}i:2;i:745;}i:54;a:3:{i:0;s:7:"p_close";i:1;a:0:{}i:2;i:747;}i:55;a:3:{i:0;s:6:"p_open";i:1;a:0:{}i:2;i:747;}i:56;a:3:{i:0;s:5:"cdata";i:1;a:1:{i:0;s:17:"Back to policies ";}i:2;i:749;}i:57;a:3:{i:0;s:6:"entity";i:1;a:1:{i:0;s:2:"--";}i:2;i:766;}i:58;a:3:{i:0;s:5:"cdata";i:1;a:1:{i:0;s:7:"> main.";}i:2;i:768;}i:59;a:3:{i:0;s:9:"linebreak";i:1;a:0:{}i:2;i:775;}i:60;a:3:{i:0;s:5:"cdata";i:1;a:1:{i:0;s:52:"
select your policy you have created in above step. ";}i:2;i:777;}i:61;a:3:{i:0;s:6:"entity";i:1;a:1:{i:0;s:2:"--";}i:2;i:829;}i:62;a:3:{i:0;s:5:"cdata";i:1;a:1:{i:0;s:16:"> select action ";}i:2;i:831;}i:63;a:3:{i:0;s:6:"entity";i:1;a:1:{i:0;s:2:"--";}i:2;i:847;}i:64;a:3:{i:0;s:5:"cdata";i:1;a:1:{i:0;s:9:"> Members";}i:2;i:849;}i:65;a:3:{i:0;s:9:"linebreak";i:1;a:0:{}i:2;i:858;}i:66;a:3:{i:0;s:5:"cdata";i:1;a:1:{i:0;s:1:"
";}i:2;i:860;}i:67;a:3:{i:0;s:6:"plugin";i:1;a:4:{i:0;s:9:"code_code";i:1;a:4:{i:0;s:4:"code";i:1;N;i:2;s:0:"";i:3;s:64:"
Source	     Destination	Disabled
%domainwise	any	           no
";}i:2;i:3;i:3;s:65:">
Source	     Destination	Disabled
%domainwise	any	           no
";}i:2;i:866;}i:68;a:3:{i:0;s:7:"p_close";i:1;a:0:{}i:2;i:938;}i:69;a:3:{i:0;s:6:"p_open";i:1;a:0:{}i:2;i:938;}i:70;a:3:{i:0;s:5:"cdata";i:1;a:1:{i:0;s:19:"Navigate to Quotas ";}i:2;i:940;}i:71;a:3:{i:0;s:6:"entity";i:1;a:1:{i:0;s:2:"--";}i:2;i:959;}i:72;a:3:{i:0;s:5:"cdata";i:1;a:1:{i:0;s:12:"> Configure ";}i:2;i:961;}i:73;a:3:{i:0;s:6:"entity";i:1;a:1:{i:0;s:2:"--";}i:2;i:973;}i:74;a:3:{i:0;s:5:"cdata";i:1;a:1:{i:0;s:16:"> Select action ";}i:2;i:975;}i:75;a:3:{i:0;s:6:"entity";i:1;a:1:{i:0;s:2:"--";}i:2;i:991;}i:76;a:3:{i:0;s:5:"cdata";i:1;a:1:{i:0;s:5:"> Add";}i:2;i:993;}i:77;a:3:{i:0;s:9:"linebreak";i:1;a:0:{}i:2;i:998;}i:78;a:3:{i:0;s:5:"cdata";i:1;a:1:{i:0;s:1:"
";}i:2;i:1000;}i:79;a:3:{i:0;s:6:"plugin";i:1;a:4:{i:0;s:9:"code_code";i:1;a:4:{i:0;s:4:"code";i:1;N;i:2;s:0:"";i:3;s:119:"
Policy	            Name	    Track	Period	Verdict	Data	Disabled	
domainwise	domainwise	Sender:@domain	3600	REJECT	0	no
";}i:2;i:3;i:3;s:120:">
Policy	            Name	    Track	Period	Verdict	Data	Disabled	
domainwise	domainwise	Sender:@domain	3600	REJECT	0	no
";}i:2;i:1006;}i:80;a:3:{i:0;s:7:"p_close";i:1;a:0:{}i:2;i:1133;}i:81;a:3:{i:0;s:6:"p_open";i:1;a:0:{}i:2;i:1133;}i:82;a:3:{i:0;s:5:"cdata";i:1;a:1:{i:0;s:45:"Select quota you have added using above step ";}i:2;i:1135;}i:83;a:3:{i:0;s:6:"entity";i:1;a:1:{i:0;s:2:"--";}i:2;i:1180;}i:84;a:3:{i:0;s:5:"cdata";i:1;a:1:{i:0;s:16:"> select action ";}i:2;i:1182;}i:85;a:3:{i:0;s:6:"entity";i:1;a:1:{i:0;s:2:"--";}i:2;i:1198;}i:86;a:3:{i:0;s:5:"cdata";i:1;a:1:{i:0;s:8:"> limits";}i:2;i:1200;}i:87;a:3:{i:0;s:9:"linebreak";i:1;a:0:{}i:2;i:1208;}i:88;a:3:{i:0;s:5:"cdata";i:1;a:1:{i:0;s:1:"
";}i:2;i:1210;}i:89;a:3:{i:0;s:6:"plugin";i:1;a:4:{i:0;s:9:"code_code";i:1;a:4:{i:0;s:4:"code";i:1;N;i:2;s:0:"";i:3;s:47:"
Type	Counter Limit	Disabled
MessageCount	5	no
";}i:2;i:3;i:3;s:48:">
Type	Counter Limit	Disabled
MessageCount	5	no
";}i:2;i:1216;}i:90;a:3:{i:0;s:7:"p_close";i:1;a:0:{}i:2;i:1271;}i:91;a:3:{i:0;s:6:"p_open";i:1;a:0:{}i:2;i:1271;}i:92;a:3:{i:0;s:6:"plugin";i:1;a:4:{i:0;s:9:"code_code";i:1;a:4:{i:0;s:4:"code";i:1;N;i:2;s:0:"";i:3;s:34:"
su zimbra
zmcbpolicydctl restart
";}i:2;i:3;i:3;s:35:">
su zimbra
zmcbpolicydctl restart
";}i:2;i:1278;}i:93;a:3:{i:0;s:7:"p_close";i:1;a:0:{}i:2;i:1320;}i:94;a:3:{i:0;s:12:"document_end";i:1;a:0:{}i:2;i:1320;}}