a:77:{i:0;a:3:{i:0;s:14:"document_start";i:1;a:0:{}i:2;i:0;}i:1;a:3:{i:0;s:6:"header";i:1;a:3:{i:0;s:46:"Email archiving for Zimbra Open source edition";i:1;i:1;i:2;i:1;}i:2;i:1;}i:2;a:3:{i:0;s:12:"section_open";i:1;a:1:{i:0;i:1;}i:2;i:1;}i:3;a:3:{i:0;s:6:"p_open";i:1;a:0:{}i:2;i:1;}i:4;a:3:{i:0;s:5:"cdata";i:1;a:1:{i:0;s:20:"Login as Zimbra user";}i:2;i:63;}i:5;a:3:{i:0;s:7:"p_close";i:1;a:0:{}i:2;i:83;}i:6;a:3:{i:0;s:6:"p_open";i:1;a:0:{}i:2;i:83;}i:7;a:3:{i:0;s:6:"plugin";i:1;a:4:{i:0;s:9:"code_code";i:1;a:4:{i:0;s:4:"code";i:1;N;i:2;s:0:"";i:3;s:13:"
su - zimbra
";}i:2;i:3;i:3;s:14:">
su - zimbra
";}i:2;i:90;}i:8;a:3:{i:0;s:7:"p_close";i:1;a:0:{}i:2;i:111;}i:9;a:3:{i:0;s:6:"p_open";i:1;a:0:{}i:2;i:111;}i:10;a:3:{i:0;s:5:"cdata";i:1;a:1:{i:0;s:25:"1. Edit Postfix conf file";}i:2;i:113;}i:11;a:3:{i:0;s:7:"p_close";i:1;a:0:{}i:2;i:138;}i:12;a:3:{i:0;s:6:"p_open";i:1;a:0:{}i:2;i:138;}i:13;a:3:{i:0;s:6:"plugin";i:1;a:4:{i:0;s:9:"code_code";i:1;a:4:{i:0;s:4:"code";i:1;N;i:2;s:0:"";i:3;s:39:"
  vi /opt/zimbra/postfix/conf/main.cf
";}i:2;i:3;i:3;s:40:">
  vi /opt/zimbra/postfix/conf/main.cf
";}i:2;i:145;}i:14;a:3:{i:0;s:7:"p_close";i:1;a:0:{}i:2;i:192;}i:15;a:3:{i:0;s:6:"p_open";i:1;a:0:{}i:2;i:192;}i:16;a:3:{i:0;s:5:"cdata";i:1;a:1:{i:0;s:85:"2. Add following line to get a bcc copy to your email id when some one send a mail :-";}i:2;i:194;}i:17;a:3:{i:0;s:7:"p_close";i:1;a:0:{}i:2;i:279;}i:18;a:3:{i:0;s:6:"p_open";i:1;a:0:{}i:2;i:279;}i:19;a:3:{i:0;s:6:"plugin";i:1;a:4:{i:0;s:9:"code_code";i:1;a:4:{i:0;s:4:"code";i:1;N;i:2;s:0:"";i:3;s:60:"
sender_bcc_maps = hash:/opt/zimbra/postfix/conf/sender_bcc
";}i:2;i:3;i:3;s:61:">
sender_bcc_maps = hash:/opt/zimbra/postfix/conf/sender_bcc
";}i:2;i:286;}i:20;a:3:{i:0;s:7:"p_close";i:1;a:0:{}i:2;i:354;}i:21;a:3:{i:0;s:6:"p_open";i:1;a:0:{}i:2;i:354;}i:22;a:3:{i:0;s:11:"strong_open";i:1;a:0:{}i:2;i:356;}i:23;a:3:{i:0;s:5:"cdata";i:1;a:1:{i:0;s:46:"NOTE: For Zimbra 8.5 and above add below line.";}i:2;i:358;}i:24;a:3:{i:0;s:12:"strong_close";i:1;a:0:{}i:2;i:404;}i:25;a:3:{i:0;s:5:"cdata";i:1;a:1:{i:0;s:1:"
";}i:2;i:406;}i:26;a:3:{i:0;s:6:"plugin";i:1;a:4:{i:0;s:9:"code_code";i:1;a:4:{i:0;s:4:"code";i:1;N;i:2;s:0:"";i:3;s:59:"sender_bcc_maps = lmdb:/opt/zimbra/postfix/conf/sender_bcc
";}i:2;i:3;i:3;s:60:">sender_bcc_maps = lmdb:/opt/zimbra/postfix/conf/sender_bcc
";}i:2;i:412;}i:27;a:3:{i:0;s:7:"p_close";i:1;a:0:{}i:2;i:479;}i:28;a:3:{i:0;s:6:"p_open";i:1;a:0:{}i:2;i:479;}i:29;a:3:{i:0;s:5:"cdata";i:1;a:1:{i:0;s:88:"3. Add following line to get a bcc copy to your email id when some one receive a mail :-";}i:2;i:481;}i:30;a:3:{i:0;s:7:"p_close";i:1;a:0:{}i:2;i:569;}i:31;a:3:{i:0;s:6:"p_open";i:1;a:0:{}i:2;i:569;}i:32;a:3:{i:0;s:6:"plugin";i:1;a:4:{i:0;s:9:"code_code";i:1;a:4:{i:0;s:4:"code";i:1;N;i:2;s:0:"";i:3;s:68:"
  recipient_bcc_maps = hash:/opt/zimbra/postfix/conf/recipient_bcc
";}i:2;i:3;i:3;s:69:">
  recipient_bcc_maps = hash:/opt/zimbra/postfix/conf/recipient_bcc
";}i:2;i:576;}i:33;a:3:{i:0;s:7:"p_close";i:1;a:0:{}i:2;i:652;}i:34;a:3:{i:0;s:6:"p_open";i:1;a:0:{}i:2;i:652;}i:35;a:3:{i:0;s:11:"strong_open";i:1;a:0:{}i:2;i:654;}i:36;a:3:{i:0;s:5:"cdata";i:1;a:1:{i:0;s:46:"NOTE: For Zimbra 8.5 and above add below line.";}i:2;i:656;}i:37;a:3:{i:0;s:12:"strong_close";i:1;a:0:{}i:2;i:702;}i:38;a:3:{i:0;s:5:"cdata";i:1;a:1:{i:0;s:1:"
";}i:2;i:704;}i:39;a:3:{i:0;s:6:"plugin";i:1;a:4:{i:0;s:9:"code_code";i:1;a:4:{i:0;s:4:"code";i:1;N;i:2;s:0:"";i:3;s:67:"
 recipient_bcc_maps = lmdb:/opt/zimbra/postfix/conf/recipient_bcc
";}i:2;i:3;i:3;s:68:">
 recipient_bcc_maps = lmdb:/opt/zimbra/postfix/conf/recipient_bcc
";}i:2;i:710;}i:40;a:3:{i:0;s:7:"p_close";i:1;a:0:{}i:2;i:785;}i:41;a:3:{i:0;s:6:"p_open";i:1;a:0:{}i:2;i:785;}i:42;a:3:{i:0;s:5:"cdata";i:1;a:1:{i:0;s:51:"4. Now create these two files under etc/ directory.";}i:2;i:787;}i:43;a:3:{i:0;s:7:"p_close";i:1;a:0:{}i:2;i:838;}i:44;a:3:{i:0;s:6:"p_open";i:1;a:0:{}i:2;i:838;}i:45;a:3:{i:0;s:6:"plugin";i:1;a:4:{i:0;s:9:"code_code";i:1;a:4:{i:0;s:4:"code";i:1;N;i:2;s:0:"";i:3;s:45:"
  touch /opt/zimbra/postfix/conf/sender_bcc
";}i:2;i:3;i:3;s:46:">
  touch /opt/zimbra/postfix/conf/sender_bcc
";}i:2;i:845;}i:46;a:3:{i:0;s:7:"p_close";i:1;a:0:{}i:2;i:898;}i:47;a:3:{i:0;s:6:"p_open";i:1;a:0:{}i:2;i:898;}i:48;a:3:{i:0;s:6:"plugin";i:1;a:4:{i:0;s:9:"code_code";i:1;a:4:{i:0;s:4:"code";i:1;N;i:2;s:0:"";i:3;s:48:"
  touch /opt/zimbra/postfix/conf/recipient_bcc
";}i:2;i:3;i:3;s:49:">
  touch /opt/zimbra/postfix/conf/recipient_bcc
";}i:2;i:905;}i:49;a:3:{i:0;s:7:"p_close";i:1;a:0:{}i:2;i:961;}i:50;a:3:{i:0;s:6:"p_open";i:1;a:0:{}i:2;i:961;}i:51;a:3:{i:0;s:5:"cdata";i:1;a:1:{i:0;s:46:"5. Edit these files and add entry like this :-";}i:2;i:963;}i:52;a:3:{i:0;s:7:"p_close";i:1;a:0:{}i:2;i:1009;}i:53;a:3:{i:0;s:6:"p_open";i:1;a:0:{}i:2;i:1009;}i:54;a:3:{i:0;s:6:"plugin";i:1;a:4:{i:0;s:9:"code_code";i:1;a:4:{i:0;s:4:"code";i:1;N;i:2;s:0:"";i:3;s:51:"
  support@linuxsurgeon.org admin@linuxsurgeon.org
";}i:2;i:3;i:3;s:52:">
  support@linuxsurgeon.org admin@linuxsurgeon.org
";}i:2;i:1016;}i:55;a:3:{i:0;s:7:"p_close";i:1;a:0:{}i:2;i:1075;}i:56;a:3:{i:0;s:6:"p_open";i:1;a:0:{}i:2;i:1075;}i:57;a:3:{i:0;s:5:"cdata";i:1;a:1:{i:0;s:88:"After this you will get in/out mail’s copy of support email account to admin email id.";}i:2;i:1077;}i:58;a:3:{i:0;s:7:"p_close";i:1;a:0:{}i:2;i:1165;}i:59;a:3:{i:0;s:6:"p_open";i:1;a:0:{}i:2;i:1165;}i:60;a:3:{i:0;s:5:"cdata";i:1;a:1:{i:0;s:32:"6. Now run following commands :-";}i:2;i:1167;}i:61;a:3:{i:0;s:7:"p_close";i:1;a:0:{}i:2;i:1199;}i:62;a:3:{i:0;s:6:"p_open";i:1;a:0:{}i:2;i:1199;}i:63;a:3:{i:0;s:6:"plugin";i:1;a:4:{i:0;s:9:"code_code";i:1;a:4:{i:0;s:4:"code";i:1;N;i:2;s:0:"";i:3;s:48:"
   postmap /opt/zimbra/postfix/conf/sender_bcc
";}i:2;i:3;i:3;s:49:">
   postmap /opt/zimbra/postfix/conf/sender_bcc
";}i:2;i:1206;}i:64;a:3:{i:0;s:7:"p_close";i:1;a:0:{}i:2;i:1262;}i:65;a:3:{i:0;s:6:"p_open";i:1;a:0:{}i:2;i:1262;}i:66;a:3:{i:0;s:6:"plugin";i:1;a:4:{i:0;s:9:"code_code";i:1;a:4:{i:0;s:4:"code";i:1;N;i:2;s:0:"";i:3;s:51:"
   postmap /opt/zimbra/postfix/conf/recipient_bcc
";}i:2;i:3;i:3;s:52:">
   postmap /opt/zimbra/postfix/conf/recipient_bcc
";}i:2;i:1269;}i:67;a:3:{i:0;s:7:"p_close";i:1;a:0:{}i:2;i:1328;}i:68;a:3:{i:0;s:6:"p_open";i:1;a:0:{}i:2;i:1328;}i:69;a:3:{i:0;s:6:"plugin";i:1;a:4:{i:0;s:9:"code_code";i:1;a:4:{i:0;s:4:"code";i:1;N;i:2;s:0:"";i:3;s:19:"
   postfix reload
";}i:2;i:3;i:3;s:20:">
   postfix reload
";}i:2;i:1335;}i:70;a:3:{i:0;s:7:"p_close";i:1;a:0:{}i:2;i:1362;}i:71;a:3:{i:0;s:6:"p_open";i:1;a:0:{}i:2;i:1362;}i:72;a:3:{i:0;s:5:"cdata";i:1;a:1:{i:0;s:12:"Reference:- ";}i:2;i:1364;}i:73;a:3:{i:0;s:12:"externallink";i:1;a:2:{i:0;s:87:"http://www.zimbra.com/forums/administrators/52985-monitor-incoming-outgoing-emails.html";i:1;s:87:"http://www.zimbra.com/forums/administrators/52985-monitor-incoming-outgoing-emails.html";}i:2;i:1376;}i:74;a:3:{i:0;s:7:"p_close";i:1;a:0:{}i:2;i:1555;}i:75;a:3:{i:0;s:13:"section_close";i:1;a:0:{}i:2;i:1556;}i:76;a:3:{i:0;s:12:"document_end";i:1;a:0:{}i:2;i:1556;}}